<?xml version="1.0" encoding="UTF-8" standalone="no"?>
<!-- Created with Inkscape (http://www.inkscape.org/) -->

<svg
   xmlns:dc="http://purl.org/dc/elements/1.1/"
   xmlns:cc="http://creativecommons.org/ns#"
   xmlns:rdf="http://www.w3.org/1999/02/22-rdf-syntax-ns#"
   xmlns:svg="http://www.w3.org/2000/svg"
   xmlns="http://www.w3.org/2000/svg"
   xmlns:xlink="http://www.w3.org/1999/xlink"
   xmlns:sodipodi="http://sodipodi.sourceforge.net/DTD/sodipodi-0.dtd"
   xmlns:inkscape="http://www.inkscape.org/namespaces/inkscape"
   id="svg2"
   version="1.1"
   inkscape:version="0.92.3 (2405546, 2018-03-11)"
   width="2481"
   height="3503"
   sodipodi:docname="E14P04.svg">
  <sodipodi:namedview
     pagecolor="#ffffff"
     bordercolor="#666666"
     inkscape:pageopacity="0"
     inkscape:pageshadow="2"
     inkscape:window-width="1813"
     inkscape:window-height="955"
     id="namedview70"
     showgrid="false"
     inkscape:zoom="0.4"
     inkscape:cx="1530.6989"
     inkscape:cy="2222.1727"
     inkscape:current-layer="layer3"
     inkscape:window-x="64"
     inkscape:window-y="0"
     inkscape:window-maximized="0"
     inkscape:snap-nodes="false" />
  <metadata
     id="metadata8">
    <rdf:RDF>
      <cc:Work
         rdf:about="">
        <dc:format>image/svg+xml</dc:format>
        <dc:type
           rdf:resource="http://purl.org/dc/dcmitype/StillImage" />
        <dc:title />
      </cc:Work>
    </rdf:RDF>
  </metadata>
  <defs
     id="defs6" />
  <sodipodi:namedview
     pagecolor="#ffffff"
     bordercolor="#666666"
     borderopacity="1"
     objecttolerance="10"
     gridtolerance="10"
     guidetolerance="10"
     inkscape:pageopacity="0"
     inkscape:pageshadow="2"
     inkscape:window-width="1920"
     inkscape:window-height="1025"
     id="namedview4"
     showgrid="false"
     inkscape:zoom="0.3478261"
     inkscape:cx="1818.8013"
     inkscape:cy="803.14507"
     inkscape:window-x="0"
     inkscape:window-y="26"
     inkscape:window-maximized="1"
     inkscape:current-layer="layer3"
     showguides="false" />
  <g
     inkscape:groupmode="layer"
     id="layer2"
     inkscape:label="artwork"
     sodipodi:insensitive="true">
    <image
       sodipodi:absref="/home/fici/Desktop/P&amp;C/all/sl/../gfx_Pepper-and-Carrot_by-David-Revoy_E14P04.png"
       xlink:href="../gfx_Pepper-and-Carrot_by-David-Revoy_E14P04.png"
       y="0"
       x="0"
       id="image10"
       height="3503"
       width="2481" />
  </g>
  <g
     inkscape:groupmode="layer"
     id="layer3"
     inkscape:label="speechbubbles">
    <path
       style="color:#000000;display:inline;overflow:visible;visibility:visible;fill:#ffffff;fill-opacity:1;fill-rule:nonzero;stroke:none;stroke-width:1.04408622px;marker:none;enable-background:accumulate"
       d="m 1661.7174,380.9649 c 12.7861,-18.27906 66.7062,-15.89305 85.789,-10.56978 -36.1449,-24.18933 -32.4812,-37.28161 21.9208,-35.32262 -84.0379,-44.99661 -10.9673,-33.71222 5.3168,-42.33446 -68.8939,-18.4679 -34.2206,-32.52279 -18.7311,-47.92507 -81.7053,-6.62709 -50.4166,-30.83747 -50.266,-51.95611 -8.6232,9.2756 -46.7097,36.63724 -42.968,3.30482 -59.5684,27.64853 -128.2668,43.26722 -123.8846,-12.52282 -26.6087,26.25684 -50.3759,36.42556 -42.9683,3.30482 -61.4736,39.23375 -107.3294,20.07036 -154.0493,4.22868 -15.0754,12.09963 -20.0281,32.03828 -60.7076,24.26325 3.586,13.36683 -11.9565,21.21985 -44.5038,24.15427 40.692,10.93126 47.0496,19.56568 -32.5051,22.4512 59.2533,5.24345 114.3457,11.06954 39.5567,35.482 21.7392,2.3369 77.868,-18.49896 41.2239,51.94079 41.5828,-20.33666 83.8941,-30.12547 125.8394,22.044 27.9791,-22.43426 71.3339,-31.34747 84.0828,0.21157 8.679,-12.40758 36.2857,-15.26881 59.1136,-14.17134 7.9054,5.77037 15.7704,13.39498 23.6582,23.20525 18.7588,-17.97985 44.113,-29.18201 84.0826,0.21155 z"
       id="path3549-3-7"
       inkscape:connector-curvature="0"
       sodipodi:nodetypes="cccccccccccccccccccc" />
    <path
       style="fill:#ffffff;fill-rule:evenodd;stroke:none;stroke-width:1px;stroke-linecap:butt;stroke-linejoin:miter;stroke-opacity:1"
       d="m 1508.6164,333.23881 c -15.3152,-2.75755 -29.2942,5.52359 -42.1829,12.07893 -8.2999,3.93838 -17.2007,7.60882 -22.8974,14.87533 -5.6251,5.73841 -7.5735,15.9276 -0.2658,21.24242 5.2004,2.76075 12.724,7.97375 7.839,14.25838 -2.8138,5.32331 -10.4066,7.01313 -11.6472,13.1085 -3.0261,8.49796 4.5095,16.17783 12.2891,19.25645 5.7655,2.03439 11.0919,2.80096 11.8596,9.29875 5.8761,9.76609 18.8133,11.34577 29.558,12.19411 9.2239,0.44992 18.5328,1.81986 27.6625,-0.24661 10.2363,-1.707 22.5885,-4.58685 31.0346,2.99641 14.8586,8.48643 32.8244,10.30023 49.8811,11.07215 8.5829,0.0565 17.2602,0.95629 25.7889,0.12757 18.0132,-2.8175 36.4342,-3.75591 54.5921,-1.71264 18.9401,-0.095 32.6432,-16.69364 51.6866,-16.25915 15.6838,-3.33988 33.1081,-6.59382 44.206,-18.5539 4.8379,-4.36517 4.512,-11.66902 10.6928,-14.45037 4.7395,-6.16102 -1.8469,-14.45989 -8.6486,-15.99606 -6.5873,-0.32119 5.8595,-2.213 7.1975,-5.01905 6.8047,-4.59011 11.6663,-14.65891 5.2166,-21.34731 -14.5154,-12.80871 -36.5518,-13.59931 -51.1438,-26.36988 -12.148,-5.50852 -25.0631,1.08434 -37.383,2.33379 -6.0699,-1.26427 -8.6596,-10.50793 -16.2784,-11.5648 -9.7782,-3.81615 -20.5731,-3.95541 -30.9917,-4.03777 -10.0959,6.39721 -22.905,3.94985 -33.5658,0.29467 -9.3038,-3.10334 -19.2273,-5.53554 -29.1108,-3.50688 -7.2854,0.53179 -15.5709,3.98461 -22.3974,1.19596 -9.6036,-7.44542 -22.752,-3.72347 -34.0568,-4.54728 -7.7689,-2.01053 -14.8655,2.57428 -21.7164,5.36572 -2.7392,1.11665 -11.3006,5.89786 -2.083,3.91252"
       id="path4220"
       inkscape:connector-curvature="0" />
    <path
       style="color:#000000;display:inline;overflow:visible;visibility:visible;fill:#ffffff;fill-opacity:1;fill-rule:nonzero;stroke:none;stroke-width:0.90095341px;marker:none;enable-background:accumulate"
       d="m 1303.6648,546.95291 c 19.4988,-36.5692 60.5134,-67.3206 114.3032,-79.78739 53.7898,-12.46677 153.3009,-9.14234 170.7826,-4.98668 17.4816,4.15555 113.6308,19.11564 134.4743,39.89364 20.8435,20.77799 49.0832,46.5427 55.1345,73.13842 6.0514,26.59583 0.6723,90.59201 -18.8263,104.72105 -19.4989,14.12904 -108.2521,44.88043 -160.0248,46.54259 -51.7726,1.66227 -172.1271,-11.63565 -206.4181,-20.77789 -34.291,-9.14235 -70.599,-20.77801 -81.3569,-49.86712 -10.758,-29.08923 -30.9291,-67.32072 -8.0685,-108.87662 z"
       id="path3533"
       inkscape:connector-curvature="0" />
    <path
       style="color:#000000;display:inline;overflow:visible;visibility:visible;fill:#ffffff;fill-opacity:1;fill-rule:nonzero;stroke:none;stroke-width:1px;marker:none;enable-background:accumulate"
       d="m 1678.4528,528.49189 c 30.5923,52.37324 -103.4044,94.84893 -110.4621,125.45674 -2.3684,10.27079 -5.582,32.22619 0.4801,42.42915 10.2279,17.21496 39.4486,19.14791 -24.0871,109.8658 -15.4603,19.92013 12.0481,56.95066 47.151,66.90119 28.0513,17.10155 -7.3932,123.12378 -37.4741,172.62433 43.7979,-42.6678 77.2922,-149.02168 64.215,-140.15631 4.5835,-35.53698 -13.701,-44.07469 -23.5467,-53.21369 -9.8457,-9.13907 -29.5569,-14.98259 -28.3948,-30.06869 1.1623,-15.08705 39.8018,-58.24357 44.8599,-85.55656 5.0578,-27.31218 -22.1531,-43.05915 -16.0064,-68.06815 6.1465,-25.00909 83.9624,-57.20023 102.0984,-79.91604 20.9522,-23.39323 25.1007,-60.90229 25.1007,-60.90229 z"
       id="path3153"
       inkscape:connector-curvature="0"
       sodipodi:nodetypes="cssccccscssccc" />
    <path
       style="color:#000000;display:inline;overflow:visible;visibility:visible;fill:#ffffff;fill-opacity:1;fill-rule:nonzero;stroke:none;stroke-width:1px;marker:none;enable-background:accumulate"
       d="m 1468.0466,926.34512 c 0.7421,-48.54939 15.1995,-94.46231 143.3615,-92.87344 96.0964,1.19134 121.6874,38.59757 123.8165,87.67122 1.5005,34.58313 -50.4883,66.59398 -133.0517,64.89829 -78.9147,-1.62074 -128.3552,-22.67233 -134.1263,-59.69607 z"
       id="path5026"
       inkscape:connector-curvature="0"
       sodipodi:nodetypes="csssc" />
    <path
       style="color:#000000;display:inline;overflow:visible;visibility:visible;fill:#ffffff;fill-opacity:1;fill-rule:nonzero;stroke:none;stroke-width:1px;marker:none;enable-background:accumulate"
       d="m 202.08269,1924.4114 c 10.52893,-47.2323 32.48033,-96.5528 232.91894,-86.9265 200.43863,9.6263 245.11196,52.3112 245.58912,101.3399 0.62503,64.2246 -51.73571,74.3908 -81.1353,82.1087 -29.39946,7.7179 -98.20547,15.9385 -147.67628,17.9745 -26.59939,1.0949 -187.80969,-7.5047 -217.96914,-32.2803 -30.05191,-24.6873 -34.58782,-48.2268 -31.72734,-82.2163 z"
       id="path3365"
       inkscape:connector-curvature="0"
       sodipodi:nodetypes="csssssc" />
    <path
       style="fill:#ffffff;stroke:none"
       d="m 822.15272,2218.8389 c -8.72758,85.5065 -132.14228,98.7311 -189.1148,101.2582 -56.97246,2.5271 -208.49774,13.5551 -259.83324,-57.9686 -51.33552,-71.5236 -28.78782,-104.3326 4.59766,-139.1863 28.46993,-29.7221 95.40268,-44.1015 153.99263,-51.1407 72.75112,-8.7405 193.53448,11.5765 243.97646,48.1556 26.90014,19.507 55.10893,13.3754 46.38129,98.8818 z"
       id="path3100"
       inkscape:connector-curvature="0"
       sodipodi:nodetypes="zsssssz" />
    <path
       style="fill:#ffffff;fill-rule:evenodd;stroke:none;stroke-width:1px;stroke-linecap:butt;stroke-linejoin:miter;stroke-opacity:1"
       d="m 534.12829,1990.1588 c 25.7289,58.6047 40.02273,101.4862 22.87013,151.5146 -17.15259,50.0284 1.42939,104.345 -12.86445,141.509 -14.29383,37.1639 -38.54491,47.2584 -11.43506,107.2037 19.79941,43.7805 -85.08462,39.3605 -44.31895,127.2554 -63.78914,-78.8501 40.07923,-99.8873 25.7289,-127.2151 -28.88282,-55.0024 -7.13885,-80.0858 2.86684,-105.8147 10.00568,-25.7289 -6.87995,-119.2204 10.00568,-151.5146 18.13588,-34.6853 -17.29178,-107.4567 -22.87013,-131.5032 -7.17205,-30.9164 30.01704,-11.4351 30.01704,-11.4351 z"
       id="path4313"
       inkscape:connector-curvature="0"
       sodipodi:nodetypes="cssscssssc" />
  </g>
  <g
     inkscape:groupmode="layer"
     id="layer1"
     inkscape:label="txt">
    <text
       xml:space="preserve"
       style="font-style:normal;font-variant:normal;font-weight:normal;font-stretch:normal;line-height:0%;font-family:Lavi;-inkscape-font-specification:Lavi;text-align:center;letter-spacing:0px;word-spacing:0px;text-anchor:middle;fill:#000000;fill-opacity:1;stroke:none"
       x="1519.6049"
       y="297.82883"
       id="text4246"><tspan
         sodipodi:role="line"
         style="font-size:67.89629364px;line-height:1.25"
         x="1519.6049"
         y="297.82883"
         id="tspan4252">Korenček! ...</tspan></text>
    <text
       xml:space="preserve"
       style="font-style:normal;font-variant:normal;font-weight:normal;font-stretch:normal;line-height:0%;font-family:Lavi;-inkscape-font-specification:Lavi;text-align:center;letter-spacing:0px;word-spacing:0px;text-anchor:middle;fill:#000000;fill-opacity:1;stroke:none"
       x="1625.382"
       y="408.19888"
       id="text4246-1"><tspan
         sodipodi:role="line"
         style="font-size:45px;line-height:1.25"
         x="1625.382"
         y="408.19888"
         id="tspan4252-8">Pridi nazaj ...</tspan></text>
    <text
       xml:space="preserve"
       style="font-style:normal;font-variant:normal;font-weight:normal;font-stretch:normal;line-height:0%;font-family:Lavi;-inkscape-font-specification:Lavi;text-align:center;letter-spacing:0px;word-spacing:0px;text-anchor:middle;fill:#000000;fill-opacity:1;stroke:none"
       x="1538.5493"
       y="548.59924"
       id="text4246-1-3"><tspan
         sodipodi:role="line"
         style="font-size:45px;line-height:1.25"
         x="1538.5493"
         y="548.59924"
         id="tspan3508">... močvirni zmaji</tspan><tspan
         sodipodi:role="line"
         style="font-size:45px;line-height:1.25"
         x="1538.5493"
         y="604.84924"
         id="tspan43">so znani po svojem</tspan><tspan
         sodipodi:role="line"
         style="font-size:45px;line-height:1.25"
         x="1538.5493"
         y="661.09924"
         id="tspan3510">ubogljivem značaju!</tspan></text>
    <text
       xml:space="preserve"
       style="font-style:normal;font-variant:normal;font-weight:normal;font-stretch:normal;line-height:0%;font-family:Lavi;-inkscape-font-specification:Lavi;text-align:center;letter-spacing:0px;word-spacing:0px;text-anchor:middle;fill:#000000;fill-opacity:1;stroke:none"
       x="1607.5629"
       y="896.56146"
       id="text4246-1-3-6"><tspan
         sodipodi:role="line"
         style="font-size:35.54689407px;line-height:1.25"
         x="1607.5629"
         y="896.56146"
         id="tspan3506">vsaj mislim</tspan><tspan
         sodipodi:role="line"
         style="font-size:35.54689407px;line-height:1.25"
         x="1607.5629"
         y="940.99506"
         id="tspan39">da so ...</tspan></text>
    <text
       xml:space="preserve"
       style="font-style:normal;font-variant:normal;font-weight:normal;font-stretch:normal;line-height:0%;font-family:Lavi;-inkscape-font-specification:Lavi;text-align:center;letter-spacing:0px;word-spacing:0px;text-anchor:middle;fill:#000000;fill-opacity:1;stroke:none"
       x="447.2666"
       y="1921.0948"
       id="text4246-10"><tspan
         sodipodi:role="line"
         style="font-size:45px;line-height:1.25"
         x="447.2666"
         y="1921.0948"
         id="tspan3514">Hmm... za</tspan><tspan
         sodipodi:role="line"
         style="font-size:45px;line-height:1.25"
         x="447.2666"
         y="1977.3448"
         id="tspan51">strelastega zmaja ...</tspan></text>
    <text
       xml:space="preserve"
       style="font-style:normal;font-variant:normal;font-weight:normal;font-stretch:normal;line-height:0%;font-family:Lavi;-inkscape-font-specification:Lavi;text-align:center;letter-spacing:0px;word-spacing:0px;text-anchor:middle;fill:#000000;fill-opacity:1;stroke:none"
       x="579.8111"
       y="2155.9912"
       id="text4246-10-5"><tspan
         sodipodi:role="line"
         style="font-size:45px;line-height:1.25"
         x="579.8111"
         y="2155.9912"
         id="tspan3531">... pa mislim</tspan><tspan
         sodipodi:role="line"
         style="font-size:45px;line-height:1.25"
         x="579.8111"
         y="2212.2412"
         id="tspan58">da nimava pravega</tspan><tspan
         sodipodi:role="line"
         style="font-size:45px;line-height:1.25"
         x="579.8111"
         y="2268.4912"
         id="tspan60">orodja...</tspan></text>
  </g>
</svg>
