<?xml version="1.0" encoding="UTF-8" standalone="no"?>
<svg
   xmlns:dc="http://purl.org/dc/elements/1.1/"
   xmlns:cc="http://creativecommons.org/ns#"
   xmlns:rdf="http://www.w3.org/1999/02/22-rdf-syntax-ns#"
   xmlns:svg="http://www.w3.org/2000/svg"
   xmlns="http://www.w3.org/2000/svg"
   xmlns:xlink="http://www.w3.org/1999/xlink"
   xmlns:sodipodi="http://sodipodi.sourceforge.net/DTD/sodipodi-0.dtd"
   xmlns:inkscape="http://www.inkscape.org/namespaces/inkscape"
   sodipodi:docname="E37P06.svg"
   height="3503"
   width="2481"
   inkscape:version="1.0 (4035a4fb49, 2020-05-01)"
   version="1.1"
   id="svg2">
  <metadata
     id="metadata8">
    <rdf:RDF>
      <cc:Work
         rdf:about="">
        <dc:format>image/svg+xml</dc:format>
        <dc:type
           rdf:resource="http://purl.org/dc/dcmitype/StillImage" />
        <dc:title />
      </cc:Work>
    </rdf:RDF>
  </metadata>
  <defs
     id="defs6" />
  <sodipodi:namedview
     inkscape:document-rotation="0"
     inkscape:deskcolor="#d1d1d1"
     inkscape:showpageshadow="0"
     inkscape:pagecheckerboard="0"
     inkscape:current-layer="layer1"
     inkscape:window-maximized="1"
     inkscape:window-y="-8"
     inkscape:window-x="-8"
     inkscape:cy="229.4158"
     inkscape:cx="1231.1067"
     inkscape:zoom="0.4665165"
     showgrid="false"
     id="namedview4"
     inkscape:window-height="715"
     inkscape:window-width="1366"
     inkscape:pageshadow="2"
     inkscape:pageopacity="0"
     guidetolerance="10"
     gridtolerance="10"
     objecttolerance="10"
     borderopacity="1"
     bordercolor="#666666"
     pagecolor="#ffffff" />
  <g
     sodipodi:insensitive="true"
     inkscape:label="artwork"
     id="layer2"
     inkscape:groupmode="layer">
    <image
       sodipodi:absref="D:\Pepper&amp;Carrot translation\ep37_The-Tears-of-the-Phoenix\lang\gfx_Pepper-and-Carrot_by-David-Revoy_E37P06.png"
       xlink:href="../gfx_Pepper-and-Carrot_by-David-Revoy_E37P06.png"
       y="0"
       x="0"
       id="image10"
       height="3503"
       width="2481" />
  </g>
  <g
     inkscape:label="speechbubbles"
     id="layer3"
     inkscape:groupmode="layer">
    <path
       inkscape:connector-curvature="0"
       id="path1365"
       d="m 122.68981,204.58688 c -1.32289,-47.5066 33.07476,-55.88911 51.59649,-58.68441 18.52189,-2.79361 95.25509,-16.76674 124.36082,5.5889 29.10573,22.35565 37.04378,60.08123 23.81381,74.05435 -13.2298,13.97143 -55.56551,34.93027 -82.02528,36.32708 -26.45961,1.39679 -83.34818,-6.98572 -101.86991,-26.54777 -18.52189,-19.56032 -15.87593,-30.73815 -15.87593,-30.73815 z"
       style="fill:#ffffff;fill-rule:evenodd;stroke:none;stroke-width:1.66363px;stroke-linecap:butt;stroke-linejoin:miter;stroke-opacity:1" />
    <path
       inkscape:connector-curvature="0"
       id="path1357"
       d="m 244.94628,237.78367 c 0,0 -8.31854,14.71485 -3.94644,34.32306 4.3721,19.60821 13.90542,39.57744 34.7933,54.14841 -41.89702,-20.22752 -65.69947,-37.55159 -66.67128,-74.5854 -0.97218,-37.03494 35.82442,-13.88607 35.82442,-13.88607 z"
       style="fill:#ffffff;fill-rule:evenodd;stroke:none;stroke-width:1.18625px;stroke-linecap:butt;stroke-linejoin:miter;stroke-opacity:1" />
    <path
       sodipodi:nodetypes="csssscscsscsc"
       inkscape:connector-curvature="0"
       id="path1353"
       d="m 987.88981,134.94488 c -38.11378,1.25328 -76.67314,1.11193 -114.06646,7.49257 -16.81828,3.14003 -33.90132,7.66176 -46.8155,16.6309 -13.89782,10.41306 -21.36667,24.54397 -25.735,38.6406 -8.32878,26.52515 -7.70107,55.11817 5.75987,80.65879 6.53519,12.33389 16.6122,24.19502 31.75857,31.53669 15.61185,7.35285 33.44665,11.40378 51.03192,15.23054 30.02234,5.55373 61.24159,5.05374 91.91057,4.01859 27.31082,-0.97731 55.06642,-3.27227 80.52882,-11.16542 14.0829,-4.25486 28.0426,-9.65699 38.5071,-18.05997 11.1835,-9.57784 16.8815,-21.96753 20.1262,-34.2576 5.318,-21.02262 3.5454,-42.6324 -0.5185,-63.68325 -1.8181,-10.507 -3.2743,-21.51253 -10.6644,-30.81242 -7.3278,-8.7975 -19.5737,-14.37192 -31.6855,-18.92439 -27.8217,-10.58071 -58.6928,-17.60271 -90.13769,-17.30563 z"
       style="fill:#ffffff;fill-rule:evenodd;stroke:none;stroke-width:0.725704px;stroke-linecap:butt;stroke-linejoin:miter;stroke-opacity:1" />
    <path
       sodipodi:nodetypes="cscsssssscssssccscccc"
       inkscape:connector-curvature="0"
       id="path5058-2"
       d="m 908.69059,289.55391 c -7.89156,5.93196 -11.59104,16.28682 -10.73276,25.94957 0.42223,4.4898 2.07058,8.76171 2.48862,13.25746 1.01197,7.55227 1.05293,15.42171 -1.40821,22.71484 -1.20442,1.72882 -3.79048,1.05453 -5.01568,-0.29626 -10.07465,-6.60916 -20.06188,-13.83162 -31.69135,-17.45527 -3.79347,-0.92218 -7.49599,1.78526 -9.23632,5.00153 -1.4402,2.77657 -2.01316,5.92993 -2.32924,9.01606 -0.55273,6.5806 1.28554,13.1049 3.96106,19.05818 3.14714,8.05533 6.31422,16.4571 5.93458,25.25193 -0.84545,6.13098 -8.24835,10.22802 -13.88693,7.6472 -6.28697,-1.87961 -10.73205,-6.98767 -15.56562,-11.11151 -8.86497,-7.84865 -17.5953,-16.18188 -28.30526,-21.49467 -7.38254,-2.49937 -15.71863,0.24411 -21.23633,5.4668 -3.28278,2.9805 -6.07223,6.44058 -8.94141,9.80664 5.8814,-4.02407 11.87998,-8.29236 18.92579,-9.9668 5.92728,0.27474 10.83062,3.99283 15.65346,7.04174 9.22342,6.01627 16.39972,14.65414 22.20637,23.90936 3.76567,5.4691 7.51953,11.12941 12.67093,15.3981 3.2658,1.63675 6.90342,2.34098 10.46142,3.03947 5.33481,0.86184 10.93374,1.00049 16.1436,-0.58041 5.05084,-2.68449 7.63974,-8.48655 7.90731,-14.00736 1.31557,-10.50648 -1.34041,-20.96489 -4.32747,-30.9597 -1.34044,-4.77497 -2.55206,-9.60437 -3.14531,-14.53651 1.14339,-2.41987 4.68319,-2.64674 6.56055,-0.98047 7.59492,3.4498 13.00439,10.01681 19.08789,15.47852 8.59672,6.12612 21.82202,3.74033 27.89071,-4.84806 5.2193,-6.70376 6.94821,-15.35423 7.43486,-23.65494 0.82894,-10.02392 1.61175,-20.28559 5.5879,-29.65192 1.16442,-3.02572 2.64205,-5.92432 4.30918,-8.70251 -0.35144,-1.98682 -2.65366,-2.40619 -4.00685,-3.52799 -9.0205,-5.41384 -18.041,-10.82769 -27.06151,-16.24154 l -0.16601,-0.0293 z m 33.15039,19.79687 c -0.62158,0.68067 0.23902,-0.002 0,0 z"
       style="color:#000000;display:inline;overflow:visible;visibility:visible;fill:#ffffff;fill-opacity:1;fill-rule:nonzero;stroke:none;stroke-width:0.861851px;marker:none;enable-background:accumulate" />
    <path
       sodipodi:nodetypes="cccccccccccccc"
       inkscape:connector-curvature="0"
       id="path1100"
       d="m 1173.2666,85.346479 c 48.8164,-0.293669 65.2665,0.21846 76.5717,0.858662 -2.0991,-1.565559 66.8039,-0.898285 144.2398,0.03733 -23.0394,-1.146458 38.3673,-1.222194 114.8082,-0.580994 -8.6456,-0.553078 6.3974,35.651143 87.8448,12.755865 -24.6072,29.129488 -57.9143,50.018568 118.825,15.027218 -51.747,19.52399 -133.2092,44.19546 -20.2927,61.4825 -101.6831,7.62066 -127.6806,43.30735 -101.1569,60.21705 -48.4434,-34.22329 -90.4543,-28.59459 -71.5748,26.00161 -48.7278,-25.92145 -88.6603,-43.43042 -97.9407,-13.93436 -19.2112,-16.58112 -64.7309,-17.38203 -87.3916,18.78632 -34.5141,-34.66325 -72.2188,-42.83956 -110.2703,1.24428 -0.5383,-28.28475 -19.2345,-48.48654 -55.2028,-33.9649 z"
       style="display:inline;fill:#ffffff;fill-rule:evenodd;stroke:none;stroke-width:0.755806px;stroke-linecap:butt;stroke-linejoin:miter;stroke-opacity:1" />
    <path
       sodipodi:nodetypes="cccccccccccccc"
       inkscape:connector-curvature="0"
       id="path1100-1"
       d="m 2394.0652,807.97092 c -47.7573,0.26071 -63.8504,-0.19393 -74.9103,-0.76227 2.0535,1.38983 -65.3547,0.79745 -141.1104,-0.0331 22.5394,1.01777 -109.3004,5.71621 -184.0829,5.14699 6.7621,-4.61764 -53.8427,-4.61253 -82.3342,-0.0715 81.8183,-14.7156 110.6388,-44.68307 8.6518,-56.2394 72.491,-2.20203 89.8962,-25.3395 -10.1324,-39.52179 91.9451,3.37995 87.7359,-6.9679 21.0079,-28.57362 78.2504,13.5733 143.3006,2.04651 97.8328,-26.38 59.7149,16.01636 150.2775,35.01218 113.765,-10.91183 63.5302,33.91422 86.6008,38.51805 108.77,6.40953 33.7653,30.77236 79.9424,26.77899 99.1418,6.91753 -3.5586,20.66768 11.8982,32.9874 47.0861,20.09579 z"
       style="display:inline;fill:#ffffff;fill-rule:evenodd;stroke:none;stroke-width:0.704349px;stroke-linecap:butt;stroke-linejoin:miter;stroke-opacity:1" />
    <path
       sodipodi:nodetypes="cccccccc"
       id="path957"
       d="m 1439.4934,211.52834 c 32.8791,33.53516 56.7879,77.06946 103.0231,108.5417 l -39.4041,4.85315 c 33.1236,33.29864 86.1701,72.49084 86.1701,72.49084 0,0 -36.1582,-9.1905 -137.95,-87.08512 l 35.6661,-4.58596 c -28.5603,-35.78999 -82.3648,-65.49689 -123.704,-98.20746 z"
       style="display:inline;fill:#ffffff;fill-rule:evenodd;stroke:none;stroke-width:1.21129px;stroke-linecap:butt;stroke-linejoin:miter;stroke-opacity:1" />
    <path
       sodipodi:nodetypes="ccccc"
       id="path957-2"
       d="m 2202.1528,675.8008 c -101.3405,-53.78313 -274.4054,-97.55437 -274.4054,-97.55437 0,0 33.0594,-7.14437 146.2005,19.77436 l 158.6649,28.48852 c 296.9015,105.20644 -85.0336,87.53799 -30.46,49.29149 z"
       style="display:inline;fill:#ffffff;fill-rule:evenodd;stroke:none;stroke-width:1.15094px;stroke-linecap:butt;stroke-linejoin:miter;stroke-opacity:1" />
    <path
       inkscape:connector-curvature="0"
       id="path1297"
       d="m 1518.0403,874.34961 c -34.5351,0.47147 -69.351,0.052 -103.4506,5.90039 -23.7784,4.2926 -46.9457,13.5376 -64.9769,28.76993 -16.1938,13.90487 -27.7722,32.88175 -30.3472,53.34615 -0.9508,12.41849 1.6571,24.73789 3.9187,36.91449 2.0672,8.19693 8.0212,15.23243 15.5187,19.83893 10.8606,7.7332 22.7591,14.9503 36.3962,17.4767 12.9884,2.6134 26.3155,3.0766 39.4904,4.4336 22.96,2.0344 45.9231,4.2113 68.9822,5.0071 43.4719,1.8495 87.0019,1.7214 130.5086,1.7942 41.9811,-0.07 83.963,-0.1001 125.9436,-0.1667 29.0892,-0.5673 58.5758,-2.6622 86.3384,-11.2768 16.8718,-5.2251 33.2131,-13.3242 45.0856,-25.8459 13.7941,-14.35632 21.5568,-33.99767 19.4102,-53.25747 -2.4272,-15.39259 -12.4222,-29.08442 -25.3348,-38.71536 -16.8597,-13.14144 -36.8709,-22.24738 -57.2669,-29.65187 -19.8344,-6.24919 -40.9649,-6.83254 -61.6462,-8.47712 -75.9279,-5.31475 -152.117,-5.93128 -228.2251,-6.09056 l -0.1972,1.7e-4 z"
       style="fill:#ffffff;fill-rule:evenodd;stroke:none;stroke-width:2.08527px;stroke-linecap:butt;stroke-linejoin:miter;stroke-opacity:1" />
    <path
       sodipodi:nodetypes="ccssssssscscc"
       inkscape:connector-curvature="0"
       id="path1299"
       d="m 1786.1977,1003.6236 c 28.1222,2.9234 44.876,7.3078 53.2527,16.0774 8.3768,8.7701 19.147,14.6162 17.352,35.0786 -1.795,20.4626 1.1967,32.8866 -5.9835,41.6561 -7.1801,8.7695 -7.1801,16.078 -22.1387,19.7318 -14.9586,3.654 -90.26,11.6392 -98.0384,11.6392 -7.7785,0 -80.8665,-5.793 -87.4484,-7.2546 -6.5816,-1.4618 -28.1221,-15.3469 -32.3105,-28.5008 -4.1885,-13.1546 -7.7785,-29.9632 -4.7867,-39.4639 2.9916,-9.5006 16.7536,-31.4248 26.3271,-34.3475 9.5735,-2.9234 27.5238,-9.5007 41.8841,-9.5007 14.3602,0 81.9732,-3.6539 81.9732,-3.6539 z"
       style="fill:#ffffff;fill-rule:evenodd;stroke:none;stroke-width:0.626931px;stroke-linecap:butt;stroke-linejoin:miter;stroke-opacity:1" />
    <path
       sodipodi:nodetypes="cccccccccccccccccccccccccccc"
       inkscape:connector-curvature="0"
       id="path4508-2"
       d="m 1612.0796,1065.0751 c 37.135,23.4294 71.3673,16.0374 70.7298,-38.4245 17.7169,58.8533 30.0116,72.0159 37.3031,43.0186 23.4559,24.9241 38.1062,17.9323 49.7375,0 4.3353,23.0624 13.6324,13.7562 21.6783,12.6102 2.6501,5.2185 -6.4518,18.1812 30.3199,0.9098 2.3818,6.9058 5.5905,12.8536 27.1294,-2.4581 5.5801,28.0318 23.4834,-1.554 41.8246,-33.1856 -11.427,38.8882 -6.6886,44.3815 7.9128,29.4986 -6.6757,16.0145 -10.6685,28.4118 14.6952,1.2286 -8.6833,29.5595 14.0971,9.2702 50.8678,-33.1855 -27.4728,35.8306 -52.3041,89.3625 10.7448,69.8313 -17.6212,12.6309 -47.267,51.6148 0.323,66.2584 -8.8842,6.2787 -36.0082,-2.896 -13.3819,23.6857 3.0314,3.1072 -7.1172,5.0049 12.2517,13.1875 -11.4336,-0.5572 -18.4456,1.432 -7.9129,13.5194 -20.8706,-0.653 -30.0807,28.4996 -14.7582,44.7108 -30.2235,-20.7954 -31.8867,-13.2374 -32.7815,-4.9157 -37.879,-28.3518 -40.1026,-19.4253 -45.2158,-13.5202 -18.4632,0.2209 -36.9263,-3.3488 -55.3894,28.269 -4.8354,-19.6654 -14.5295,-34.8029 -55.3894,-20.8941 17.9407,-25.0189 -7.5822,-9.079 -27.1294,1.2287 10.7043,-31.254 -16.4621,-10.7422 -50.8678,19.6654 19.267,-34.513 -2.6159,-22.0457 -35.0424,2.4583 12.2517,-33.9059 -7.7014,-50.3027 -55.3893,-51.6222 22.8249,-12.2295 34.1735,-68.3053 10.4726,-95.9928 26.7177,8.1522 34.6871,0.5798 15.8256,-29.4986 29.1416,24.6881 20.0991,-22.2012 -8.5581,-46.383 z"
       style="display:inline;fill:#ffffff;fill-rule:evenodd;stroke:none;stroke-width:1.24429px;stroke-linecap:butt;stroke-linejoin:miter;stroke-opacity:1" />
    <path
       sodipodi:nodetypes="cccccccccccccccccccccccccccc"
       inkscape:connector-curvature="0"
       id="path4508-2-3"
       d="m 1723.6524,1191.6022 c 30.8744,25.9575 59.3355,17.7678 58.8055,-42.5704 14.73,65.2034 24.9518,79.7863 31.0141,47.6602 19.5015,27.6134 31.6819,19.8672 41.3522,0 3.6044,25.5509 11.334,15.2405 18.0236,13.9708 2.2033,5.7816 -5.364,20.143 25.2082,1.0081 1.9804,7.6509 4.648,14.2404 22.5556,-2.7235 4.6394,31.0565 19.5245,-1.7217 34.7735,-36.7662 -9.5005,43.0842 -5.561,49.1702 6.5788,32.6814 -5.5502,17.7424 -8.8699,31.4774 12.2177,1.3612 -7.2193,32.749 11.7205,10.2705 42.292,-36.7661 -22.8412,39.6966 -43.4861,99.0045 8.9334,77.3659 -14.6505,13.9938 -39.2983,57.184 0.2685,73.4077 -7.3865,6.956 -29.9376,-3.2085 -11.1259,26.2413 2.5203,3.4424 -5.9173,5.5448 10.1862,14.6104 -9.506,-0.6173 -15.3358,1.5865 -6.5788,14.9781 -17.3521,-0.7234 -25.0094,31.5746 -12.2701,49.5351 -25.1281,-23.0392 -26.511,-14.6658 -27.2549,-5.4461 -31.4929,-31.4109 -33.3416,-21.5213 -37.5929,-14.979 -15.3504,0.2447 -30.7008,-3.7102 -46.0513,31.3191 -4.0201,-21.7873 -12.0799,-38.558 -46.0512,-23.1486 14.916,-27.7182 -6.304,-10.0585 -22.5557,1.3613 8.8997,-34.6262 -13.6867,-11.9012 -42.292,21.7873 16.0188,-38.2369 -2.1749,-24.4244 -29.1346,2.7235 10.1862,-37.5642 -6.4031,-55.7302 -46.0512,-57.1921 18.9768,-13.549 28.4122,-75.6753 8.7071,-106.3503 22.2132,9.0318 28.8391,0.6424 13.1575,-32.6814 24.2286,27.3519 16.7106,-24.5967 -7.1153,-51.3877 z"
       style="display:inline;fill:#ffffff;fill-rule:evenodd;stroke:none;stroke-width:0.891307px;stroke-linecap:butt;stroke-linejoin:miter;stroke-opacity:1" />
    <path
       inkscape:connector-curvature="0"
       id="path4456-5"
       d="m 1241.2998,989.61424 c 22.2211,-34.141 39.9857,-36.591 52.6492,-39.616 1.7643,3.396 6.1135,8.794 6.1135,8.794 0,0 24.438,-8.09 34.6126,-8.313 10.1747,-0.224 10.4078,11.447 10.4078,11.447 0,0 -47.1663,16.831 -56.3698,23.214 -4.4313,-9.518 -7.9052,-13.563 -7.9875,-17.682 -7.6447,-0.519 -31.1799,10.299 -39.4258,22.156 z"
       style="color:#000000;display:inline;overflow:visible;visibility:visible;fill:#ffffff;fill-opacity:1;fill-rule:nonzero;stroke:none;stroke-width:0.969926px;marker:none;enable-background:accumulate" />
    <path
       sodipodi:nodetypes="cccccccccccccccccccccc"
       id="path740849"
       d="m 223.03839,2049.9977 c 44.40963,1.9562 108.39666,5.8779 57.9817,-1.6857 32.66257,1.8313 74.4298,5.4214 86.29409,2.504 11.54755,1.0885 18.41219,0.7184 12.62143,-1.5634 31.52989,2.8416 47.3862,1.7361 66.08925,1.3475 21.2963,2.0346 36.6284,1.6171 46.39705,-1.0877 -7.1015,5.6406 50.2879,1.5728 95.63051,-0.7951 -3.07518,1.2879 -30.40238,4.8783 16.18142,1.4514 -4.39723,1.8574 -3.94257,3.3811 100.135,-2.2207 -45.96467,5.0275 -24.28187,3.8873 -0.012,2.5113 -38.82049,5.4257 29.77888,9.4415 55.83106,8.9116 -77.90021,15.1943 -113.62842,42.3338 12.24418,88.4165 -49.05016,0.2837 -123.65447,-22.422 -98.99442,77.9462 -73.57472,-54.7599 -108.93439,-5.4464 -93.80044,40.6583 -43.95744,-62.393 -71.64944,-62.0197 -80.92629,9.4158 -25.33646,-60.767 -52.20379,-72.9244 -81.34293,-12.945 10.95777,-89.6863 -56.59211,-63.2022 -89.46096,-23.7851 25.74854,-41.6566 -20.31954,-48.5646 -72.57645,-9.3964 63.90502,-63.2583 18.53891,-58.536 -56.43499,-35.3941 89.38703,-46.0158 76.25662,-65.3801 -14.79036,-64.4883 111.07935,-6.0948 89.32452,-76.0106 38.93318,-79.8011 z"
       style="display:inline;fill:#ffffff;fill-rule:evenodd;stroke:none;stroke-width:0.82688px;stroke-linecap:butt;stroke-linejoin:miter;stroke-opacity:1" />
    <path
       sodipodi:nodetypes="cccccccc"
       inkscape:connector-curvature="0"
       id="path5066-6"
       d="m 625.17576,2198.464 c 32.4119,11.8493 68.59806,43.3077 68.15392,52.5243 2.57923,-9.5085 6.6039,-17.4308 9.62749,-23.6657 13.04254,7.2714 43.8298,44.5047 61.80037,65.0819 -15.05247,-42.9 -51.67758,-88.1131 -70.34793,-102.0634 -0.43359,10.3146 -2.88747,18.5199 -5.87724,22.4034 -19.74556,7.9495 -28.17774,-60.2326 -25.11612,-64.3964 z"
       style="color:#000000;display:inline;overflow:visible;visibility:visible;fill:#ffffff;fill-opacity:1;fill-rule:nonzero;stroke:none;stroke-width:1px;marker:none;enable-background:accumulate" />
    <path
       sodipodi:nodetypes="ccccccccccccccccccc"
       inkscape:connector-curvature="0"
       id="path3549-3-7-5"
       d="m 1910.4711,2340.6332 c 11.6476,56.7799 -79.9215,34.4229 -110.7808,23.2957 62.4479,30.1781 93.595,51.7009 -22.383,50.3042 114.5433,42.9424 20.4859,44.5913 0.7029,58.111 93.0961,8.6018 52.0617,69.1367 34.5941,71.1382 108.5391,0.022 71.8317,1.584 75.4686,2.8247 9.644,-0.5834 54.7094,-2.361 55.8466,-0.3871 73.2336,-1.891 160.646,-3.1167 165.0199,0.1786 30.1876,-1.6612 97.1819,0.6827 55.8469,-0.3871 73.6329,-2.5797 137.3528,-1.6606 201.6051,-0.9404 17.6073,-0.7782 20.4929,-1.9711 75.3451,-1.6973 -7.1383,-0.7687 -12.6026,-49.0245 -7.8715,-56.4003 -6.212,-10.6277 -7.3234,-21.7049 4.3277,-33.9056 -8.8283,-0.9644 -17.0561,-3.1529 -6.5444,-44.1245 -14.4676,2.1791 -103.9399,7.9503 -20.4898,-64.3835 -63.146,33.5148 -186.258,59.9607 -169.3167,-16.8772 -35.2889,45.45 -91.3286,65.3298 -110.4972,8.4609 -37.3091,51.6821 -83.2741,32.5213 -110.3766,-3.6711 -21.5709,27.1897 -58.0457,66.4941 -110.4969,8.4608 z"
       style="color:#000000;display:inline;overflow:visible;visibility:visible;fill:#ffffff;fill-opacity:1;fill-rule:nonzero;stroke:none;stroke-width:1.40271px;marker:none;enable-background:accumulate" />
    <path
       sodipodi:nodetypes="cccccccccccccccccccccccc"
       id="path1058"
       d="m 1636.5226,2827.2951 c 21.774,-13.9689 20.3717,-44.8166 -6.3018,-54.6504 57.8746,-5.4183 13.0235,-28.894 -16.4355,-56.2681 44.0346,16.6768 97.9946,47.0814 75.3907,-35.1473 31.2374,23.3528 56.7506,43.7103 76.3203,8.7346 9.9324,16.348 30.3058,31.5685 52.668,4.5771 7.843,13.3852 16.7725,8.1775 26.8401,-16.5077 9.1423,30.4591 30.873,30.0463 53.5479,-2.4076 15.8866,33.307 33.3992,60.9678 72.0236,15.3246 -5.9374,34.095 14.0697,32.5772 45.8036,14.9627 -4.7817,14.8106 0.5687,19.7331 37.9905,7.9015 -9.9509,14.3291 -23.4241,22.9413 12.6562,18.6415 -16.0334,13.0253 -33.626,41.8376 21.0054,34.6946 -42.861,22.0189 -18.4657,30.887 -17.5436,43.6596 -30.6711,-7.6782 -44.8693,-4.3624 -14.1469,28.9339 -15.9289,-0.543 -57.9551,-36.9883 -38.8072,10.7236 -24.3772,-26.7701 -51.7536,5.4274 -37.847,6.666 l -57.9095,9.4667 -90.5652,-9.1694 -64.474,-0.095 -54.1069,5.7339 c 8.8514,-20.7602 -9.8166,-13.5582 -24.373,-10.5339 -4.3063,-6.1339 6.753,-20.8309 -24.9519,-11.6948 1.7327,-15.0554 -13.662,-13.1774 -26.7838,-13.5466 z"
       style="display:inline;fill:#ffffff;fill-rule:evenodd;stroke:none;stroke-width:1.08349px;stroke-linecap:butt;stroke-linejoin:miter;stroke-opacity:1" />
    <path
       sodipodi:nodetypes="cccccccccccccccccccccccc"
       id="path961"
       d="m 1687.5792,2843.1143 c 58.6696,0.8657 50.8964,16.8701 29.768,35.9175 16.2538,-1.2811 54.268,-18.9253 31.7272,8.9658 49.2176,-10.1329 18.896,10.3693 14.8966,20.6783 19.8395,-2.1699 31.9847,7.1677 7.8551,41.8984 24.366,-8.1734 61.6,-38.8595 58.8254,0.4511 19.7257,-4.8795 45.6428,-23.6798 48.9321,8.3966 32.9201,-27.1961 63.0527,-29.8154 69.5693,20.322 24.2323,-32.2543 45.3335,-38.2659 61.9066,-6.3173 23.0767,-21.1993 55.9997,-26.7234 85.0096,13.8349 -8.4691,-32.1278 4.3875,-52.0594 99.2922,-25.0691 -0.6884,-28.2852 19.115,-40.9383 98.2576,-8.3244 -16.8205,-18.8252 -57.4879,-48.7972 37.1813,-15.5096 -49.7887,-40.0756 4.232,-64.7609 45.6887,-91.3089 -50.4805,18.5135 -55.8275,11.2858 -36.8079,-9.8388 -80.2728,24.7369 -71.8538,-12.8278 -50.494,-59.483 -58.78,24.6906 -50.3479,10.3223 -36.2559,-2.8097 -104.4723,25.9466 -60.9002,-15.1202 -51.2534,-31.1285 -75.6796,71.9212 -53.4289,27.5101 -45.0748,-0.3929 -42.9643,42.8701 -61.0753,42.8248 -52.8769,0.6649 -72.0507,51.4698 -40.1579,3.3315 -63.6808,5.2074 l -294.8677,45.4449 -32.5462,19.7424 c 30.2113,6.9497 28.8289,24.3154 -25.0521,28.658 z"
       style="display:inline;fill:#ffffff;fill-rule:evenodd;stroke:none;stroke-width:1.32144px;stroke-linecap:butt;stroke-linejoin:miter;stroke-opacity:1" />
    <path
       inkscape:connector-curvature="0"
       id="path4667-2"
       d="m 1487.7373,2719.1203 100.518,94.2706 6.505,-33.2379 70.6075,62.6158 11.5455,-27.2884 -90.5705,-67.709 -8.6863,37.6437 z"
       style="display:inline;fill:#ffffff;fill-rule:evenodd;stroke:none;stroke-width:1px;stroke-linecap:butt;stroke-linejoin:miter;stroke-opacity:1" />
  </g>
  <g
     style="display:inline"
     inkscape:label="txt"
     id="layer1"
     inkscape:groupmode="layer">
    <text
       id="text4246-70-2-2-2-7-4-9-9-6-1-2-3-9-2-7-9"
       y="212.4789"
       x="225.68468"
       style="font-style:normal;font-variant:normal;font-weight:normal;font-stretch:normal;font-size:45.3333px;line-height:125%;font-family:'Xiaolai SC';-inkscape-font-specification:'Xiaolai SC';text-align:center;letter-spacing:0px;word-spacing:0px;text-anchor:middle;fill:#000000;fill-opacity:1;stroke:none"
       xml:space="preserve"><tspan
         id="tspan80607"
         y="212.4789"
         x="225.68468"
         style="font-style:normal;font-variant:normal;font-weight:normal;font-stretch:normal;font-size:45.3333px;font-family:'Xiaolai SC';-inkscape-font-specification:'Xiaolai SC'"
         sodipodi:role="line">怎么样？</tspan></text>
    <text
       id="text4246-70-2-2-2-7-4-9-9-6-1-2-3-9-2-7-9-3"
       y="215.03271"
       x="971.63519"
       style="font-style:normal;font-variant:normal;font-weight:normal;font-stretch:normal;font-size:45.3333px;line-height:125%;font-family:'Xiaolai SC';-inkscape-font-specification:'Xiaolai SC';text-align:center;letter-spacing:0px;word-spacing:0px;text-anchor:middle;fill:#000000;fill-opacity:1;stroke:none"
       xml:space="preserve"><tspan
         id="tspan5910"
         y="215.03271"
         x="971.63519"
         style="font-style:normal;font-variant:normal;font-weight:normal;font-stretch:normal;font-size:45.3333px;font-family:'Xiaolai SC';-inkscape-font-specification:'Xiaolai SC'"
         sodipodi:role="line">这都不会让</tspan><tspan
         id="tspan70"
         y="271.69934"
         x="971.63519"
         style="font-style:normal;font-variant:normal;font-weight:normal;font-stretch:normal;font-size:45.3333px;font-family:'Xiaolai SC';-inkscape-font-specification:'Xiaolai SC'"
         sodipodi:role="line">您伤心落泪？</tspan></text>
    <text
       id="text4246-70-2-2-2-7-4-9-9-6-1-2-3-9-2-7-9-3-7"
       y="194.04265"
       x="1408.1635"
       style="font-style:normal;font-variant:normal;font-weight:normal;font-stretch:normal;font-size:52.7846px;line-height:125%;font-family:'Xiaolai SC';-inkscape-font-specification:'Xiaolai SC';text-align:center;letter-spacing:0px;word-spacing:0px;text-anchor:middle;fill:#000000;fill-opacity:1;stroke:none;stroke-width:0.807928"
       xml:space="preserve"><tspan
         id="tspan80"
         y="194.04265"
         x="1408.1635"
         style="font-style:normal;font-variant:normal;font-weight:normal;font-stretch:normal;font-size:52.7846px;font-family:'Xiaolai SC';-inkscape-font-specification:'Xiaolai SC';stroke-width:0.807928"
         sodipodi:role="line">你是认真的？！</tspan></text>
    <text
       id="text4246-70-2-2-2-7-4-9-9-6-1-2-3-9-2-7-9-3-7-6"
       y="768.37854"
       x="2198.0317"
       style="font-style:normal;font-variant:normal;font-weight:normal;font-stretch:normal;font-size:54.2756px;line-height:125%;font-family:'Xiaolai SC';-inkscape-font-specification:'Xiaolai SC';text-align:center;letter-spacing:0px;word-spacing:0px;text-anchor:middle;fill:#000000;fill-opacity:1;stroke:none;stroke-width:0.83075"
       xml:space="preserve"><tspan
         id="tspan19636"
         y="768.37854"
         x="2198.0317"
         style="font-style:normal;font-variant:normal;font-weight:normal;font-stretch:normal;font-size:54.2756px;font-family:'Xiaolai SC';-inkscape-font-specification:'Xiaolai SC';stroke-width:0.83075"
         sodipodi:role="line">这样就完了？！</tspan></text>
    <text
       id="text4246-70-2-2-2-7-4-9-9-6-1-2-3-9-2-7-9-3-2"
       y="942.49945"
       x="1617.5437"
       style="font-style:normal;font-variant:normal;font-weight:normal;font-stretch:normal;font-size:49.902px;line-height:125%;font-family:'Xiaolai SC';-inkscape-font-specification:'Xiaolai SC';text-align:center;letter-spacing:0px;word-spacing:0px;text-anchor:middle;fill:#000000;fill-opacity:1;stroke:none;stroke-width:1.10078"
       xml:space="preserve"><tspan
         id="tspan24188"
         y="942.49945"
         x="1617.5437"
         style="font-style:normal;font-variant:normal;font-weight:normal;font-stretch:normal;font-size:49.902px;font-family:'Xiaolai SC';-inkscape-font-specification:'Xiaolai SC';stroke-width:1.10078"
         sodipodi:role="line">看看这些前人，</tspan><tspan
         id="tspan86"
         y="1004.877"
         x="1617.5437"
         style="font-style:normal;font-variant:normal;font-weight:normal;font-stretch:normal;font-size:49.902px;font-family:'Xiaolai SC';-inkscape-font-specification:'Xiaolai SC';stroke-width:1.10078"
         sodipodi:role="line">他们至少还准备了诗歌，</tspan></text>
    <text
       id="text4246-70-2-2-2-7-4-9-9-6-1-2-3-9-2-7-9-3-2-3"
       y="1090.2063"
       x="1745.0437"
       style="font-style:normal;font-variant:normal;font-weight:normal;font-stretch:normal;font-size:49.902px;line-height:125%;font-family:'Xiaolai SC';-inkscape-font-specification:'Xiaolai SC';text-align:center;letter-spacing:0px;word-spacing:0px;text-anchor:middle;fill:#000000;fill-opacity:1;stroke:none;stroke-width:1.10078"
       xml:space="preserve"><tspan
         id="tspan34080"
         y="1090.2063"
         x="1745.0437"
         style="font-style:normal;font-variant:normal;font-weight:normal;font-stretch:normal;font-size:49.902px;font-family:'Xiaolai SC';-inkscape-font-specification:'Xiaolai SC';stroke-width:1.10078"
         sodipodi:role="line">悲剧，</tspan></text>
    <text
       id="text4246-70-2-2-2-7-4-9-9-6-1-2-3-9-2-7-9-3-2-3-6-1"
       y="1199.7616"
       x="1807.5457"
       style="font-style:normal;font-variant:normal;font-weight:normal;font-stretch:normal;font-size:69.9626px;line-height:125%;font-family:'Xiaolai SC';-inkscape-font-specification:'Xiaolai SC';text-align:center;letter-spacing:0px;word-spacing:0px;text-anchor:middle;fill:#000000;fill-opacity:1;stroke:none;stroke-width:1.54329"
       xml:space="preserve"><tspan
         id="tspan37654-7"
         y="1199.7616"
         x="1807.5457"
         style="font-style:normal;font-variant:normal;font-weight:normal;font-stretch:normal;font-size:69.9626px;font-family:'Xiaolai SC';-inkscape-font-specification:'Xiaolai SC';stroke-width:1.54329"
         sodipodi:role="line">艺术！</tspan></text>
    <text
       id="text4246-70-2-2-2-7-4-9-9-6-1-2-3-9-2-7-9-3-2-3-6-1-9"
       y="1331.7716"
       x="1888.7036"
       style="font-style:normal;font-variant:normal;font-weight:normal;font-stretch:normal;font-size:71.4558px;line-height:125%;font-family:'Xiaolai SC';-inkscape-font-specification:'Xiaolai SC';text-align:center;letter-spacing:0px;word-spacing:0px;text-anchor:middle;fill:#000000;fill-opacity:1;stroke:none;stroke-width:1.57622"
       xml:space="preserve"><tspan
         id="tspan37654-7-2"
         y="1331.7716"
         x="1888.7036"
         style="font-style:normal;font-variant:normal;font-weight:normal;font-stretch:normal;font-size:71.4558px;font-family:'Xiaolai SC';-inkscape-font-specification:'Xiaolai SC';stroke-width:1.57622"
         sodipodi:role="line">戏剧！</tspan></text>
    <text
       id="text4246-70-2-2-2-7-4-9-9-6-1-2-3-9-2-7-9-3-2-3-0-7"
       y="2154.6296"
       x="483.78723"
       style="font-style:normal;font-variant:normal;font-weight:normal;font-stretch:normal;font-size:63.2403px;line-height:125%;font-family:'Xiaolai SC';-inkscape-font-specification:'Xiaolai SC';text-align:center;letter-spacing:0px;word-spacing:0px;text-anchor:middle;fill:#000000;fill-opacity:1;stroke:none;stroke-width:1.39501"
       xml:space="preserve"><tspan
         id="tspan100735-9"
         y="2154.6296"
         x="483.78723"
         style="font-style:normal;font-variant:normal;font-weight:normal;font-stretch:normal;font-size:63.2403px;font-family:'Xiaolai SC';-inkscape-font-specification:'Xiaolai SC';stroke-width:1.39501"
         sodipodi:role="line">而你？！</tspan></text>
    <text
       id="text4246-70-2-2-2-7-4-9-9-6-1-2-3-9-2-7-9-3-2-3-0"
       y="2478.9072"
       x="2118.3679"
       style="font-style:normal;font-variant:normal;font-weight:normal;font-stretch:normal;font-size:63.2403px;line-height:125%;font-family:'Xiaolai SC';-inkscape-font-specification:'Xiaolai SC';text-align:center;letter-spacing:0px;word-spacing:0px;text-anchor:middle;fill:#000000;fill-opacity:1;stroke:none;stroke-width:1.39501"
       xml:space="preserve"><tspan
         id="tspan100735"
         y="2478.9072"
         x="2118.3679"
         style="font-style:normal;font-variant:normal;font-weight:normal;font-stretch:normal;font-size:63.2403px;font-family:'Xiaolai SC';-inkscape-font-specification:'Xiaolai SC';stroke-width:1.39501"
         sodipodi:role="line">居然毫无准备！</tspan></text>
    <text
       id="text4246-70-2-2-2-7-4-9-9-6-1-2-3-9-2-7-9-3-2-3-0-2"
       y="2798.4277"
       x="1860.3235"
       style="font-style:normal;font-variant:normal;font-weight:normal;font-stretch:normal;font-size:51.0809px;line-height:125%;font-family:'Xiaolai SC';-inkscape-font-specification:'Xiaolai SC';text-align:center;letter-spacing:0px;word-spacing:0px;text-anchor:middle;fill:#000000;fill-opacity:1;stroke:none;stroke-width:1.01681"
       xml:space="preserve"><tspan
         id="tspan144267"
         y="2798.4277"
         x="1860.3235"
         style="font-style:normal;font-variant:normal;font-weight:normal;font-stretch:normal;font-size:51.0809px;font-family:'Xiaolai SC';-inkscape-font-specification:'Xiaolai SC';stroke-width:1.01681"
         sodipodi:role="line">够了，赶紧走！</tspan></text>
    <text
       id="text4246-70-2-2-2-7-4-9-9-6-1-2-3-9-2-7-9-3-2-3-0-2-9"
       y="2882.5657"
       x="2045.9989"
       style="font-style:normal;font-variant:normal;font-weight:normal;font-stretch:normal;font-size:47.5376px;line-height:125%;font-family:'Xiaolai SC';-inkscape-font-specification:'Xiaolai SC';text-align:center;letter-spacing:0px;word-spacing:0px;text-anchor:middle;fill:#000000;fill-opacity:1;stroke:none;stroke-width:0.946337"
       xml:space="preserve"><tspan
         id="tspan571"
         y="2882.5657"
         x="2045.9989"
         style="font-style:normal;font-variant:normal;font-weight:normal;font-stretch:normal;font-size:47.5376px;font-family:'Xiaolai SC';-inkscape-font-specification:'Xiaolai SC';stroke-width:0.946337"
         sodipodi:role="line">回去准备好了再来！</tspan></text>
  </g>
</svg>
