<?xml version="1.0" encoding="UTF-8" standalone="no"?>
<svg
   xmlns:dc="http://purl.org/dc/elements/1.1/"
   xmlns:cc="http://creativecommons.org/ns#"
   xmlns:rdf="http://www.w3.org/1999/02/22-rdf-syntax-ns#"
   xmlns:svg="http://www.w3.org/2000/svg"
   xmlns="http://www.w3.org/2000/svg"
   xmlns:xlink="http://www.w3.org/1999/xlink"
   xmlns:sodipodi="http://sodipodi.sourceforge.net/DTD/sodipodi-0.dtd"
   xmlns:inkscape="http://www.inkscape.org/namespaces/inkscape"
   sodipodi:docname="E37P04.svg"
   height="3503"
   width="2481"
   inkscape:version="1.0 (4035a4fb49, 2020-05-01)"
   version="1.1"
   id="svg2">
  <metadata
     id="metadata8">
    <rdf:RDF>
      <cc:Work
         rdf:about="">
        <dc:format>image/svg+xml</dc:format>
        <dc:type
           rdf:resource="http://purl.org/dc/dcmitype/StillImage" />
        <dc:title />
      </cc:Work>
    </rdf:RDF>
  </metadata>
  <defs
     id="defs6">
    <filter
       height="1"
       width="1"
       x="0"
       y="0"
       id="filter4265-7-37"
       style="color-interpolation-filters:sRGB"
       inkscape:menu-tooltip="Horizontal rippling of edges"
       inkscape:menu="Distort"
       inkscape:label="Ripple">
      <feTurbulence
         id="feTurbulence4267-7-7"
         baseFrequency="0.002 0.107"
         numOctaves="1" />
      <feColorMatrix
         id="feColorMatrix4269-1-2"
         result="result91"
         values="5 0 0 0 0 0 0 0 0 0 0 0 0 0 0 0 0 0 4 0 " />
      <feDisplacementMap
         id="feDisplacementMap4271-2-64"
         in2="result91"
         in="SourceGraphic"
         scale="14.3"
         xChannelSelector="R"
         yChannelSelector="A" />
    </filter>
    <filter
       height="1"
       width="1"
       x="0"
       y="0"
       id="filter4265-7"
       style="color-interpolation-filters:sRGB"
       inkscape:menu-tooltip="Horizontal rippling of edges"
       inkscape:menu="Distort"
       inkscape:label="Magmah-FX">
      <feTurbulence
         id="feTurbulence4267-7"
         baseFrequency="0.002 0.107"
         numOctaves="1" />
      <feColorMatrix
         id="feColorMatrix4269-1"
         result="result91"
         values="5 0 0 0 0 0 0 0 0 0 0 0 0 0 0 0 0 0 4 0 " />
      <feDisplacementMap
         id="feDisplacementMap4271-2"
         in2="result91"
         in="SourceGraphic"
         scale="14.3"
         xChannelSelector="R"
         yChannelSelector="A" />
    </filter>
    <filter
       height="1.3566752"
       width="1.0719341"
       y="-0.17833759"
       x="-0.035967053"
       id="filter4751"
       inkscape:label="Magmah-spell-glow"
       style="color-interpolation-filters:sRGB">
      <feFlood
         id="feFlood4753"
         result="flood"
         flood-color="rgb(255,255,255)"
         flood-opacity="1" />
      <feComposite
         id="feComposite4755"
         result="composite1"
         operator="in"
         in2="SourceGraphic"
         in="flood" />
      <feGaussianBlur
         id="feGaussianBlur4757"
         result="blur"
         stdDeviation="5.4"
         in="composite1" />
      <feOffset
         id="feOffset4759"
         result="offset"
         dy="0"
         dx="0" />
      <feComposite
         id="feComposite4761"
         result="composite2"
         operator="over"
         in2="offset"
         in="SourceGraphic" />
    </filter>
  </defs>
  <sodipodi:namedview
     inkscape:document-rotation="0"
     inkscape:deskcolor="#d1d1d1"
     inkscape:showpageshadow="0"
     inkscape:pagecheckerboard="0"
     inkscape:current-layer="layer3"
     inkscape:window-maximized="1"
     inkscape:window-y="-8"
     inkscape:window-x="-8"
     inkscape:cy="3048.8449"
     inkscape:cx="1293.8984"
     inkscape:zoom="0.46086259"
     showgrid="false"
     id="namedview4"
     inkscape:window-height="715"
     inkscape:window-width="1366"
     inkscape:pageshadow="2"
     inkscape:pageopacity="0"
     guidetolerance="10"
     gridtolerance="10"
     objecttolerance="10"
     borderopacity="1"
     bordercolor="#666666"
     pagecolor="#ffffff" />
  <g
     sodipodi:insensitive="true"
     inkscape:label="artwork"
     id="layer2"
     inkscape:groupmode="layer">
    <image
       sodipodi:absref="D:\Pepper&amp;Carrot translation\ep37_The-Tears-of-the-Phoenix\lang\gfx_Pepper-and-Carrot_by-David-Revoy_E37P04.png"
       xlink:href="../gfx_Pepper-and-Carrot_by-David-Revoy_E37P04.png"
       y="0"
       x="0"
       id="image10"
       height="3503"
       width="2481" />
  </g>
  <g
     inkscape:label="speechbubbles"
     id="layer3"
     inkscape:groupmode="layer">
    <path
       sodipodi:nodetypes="zssssz"
       inkscape:connector-curvature="0"
       id="path4040-4-4"
       d="m 182.76397,1465.7391 c 37.53875,-18.1729 362.53007,-29.1591 448.61167,0.7068 71.85106,24.9287 43.81709,87.0105 -20.08298,101.31 -63.89995,14.2994 -276.47185,12.6396 -369.63728,6.1562 -88.70635,-6.1722 -103.6015,-24.8042 -107.96492,-62.3178 -1.78087,-15.3116 11.53453,-27.6823 49.07351,-45.8552 z"
       style="color:#000000;display:inline;overflow:visible;visibility:visible;fill:#ffffff;fill-opacity:1;fill-rule:nonzero;stroke:none;stroke-width:0.827006px;marker:none;enable-background:accumulate" />
    <path
       sodipodi:nodetypes="ccccccccccccccccccccc"
       inkscape:connector-curvature="0"
       id="path4496-8"
       d="m 232.88521,1768.8989 c -15.49911,-4.3258 -30.36527,-25.9083 -39.85487,-45.1151 -2.6023,-5.5279 -4.9768,-11.4623 -5.91137,-17.7034 0.23014,-6.7406 4.6456,-11.9989 9.68489,-14.2208 7.08756,-3.8231 15.87763,-4.2925 21.36573,-11.5454 3.88883,-5.3975 2.44347,-12.8787 1.69304,-19.2745 -2.17932,-16.2588 -6.20379,-32.2732 -6.21379,-48.8483 -1.02235,-18.6687 -0.97071,-38.3918 6.06435,-55.4786 2.87848,-6.7043 6.67303,-13.2274 12.33892,-16.8574 14.17763,-10.1059 33.45012,-10.5499 47.30692,0.9314 8.26682,8.3259 10.21944,25.1454 2.569,34.7308 -3.97524,5.1331 -10.21215,6.1902 -15.7493,5.1661 -10.4586,0.3997 -20.04905,8.0914 -25.18673,18.8336 -4.36159,8.7814 -6.37218,19.1354 -6.13892,29.3576 -2.73879,13.9759 2.82926,27.469 5.69121,40.7504 1.23215,6.0908 2.19987,12.6668 0.87478,18.791 -3.62099,8.1775 -11.75152,10.5256 -18.8271,11.5577 -7.27261,1.2901 -15.83507,1.7981 -20.79951,9.2364 -4.02698,4.5998 -0.25135,11.0835 0.90045,16.2897 5.52666,16.1978 15.18264,30.1517 26.62182,40.8647 1.15331,0.9227 2.35952,1.7296 3.57048,2.5341 z"
       style="color:#000000;display:inline;overflow:visible;visibility:visible;fill:#ffffff;fill-opacity:1;fill-rule:nonzero;stroke:none;stroke-width:1.10661px;marker:none;enable-background:accumulate" />
    <path
       sodipodi:nodetypes="csssc"
       inkscape:connector-curvature="0"
       id="path3280-10"
       d="m 2079.0654,3222.9637 c -56.4634,0.1271 -113.7372,1.6382 -168.2237,11.4143 -25.988,4.8384 -51.631,12.653 -69.0393,25.6818 -18.1174,14.1177 -25.0246,32.6393 -22.9838,50.2791 2.1847,17.0182 12.1101,34.1292 31.4031,46.7999 15.1541,9.8667 35.4406,16.1697 56.3019,20.3854 47.4974,9.7548 98.3047,9.6768 147.865,9.5562 48.111,-0.3551 96.2694,0.6276 144.3399,-0.9725 27.0181,-1.0422 54.222,-2.5125 80.411,-6.8875 23.3447,-3.9505 46.521,-10.7406 61.8384,-22.5051 10.9194,-8.096 17.673,-17.9808 21.1907,-28.1634 5.1979,-14.4733 5.1121,-29.5777 0.8308,-44.1306 -4.3638,-13.0684 -15.445,-25.6072 -33.1052,-33.7814 -22.7015,-11.0215 -50.9864,-16.635 -79.0303,-20.3391 -39.6206,-5.033 -80.2207,-6.0005 -120.549,-6.9701 -17.0785,-0.2901 -34.1649,-0.382 -51.2495,-0.367 z"
       style="fill:#ffffff;stroke:none;stroke-width:0.812794" />
    <path
       inkscape:connector-curvature="0"
       id="path3072-56"
       d="m 2258.8521,3107.9773 c 29.4607,39.0283 37.4962,54.495 5.4884,103.1911 -32.008,48.6949 -12.3313,58.5128 -12.3313,58.5128 l 37.4463,-17.7293 c 0,0 60.5024,-107.9345 -30.6034,-143.9746 z"
       style="color:#000000;display:inline;overflow:visible;visibility:visible;fill:#ffffff;fill-opacity:1;fill-rule:nonzero;stroke:none;stroke-width:1px;marker:none;enable-background:accumulate" />
    <path
       sodipodi:nodetypes="csssc"
       inkscape:connector-curvature="0"
       id="path3280-8-1"
       d="m 845.77734,1498.6622 c -31.05981,0.4196 -62.54592,2.8984 -90.94882,9.6415 -22.34202,5.521 -39.92529,16.1863 -45.66446,28.6567 -4.62112,9.7262 -4.06662,19.8267 -3.60821,29.7598 0.70661,8.9442 3.82464,18.1361 13.10627,25.8578 11.82479,9.9637 31.90376,16.8682 53.57332,19.9489 29.84613,4.7503 61.37069,5.3684 92.38563,5.4635 36.55044,0.01 73.44367,0.197 109.46651,-3.4435 20.55795,-2.5256 40.38832,-7.967 53.56462,-16.6333 11.38,-7.7748 16.1302,-17.5183 18.0161,-27.054 2.223,-12.9397 -1.7703,-26.0671 -10.2874,-38.2599 -8.5856,-10.8255 -26.2544,-19.4423 -47.1019,-23.941 -18.52538,-4.1808 -38.56465,-6.1453 -58.45786,-7.7079 -27.8239,-2.0147 -55.98618,-2.3348 -84.0438,-2.2886 z"
       style="display:inline;fill:#ffffff;stroke:none;stroke-width:0.624509" />
    <path
       sodipodi:nodetypes="csssc"
       inkscape:connector-curvature="0"
       id="path3280-8-1-0"
       d="m 1298.8013,1554.7676 c -47.1865,0.1859 -95.1192,2.7301 -140.1501,14.7579 -28.0701,7.9046 -54.2573,21.9943 -70.4235,42.1864 -4.1914,6.1859 -6.3109,13.1149 -8.2122,19.9307 -6.5964,26.5744 1.6257,55.9059 24.6847,76.2394 21.2745,18.963 51.0428,30.7398 81.7035,36.8911 37.6959,7.6425 76.8924,8.978 115.6197,8.0048 55.5507,-0.7214 110.6592,-6.862 165.6783,-12.4598 25.495,-2.8929 51.2773,-6.7917 74.6229,-15.7679 25.6178,-10.3243 46.9323,-28.8254 53.6646,-51.3618 8.0189,-25.6354 0.2454,-54.5318 -22.0188,-74.3863 -11.7842,-10.33 -27.8677,-16.6818 -44.1955,-21.2392 -20.6805,-5.7601 -42.221,-9.2441 -63.6833,-12.5894 -55.1243,-8.0499 -111.3264,-10.4207 -167.2903,-10.2059 z"
       style="display:inline;fill:#ffffff;stroke:none;stroke-width:0.77544" />
    <path
       sodipodi:nodetypes="csssc"
       inkscape:connector-curvature="0"
       id="path3280-8-1-0-6"
       d="m 1855.7268,1594.2021 c -50.8635,0.4846 -101.994,1.5143 -152.2572,8.1106 -26.6456,4.3178 -52.6926,15.6556 -66.6355,34.5349 -16.1469,20.6232 -16.2568,45.8048 -14.059,69.1628 2.325,20.6505 8.081,41.4051 19.9364,60.0315 14.7896,19.5274 41.8202,31.6549 69.793,35.8244 44.4643,8.866 90.5407,10.3508 136.094,12.9593 89.9381,3.3163 180.0083,1.7489 269.9903,0.7514 62.4055,-1.8487 125.8801,-6.2289 184.7244,-23.7131 32.0542,-12.1268 51.5346,-39.3486 54.0341,-66.6132 4.5436,-30.7122 -2.4156,-63.2607 -24.0863,-89.4435 -16.7415,-18.9519 -43.8018,-31.8052 -72.8689,-35.0792 -40.2898,-6.0606 -81.512,-3.0197 -122.2119,-5.1947 -85.9869,-1.7806 -172.0135,-0.5692 -258.0155,-1.3785 -8.1462,-0.01 -16.2921,-0.025 -24.4379,0.047 z"
       style="display:inline;fill:#ffffff;stroke:none;stroke-width:0.726348" />
    <path
       sodipodi:nodetypes="cccccccccccccc"
       inkscape:transform-center-y="80.02882"
       inkscape:transform-center-x="-13.453102"
       inkscape:connector-curvature="0"
       id="path4456-8"
       d="m 1791.8361,1770.8191 c -12.833,-0.6526 -23.8662,8.7491 -27.831,19.5381 -19.6036,19.4059 -1.839,-8.6641 -6.4214,4.8364 -13.5019,11.0957 -15.4266,35.2523 -15.8537,65.4931 -5.2817,5.1994 -14.9376,-8.1861 -19.6475,-2.164 -4.937,10.3078 -6.0593,21.8252 -6.4897,33.0281 -0.3179,32.1806 14.1211,63.8185 37.0812,87.8622 7.5298,8.5773 15.2692,16.9924 22.966,25.4398 -17.5595,-23.2829 -32.5888,-49.3497 -36.2923,-77.8541 -1.1276,-8.6692 1.6106,-30.4788 3.0954,-39.0712 10.4198,2.2428 18.5432,14.1601 29.054,13.5885 -3.9254,-39.033 12.0854,-78.9568 32.5429,-100.807 3.2112,-8.5188 -4.1806,-18.0085 -1.2971,-26.6329 -3.0138,-2.4158 -7.0942,-3.0258 -10.9068,-3.257 z"
       style="color:#000000;display:inline;overflow:visible;visibility:visible;fill:#ffffff;fill-opacity:1;fill-rule:nonzero;stroke:none;stroke-width:0.999999px;marker:none;enable-background:accumulate" />
    <path
       sodipodi:nodetypes="cccccccc"
       inkscape:connector-curvature="0"
       id="path5066-6"
       d="m 820.0369,1595.6923 c -3.48578,39.7252 -1.62886,86.2092 5.54134,93.7569 -12.06557,-4.746 -23.61413,-7.3843 -32.58824,-9.1289 -2.74679,19.0391 9.33544,52.9316 19.75971,79.3624 -34.85384,-28.0115 -46.11754,-83.8349 -45.91311,-113.8427 11.20297,7.5747 21.79689,11.4361 28.26889,11.3872 1.30177,-15.339 -8.85591,-66.1714 -9.7642,-66.4676 z"
       style="color:#000000;display:inline;overflow:visible;visibility:visible;fill:#ffffff;fill-opacity:1;fill-rule:nonzero;stroke:none;stroke-width:1px;marker:none;enable-background:accumulate" />
    <path
       sodipodi:nodetypes="csccc"
       inkscape:connector-curvature="0"
       id="path3063-1-0"
       d="m 1221.5765,1928.3208 c -44.4885,-30.4335 -65.5015,-120.9246 -25.0786,-163.4599 23.8495,-25.0955 36.2779,-40.3926 36.2779,-40.3926 l -33.7128,-17.199 c -98.5183,93.7979 -30.177,190.842 22.5135,221.0515 z"
       style="display:inline;fill:#ffffff;stroke:none;stroke-width:1" />
  </g>
  <g
     inkscape:label="txt"
     id="layer1"
     inkscape:groupmode="layer">
    <text
       id="text4246-70-2-2-2-7-4"
       y="1530.5175"
       x="408.42657"
       style="font-style:normal;font-variant:normal;font-weight:normal;font-stretch:normal;font-size:48.2957px;line-height:125%;font-family:'Xiaolai SC';-inkscape-font-specification:'Xiaolai SC';text-align:center;letter-spacing:0px;word-spacing:0px;text-anchor:middle;fill:#000000;fill-opacity:1;stroke:none;stroke-width:0.999999"
       xml:space="preserve"><tspan
         id="tspan2734"
         y="1530.5175"
         x="408.42657"
         style="font-style:normal;font-variant:normal;font-weight:normal;font-stretch:normal;font-size:48.2957px;font-family:'Xiaolai SC';-inkscape-font-specification:'Xiaolai SC';stroke-width:0.999999"
         sodipodi:role="line">人类，你为何来此地？</tspan></text>
    <text
       id="text4246-70-2-2-2-7-4-3"
       y="1575.3798"
       x="885.45935"
       style="font-style:normal;font-variant:normal;font-weight:normal;font-stretch:normal;font-size:49.0523px;line-height:125%;font-family:'Xiaolai SC';-inkscape-font-specification:'Xiaolai SC';text-align:center;letter-spacing:0px;word-spacing:0px;text-anchor:middle;fill:#000000;fill-opacity:1;stroke:none;stroke-width:1"
       xml:space="preserve"><tspan
         id="tspan61"
         y="1575.3798"
         x="885.45935"
         style="font-style:normal;font-variant:normal;font-weight:normal;font-stretch:normal;font-size:49.0523px;font-family:'Xiaolai SC';-inkscape-font-specification:'Xiaolai SC';stroke-width:1"
         sodipodi:role="line">拜见神凰！</tspan></text>
    <text
       id="text4246-70-2-2-2-7-4-3-5"
       y="1625.8955"
       x="1339.7142"
       style="font-style:normal;font-variant:normal;font-weight:normal;font-stretch:normal;font-size:45.3333px;line-height:125%;font-family:'Xiaolai SC';-inkscape-font-specification:'Xiaolai SC';text-align:center;letter-spacing:0px;word-spacing:0px;text-anchor:middle;fill:#000000;fill-opacity:1;stroke:none"
       xml:space="preserve"><tspan
         id="tspan11204"
         y="1625.8955"
         x="1339.7142"
         style="font-style:normal;font-variant:normal;font-weight:normal;font-stretch:normal;font-size:45.3333px;font-family:'Xiaolai SC';-inkscape-font-specification:'Xiaolai SC'"
         sodipodi:role="line">我叫小辣椒，</tspan><tspan
         id="tspan69"
         y="1682.5621"
         x="1339.7142"
         style="font-style:normal;font-variant:normal;font-weight:normal;font-stretch:normal;font-size:45.3333px;font-family:'Xiaolai SC';-inkscape-font-specification:'Xiaolai SC'"
         sodipodi:role="line">是混沌阿的一名女巫。</tspan></text>
    <text
       id="text4246-70-2-2-2-7-4-3-5-6"
       y="1689.134"
       x="1993.803"
       style="font-style:normal;font-variant:normal;font-weight:normal;font-stretch:normal;font-size:45.3333px;line-height:125%;font-family:'Xiaolai SC';-inkscape-font-specification:'Xiaolai SC';text-align:center;letter-spacing:0px;word-spacing:0px;text-anchor:middle;fill:#000000;fill-opacity:1;stroke:none"
       xml:space="preserve"><tspan
         id="tspan5788"
         y="1689.134"
         x="1993.803"
         style="font-style:normal;font-variant:normal;font-weight:normal;font-stretch:normal;font-size:45.3333px;font-family:'Xiaolai SC';-inkscape-font-specification:'Xiaolai SC'"
         sodipodi:role="line">近日我因为接收了大量龙的灵力，</tspan><tspan
         id="tspan79"
         y="1745.8007"
         x="1993.803"
         style="font-style:normal;font-variant:normal;font-weight:normal;font-stretch:normal;font-size:45.3333px;font-family:'Xiaolai SC';-inkscape-font-specification:'Xiaolai SC'"
         sodipodi:role="line">身上出现了这种日益增长的瘢痕…</tspan></text>
    <text
       id="text4246-70-2-2-2-7-4-3-5-6-2"
       y="3294.6089"
       x="2112.2217"
       style="font-style:normal;font-variant:normal;font-weight:normal;font-stretch:normal;font-size:45.3333px;line-height:125%;font-family:'Xiaolai SC';-inkscape-font-specification:'Xiaolai SC';text-align:center;letter-spacing:0px;word-spacing:0px;text-anchor:middle;fill:#000000;fill-opacity:1;stroke:none"
       xml:space="preserve"><tspan
         id="tspan517"
         y="3294.6089"
         x="2112.2217"
         style="font-style:normal;font-variant:normal;font-weight:normal;font-stretch:normal;font-size:45.3333px;font-family:'Xiaolai SC';-inkscape-font-specification:'Xiaolai SC'"
         sodipodi:role="line">它禁锢了我的魔力</tspan><tspan
         id="tspan85"
         y="3351.2756"
         x="2112.2217"
         style="font-style:normal;font-variant:normal;font-weight:normal;font-stretch:normal;font-size:45.3333px;font-family:'Xiaolai SC';-inkscape-font-specification:'Xiaolai SC'"
         sodipodi:role="line">并可能将我置于死地。</tspan></text>
  </g>
</svg>
