<?xml version="1.0" encoding="UTF-8" standalone="no"?>
<svg
   xmlns:dc="http://purl.org/dc/elements/1.1/"
   xmlns:cc="http://creativecommons.org/ns#"
   xmlns:rdf="http://www.w3.org/1999/02/22-rdf-syntax-ns#"
   xmlns:svg="http://www.w3.org/2000/svg"
   xmlns="http://www.w3.org/2000/svg"
   xmlns:xlink="http://www.w3.org/1999/xlink"
   xmlns:sodipodi="http://sodipodi.sourceforge.net/DTD/sodipodi-0.dtd"
   xmlns:inkscape="http://www.inkscape.org/namespaces/inkscape"
   sodipodi:docname="E37P03.svg"
   height="3503"
   width="2481"
   inkscape:version="1.0 (4035a4fb49, 2020-05-01)"
   version="1.1"
   id="svg2">
  <metadata
     id="metadata8">
    <rdf:RDF>
      <cc:Work
         rdf:about="">
        <dc:format>image/svg+xml</dc:format>
        <dc:type
           rdf:resource="http://purl.org/dc/dcmitype/StillImage" />
        <dc:title />
      </cc:Work>
    </rdf:RDF>
  </metadata>
  <defs
     id="defs6" />
  <sodipodi:namedview
     inkscape:document-rotation="0"
     inkscape:deskcolor="#d1d1d1"
     inkscape:showpageshadow="0"
     inkscape:pagecheckerboard="0"
     inkscape:current-layer="layer3"
     inkscape:window-maximized="1"
     inkscape:window-y="-8"
     inkscape:window-x="-8"
     inkscape:cy="3080.9813"
     inkscape:cx="1193.2036"
     inkscape:zoom="0.46086259"
     showgrid="false"
     id="namedview4"
     inkscape:window-height="715"
     inkscape:window-width="1366"
     inkscape:pageshadow="2"
     inkscape:pageopacity="0"
     guidetolerance="10"
     gridtolerance="10"
     objecttolerance="10"
     borderopacity="1"
     bordercolor="#666666"
     pagecolor="#ffffff" />
  <g
     sodipodi:insensitive="true"
     inkscape:label="artwork"
     id="layer2"
     inkscape:groupmode="layer">
    <image
       sodipodi:absref="D:\Pepper&amp;Carrot translation\ep37_The-Tears-of-the-Phoenix\lang\gfx_Pepper-and-Carrot_by-David-Revoy_E37P03.png"
       xlink:href="../gfx_Pepper-and-Carrot_by-David-Revoy_E37P03.png"
       y="0"
       x="0"
       id="image10"
       height="3503"
       width="2481" />
  </g>
  <g
     inkscape:label="speechbubbles"
     id="layer3"
     inkscape:groupmode="layer">
    <path
       sodipodi:nodetypes="csssscssssssc"
       inkscape:connector-curvature="0"
       id="path3023-2"
       d="m 410.11657,399.47705 c -28.0754,-14.3263 -28.0705,-24.1088 -27.1393,-35.2675 0.931,-11.1588 3.0258,-21.2089 -1.8373,-26.595 -4.8629,-5.386 -13.8837,-9.0868 -20.965,-10.9398 -7.0813,-1.8531 -2.5775,-10.1539 -3.484,-17.7934 -0.9066,-7.6396 -20.1711,-44.6458 -20.1711,-44.6458 0,0 -10.2917,29.7203 -10.4833,39.7014 -0.1918,9.981 -0.313,13.6298 0.7147,17.6205 1.0279,3.9908 5.0156,13.4366 11.7527,17.2202 6.7371,3.7836 14.9313,4.0618 20.6767,5.7715 5.7455,1.7096 6.255,10.5032 7.37,19.0942 1.1149,8.591 3.3294,14.6482 14.8496,23.6641 9.8749,7.7284 28.7163,12.1696 28.7163,12.1696 z"
       style="fill:#ffffff;stroke:none" />
    <path
       sodipodi:nodetypes="ccscc"
       inkscape:connector-curvature="0"
       id="path4035-4"
       d="m 390.40392,849.26117 c -16.6818,-24.82678 6.70933,-94.25013 56.4409,-100.94979 -22.32483,1.35916 -74.47842,-5.24564 -96.28686,102.62894 -9.86485,48.79671 26.31789,-1.15111 26.31789,-1.15111 z"
       style="color:#000000;display:inline;overflow:visible;visibility:visible;fill:#ffffff;fill-opacity:1;fill-rule:nonzero;stroke:none;stroke-width:0.999998px;marker:none;enable-background:accumulate" />
    <path
       sodipodi:nodetypes="zssssz"
       inkscape:connector-curvature="0"
       id="path4040-4-5-3"
       d="m 282.78926,830.83424 c -31.85761,0.2606 -64.22618,3.01718 -93.75237,11.5717 -27.24971,8.61907 -50.30527,23.7606 -62.60911,42.53011 -7.04304,12.50846 -7.48931,26.09448 -8.13182,39.31567 -0.22528,12.26911 1.49099,25.02091 10.00446,36.04992 10.54474,13.22596 29.11354,22.64256 49.01937,28.61976 16.81134,5.14968 35.36609,6.58279 53.52245,7.79219 30.70634,1.73127 61.55265,1.11554 92.31828,0.71801 28.30766,-0.37561 56.93509,-3.13423 83.18066,-10.65954 14.73673,-4.23957 29.44697,-9.46312 40.2194,-17.72157 9.28163,-7.24858 14.62837,-16.50008 16.79627,-25.9346 3.21105,-12.70403 2.2858,-25.72663 -0.27822,-38.44209 -4.0458,-17.31794 -13.82619,-34.44174 -31.25962,-47.56313 -15.93206,-11.69822 -38.07921,-18.81236 -60.89773,-21.70939 -28.94331,-4.13208 -58.66658,-4.6228 -88.13202,-4.56704 z"
       style="color:#000000;display:inline;overflow:visible;visibility:visible;fill:#ffffff;fill-opacity:1;fill-rule:nonzero;stroke:none;stroke-width:0.829568px;marker:none;enable-background:accumulate" />
    <path
       sodipodi:nodetypes="zssssz"
       inkscape:connector-curvature="0"
       id="path4040-4-5-3-5"
       d="m 261.52906,118.83298 c -29.05032,0.30064 -58.56657,3.48084 -85.49092,13.34999 -24.84846,9.94361 -45.87236,27.41201 -57.09199,49.06593 -6.4224,14.43071 -6.82935,30.10456 -7.41524,45.35753 -0.20543,14.15456 1.35961,28.86599 9.12286,41.58989 9.61554,15.25846 26.54806,26.12217 44.69979,33.01791 15.32992,5.94106 32.24962,7.59441 48.80605,8.98966 28.0005,1.99733 56.12863,1.28697 84.18319,0.82835 25.8132,-0.43333 51.91798,-3.61588 75.85077,-12.29765 13.43814,-4.89108 26.85211,-10.91737 36.67528,-20.44493 8.46372,-8.36252 13.33932,-19.03575 15.31617,-29.92011 2.9281,-14.65632 2.08438,-29.68018 -0.2537,-44.34969 -3.68928,-19.97928 -12.60782,-39.73459 -28.50502,-54.87241 -14.52812,-13.49595 -34.72366,-21.70336 -55.53142,-25.04558 -26.39282,-4.76709 -53.49688,-5.33322 -80.36582,-5.26889 z"
       style="color:#000000;display:inline;overflow:visible;visibility:visible;fill:#ffffff;fill-opacity:1;fill-rule:nonzero;stroke:none;stroke-width:0.817799px;marker:none;enable-background:accumulate" />
    <path
       sodipodi:nodetypes="csssc"
       inkscape:connector-curvature="0"
       id="path3280-8-2"
       d="m 1376.3294,115.689 c -54.2868,0.48872 -109.1281,2.13615 -161.6946,9.42614 -24.4957,3.45243 -47.8144,10.23528 -63.0828,20.62176 -12.6611,8.52129 -18.3937,19.18359 -19.7001,29.6701 -0.6067,6.65197 0.2798,13.42434 3.9217,19.84794 7.2193,11.14778 26.4635,19.6065 48.2395,23.36057 26.8659,5.21529 55.5867,7.29916 84.0937,8.76264 44.943,2.5204 90.0055,4.65016 135.1938,5.65875 22.1673,0.49336 44.3613,0.33861 66.5296,-0.0325 51.3849,-0.61477 102.8057,-0.56022 154.1637,-1.66601 33.7594,-0.88075 68.2695,-2.87919 99.2369,-10.11431 23.0446,-5.67918 41.2524,-16.33837 47.6069,-28.88017 7.4962,-13.35006 3.8762,-28.73768 -13.5564,-39.81094 -15.4324,-9.77836 -38.3693,-15.6113 -61.388,-19.69312 -36.1849,-6.47236 -74.3634,-9.41629 -112.2951,-11.975 -67.0552,-4.2357 -134.7378,-5.36455 -202.2709,-5.21247 -1.6659,0.0123 -3.3319,0.0245 -4.9979,0.0366 z"
       style="display:inline;fill:#ffffff;stroke:none;stroke-width:0.860754" />
    <path
       sodipodi:nodetypes="cscsccc"
       inkscape:connector-curvature="0"
       id="path3365-7"
       d="m 1432.4972,197.75699 c -52.3514,0.31791 -105.3192,6.12265 -149.0301,18.59053 -40.0536,12.18625 -66.5607,32.48249 -66.8406,53.50467 -0.1154,17.40726 20.4838,34.35917 52.6065,45.06884 27.4051,9.31441 61.2095,14.46034 95.1385,17.68718 53.2171,5.24802 108.1594,7.37939 162.7308,6.11001 34.7398,-0.74707 69.1912,-2.95377 103.419,-5.49466 24.9498,-1.94257 49.941,-4.71979 72.0983,-10.10879 21.4426,-5.05344 39.984,-12.47096 51.7499,-21.64473 17.759,-13.64392 21.9228,-30.02699 14.8753,-45.20433 -8.3995,-17.6127 -34.9399,-33.75968 -72.4709,-42.3451 -31.6679,-7.59865 -67.8244,-10.86206 -103.5215,-12.98269 -49.3649,-2.73996 -99.2449,-2.76168 -148.9349,-3.18284 -3.9401,-0.005 -7.8802,-4.8e-4 -11.8203,0.002 z"
       style="color:#000000;display:inline;overflow:visible;visibility:visible;fill:#ffffff;fill-opacity:1;fill-rule:nonzero;stroke:none;stroke-width:0.870393px;marker:none;enable-background:accumulate" />
    <path
       sodipodi:nodetypes="cscsc"
       inkscape:transform-center-y="-147.57618"
       inkscape:transform-center-x="-30.354172"
       inkscape:connector-curvature="0"
       id="path1357"
       d="m 1596.9101,315.4405 c -6.3324,4.61753 23.1312,48.65505 53.6406,67.52901 38.9988,24.12578 110.398,24.68767 129.6304,16.32406 -39.7827,19.67647 -149.3792,28.19479 -213.5351,-59.72898 -15.2092,-20.84384 30.2641,-24.12409 30.2641,-24.12409 z"
       style="fill:#ffffff;fill-rule:evenodd;stroke:none;stroke-width:0.999999px;stroke-linecap:butt;stroke-linejoin:miter;stroke-opacity:1" />
    <path
       sodipodi:nodetypes="cssssc"
       inkscape:connector-curvature="0"
       id="path4546-6-5"
       d="m 140.95246,2727.265 c 3.65177,-28.7458 46.26579,-49.7272 156.70777,-44.1805 59.15858,2.971 126.34267,4.9553 121.67942,47.0664 -4.6633,42.1114 -101.23983,40.9081 -121.18533,41.8681 -19.94559,0.9603 -123.76463,-3.586 -141.83043,-17.9352 -11.3087,-8.9821 -15.75624,-17.9154 -15.37143,-26.8188 z"
       style="color:#000000;display:inline;overflow:visible;visibility:visible;fill:#ffffff;fill-opacity:1;fill-rule:nonzero;stroke:none;stroke-width:1.05714px;marker:none;enable-background:accumulate" />
    <path
       sodipodi:nodetypes="cssssc"
       inkscape:connector-curvature="0"
       id="path4546-6-5-2"
       d="m 870.04126,3207.697 c 4.27123,-58.033 54.11395,-100.391 183.29034,-89.1932 69.1938,5.9979 147.7744,10.0039 142.3202,95.0194 -5.4543,85.0161 -118.4134,82.5869 -141.7423,84.5249 -23.329,1.9386 -144.75898,-7.2396 -165.88932,-36.2081 -13.22702,-18.1336 -18.429,-36.1684 -17.97892,-54.143 z"
       style="color:#000000;display:inline;overflow:visible;visibility:visible;fill:#ffffff;fill-opacity:1;fill-rule:nonzero;stroke:none;stroke-width:1.26831px;marker:none;enable-background:accumulate" />
    <path
       sodipodi:nodetypes="csssssssscc"
       inkscape:connector-curvature="0"
       id="path1289"
       d="m 1373.2637,3288.0748 c 22.5866,-15.1934 34.5507,-14.5004 58.8747,-15.9704 24.3239,-1.4706 84.3852,-4.7815 108.13,-0.8609 23.745,3.9209 46.3316,8.3322 52.123,13.7233 5.7914,5.391 19.6908,21.0747 19.6908,27.9364 0,6.8616 8.108,29.4065 -6.9497,44.1101 -15.0577,14.7033 -30.1154,25.486 -57.3351,24.9958 -27.2198,-0.4902 -64.8641,0 -82.8176,0.4902 -17.9534,0.4896 -72.972,-5.8818 -82.8174,-18.6243 -9.8454,-12.7429 -23.7449,-31.8574 -21.4283,-42.6401 2.3166,-10.7822 12.5296,-33.1601 12.5296,-33.1601 z"
       style="fill:#ffffff;fill-rule:evenodd;stroke:none;stroke-width:0.923467px;stroke-linecap:butt;stroke-linejoin:miter;stroke-opacity:1" />
    <path
       inkscape:connector-curvature="0"
       id="path1367-3"
       d="m 1520.7213,3290.478 c 0,0 0.2613,-30.8716 9.7849,-41.8248 9.5236,-10.953 35.9725,-32.826 61.189,-35.0384 -49.4537,-3.6057 -69.9603,11.1043 -78.3427,19.1018 -8.3839,7.9982 -32.4023,48.2786 -32.4023,48.2786 z"
       style="fill:#ffffff;fill-rule:evenodd;stroke:none;stroke-width:1px;stroke-linecap:butt;stroke-linejoin:miter;stroke-opacity:1" />
    <path
       sodipodi:nodetypes="ccszc"
       inkscape:connector-curvature="0"
       id="path4064-5"
       d="m 303.81322,2746.3551 c -13.44223,35.2759 -28.63005,94.9961 57.30853,115.005 -17.80709,4.5085 -119.29491,-9.1273 -91.99905,-114.8163 7.92058,-30.6682 15.69642,-16.5134 23.06049,-15.8694 7.36416,0.6441 11.63003,15.6807 11.63003,15.6807 z"
       style="color:#000000;display:inline;overflow:visible;visibility:visible;fill:#ffffff;fill-opacity:1;fill-rule:nonzero;stroke:none;stroke-width:1px;marker:none;enable-background:accumulate" />
    <path
       sodipodi:nodetypes="cccc"
       inkscape:connector-curvature="0"
       id="path3978-4"
       d="m 985.81867,3194.6677 c 41.23993,-57.572 33.73823,-151.8082 -50.60213,-153.341 81.57176,24.5899 42.90889,109.9963 14.4588,139.3816 -19.62934,16.6806 36.14333,13.9594 36.14333,13.9594 z"
       style="color:#000000;display:inline;overflow:visible;visibility:visible;fill:#ffffff;fill-opacity:1;fill-rule:nonzero;stroke:none;stroke-width:1px;marker:none;enable-background:accumulate" />
  </g>
  <g
     inkscape:label="txt"
     id="layer1"
     inkscape:groupmode="layer">
    <text
       id="text4246-70-2-2-2-7-4-9-9-6-1-2-3-9-2-7-9-3"
       y="206.02557"
       x="266.01624"
       style="font-style:normal;font-variant:normal;font-weight:normal;font-stretch:normal;font-size:45.3333px;line-height:125%;font-family:'Xiaolai SC';-inkscape-font-specification:'Xiaolai SC';text-align:center;letter-spacing:0px;word-spacing:0px;text-anchor:middle;fill:#000000;fill-opacity:1;stroke:none"
       xml:space="preserve"><tspan
         id="tspan55"
         y="206.02557"
         x="266.01624"
         style="font-style:normal;font-variant:normal;font-weight:normal;font-stretch:normal;font-size:45.3333px;font-family:'Xiaolai SC';-inkscape-font-specification:'Xiaolai SC'"
         sodipodi:role="line">这些告示真是</tspan><tspan
         id="tspan57"
         y="262.69223"
         x="266.01624"
         style="font-style:normal;font-variant:normal;font-weight:normal;font-stretch:normal;font-size:45.3333px;font-family:'Xiaolai SC';-inkscape-font-specification:'Xiaolai SC'"
         sodipodi:role="line">无所不在…</tspan></text>
    <text
       id="text4246-70-2-2-2-7-4-9-9-6-1-2-3-9-2-7-9-3-3"
       y="905.20752"
       x="298.22104"
       style="font-style:normal;font-variant:normal;font-weight:normal;font-stretch:normal;font-size:45.3333px;line-height:125%;font-family:'Xiaolai SC';-inkscape-font-specification:'Xiaolai SC';text-align:center;letter-spacing:0px;word-spacing:0px;text-anchor:middle;fill:#000000;fill-opacity:1;stroke:none"
       xml:space="preserve"><tspan
         id="tspan63"
         y="905.20752"
         x="298.22104"
         style="font-style:normal;font-variant:normal;font-weight:normal;font-stretch:normal;font-size:45.3333px;font-family:'Xiaolai SC';-inkscape-font-specification:'Xiaolai SC'"
         sodipodi:role="line">连这么偏远</tspan><tspan
         id="tspan85"
         y="961.87415"
         x="298.22104"
         style="font-style:normal;font-variant:normal;font-weight:normal;font-stretch:normal;font-size:45.3333px;font-family:'Xiaolai SC';-inkscape-font-specification:'Xiaolai SC'"
         sodipodi:role="line">的地方都有。</tspan></text>
    <text
       id="text4246-70-2-2-2-7-4-9-9-6-1-2-3-9-2-7-9-3-6"
       y="190.82588"
       x="1473.6973"
       style="font-style:normal;font-variant:normal;font-weight:normal;font-stretch:normal;font-size:45.3333px;line-height:125%;font-family:'Xiaolai SC';-inkscape-font-specification:'Xiaolai SC';text-align:center;letter-spacing:0px;word-spacing:0px;text-anchor:middle;fill:#000000;fill-opacity:1;stroke:none"
       xml:space="preserve"><tspan
         id="tspan20012"
         y="190.82588"
         x="1473.6973"
         style="font-style:normal;font-variant:normal;font-weight:normal;font-stretch:normal;font-size:45.3333px;font-family:'Xiaolai SC';-inkscape-font-specification:'Xiaolai SC'"
         sodipodi:role="line">走，在引起注意前赶紧离开。</tspan></text>
    <text
       id="text4246-70-2-2-2-7-4-9-9-6-1-2-3-9-2-7-9-3-6-7"
       y="289.16437"
       x="1502.5259"
       style="font-style:normal;font-variant:normal;font-weight:normal;font-stretch:normal;font-size:45.3333px;line-height:125%;font-family:'Xiaolai SC';-inkscape-font-specification:'Xiaolai SC';text-align:center;letter-spacing:0px;word-spacing:0px;text-anchor:middle;fill:#000000;fill-opacity:1;stroke:none"
       xml:space="preserve"><tspan
         id="tspan617"
         y="289.16437"
         x="1502.5259"
         style="font-style:normal;font-variant:normal;font-weight:normal;font-stretch:normal;font-size:45.3333px;font-family:'Xiaolai SC';-inkscape-font-specification:'Xiaolai SC'"
         sodipodi:role="line">咱们有更重要的事情要做。</tspan></text>
    <text
       id="text4246-70-2-2-2-7-4-9-9-6-1-2-3-9-2-7-9-3-6-7-3"
       y="2745.0156"
       x="283.36295"
       style="font-style:normal;font-variant:normal;font-weight:normal;font-stretch:normal;font-size:45.3333px;line-height:125%;font-family:'Xiaolai SC';-inkscape-font-specification:'Xiaolai SC';text-align:center;letter-spacing:0px;word-spacing:0px;text-anchor:middle;fill:#000000;fill-opacity:1;stroke:none"
       xml:space="preserve"><tspan
         id="tspan62644"
         y="2745.0156"
         x="283.36295"
         style="font-style:normal;font-variant:normal;font-weight:normal;font-stretch:normal;font-size:45.3333px;font-family:'Xiaolai SC';-inkscape-font-specification:'Xiaolai SC'"
         sodipodi:role="line">这道光…</tspan></text>
    <text
       id="text4246-70-2-2-2-7-4-9-9-6-1-2-3-9-2-7-9-3-6-7-3-6"
       y="3189.4321"
       x="1041.7209"
       style="font-style:normal;font-variant:normal;font-weight:normal;font-stretch:normal;font-size:45.3333px;line-height:125%;font-family:'Xiaolai SC';-inkscape-font-specification:'Xiaolai SC';text-align:center;letter-spacing:0px;word-spacing:0px;text-anchor:middle;fill:#000000;fill-opacity:1;stroke:none"
       xml:space="preserve"><tspan
         id="tspan121879"
         y="3189.4321"
         x="1041.7209"
         style="font-style:normal;font-variant:normal;font-weight:normal;font-stretch:normal;font-size:45.3333px;font-family:'Xiaolai SC';-inkscape-font-specification:'Xiaolai SC'"
         sodipodi:role="line">看来我们离</tspan><tspan
         id="tspan81"
         y="3246.0989"
         x="1041.7209"
         style="font-style:normal;font-variant:normal;font-weight:normal;font-stretch:normal;font-size:45.3333px;font-family:'Xiaolai SC';-inkscape-font-specification:'Xiaolai SC'"
         sodipodi:role="line">它的巢不远了。</tspan></text>
    <text
       id="text4246-70-2-2-2-7-4-9-9-6-1-2-3-9-2-7-9-3-6-7-3-6-7"
       y="3343.748"
       x="1492.8531"
       style="font-style:normal;font-variant:normal;font-weight:normal;font-stretch:normal;font-size:48.525px;line-height:125%;font-family:'Xiaolai SC';-inkscape-font-specification:'Xiaolai SC';text-align:center;letter-spacing:0px;word-spacing:0px;text-anchor:middle;fill:#000000;fill-opacity:1;stroke:none;stroke-width:1"
       xml:space="preserve"><tspan
         id="tspan121879-0"
         y="3343.748"
         x="1492.8531"
         style="font-style:normal;font-variant:normal;font-weight:normal;font-stretch:normal;font-size:48.525px;font-family:'Xiaolai SC';-inkscape-font-specification:'Xiaolai SC';stroke-width:1"
         sodipodi:role="line">果然！</tspan></text>
  </g>
</svg>
