<?xml version="1.0" encoding="UTF-8" standalone="no"?>
<!-- Created with Inkscape (http://www.inkscape.org/) -->

<svg
   id="svg2"
   version="1.1"
   inkscape:version="1.1.1 (3bf5ae0d25, 2021-09-20, custom)"
   width="2481"
   height="3503"
   sodipodi:docname="E36P05.svg"
   xmlns:inkscape="http://www.inkscape.org/namespaces/inkscape"
   xmlns:sodipodi="http://sodipodi.sourceforge.net/DTD/sodipodi-0.dtd"
   xmlns:xlink="http://www.w3.org/1999/xlink"
   xmlns="http://www.w3.org/2000/svg"
   xmlns:svg="http://www.w3.org/2000/svg"
   xmlns:rdf="http://www.w3.org/1999/02/22-rdf-syntax-ns#"
   xmlns:cc="http://creativecommons.org/ns#"
   xmlns:dc="http://purl.org/dc/elements/1.1/">
  <metadata
     id="metadata8">
    <rdf:RDF>
      <cc:Work
         rdf:about="">
        <dc:format>image/svg+xml</dc:format>
        <dc:type
           rdf:resource="http://purl.org/dc/dcmitype/StillImage" />
        <dc:title />
      </cc:Work>
    </rdf:RDF>
  </metadata>
  <defs
     id="defs6">
    <filter
       inkscape:collect="always"
       style="color-interpolation-filters:sRGB"
       id="filter71410"
       x="-0.017062446"
       y="-0.056154443"
       width="1.0341249"
       height="1.1123089">
      <feGaussianBlur
         inkscape:collect="always"
         stdDeviation="2.9583482"
         id="feGaussianBlur71412" />
    </filter>
    <filter
       style="color-interpolation-filters:sRGB"
       id="filter4375-4-1-1-1-9-5-8-8-53"
       inkscape:label="soundFX1-Hippiah"
       x="-0.0014349399"
       y="-0.0055581411"
       width="1.0206821"
       height="1.0801105">
      <feFlood
         id="feFlood4377-7-9-0-8-1-7-3-1-4"
         flood-opacity="1"
         flood-color="rgb(43,143,96)"
         result="flood" />
      <feComposite
         id="feComposite4379-3-8-8-2-77-4-1-0-9"
         in2="SourceGraphic"
         in="flood"
         operator="in"
         result="composite1"
         baseFrequency="0.053999999999999999 0.053999999999999999" />
      <feMorphology
         id="feMorphology4393-1-0-49-8-9-3-0-1-0"
         operator="dilate"
         radius="6.2000000000000002"
         result="result3" />
      <feComposite
         id="feComposite4385-9-5-7-0-8-8-7-5-20"
         in2="result3"
         in="SourceGraphic"
         operator="over"
         result="fbSourceGraphic" />
      <feColorMatrix
         result="fbSourceGraphicAlpha"
         in="fbSourceGraphic"
         values="0 0 0 -1 0 0 0 0 -1 0 0 0 0 -1 0 0 0 0 1 0"
         id="feColorMatrix4544-9-1" />
      <feTurbulence
         id="feTurbulence4546-3-96"
         type="fractalNoise"
         numOctaves="5"
         seed="174"
         baseFrequency="0.053999999999999999 0.054054054054054057"
         result="turbulence" />
      <feDisplacementMap
         id="feDisplacementMap4548-8-21"
         in2="turbulence"
         in="fbSourceGraphic"
         scale="6.6"
         yChannelSelector="G"
         xChannelSelector="R"
         result="fbSourceGraphic" />
      <feColorMatrix
         result="fbSourceGraphicAlpha"
         in="fbSourceGraphic"
         values="0 0 0 -1 0 0 0 0 -1 0 0 0 0 -1 0 0 0 0 1 0"
         id="feColorMatrix4670-7-2" />
      <feFlood
         id="feFlood4672-4-0"
         flood-opacity="1"
         flood-color="rgb(39,84,60)"
         result="flood"
         in="fbSourceGraphic" />
      <feComposite
         id="feComposite4674-8-73"
         in2="fbSourceGraphic"
         in="flood"
         operator="in"
         result="composite1" />
      <feGaussianBlur
         id="feGaussianBlur4676-3-1"
         in="composite1"
         stdDeviation="0"
         result="blur" />
      <feOffset
         id="feOffset4678-6-1"
         dx="6"
         dy="6"
         result="offset" />
      <feComposite
         id="feComposite4680-4-90"
         in2="offset"
         in="fbSourceGraphic"
         operator="over"
         result="composite2" />
    </filter>
    <filter
       style="color-interpolation-filters:sRGB"
       id="filter4375-4-1-1-1-9-5-8-8-53-3"
       inkscape:label="soundFX1-Hippiah"
       x="-0.001360016"
       y="-0.0052897789"
       width="1.0196022"
       height="1.0762426">
      <feFlood
         id="feFlood4377-7-9-0-8-1-7-3-1-4-1"
         flood-opacity="1"
         flood-color="rgb(47,114,125)"
         result="flood" />
      <feComposite
         id="feComposite4379-3-8-8-2-77-4-1-0-9-9"
         in2="SourceGraphic"
         in="flood"
         operator="in"
         result="composite1"
         baseFrequency="0.053999999999999999 0.053999999999999999" />
      <feMorphology
         id="feMorphology4393-1-0-49-8-9-3-0-1-0-4"
         operator="dilate"
         radius="6.2000000000000002"
         result="result3" />
      <feComposite
         id="feComposite4385-9-5-7-0-8-8-7-5-20-7"
         in2="result3"
         in="SourceGraphic"
         operator="over"
         result="fbSourceGraphic" />
      <feColorMatrix
         result="fbSourceGraphicAlpha"
         in="fbSourceGraphic"
         values="0 0 0 -1 0 0 0 0 -1 0 0 0 0 -1 0 0 0 0 1 0"
         id="feColorMatrix4544-9-1-8" />
      <feTurbulence
         id="feTurbulence4546-3-96-4"
         type="fractalNoise"
         numOctaves="5"
         seed="174"
         baseFrequency="0.053999999999999999 0.054054054054054057"
         result="turbulence" />
      <feDisplacementMap
         id="feDisplacementMap4548-8-21-5"
         in2="turbulence"
         in="fbSourceGraphic"
         scale="6.6"
         yChannelSelector="G"
         xChannelSelector="R"
         result="fbSourceGraphic" />
      <feColorMatrix
         result="fbSourceGraphicAlpha"
         in="fbSourceGraphic"
         values="0 0 0 -1 0 0 0 0 -1 0 0 0 0 -1 0 0 0 0 1 0"
         id="feColorMatrix4670-7-2-0" />
      <feFlood
         id="feFlood4672-4-0-3"
         flood-opacity="1"
         flood-color="rgb(39,84,60)"
         result="flood"
         in="fbSourceGraphic" />
      <feComposite
         id="feComposite4674-8-73-6"
         in2="fbSourceGraphic"
         in="flood"
         operator="in"
         result="composite1" />
      <feGaussianBlur
         id="feGaussianBlur4676-3-1-1"
         in="composite1"
         stdDeviation="0"
         result="blur" />
      <feOffset
         id="feOffset4678-6-1-0"
         dx="6"
         dy="6"
         result="offset" />
      <feComposite
         id="feComposite4680-4-90-6"
         in2="offset"
         in="fbSourceGraphic"
         operator="over"
         result="composite2" />
    </filter>
    <filter
       style="color-interpolation-filters:sRGB"
       id="filter5561-7-8-9"
       inkscape:label="Roughen"
       x="-0.00266595"
       y="-0.0075131248"
       width="1.0053319"
       height="1.0150262">
      <feFlood
         id="feFlood5563-4-9-0"
         flood-opacity="1"
         flood-color="rgb(88,149,175)"
         result="flood" />
      <feComposite
         id="feComposite5565-6-3-0"
         in2="SourceGraphic"
         in="flood"
         operator="in"
         result="composite1" />
      <feMorphology
         id="feMorphology5567-3-48-3"
         operator="dilate"
         radius="5.2907629363257902"
         result="result3" />
      <feComposite
         id="feComposite5569-6-6-5"
         in2="result3"
         in="SourceGraphic"
         operator="over"
         result="fbSourceGraphic" />
      <feColorMatrix
         result="fbSourceGraphicAlpha"
         in="fbSourceGraphic"
         values="0 0 0 -1 0 0 0 0 -1 0 0 0 0 -1 0 0 0 0 1 0"
         id="feColorMatrix4681-5-3" />
      <feTurbulence
         id="feTurbulence4683-3-9"
         type="fractalNoise"
         numOctaves="1"
         seed="33"
         baseFrequency="0.016687459970111018 0.019900000000000001"
         result="turbulence" />
      <feDisplacementMap
         id="feDisplacementMap4685-0-6"
         in2="turbulence"
         in="fbSourceGraphic"
         scale="37.8"
         yChannelSelector="G"
         xChannelSelector="R" />
    </filter>
    <filter
       style="color-interpolation-filters:sRGB"
       id="filter5561-7-8-9-6"
       inkscape:label="Roughen"
       x="-0.0020774889"
       y="-0.0069107539"
       width="1.004155"
       height="1.0138215">
      <feFlood
         id="feFlood5563-4-9-0-9"
         flood-opacity="1"
         flood-color="rgb(145,96,23)"
         result="flood" />
      <feComposite
         id="feComposite5565-6-3-0-3"
         in2="SourceGraphic"
         in="flood"
         operator="in"
         result="composite1" />
      <feMorphology
         id="feMorphology5567-3-48-3-7"
         operator="dilate"
         radius="5.2907629363257902"
         result="result3" />
      <feComposite
         id="feComposite5569-6-6-5-4"
         in2="result3"
         in="SourceGraphic"
         operator="over"
         result="fbSourceGraphic" />
      <feColorMatrix
         result="fbSourceGraphicAlpha"
         in="fbSourceGraphic"
         values="0 0 0 -1 0 0 0 0 -1 0 0 0 0 -1 0 0 0 0 1 0"
         id="feColorMatrix4681-5-3-5" />
      <feTurbulence
         id="feTurbulence4683-3-9-2"
         type="fractalNoise"
         numOctaves="3"
         seed="33"
         baseFrequency="0.025919978584009393 0.010629603437233135"
         result="turbulence" />
      <feDisplacementMap
         id="feDisplacementMap4685-0-6-5"
         in2="turbulence"
         in="fbSourceGraphic"
         scale="37.8"
         yChannelSelector="G"
         xChannelSelector="R" />
    </filter>
    <filter
       style="color-interpolation-filters:sRGB"
       id="filter5561-7-8-9-4"
       inkscape:label="Roughen"
       x="-0.0018828777"
       y="-0.0075131248"
       width="1.0037658"
       height="1.0150262">
      <feFlood
         id="feFlood5563-4-9-0-3"
         flood-opacity="1"
         flood-color="rgb(88,149,175)"
         result="flood" />
      <feComposite
         id="feComposite5565-6-3-0-0"
         in2="SourceGraphic"
         in="flood"
         operator="in"
         result="composite1" />
      <feMorphology
         id="feMorphology5567-3-48-3-78"
         operator="dilate"
         radius="5.2907629363257902"
         result="result3" />
      <feComposite
         id="feComposite5569-6-6-5-6"
         in2="result3"
         in="SourceGraphic"
         operator="over"
         result="fbSourceGraphic" />
      <feColorMatrix
         result="fbSourceGraphicAlpha"
         in="fbSourceGraphic"
         values="0 0 0 -1 0 0 0 0 -1 0 0 0 0 -1 0 0 0 0 1 0"
         id="feColorMatrix4681-5-3-8" />
      <feTurbulence
         id="feTurbulence4683-3-9-8"
         type="fractalNoise"
         numOctaves="1"
         seed="33"
         baseFrequency="0.016687459970111018 0.019900000000000001"
         result="turbulence" />
      <feDisplacementMap
         id="feDisplacementMap4685-0-6-4"
         in2="turbulence"
         in="fbSourceGraphic"
         scale="37.8"
         yChannelSelector="G"
         xChannelSelector="R" />
    </filter>
    <filter
       style="color-interpolation-filters:sRGB"
       id="filter4375-4-1-1-1-9-5-8-3-4"
       inkscape:label="Drop Shadow"
       x="-0.00080239189"
       y="-0.003998067"
       width="1.0164289"
       height="1.0818602">
      <feFlood
         id="feFlood4377-7-9-0-8-1-7-3-6"
         flood-opacity="1"
         flood-color="rgb(39,39,39)"
         result="flood" />
      <feComposite
         id="feComposite4379-3-8-8-2-77-4-1-7"
         in2="SourceGraphic"
         in="flood"
         operator="in"
         result="composite1" />
      <feMorphology
         id="feMorphology4393-1-0-49-8-9-3-0-5"
         operator="dilate"
         radius="6.2000000000000002"
         result="result3" />
      <feComposite
         id="feComposite4385-9-5-7-0-8-8-7-3"
         in2="result3"
         in="SourceGraphic"
         operator="over"
         result="fbSourceGraphic" />
      <feColorMatrix
         result="fbSourceGraphicAlpha"
         in="fbSourceGraphic"
         values="0 0 0 -1 0 0 0 0 -1 0 0 0 0 -1 0 0 0 0 1 0"
         id="feColorMatrix4544-5" />
      <feTurbulence
         id="feTurbulence4546-6"
         type="fractalNoise"
         numOctaves="3"
         seed="37"
         baseFrequency="0.129 0.0050000000000000001"
         result="turbulence" />
      <feDisplacementMap
         id="feDisplacementMap4548-2"
         in2="turbulence"
         in="fbSourceGraphic"
         scale="6.6"
         yChannelSelector="G"
         xChannelSelector="R"
         result="fbSourceGraphic" />
      <feColorMatrix
         result="fbSourceGraphicAlpha"
         in="fbSourceGraphic"
         values="0 0 0 -1 0 0 0 0 -1 0 0 0 0 -1 0 0 0 0 1 0"
         id="feColorMatrix4670-9-3" />
      <feFlood
         id="feFlood4672-1-0"
         flood-opacity="0.40999999999999998"
         flood-color="rgb(34,52,102)"
         result="flood"
         in="fbSourceGraphic" />
      <feComposite
         id="feComposite4674-2-3"
         in2="fbSourceGraphic"
         in="flood"
         operator="in"
         result="composite1" />
      <feGaussianBlur
         id="feGaussianBlur4676-7"
         in="composite1"
         stdDeviation="0"
         result="blur" />
      <feOffset
         id="feOffset4678-0-0"
         dx="6"
         dy="6"
         result="offset" />
      <feComposite
         id="feComposite4680-9"
         in2="offset"
         in="fbSourceGraphic"
         operator="over"
         result="composite2" />
    </filter>
    <filter
       style="color-interpolation-filters:sRGB"
       id="filter4375-4-1-1-1-9-5-8-3-4-2"
       inkscape:label="Drop Shadow"
       x="-0.00095100305"
       y="-0.0039973958"
       width="1.0194717"
       height="1.0818465">
      <feFlood
         id="feFlood4377-7-9-0-8-1-7-3-6-0"
         flood-opacity="1"
         flood-color="rgb(39,39,39)"
         result="flood" />
      <feComposite
         id="feComposite4379-3-8-8-2-77-4-1-7-6"
         in2="SourceGraphic"
         in="flood"
         operator="in"
         result="composite1" />
      <feMorphology
         id="feMorphology4393-1-0-49-8-9-3-0-5-8"
         operator="dilate"
         radius="6.2000000000000002"
         result="result3" />
      <feComposite
         id="feComposite4385-9-5-7-0-8-8-7-3-9"
         in2="result3"
         in="SourceGraphic"
         operator="over"
         result="fbSourceGraphic" />
      <feColorMatrix
         result="fbSourceGraphicAlpha"
         in="fbSourceGraphic"
         values="0 0 0 -1 0 0 0 0 -1 0 0 0 0 -1 0 0 0 0 1 0"
         id="feColorMatrix4544-5-2" />
      <feTurbulence
         id="feTurbulence4546-6-6"
         type="fractalNoise"
         numOctaves="3"
         seed="37"
         baseFrequency="0.129 0.0050000000000000001"
         result="turbulence" />
      <feDisplacementMap
         id="feDisplacementMap4548-2-6"
         in2="turbulence"
         in="fbSourceGraphic"
         scale="6.6"
         yChannelSelector="G"
         xChannelSelector="R"
         result="fbSourceGraphic" />
      <feColorMatrix
         result="fbSourceGraphicAlpha"
         in="fbSourceGraphic"
         values="0 0 0 -1 0 0 0 0 -1 0 0 0 0 -1 0 0 0 0 1 0"
         id="feColorMatrix4670-9-3-4" />
      <feFlood
         id="feFlood4672-1-0-9"
         flood-opacity="0.40999999999999998"
         flood-color="rgb(34,52,102)"
         result="flood"
         in="fbSourceGraphic" />
      <feComposite
         id="feComposite4674-2-3-5"
         in2="fbSourceGraphic"
         in="flood"
         operator="in"
         result="composite1" />
      <feGaussianBlur
         id="feGaussianBlur4676-7-0"
         in="composite1"
         stdDeviation="0"
         result="blur" />
      <feOffset
         id="feOffset4678-0-0-4"
         dx="6"
         dy="6"
         result="offset" />
      <feComposite
         id="feComposite4680-9-8"
         in2="offset"
         in="fbSourceGraphic"
         operator="over"
         result="composite2" />
    </filter>
    <filter
       style="color-interpolation-filters:sRGB"
       id="filter4375-4-1-1-1-9-5-8-3-4-2-2"
       inkscape:label="Drop Shadow"
       x="-0.00076122298"
       y="-0.0039791468"
       width="1.015586"
       height="1.0814728">
      <feFlood
         id="feFlood4377-7-9-0-8-1-7-3-6-0-2"
         flood-opacity="1"
         flood-color="rgb(39,39,39)"
         result="flood" />
      <feComposite
         id="feComposite4379-3-8-8-2-77-4-1-7-6-6"
         in2="SourceGraphic"
         in="flood"
         operator="in"
         result="composite1" />
      <feMorphology
         id="feMorphology4393-1-0-49-8-9-3-0-5-8-1"
         operator="dilate"
         radius="6.2000000000000002"
         result="result3" />
      <feComposite
         id="feComposite4385-9-5-7-0-8-8-7-3-9-0"
         in2="result3"
         in="SourceGraphic"
         operator="over"
         result="fbSourceGraphic" />
      <feColorMatrix
         result="fbSourceGraphicAlpha"
         in="fbSourceGraphic"
         values="0 0 0 -1 0 0 0 0 -1 0 0 0 0 -1 0 0 0 0 1 0"
         id="feColorMatrix4544-5-2-6" />
      <feTurbulence
         id="feTurbulence4546-6-6-1"
         type="fractalNoise"
         numOctaves="3"
         seed="37"
         baseFrequency="0.129 0.0050000000000000001"
         result="turbulence" />
      <feDisplacementMap
         id="feDisplacementMap4548-2-6-5"
         in2="turbulence"
         in="fbSourceGraphic"
         scale="6.6"
         yChannelSelector="G"
         xChannelSelector="R"
         result="fbSourceGraphic" />
      <feColorMatrix
         result="fbSourceGraphicAlpha"
         in="fbSourceGraphic"
         values="0 0 0 -1 0 0 0 0 -1 0 0 0 0 -1 0 0 0 0 1 0"
         id="feColorMatrix4670-9-3-4-9" />
      <feFlood
         id="feFlood4672-1-0-9-4"
         flood-opacity="0.40999999999999998"
         flood-color="rgb(34,52,102)"
         result="flood"
         in="fbSourceGraphic" />
      <feComposite
         id="feComposite4674-2-3-5-9"
         in2="fbSourceGraphic"
         in="flood"
         operator="in"
         result="composite1" />
      <feGaussianBlur
         id="feGaussianBlur4676-7-0-0"
         in="composite1"
         stdDeviation="0"
         result="blur" />
      <feOffset
         id="feOffset4678-0-0-4-9"
         dx="6"
         dy="6"
         result="offset" />
      <feComposite
         id="feComposite4680-9-8-1"
         in2="offset"
         in="fbSourceGraphic"
         operator="over"
         result="composite2" />
    </filter>
    <filter
       style="color-interpolation-filters:sRGB"
       id="filter4375-4-1-1-1-9-5-8-3-4-2-2-9"
       inkscape:label="Drop Shadow"
       x="-0.00094841651"
       y="-0.0039791468"
       width="1.0194188"
       height="1.0814728">
      <feFlood
         id="feFlood4377-7-9-0-8-1-7-3-6-0-2-7"
         flood-opacity="1"
         flood-color="rgb(39,39,39)"
         result="flood" />
      <feComposite
         id="feComposite4379-3-8-8-2-77-4-1-7-6-6-7"
         in2="SourceGraphic"
         in="flood"
         operator="in"
         result="composite1" />
      <feMorphology
         id="feMorphology4393-1-0-49-8-9-3-0-5-8-1-6"
         operator="dilate"
         radius="6.2000000000000002"
         result="result3" />
      <feComposite
         id="feComposite4385-9-5-7-0-8-8-7-3-9-0-7"
         in2="result3"
         in="SourceGraphic"
         operator="over"
         result="fbSourceGraphic" />
      <feColorMatrix
         result="fbSourceGraphicAlpha"
         in="fbSourceGraphic"
         values="0 0 0 -1 0 0 0 0 -1 0 0 0 0 -1 0 0 0 0 1 0"
         id="feColorMatrix4544-5-2-6-3" />
      <feTurbulence
         id="feTurbulence4546-6-6-1-6"
         type="fractalNoise"
         numOctaves="3"
         seed="37"
         baseFrequency="0.129 0.0050000000000000001"
         result="turbulence" />
      <feDisplacementMap
         id="feDisplacementMap4548-2-6-5-5"
         in2="turbulence"
         in="fbSourceGraphic"
         scale="6.6"
         yChannelSelector="G"
         xChannelSelector="R"
         result="fbSourceGraphic" />
      <feColorMatrix
         result="fbSourceGraphicAlpha"
         in="fbSourceGraphic"
         values="0 0 0 -1 0 0 0 0 -1 0 0 0 0 -1 0 0 0 0 1 0"
         id="feColorMatrix4670-9-3-4-9-6" />
      <feFlood
         id="feFlood4672-1-0-9-4-3"
         flood-opacity="0.40999999999999998"
         flood-color="rgb(34,52,102)"
         result="flood"
         in="fbSourceGraphic" />
      <feComposite
         id="feComposite4674-2-3-5-9-9"
         in2="fbSourceGraphic"
         in="flood"
         operator="in"
         result="composite1" />
      <feGaussianBlur
         id="feGaussianBlur4676-7-0-0-4"
         in="composite1"
         stdDeviation="0"
         result="blur" />
      <feOffset
         id="feOffset4678-0-0-4-9-8"
         dx="6"
         dy="6"
         result="offset" />
      <feComposite
         id="feComposite4680-9-8-1-1"
         in2="offset"
         in="fbSourceGraphic"
         operator="over"
         result="composite2" />
    </filter>
    <filter
       style="color-interpolation-filters:sRGB"
       id="filter4375-4-1-1-1-9-5-8-3-4-2-2-9-8"
       inkscape:label="Drop Shadow"
       x="-0.00073739463"
       y="-0.0039973958"
       width="1.0150981"
       height="1.0818465">
      <feFlood
         id="feFlood4377-7-9-0-8-1-7-3-6-0-2-7-8"
         flood-opacity="1"
         flood-color="rgb(39,39,39)"
         result="flood" />
      <feComposite
         id="feComposite4379-3-8-8-2-77-4-1-7-6-6-7-5"
         in2="SourceGraphic"
         in="flood"
         operator="in"
         result="composite1" />
      <feMorphology
         id="feMorphology4393-1-0-49-8-9-3-0-5-8-1-6-0"
         operator="dilate"
         radius="6.2000000000000002"
         result="result3" />
      <feComposite
         id="feComposite4385-9-5-7-0-8-8-7-3-9-0-7-9"
         in2="result3"
         in="SourceGraphic"
         operator="over"
         result="fbSourceGraphic" />
      <feColorMatrix
         result="fbSourceGraphicAlpha"
         in="fbSourceGraphic"
         values="0 0 0 -1 0 0 0 0 -1 0 0 0 0 -1 0 0 0 0 1 0"
         id="feColorMatrix4544-5-2-6-3-6" />
      <feTurbulence
         id="feTurbulence4546-6-6-1-6-3"
         type="fractalNoise"
         numOctaves="3"
         seed="37"
         baseFrequency="0.129 0.0050000000000000001"
         result="turbulence" />
      <feDisplacementMap
         id="feDisplacementMap4548-2-6-5-5-8"
         in2="turbulence"
         in="fbSourceGraphic"
         scale="6.6"
         yChannelSelector="G"
         xChannelSelector="R"
         result="fbSourceGraphic" />
      <feColorMatrix
         result="fbSourceGraphicAlpha"
         in="fbSourceGraphic"
         values="0 0 0 -1 0 0 0 0 -1 0 0 0 0 -1 0 0 0 0 1 0"
         id="feColorMatrix4670-9-3-4-9-6-5" />
      <feFlood
         id="feFlood4672-1-0-9-4-3-6"
         flood-opacity="0.40999999999999998"
         flood-color="rgb(34,52,102)"
         result="flood"
         in="fbSourceGraphic" />
      <feComposite
         id="feComposite4674-2-3-5-9-9-1"
         in2="fbSourceGraphic"
         in="flood"
         operator="in"
         result="composite1" />
      <feGaussianBlur
         id="feGaussianBlur4676-7-0-0-4-1"
         in="composite1"
         stdDeviation="0"
         result="blur" />
      <feOffset
         id="feOffset4678-0-0-4-9-8-5"
         dx="6"
         dy="6"
         result="offset" />
      <feComposite
         id="feComposite4680-9-8-1-1-9"
         in2="offset"
         in="fbSourceGraphic"
         operator="over"
         result="composite2" />
    </filter>
  </defs>
  <sodipodi:namedview
     pagecolor="#1e1e1e"
     bordercolor="#111111"
     borderopacity="1"
     objecttolerance="10"
     gridtolerance="10"
     guidetolerance="10"
     inkscape:pageopacity="0"
     inkscape:pageshadow="2"
     inkscape:window-width="1888"
     inkscape:window-height="1146"
     id="namedview4"
     showgrid="false"
     inkscape:zoom="0.46000004"
     inkscape:cx="1215.2173"
     inkscape:cy="2283.6954"
     inkscape:window-x="32"
     inkscape:window-y="0"
     inkscape:window-maximized="1"
     inkscape:current-layer="layer1"
     inkscape:pagecheckerboard="0"
     inkscape:snap-global="false" />
  <g
     inkscape:groupmode="layer"
     id="layer2"
     inkscape:label="artwork"
     sodipodi:insensitive="true">
    <image
       xlink:href="../gfx_Pepper-and-Carrot_by-David-Revoy_E36P05.png"
       y="0"
       x="0"
       id="image10"
       height="3503.4727"
       width="2481" />
  </g>
  <g
     inkscape:groupmode="layer"
     id="layer4"
     inkscape:label="speechbubbles-whisper"
     style="display:inline;opacity:0.7;mix-blend-mode:screen;filter:url(#filter71410)">
    <path
       style="fill:#cdf0ff;fill-opacity:1;stroke:none;stroke-width:0.594265"
       d="m 1559.3151,770.21016 c -49.4451,0.32284 -99.233,0.68213 -148.0279,9.49729 -21.2977,3.78568 -41.968,13.16213 -57.2587,28.48292 -12.5549,13.44165 -18.4848,31.7244 -19.8302,49.68364 -0.9356,12.74689 0.2601,25.74406 4.1918,37.94899 4.1458,11.85025 12.2675,22.62712 23.5793,28.64158 14.9997,8.64985 32.4448,11.53168 49.4144,13.84251 38.2414,4.92371 76.8878,3.63255 115.3474,4.46466 47.4133,0.46204 94.8137,-1.04223 142.2197,-1.50549 14.5547,-0.40827 29.5116,-1.40835 43.0647,-7.1095 10.8035,-4.47148 20.4679,-11.97893 26.4975,-21.98035 6.7821,-10.81476 9.4526,-23.63064 9.8102,-36.2123 1.3589,-17.73188 0.5566,-36.21764 -6.8486,-52.70097 -7.0011,-14.88165 -20.3712,-26.19569 -35.506,-32.60226 -17.276,-7.74187 -35.9109,-11.99758 -54.544,-15.13588 -30.4285,-4.86942 -61.3523,-5.39585 -92.1096,-5.31484 z"
       id="path3280-8-0"
       inkscape:connector-curvature="0"
       sodipodi:nodetypes="csssc" />
    <path
       style="display:inline;opacity:1;mix-blend-mode:normal;fill:#cdf0ff;fill-opacity:1;stroke:none;stroke-width:0.640728;filter:url(#filter71410)"
       d="m 1510.5889,648.50693 c -57.9256,0.32037 -116.2529,0.67687 -173.4167,9.42412 -24.9506,3.75651 -49.1663,13.06071 -67.0794,28.26344 -14.7083,13.33809 -21.6553,31.47996 -23.2313,49.30083 -1.0962,12.64866 0.3045,25.54568 4.9107,37.65657 4.8569,11.75895 14.3714,22.45277 27.6234,28.42089 17.5723,8.58321 38.0095,11.44282 57.8897,13.73586 44.8003,4.88577 90.0751,3.60455 135.1312,4.43026 55.5452,0.45847 111.0753,-1.03421 166.6123,-1.49391 17.0511,-0.40512 34.5732,-1.39749 50.4508,-7.05471 12.6564,-4.43702 23.9784,-11.88663 31.0422,-21.81098 7.9453,-10.73144 11.0738,-23.44857 11.4929,-35.93328 1.5918,-17.59524 0.6519,-35.93857 -8.0235,-52.29489 -8.2017,-14.76698 -23.865,-25.99384 -41.5956,-32.35105 -20.2391,-7.68221 -42.0703,-11.90514 -63.8991,-15.01926 -35.6474,-4.8319 -71.8749,-5.35427 -107.9076,-5.27389 z"
       id="path3280-8-0-5"
       inkscape:connector-curvature="0"
       sodipodi:nodetypes="csssc"
       transform="matrix(1.0792096,0,0,0.81228356,-70.477523,139.43366)" />
    <path
       style="color:#000000;display:inline;overflow:visible;visibility:visible;fill:#cdf0ff;fill-opacity:1;fill-rule:nonzero;stroke:none;stroke-width:1.5882px;marker:none;enable-background:accumulate"
       d="m 424.63667,372.42773 c -18.15838,0.35119 -36.25271,2.0841 -54.38848,2.95124 -53.38294,2.9774 -107.41266,1.63162 -159.96699,12.89642 -20.85894,4.41733 -41.68728,11.1059 -59.26098,23.51414 -13.24547,9.237 -24.4496,21.86424 -30.30349,37.05469 -5.42529,13.33163 -7.09732,27.87732 -6.64658,42.18071 0.24606,18.90357 1.73052,37.90177 5.9923,56.35398 3.70351,14.18309 11.0729,27.55741 22.0293,37.41992 18.63468,17.9054 42.77055,29.06558 67.50989,35.70521 30.25871,7.85957 61.67998,9.05138 92.75671,10.42565 47.83402,1.61213 95.69612,0.24803 143.53549,-0.33609 68.25155,-1.64732 136.6805,-4.72764 204.20452,-15.36437 16.99206,-3.52167 34.07278,-10.76908 45.47779,-24.30953 12.05008,-14.85928 16.97857,-33.84743 20.82902,-52.20651 6.6435,-34.08196 4.93722,-70.49296 -8.92556,-102.62699 -10.17779,-21.00893 -30.94968,-35.81708 -53.54551,-40.72158 -21.91536,-6.00123 -44.44742,-9.23505 -66.76398,-13.321 -34.84787,-4.88867 -70.15071,-4.21452 -105.13306,-7.61979 -19.09384,-1.49773 -38.24735,-2.22389 -57.40039,-1.9961 z"
       id="path3365-7"
       inkscape:connector-curvature="0"
       sodipodi:nodetypes="cscsccc" />
    <path
       style="color:#000000;display:inline;overflow:visible;visibility:visible;fill:#cdf0ff;fill-opacity:1;fill-rule:nonzero;stroke:none;stroke-width:1.15629px;marker:none;enable-background:accumulate"
       d="m 155.44483,270.10576 c 4.7427,-73.73898 52.85575,-126.5313 176.17186,-109.43959 66.05484,9.15418 141.10257,15.98061 134.92224,124.02191 -6.18042,108.0413 -114.09876,102.46358 -136.41441,104.41499 -22.31579,1.95292 -138.25243,-12.39772 -158.11509,-49.71919 -12.43359,-23.36191 -17.19933,-46.41955 -16.5646,-69.27812 z"
       id="path4546-6-21"
       inkscape:connector-curvature="0"
       sodipodi:nodetypes="cssssc" />
    <path
       style="color:#000000;display:inline;overflow:visible;visibility:visible;fill:#cdf0ff;fill-opacity:1;fill-rule:nonzero;stroke:none;stroke-width:1.16605px;marker:none;enable-background:accumulate"
       d="m 537.87608,800.0198 c 6.87857,43.45749 58.0929,91.09727 131.04664,66.83739 -39.36853,34.33047 -133.85457,42.9943 -166.01805,-46.38918 -12.49502,-34.72413 6.28964,-25.83481 14.11032,-29.48502 7.82082,-3.65023 20.86109,9.03681 20.86109,9.03681 z"
       id="path4064-5"
       inkscape:connector-curvature="0"
       sodipodi:nodetypes="ccszc" />
    <path
       style="color:#000000;display:inline;overflow:visible;visibility:visible;fill:#cdf0ff;fill-opacity:1;fill-rule:nonzero;stroke:none;stroke-width:0.980972px;marker:none;enable-background:accumulate"
       d="m 419.36045,614.30927 c -49.20525,1.84055 -98.56353,0.56565 -147.65798,4.55959 -33.24462,4.06133 -66.43828,13.21812 -94.1255,30.85733 -20.03255,14.87164 -31.02032,37.96127 -33.3472,61.04216 -3.38889,25.91179 -3.73811,52.59534 3.51024,78.01067 6.95965,19.37113 24.22676,34.423 43.86155,43.51959 25.33828,12.1159 53.97192,16.32199 81.96295,20.15333 40.91885,5.06235 82.26528,7.46316 123.56164,6.8414 32.28135,-0.52804 64.38186,-3.96632 96.49085,-6.755 24.71149,-2.19404 50.13412,-3.95701 73.06623,-13.35404 32.02313,-13.30462 56.90826,-41.23174 62.06183,-73.16716 3.42303,-19.61147 1.11145,-39.56258 -1.61646,-59.11757 -3.26215,-19.40322 -10.21134,-39.18139 -25.16846,-53.84033 -14.71235,-14.49059 -35.26801,-23.28521 -56.46293,-26.62788 -35.7681,-7.41011 -72.41751,-10.94057 -109.05008,-11.99566 -5.69484,-0.10701 -11.39068,-0.14258 -17.08668,-0.12643 z"
       id="path4546-6-2"
       inkscape:connector-curvature="0"
       sodipodi:nodetypes="cssssssscc" />
    <path
       inkscape:connector-curvature="0"
       style="color:#000000;display:inline;overflow:visible;visibility:visible;fill:#cdf0ff;fill-opacity:1;fill-rule:nonzero;stroke:none;stroke-width:0.766576px;marker:none;enable-background:accumulate"
       d="m 1550.7033,101.80337 -23.3981,27.04329 -0.7307,-6.75989 -8.7789,5.21811 c -36.8975,-6.60013 -83.8758,-5.22468 -120.6429,-0.48508 l -10.2376,-4.73303 -1.4853,6.41047 c -1.6762,0.26529 -3.334,0.53528 -4.9484,0.8137 l -11.115,-5.87295 1.3901,7.70679 c -0.2011,0.041 -0.399,0.083 -0.5986,0.12463 l -15.4146,-6.47893 2.8487,9.48193 c -0.7198,0.19862 -1.4246,0.39791 -2.1114,0.59876 l -19.7487,-14.13681 7.9861,18.46172 c -1.1636,0.57189 -2.1679,1.14514 -3.0218,1.71905 l -10.0831,-6.6598 4.9457,11.1778 c -1.1204,1.06818 -2.1789,2.1119 -3.1937,3.13868 l -12.7191,-1.46981 7.0612,7.6176 c -8.3456,9.91765 -11.4204,18.31754 -10.8151,28.05866 0.1214,1.95526 0.3496,3.84951 0.6712,5.68962 l -2.7669,4.60721 4.4291,2.04767 c 0.7148,2.17072 1.5795,4.25591 2.5872,6.2578 l -11.4044,12.65364 h 13.8925 l -11.6991,10.81735 21.843,-7.57239 c 0.2771,0.24201 0.5615,0.47956 0.8443,0.71837 l -7.3321,12.93953 15.3552,-4.05738 -14.6232,14.87473 29.9784,-8.78922 -4.3868,15.55037 19.0114,-10.1417 1.7374,-0.0254 c 5.2267,1.74068 10.6711,3.35241 16.2961,4.85646 29.672,7.93381 85.1123,2.68289 124.7087,-5.66279 l 19.5835,7.59314 -6.3887,-10.63164 c 0.4179,-0.10577 0.814,-0.21383 1.2261,-0.32011 l 20.5176,11.62732 -4.3868,-9.46479 19.7421,8.11238 -12.4298,-16.22602 10.967,4.73302 -7.7297,-8.16854 c 0.9047,-0.47867 1.8051,-0.97994 2.7008,-1.50284 l 10.1479,2.23465 -6.287,-4.65001 c 1.4895,-0.99449 2.9535,-2.04544 4.3789,-3.15329 l 15.8005,3.74585 -8.6455,-10.12462 c 0.8644,-0.88589 1.7039,-1.79237 2.5092,-2.72086 h 11.9859 l -5.4889,-9.22657 c 7.7986,-14.16969 7.6163,-31.28727 -9.9918,-47.65425 l 3.0508,-5.99512 -8.7749,0.67564 0.7321,-18.92972 -13.8938,6.7599 4.388,-14.19789 -8.775,6.76115 0.7307,-25.0153 z"
       id="path4040-0" />
    <path
       style="color:#000000;display:inline;overflow:visible;visibility:visible;fill:#cdf0ff;fill-opacity:1;fill-rule:nonzero;stroke:none;stroke-width:1.0095px;marker:none;enable-background:accumulate"
       d="m 1555.5293,187.06396 c -30.0498,0.11683 -60.6481,4.85061 -87.1444,16.97028 -21.9823,10.84887 -36.6351,31.29585 -37.0815,52.51254 -0.6183,9.54938 1.1798,19.84255 8.7388,27.44604 7.6146,7.9071 17.9613,13.6889 28.704,18.32386 18.867,7.35179 40.0732,8.07668 60.5185,9.34063 52.3494,3.08134 104.9162,1.90588 157.2542,-0.71092 15.9432,-0.98614 32.4245,-3.29892 46.0738,-10.60708 11.6881,-6.36267 19.8672,-16.81831 22.2456,-28.21042 2.6957,-12.19992 0.2547,-24.83182 -4.5774,-36.45127 -3.5252,-8.05689 -8.3279,-15.9164 -15.3958,-22.25491 -7.1182,-6.10138 -16.6958,-9.9721 -26.7027,-11.57556 -15.4223,-3.1774 -31.2306,-4.79219 -46.7564,-7.56221 -34.9269,-5.08354 -70.4235,-7.3591 -105.8767,-7.22098 z"
       id="path3525"
       inkscape:connector-curvature="0" />
    <path
       style="color:#000000;display:inline;overflow:visible;visibility:visible;opacity:1;mix-blend-mode:normal;fill:#cdf0ff;fill-opacity:1;fill-rule:nonzero;stroke:none;stroke-width:1.1427px;marker:none;filter:url(#filter71410);enable-background:accumulate"
       d="m 1558.7077,251.21979 c -38.5028,0.11683 -77.7085,4.85061 -111.6582,16.97028 -28.166,10.84887 -46.9406,31.29585 -47.5126,52.51254 -0.7922,9.54938 1.5117,19.84255 11.1971,27.44604 9.7566,7.9071 23.0138,13.6889 36.7784,18.32386 24.1743,7.35179 51.3458,8.07668 77.5425,9.34063 67.0753,3.08134 134.4293,1.90588 201.49,-0.71092 20.428,-0.98614 41.5455,-3.29892 59.0344,-10.60708 14.9759,-6.36267 25.4559,-16.81831 28.5034,-28.21042 3.4539,-12.19992 0.3262,-24.83182 -5.8651,-36.45127 -4.5169,-8.05689 -10.6705,-15.9164 -19.7266,-22.25491 -9.1206,-6.10138 -21.3924,-9.9721 -34.2142,-11.57556 -19.7606,-3.1774 -40.0159,-4.79219 -59.909,-7.56221 -44.752,-5.08354 -90.2339,-7.3591 -135.6601,-7.22098 z"
       id="path3525-3"
       inkscape:connector-curvature="0"
       transform="matrix(1.1327308,0,0,1.0389355,-223.53206,-7.8474403)" />
    <path
       style="color:#000000;display:inline;overflow:visible;visibility:visible;fill:#cdf0ff;fill-opacity:1;fill-rule:nonzero;stroke:none;stroke-width:1.01303px;marker:none;enable-background:accumulate"
       d="m 1597.2558,371.70754 c 10.4512,19.41838 40.774,81.79773 50.6468,88.07436 2.8896,-9.82512 5.7473,-17.90146 11.17,-24.35407 7.0349,9.03181 16.3243,42.36729 48.0374,59.29587 -29.3145,-31.82897 -38.9085,-82.28038 -41.2774,-102.11115 -7.0014,10.53422 -13.5965,22.36641 -19.0054,34.45882 -8.2948,-14.89318 -25.007,-65.72521 -25.007,-65.72521 z"
       id="path5066"
       inkscape:connector-curvature="0"
       inkscape:transform-center-x="-84.299102"
       inkscape:transform-center-y="74.621182"
       sodipodi:nodetypes="cccccccc" />
    <path
       style="color:#000000;display:inline;overflow:visible;visibility:visible;fill:#cdf0ff;fill-opacity:1;fill-rule:nonzero;stroke:none;stroke-width:1.44618px;marker:none;enable-background:accumulate"
       d="m 2006.8962,813.76945 c -58.9208,0.51886 -118.7237,-0.54624 -176.3065,12.65569 -30.1558,7.10335 -59.9896,17.50406 -85.0157,34.78415 -19.8788,15.29 -29.9794,39.20037 -30.6762,62.58383 -1.4107,30.47278 10.6484,62.03534 35.2757,83.06728 16.7535,13.5835 38.1514,21.0338 59.3577,26.6919 33.3872,7.8948 67.9573,9.8803 102.2062,12.3434 38.4072,2.4435 76.9283,1.5182 115.3808,0.7853 49.3909,-0.3947 98.8853,0.2097 148.125,-3.9626 45.3962,-3.4998 90.7809,-9.0313 134.904,-19.6109 24.5389,-8.5052 43.2796,-27.63903 53.7407,-49.26475 11.9298,-25.5233 12.499,-54.76192 4.4779,-81.31877 -6.4236,-19.97581 -19.8563,-38.97497 -40.196,-49.162 -17.526,-8.70483 -37.3443,-12.25743 -56.7328,-15.69333 -33.2074,-5.1372 -66.9043,-6.55943 -100.3821,-9.54253 -54.6052,-3.87143 -109.4142,-4.48376 -164.1587,-4.35667 z"
       id="path4546"
       inkscape:connector-curvature="0"
       sodipodi:nodetypes="cssssc" />
    <path
       style="color:#000000;display:inline;overflow:visible;visibility:visible;fill:#cdf0ff;fill-opacity:1;fill-rule:nonzero;stroke:none;stroke-width:0.842081px;marker:none;enable-background:accumulate"
       d="m 1506.5532,595.26091 c 75.4519,60.39743 56.9468,85.78975 35.0694,108.60088 -9.7816,43.4519 27.8915,11.49337 27.8915,11.49337 0,0 16.3645,5.723 18.2949,-4.40932 5.7529,-30.19196 13.8625,-84.43858 -81.2558,-115.68493 z"
       id="path3072-7"
       inkscape:connector-curvature="0"
       sodipodi:nodetypes="cccsc" />
    <path
       style="color:#000000;display:inline;overflow:visible;visibility:visible;fill:#cdf0ff;fill-opacity:1;fill-rule:nonzero;stroke:none;stroke-width:0.947161px;marker:none;enable-background:accumulate"
       d="m 214.83825,1145.215 c 28.92969,-15.7636 327.53026,-30.9961 397.90123,3.7944 54.82544,27.1049 30.27894,105.0589 -11.97383,124.2324 -42.25278,19.1743 -246.24624,29.4293 -304.22469,21.6731 -52.1373,-6.9737 -106.86313,-23.4385 -109.74836,-70.8683 -1.17752,-19.3575 -0.88404,-63.0679 28.04565,-78.8316 z"
       id="path4040-5"
       inkscape:connector-curvature="0"
       sodipodi:nodetypes="zssssz" />
    <path
       style="color:#000000;display:inline;overflow:visible;visibility:visible;fill:#cdf0ff;fill-opacity:1;fill-rule:nonzero;stroke:none;stroke-width:0.872516px;marker:none;enable-background:accumulate"
       d="m 406.87389,1255.1023 c 7.94954,36.9036 7.20414,99.0576 -50.66037,104.8276 39.14102,-0.7724 74.40634,-0.2804 77.3845,-97.7159 0.96501,-31.5719 -10.96916,-19.1536 -16.68888,-19.9997 -5.7198,-0.8461 -10.03525,12.888 -10.03525,12.888 z"
       id="path4064-5-1"
       inkscape:connector-curvature="0"
       sodipodi:nodetypes="ccszc" />
    <path
       style="color:#000000;display:inline;overflow:visible;visibility:visible;fill:#cdf0ff;fill-opacity:1;fill-rule:nonzero;stroke:none;stroke-width:1.31264px;marker:none;enable-background:accumulate"
       d="m 730.74522,1249.4441 c 6.47179,-5.9701 34.9189,-24.0438 31.83381,-3.5846 45.88114,-26.1636 79.62975,-16.1529 114.06795,-8.1987 11.27502,-7.9276 15.15378,-20.2625 45.1963,-17.006 -2.52844,-8.0185 9.02715,-13.3723 33.15048,-16.349 -30.02175,-5.1804 -34.62217,-10.2131 24.30121,-14.8745 -43.81689,-1.0346 -84.57577,-2.5806 -28.97702,-20.1937 -16.07219,-0.6313 -57.82112,14.121 -30.0272,-30.1635 -30.97678,13.9167 -62.38245,21.4274 -92.94277,-8.8505 -14.05743,11.6469 -32.919,19.4006 -62.23177,2.9372 -9.63843,11.6112 -49.54359,12.1106 -63.62076,9.5613 26.53043,13.43 23.70968,21.5438 -16.54671,22.3337 61.7901,24.3693 7.79754,20.168 -4.33923,26.0185 50.82923,8.7464 25.02912,18.5677 13.41633,28.5233 60.42563,1.0597 37.0306,16.9649 36.71938,29.8465 z"
       id="path3549-3-3"
       inkscape:connector-curvature="0"
       sodipodi:nodetypes="ccccccccccccccc" />
    <path
       style="color:#000000;display:inline;overflow:visible;visibility:visible;fill:#cdf0ff;fill-opacity:1;fill-rule:nonzero;stroke:none;stroke-width:1.17095px;marker:none;enable-background:accumulate"
       d="m 1051.6322,1168.3267 c -24.5552,0.3179 -49.1012,1.4212 -73.62099,2.9196 -24.27095,1.5916 -48.82962,4.3862 -71.90519,13.5446 -23.28186,9.5001 -42.33993,31.7501 -49.64909,58.5663 -3.31685,13.1512 -4.48025,26.94 -4.23378,40.5871 0.44665,16.6839 3.28889,33.4216 9.13402,48.7797 8.0566,17.6498 22.13164,30.4947 36.61975,41.0816 23.21977,16.2432 50.47092,23.3056 77.41357,25.8643 29.74991,3.1871 59.65121,3.6706 89.48781,5.1492 39.7068,0.9124 80.0737,-5.2051 116.8291,-22.8439 16.9523,-8.2094 33.4186,-19.7452 44.1459,-37.1196 9.9094,-16.1798 13.6646,-36.4785 12.0881,-55.9305 -1.1202,-13.7494 -3.7967,-27.4604 -8.7056,-40.1369 -5.298,-13.6475 -13.6644,-25.7896 -24.3782,-34.516 -17.1945,-14.6895 -37.6891,-23.189 -58.01,-30.5807 -30.7803,-10.713 -63.0361,-15.6661 -95.2154,-15.3648 z"
       id="path3525-0"
       inkscape:connector-curvature="0" />
    <path
       style="color:#000000;display:inline;overflow:visible;visibility:visible;fill:#cdf0ff;fill-opacity:1;fill-rule:nonzero;stroke:none;stroke-width:0.826729px;marker:none;enable-background:accumulate"
       d="m 857.93027,1278.1338 c -25.84472,-12.074 -72.33153,-26.7304 -120.7757,37.9223 2.50649,-13.8385 51.01915,-90.6993 133.13792,-64.4425 23.82869,7.6191 8.70285,12.8385 5.48327,18.4333 -3.21963,5.5949 -17.84549,8.0869 -17.84549,8.0869 z"
       id="path4064-5-5"
       inkscape:connector-curvature="0"
       sodipodi:nodetypes="ccszc" />
  </g>
  <g
     inkscape:groupmode="layer"
     id="layer3"
     inkscape:label="speechbubbles"
     style="display:inline">
    <path
       style="fill:#ffffff;fill-rule:evenodd;stroke:none;stroke-width:1.12112px;stroke-linecap:butt;stroke-linejoin:miter;stroke-opacity:1"
       d="m 1769.7468,2272.4595 c 1.1285,-22.1113 -9.6724,-63.1783 -48.4987,-20.2826 20.8633,-51.1394 6.264,-57.6216 -11.5917,-60.0028 16.9868,-18.4342 32.2701,-37.5994 18.3461,-69.2988 25.6249,-10.3624 35.0645,-36.1309 32.2911,-73.5246 20.0636,29.2108 39.5648,45.3444 55.5127,-21.1279 0.3918,52.0385 28.0473,61.4392 50.5536,5.9159 -8.3861,43.3235 -1.8397,54.4 15.8506,41.4104 -13.145,27.2641 -13.5592,47.9501 -0.5367,61.693 -30.034,28.839 -28.9937,46.3692 -3.3138,54.932 -44.3667,7.5195 -43.7153,43.308 -49.4378,70.1441 -14.905,-41.7496 -62.9392,-0.094 -59.1754,10.1413 z"
       id="path1087"
       inkscape:connector-curvature="0"
       sodipodi:nodetypes="cccccccccccc" />
    <path
       style="fill:#ffffff;fill-rule:evenodd;stroke:none;stroke-width:1.06373px;stroke-linecap:butt;stroke-linejoin:miter;stroke-opacity:1"
       d="m 1770.2493,2231.6638 c -19.0777,43.0082 -23.2758,54.3372 -25.8221,64.7397 -2.5463,10.4023 5.6859,6.8223 12.1263,2.8326 4.2084,-2.5888 21.9688,-21.8087 3.3636,9.5674 -18.6054,31.376 -43.0605,75.0078 -50.224,88.7479 16.3572,-24.1323 43.1378,-61.7395 51.3165,-73.8057 8.1784,-12.066 21.9004,-34.2199 25.6816,-40.8795 4.5995,-8.1013 6.3566,-16.4311 -2.0206,-15.2185 -13.6412,3.4217 -32.7515,33.0786 -0.2047,-18.3826 32.5467,-51.461 43.1335,-129.6409 43.1335,-129.6409 z"
       id="path1089"
       inkscape:connector-curvature="0"
       sodipodi:nodetypes="csccccscccc" />
    <path
       style="fill:#ffffff;fill-rule:evenodd;stroke:none;stroke-width:0.831706px;stroke-linecap:butt;stroke-linejoin:miter;stroke-opacity:1"
       d="m 2089.1948,2042.5405 c 9.4166,21.5114 20.7662,29.1104 37.7343,-3.7245 2.3125,14.6705 13.7478,28.4717 59.0934,-5.2702 -26.0259,38.4364 -15.1091,39.8147 0,36.9882 -21.9503,48.2289 -6.7376,48.3526 4.9838,44.1126 -26.9012,30.947 -23.3763,43.3188 -10.6795,50.0906 -9.0703,17.7859 -15.4069,34.7091 3.5597,43.6527 -14.8331,6.4979 -35.836,7.2569 -29.1906,33.7361 -19.617,-30.1872 -29.9942,-12.4155 -45.3597,6.4619 -12.1812,-14.2433 -30.8229,-32.8743 -64.9953,-4.1024 18.9252,-29.3587 11.4374,-41.8271 -3.5599,-49.4934 28.1754,-29.7325 6.1806,-35.852 -15.6633,-42.0415 39.4909,-8.3812 28.2675,-35.6906 17.7993,-62.7193 18.4904,3.2477 37.0465,6.9038 46.2778,-47.6908 z"
       id="path4489"
       inkscape:connector-curvature="0"
       sodipodi:nodetypes="cccccccccccccc" />
    <path
       style="display:inline;fill:#ffffff;fill-rule:evenodd;stroke:none;stroke-width:0.613269px;stroke-linecap:butt;stroke-linejoin:miter;stroke-opacity:1"
       d="m 2050.4839,2346.9651 c 30.4226,-62.3404 57.7024,-138.4267 45.1473,-145.322 l 45.6441,-4.5536 c 12.2842,-6.1841 -67.8344,105.652 -90.7914,149.8756 z"
       id="path1881"
       sodipodi:nodetypes="cccc" />
    <path
       style="fill:#ffffff;fill-rule:evenodd;stroke:none;stroke-width:0.894962px;stroke-linecap:butt;stroke-linejoin:miter;stroke-opacity:1"
       d="m 237.24122,2792.221 c 55.18203,23.2835 136.6324,72.5815 64.58166,-30.1389 41.27661,22.7296 96.25686,69.6195 104.94249,26.7208 15.36945,14.3332 22.71527,8.3302 11.95151,-23.6451 41.73583,37.2743 58.26226,19.8291 79.36737,12.3223 28.39262,26.8218 45.51973,19.2559 52.13831,-20.3869 1.65747,81.2826 61.3551,17.1923 110.011,-21.3637 -1.31516,18.7109 -26.83042,72.8372 21.40707,19.0307 -1.85278,26.9803 1.35953,48.6889 112.74885,-42.191 -44.69804,76.5968 -21.44466,58.0472 4.40738,35.8591 -35.67385,81.5351 70.53616,23.3615 99.9543,13.068 -73.12925,44.7279 -138.40975,87.5699 5.27997,80.1994 -32.0169,10.9696 -28.45529,10.6403 -48.72485,16.0653 -31.56791,10.3568 -67.52071,31.1746 -80.62054,68.4068 -58.49156,-20.0272 -94.16081,29.3978 -92.20826,70.3509 -58.86206,-57.4487 -91.07788,-54.1787 -93.12564,17.8354 -36.969,-57.7809 -69.76066,-67.0591 -96.3531,-4.3589 -10.46198,-74.7544 -54.5744,-41.4246 -89.34581,-38.0979 -13.47834,-27.7842 -57.32524,-4.8065 -103.49906,22.0606 66.69312,-69.6003 14.42003,-60.155 -70.08785,-29.292 98.49443,-55.12 80.82273,-73.0034 -25.13897,-62.5858 128.66168,-17.689 97.6944,-61.0111 32.31417,-109.8591 z"
       id="path740849"
       sodipodi:nodetypes="cccccccccccccccccccccc" />
    <path
       style="fill:#ffffff;fill-rule:evenodd;stroke:none;stroke-width:0.848683px;stroke-linecap:butt;stroke-linejoin:miter;stroke-opacity:1"
       d="m 119.16471,3153.4072 c 78.68664,-57.6007 123.21997,-82.1486 205.1307,-133.2401 -7.83771,1.1428 -16.85169,0.5498 -33.95583,2.4746 44.40967,-31.9361 127.98192,-84.356 177.31274,-111.978 l 39.30638,8.6938 c -33.90117,21.5568 -100.1754,49.5671 -144.53011,78.987 13.36537,1.1076 45.30961,-6.8913 51.44897,-3.6006 -109.39776,65.0579 -192.92074,101.1133 -294.71285,158.6633 z"
       id="path743009"
       sodipodi:nodetypes="cccccccc" />
    <path
       style="fill:#ffffff;fill-rule:evenodd;stroke:none;stroke-width:0.895523px;stroke-linecap:butt;stroke-linejoin:miter;stroke-opacity:1"
       d="m 982.28815,2830.3379 c 45.72765,31.229 78.86625,45.0831 34.52825,-47.9916 41.8616,29.7852 70.7752,32.2888 57.6606,-53.7603 54.3068,59.6805 77.6645,57.1229 86.6616,25.6862 56.1133,43.9806 100.0905,-0.5388 112.4962,-28.1882 26.4757,29.2909 82.4794,31.9151 126.1076,-15.6805 -5.1291,28.4315 -23.33,70.3068 76.9284,-9.649 -41.2258,62.9029 -8.0579,67.9984 56.4641,43.046 -39.1472,41.2626 -67.7154,80.4371 -9.9559,81.5052 -29.8244,17.4896 -19.0547,27.7729 -11.9321,30.7906 -25.3538,11.8071 -5.1046,19.612 15.7769,27.3614 -59.3551,36.3712 -42.0197,51.3741 -44.8575,71.9979 -48.6755,8.2515 -43.8311,23.9533 -46.2585,38.6429 -46.9336,-59.674 -51.7012,12.0277 -48.5854,30.1349 -20.5868,-58.4076 -59.9531,-23.3391 -87.7808,18.39 20.8006,-59.5472 -7.6726,-90.526 -62.3133,-18.3051 4.579,-26.6748 -13.5855,-75.2795 -71.7459,-4.0708 7.3564,-32.3626 -2.8113,-28.8308 -21.9904,-6.8411 19.0765,-57.8617 -38.3263,-34.5382 -70.1061,-10.0647 4.8514,-28.3932 4.0395,-26.1603 -16.1302,-27.1972 -4.1065,-44.2029 -30.9915,-69.1427 -52.176,-92.6079 15.9352,-14.1534 -16.20286,-41.3 -22.79155,-53.1987 z"
       id="path745117"
       sodipodi:nodetypes="cccccccccccccccccccccc" />
    <path
       style="display:inline;fill:#ffffff;fill-rule:evenodd;stroke:none;stroke-width:1.08288px;stroke-linecap:butt;stroke-linejoin:miter;stroke-opacity:1"
       d="m 177.01783,2697.2946 c 46.94704,21.6368 73.68876,8.3633 72.88291,-52.5065 22.39813,63.6753 37.94144,76.888 47.1596,43.5373 29.65364,24.9975 48.17485,15.3651 62.87943,-6.1391 5.4808,25.2745 17.23438,13.7119 27.40645,11.4366 3.35028,5.5123 -8.15651,21.143 38.33107,-2.7246 3.01129,7.4349 7.06772,13.6947 34.29784,-6.0995 7.05448,30.6817 29.68849,-4.6372 52.87596,-42.3005 -14.44646,44.9309 -8.45607,50.4931 10.00358,32.0347 -8.43965,18.7461 -13.48737,33.1127 18.57791,-0.4382 -10.97749,34.1522 17.82206,8.6341 64.30858,-43.4165 -23.25327,37.3908 -84.91571,102.6042 -44.30142,93.7312 -5.66391,10.9066 -25.86678,21.9 34.29784,32.4137 -11.23192,8.1225 -45.52266,1.2036 -16.91797,28.1581 3.83242,3.1031 -8.99767,6.4792 15.48893,13.2457 -14.45472,0.7883 -23.31939,3.8794 -10.00357,16.107 -26.38516,1.8446 -16.51298,15.1053 2.85818,31.3568 -38.20942,-19.5416 -40.31218,-10.8782 -41.44335,-1.4556 -47.88759,-27.0523 -50.69861,-16.7885 -57.16297,-9.5492 -23.34165,2.5265 -46.6833,0.8099 -70.02494,38.4728 -6.11288,-21.411 -18.36842,-37.1548 -70.02473,-16.5463 22.68107,-30.2123 -9.58576,-9.2244 -34.29785,4.724 13.53284,-36.2974 -20.81174,-9.9894 -64.30857,28.2865 24.35805,-41.0019 -3.30695,-24.3491 -44.30143,7.0762 15.48894,-39.456 -9.73633,-55.3433 -70.02483,-50.9333 28.85594,-16.504 45.68309,-35.3714 15.71994,-63.4312 33.77703,5.8259 43.85224,-3.6324 20.00705,-34.9648 36.84173,24.0313 20.09119,-14.4067 5.71636,-50.0753 z"
       id="path4508"
       inkscape:connector-curvature="0"
       sodipodi:nodetypes="cccccccccccccccccccccccccccc" />
  </g>
  <g
     inkscape:groupmode="layer"
     id="layer1"
     inkscape:label="txt"
     style="display:inline">
    <text
       id="text4246-4-2"
       y="251.90172"
       x="318.54001"
       style="font-style:normal;font-variant:normal;font-weight:normal;font-stretch:normal;line-height:0%;font-family:Lavi;-inkscape-font-specification:Lavi;text-align:center;letter-spacing:0px;word-spacing:0px;text-anchor:middle;fill:#000000;fill-opacity:1;stroke:none"
       xml:space="preserve"><tspan
         y="251.90172"
         x="318.54001"
         style="font-size:45px;line-height:1.25"
         sodipodi:role="line"
         id="tspan2623">Grozno je,</tspan><tspan
         y="308.1517"
         x="318.54001"
         style="font-size:45px;line-height:1.25"
         sodipodi:role="line"
         id="tspan3499">Pepper.</tspan></text>
    <text
       id="text4246-4-2-3"
       y="457.17096"
       x="419.77948"
       style="font-style:normal;font-variant:normal;font-weight:normal;font-stretch:normal;line-height:0%;font-family:Lavi;-inkscape-font-specification:Lavi;text-align:center;letter-spacing:0px;word-spacing:0px;text-anchor:middle;fill:#000000;fill-opacity:1;stroke:none"
       xml:space="preserve"><tspan
         y="457.17096"
         x="419.77948"
         style="font-size:45px;line-height:1.25"
         sodipodi:role="line"
         id="tspan3909">Preprosto povedano,</tspan><tspan
         y="513.42096"
         x="419.77948"
         style="font-size:45px;line-height:1.25"
         sodipodi:role="line"
         id="tspan3921">Wasabi hoče <tspan
   style="font-weight:bold"
   id="tspan24701">podrediti</tspan></tspan><tspan
         y="569.67096"
         x="419.77948"
         style="font-size:45px;line-height:1.25"
         sodipodi:role="line"
         id="tspan112076"><tspan
   style="font-weight:bold"
   id="tspan112078">vse ostale šole magije</tspan>...</tspan></text>
    <text
       id="text4246-4-2-3-2-0"
       y="694.98267"
       x="387.18549"
       style="font-style:normal;font-variant:normal;font-weight:normal;font-stretch:normal;line-height:0%;font-family:Lavi;-inkscape-font-specification:Lavi;text-align:center;letter-spacing:0px;word-spacing:0px;text-anchor:middle;fill:#000000;fill-opacity:1;stroke:none"
       xml:space="preserve"><tspan
         y="694.98267"
         x="387.18549"
         style="font-size:45px;line-height:1.25"
         sodipodi:role="line"
         id="tspan4295">Ob zori odrine</tspan><tspan
         y="751.23267"
         x="387.18549"
         style="font-size:45px;line-height:1.25"
         sodipodi:role="line"
         id="tspan186734">proti Qualicity, z</tspan><tspan
         y="807.48267"
         x="387.18549"
         style="font-size:45px;line-height:1.25"
         sodipodi:role="line"
         id="tspan203274">vojsko čarovnic...</tspan></text>
    <text
       id="text4246-4-2-3-2-8-2"
       y="200.74683"
       x="1447.0979"
       style="font-style:normal;font-variant:normal;font-weight:normal;font-stretch:normal;line-height:0%;font-family:Lavi;-inkscape-font-specification:Lavi;text-align:center;letter-spacing:0px;word-spacing:0px;text-anchor:middle;fill:#000000;fill-opacity:1;stroke:none"
       xml:space="preserve"><tspan
         y="200.74683"
         x="1447.0979"
         style="font-size:45px;line-height:1.25"
         sodipodi:role="line"
         id="tspan397614-2">Oh ne!</tspan></text>
    <text
       id="text4246-4-2-3-2-8"
       y="265.43832"
       x="1596.2267"
       style="font-style:normal;font-variant:normal;font-weight:normal;font-stretch:normal;font-size:12.7131px;line-height:0%;font-family:Lavi;-inkscape-font-specification:Lavi;text-align:center;letter-spacing:0px;word-spacing:0px;text-anchor:middle;fill:#000000;fill-opacity:1;stroke:none;stroke-width:1.05942"
       xml:space="preserve"><tspan
         y="265.43832"
         x="1596.2267"
         style="font-style:normal;font-variant:normal;font-weight:bold;font-stretch:normal;font-size:47.674px;line-height:1.25;font-family:Lavi;-inkscape-font-specification:'Lavi Bold';stroke-width:1.05942"
         sodipodi:role="line"
         id="tspan397614">Coriander!</tspan></text>
    <text
       id="text4246-4-2-3-2-8-2-6"
       y="335.67358"
       x="1603.3292"
       style="font-style:normal;font-variant:normal;font-weight:normal;font-stretch:normal;line-height:0%;font-family:Lavi;-inkscape-font-specification:Lavi;text-align:center;letter-spacing:0px;word-spacing:0px;text-anchor:middle;display:inline;fill:#000000;fill-opacity:1;stroke:none"
       xml:space="preserve"><tspan
         y="335.67358"
         x="1603.3292"
         style="font-size:45px;line-height:1.25"
         sodipodi:role="line"
         id="tspan397614-2-7">In njeno kraljestvo!</tspan></text>
    <text
       id="text4246-4-2-3-2-89-3"
       y="754.87408"
       x="1537.8778"
       style="font-style:normal;font-variant:normal;font-weight:normal;font-stretch:normal;line-height:0%;font-family:Lavi;-inkscape-font-specification:Lavi;text-align:center;letter-spacing:0px;word-spacing:0px;text-anchor:middle;display:inline;fill:#000000;fill-opacity:1;stroke:none"
       xml:space="preserve"><tspan
         y="754.87408"
         x="1537.8778"
         style="font-size:45px;line-height:1.25"
         sodipodi:role="line"
         id="tspan437866-6">In Zombiah-Magija!</tspan></text>
    <text
       id="text4246-4-2-3-2-89"
       y="847.81287"
       x="1536.8999"
       style="font-style:normal;font-variant:normal;font-weight:normal;font-stretch:normal;line-height:0%;font-family:Lavi;-inkscape-font-specification:Lavi;text-align:center;letter-spacing:0px;word-spacing:0px;text-anchor:middle;fill:#000000;fill-opacity:1;stroke:none"
       xml:space="preserve"><tspan
         y="847.81287"
         x="1536.8999"
         style="font-size:45px;line-height:1.25"
         sodipodi:role="line"
         id="tspan6933">Takoj jo morava</tspan><tspan
         y="904.06287"
         x="1536.8999"
         style="font-size:45px;line-height:1.25"
         sodipodi:role="line"
         id="tspan126867">posvariti!</tspan></text>
    <text
       id="text4246-4-2-3-2-89-1"
       y="889.9967"
       x="2053.741"
       style="font-style:normal;font-variant:normal;font-weight:normal;font-stretch:normal;line-height:0%;font-family:Lavi;-inkscape-font-specification:Lavi;text-align:center;letter-spacing:0px;word-spacing:0px;text-anchor:middle;fill:#000000;fill-opacity:1;stroke:none"
       xml:space="preserve"><tspan
         y="889.9967"
         x="2053.741"
         style="font-size:45px;line-height:1.25"
         sodipodi:role="line"
         id="tspan7502">Pilotka in njen zmaj </tspan><tspan
         y="946.2467"
         x="2053.741"
         style="font-size:45px;line-height:1.25"
         sodipodi:role="line"
         id="tspan7510">naju že čakata pri platformi da</tspan><tspan
         y="1002.4967"
         x="2053.741"
         style="font-size:45px;line-height:1.25"
         sodipodi:role="line"
         id="tspan142345">naju spravita od tukaj.</tspan></text>
    <text
       id="text4246-4-2-3-2-89-1-3"
       y="1193.3683"
       x="410.89572"
       style="font-style:normal;font-variant:normal;font-weight:normal;font-stretch:normal;font-size:42px;line-height:0%;font-family:Lavi;-inkscape-font-specification:Lavi;text-align:center;letter-spacing:0px;word-spacing:0px;text-anchor:middle;fill:#000000;fill-opacity:1;stroke:none"
       xml:space="preserve"><tspan
         y="1193.3683"
         x="410.89572"
         style="font-size:42px;line-height:1.25"
         sodipodi:role="line"
         id="tspan8352">Tako, ključavnica</tspan><tspan
         y="1245.8683"
         x="410.89572"
         style="font-size:42px;line-height:1.25"
         sodipodi:role="line"
         id="tspan22737">se je končno udala!</tspan></text>
    <text
       xml:space="preserve"
       style="font-style:normal;font-variant:normal;font-weight:normal;font-stretch:normal;line-height:0%;font-family:Lavi;-inkscape-font-specification:Lavi;letter-spacing:0px;word-spacing:0px;opacity:1;fill:#c6fffd;fill-opacity:1;stroke:#ffffff;stroke-width:0.966714;stroke-miterlimit:4;stroke-dasharray:none;stroke-opacity:1;filter:url(#filter4375-4-1-1-1-9-5-8-8-53-3)"
       x="787.65729"
       y="1584.5073"
       id="text4580-6-0-0-5"
       transform="matrix(0.38167106,-0.131018,-0.06124078,0.5210622,213.83481,667.63947)"><tspan
         sodipodi:role="line"
         id="tspan4582-1-1-0-67"
         x="787.65729"
         y="1584.5073"
         style="font-size:70px;line-height:1.25;fill:#c6fffd;fill-opacity:1;stroke:#ffffff;stroke-width:0.966714;stroke-miterlimit:4;stroke-dasharray:none;stroke-opacity:1"><tspan
           style="font-size:93.1495px;fill:#c6fffd;fill-opacity:1;stroke:#ffffff;stroke-width:0.966714;stroke-miterlimit:4;stroke-dasharray:none;stroke-opacity:1"
           id="tspan4315-8-9-7">T<tspan
   style="font-size:80.9413px"
   id="tspan6191">š</tspan>ing !</tspan></tspan></text>
    <text
       id="text4246-4-2-3-2-89-1-3-5"
       y="1197.9653"
       x="808.99341"
       style="font-style:normal;font-variant:normal;font-weight:normal;font-stretch:normal;font-size:42px;line-height:0%;font-family:Lavi;-inkscape-font-specification:Lavi;text-align:center;letter-spacing:0px;word-spacing:0px;text-anchor:middle;fill:#000000;fill-opacity:1;stroke:none;stroke-width:0.892381"
       xml:space="preserve"><tspan
         y="1197.9653"
         x="808.99341"
         style="font-size:42px;line-height:1.25;stroke-width:0.892381"
         sodipodi:role="line"
         id="tspan601787-4">Super!</tspan></text>
    <text
       id="text4246-4-2-3-2-89-1-3-5-7"
       y="1234.2937"
       x="1050.0925"
       style="font-style:normal;font-variant:normal;font-weight:normal;font-stretch:normal;font-size:42px;line-height:0%;font-family:Lavi;-inkscape-font-specification:Lavi;text-align:center;letter-spacing:0px;word-spacing:0px;text-anchor:middle;fill:#000000;fill-opacity:1;stroke:none;stroke-width:0.892381"
       xml:space="preserve"><tspan
         y="1234.2937"
         x="1050.0925"
         style="font-size:42px;line-height:1.25;stroke-width:0.892381"
         sodipodi:role="line"
         id="tspan9618">Samo še</tspan><tspan
         y="1286.7937"
         x="1050.0925"
         style="font-size:42px;line-height:1.25;stroke-width:0.892381"
         sodipodi:role="line"
         id="tspan36939">Korenčka in moj</tspan><tspan
         y="1339.2937"
         x="1050.0925"
         style="font-size:42px;line-height:1.25;stroke-width:0.892381"
         sodipodi:role="line"
         id="tspan41085">klobuk zagrabim.</tspan></text>
    <text
       xml:space="preserve"
       style="color:#000000;font-style:normal;font-variant:normal;font-weight:normal;font-stretch:normal;line-height:0%;font-family:Arial;-inkscape-font-specification:Arial;letter-spacing:9.01069px;word-spacing:0px;clip-rule:nonzero;display:inline;overflow:visible;visibility:visible;isolation:auto;mix-blend-mode:normal;color-interpolation:sRGB;color-interpolation-filters:linearRGB;solid-color:#000000;solid-opacity:1;fill:#d7e3f4;fill-opacity:1;fill-rule:nonzero;stroke:#ffffff;stroke-width:1.1156;stroke-linecap:butt;stroke-linejoin:miter;stroke-miterlimit:4;stroke-dasharray:none;stroke-dashoffset:0;stroke-opacity:1;marker:none;filter:url(#filter5561-7-8-9);color-rendering:auto;image-rendering:auto;shape-rendering:auto;text-rendering:auto;enable-background:accumulate"
       x="1705.2566"
       y="1742.2045"
       id="text4251-9-3"
       transform="matrix(0.46605294,-0.42399792,0.36516967,0.87774403,-35.309183,659.89053)"><tspan
         sodipodi:role="line"
         id="tspan4253-3-7"
         x="1705.2566"
         y="1742.2045"
         style="font-style:normal;font-variant:normal;font-weight:normal;font-stretch:normal;font-size:160.12px;line-height:1.25;font-family:Lavi;-inkscape-font-specification:Lavi;fill:#d7e3f4;fill-opacity:1"><tspan
           style="font-size:90px;fill:#d7e3f4;fill-opacity:1"
           id="tspan4349-9-9">kvik!</tspan></tspan></text>
    <text
       xml:space="preserve"
       style="color:#000000;font-style:normal;font-variant:normal;font-weight:normal;font-stretch:normal;line-height:0%;font-family:Arial;-inkscape-font-specification:Arial;letter-spacing:9.01069px;word-spacing:0px;clip-rule:nonzero;display:inline;overflow:visible;visibility:visible;isolation:auto;mix-blend-mode:normal;color-interpolation:sRGB;color-interpolation-filters:linearRGB;solid-color:#000000;solid-opacity:1;fill:#eaeab1;fill-opacity:1;fill-rule:nonzero;stroke:#ffffff;stroke-width:1.1156;stroke-linecap:butt;stroke-linejoin:miter;stroke-miterlimit:4;stroke-dasharray:none;stroke-dashoffset:0;stroke-opacity:1;marker:none;filter:url(#filter5561-7-8-9-6);color-rendering:auto;image-rendering:auto;shape-rendering:auto;text-rendering:auto;enable-background:accumulate"
       x="1705.2566"
       y="1742.2045"
       id="text4251-9-3-4"
       transform="matrix(0.38674208,-0.29679826,0.72566441,0.90119606,170.06794,464.42382)"><tspan
         sodipodi:role="line"
         id="tspan4253-3-7-7"
         x="1705.2566"
         y="1742.2045"
         style="font-style:normal;font-variant:normal;font-weight:normal;font-stretch:normal;font-size:90px;line-height:1.25;font-family:Lavi;-inkscape-font-specification:Lavi;fill:#eaeab1;fill-opacity:1"><tspan
   style="font-size:73.2418px"
   id="tspan687173">FA</tspan><tspan
   style="font-size:79.3466px"
   id="tspan136679">U</tspan>H<tspan
   style="font-size:103.317px"
   id="tspan160865">!</tspan></tspan></text>
    <text
       xml:space="preserve"
       style="color:#000000;font-style:normal;font-variant:normal;font-weight:normal;font-stretch:normal;line-height:0%;font-family:Arial;-inkscape-font-specification:Arial;letter-spacing:9.01069px;word-spacing:0px;clip-rule:nonzero;display:inline;overflow:visible;visibility:visible;isolation:auto;mix-blend-mode:normal;color-interpolation:sRGB;color-interpolation-filters:linearRGB;solid-color:#000000;solid-opacity:1;fill:#d7e3f4;fill-opacity:1;fill-rule:nonzero;stroke:#ffffff;stroke-width:1.1156;stroke-linecap:butt;stroke-linejoin:miter;stroke-miterlimit:4;stroke-dasharray:none;stroke-dashoffset:0;stroke-opacity:1;marker:none;filter:url(#filter5561-7-8-9-4);color-rendering:auto;image-rendering:auto;shape-rendering:auto;text-rendering:auto;enable-background:accumulate"
       x="1705.2566"
       y="1742.2045"
       id="text4251-9-3-3"
       transform="matrix(0.45234231,-0.36477271,0.35442689,0.88178533,782.99861,726.06166)"><tspan
         sodipodi:role="line"
         id="tspan4253-3-7-1"
         x="1705.2566"
         y="1742.2045"
         style="font-style:normal;font-variant:normal;font-weight:normal;font-stretch:normal;font-size:160.12px;line-height:1.25;font-family:Lavi;-inkscape-font-specification:Lavi;fill:#d7e3f4;fill-opacity:1"><tspan
           style="font-size:90px;fill:#d7e3f4;fill-opacity:1"
           id="tspan4349-9-9-49">kviiiik!</tspan></tspan></text>
    <g
       id="text4251-g894"
       transform="translate(-294.71653,-1245.0637)">
      <text
         xml:space="preserve"
         style="font-style:normal;font-variant:normal;font-weight:normal;font-stretch:normal;line-height:0%;font-family:Lavi;-inkscape-font-specification:Lavi;letter-spacing:0px;word-spacing:0px;display:inline;fill:#ffffff;fill-opacity:1;stroke:#000000;stroke-width:0.649528;stroke-miterlimit:4;stroke-dasharray:none;stroke-opacity:1;filter:url(#filter4375-4-1-1-1-9-5-8-3-4)"
         x="787.65729"
         y="1584.5073"
         id="text4580-6-0-3"
         transform="matrix(0.56396936,0.29200899,-0.49083985,0.74440634,2289.6299,1539.4683)"
         inkscape:transform-center-x="-5.9254429"
         inkscape:transform-center-y="0.58615246"><tspan
           sodipodi:role="line"
           id="tspan4582-1-1-6"
           x="787.65729"
           y="1584.5073"
           style="font-style:normal;font-variant:normal;font-weight:normal;font-stretch:normal;font-size:70px;line-height:1.25;font-family:Combah;-inkscape-font-specification:Combah;fill:#ffffff;fill-opacity:1;stroke:#000000;stroke-width:0.649528;stroke-opacity:1"><tspan
             style="font-style:normal;font-variant:normal;font-weight:normal;font-stretch:normal;font-size:93.1495px;font-family:Combah;-inkscape-font-specification:Combah;fill:#ffffff;fill-opacity:1;stroke:#000000;stroke-width:0.649528;stroke-opacity:1"
             id="tspan4315-8-0">KRAH</tspan><tspan
             style="font-style:normal;font-variant:normal;font-weight:normal;font-stretch:normal;font-size:114.732px;font-family:Combah;-inkscape-font-specification:Combah;fill:#ffffff;fill-opacity:1;stroke:#000000;stroke-width:0.649528;stroke-opacity:1"
             id="tspan4313-2-6">!</tspan></tspan></text>
    </g>
    <g
       id="text4251-g894-7-7-2-8"
       transform="matrix(0.08279068,-0.70073798,0.69675909,0.08896039,-1012.5833,3236.9208)">
      <text
         xml:space="preserve"
         style="font-style:normal;font-variant:normal;font-weight:normal;font-stretch:normal;line-height:0%;font-family:Lavi;-inkscape-font-specification:Lavi;letter-spacing:0px;word-spacing:0px;display:inline;fill:#ffffff;fill-opacity:1;stroke:#000000;stroke-width:0.649528;stroke-miterlimit:4;stroke-dasharray:none;stroke-opacity:1;filter:url(#filter4375-4-1-1-1-9-5-8-3-4-2-2-9-8)"
         x="787.65729"
         y="1584.5073"
         id="text4580-6-0-3-1-7-9-4"
         transform="matrix(0.56396936,0.29200899,-0.49083985,0.74440634,2281.3949,1535.2837)"
         inkscape:transform-center-x="-5.9254429"
         inkscape:transform-center-y="0.58615246"><tspan
           sodipodi:role="line"
           id="tspan4582-1-1-6-7-1-3-8"
           x="787.65729"
           y="1584.5073"
           style="font-style:normal;font-variant:normal;font-weight:normal;font-stretch:normal;font-size:70px;line-height:1.25;font-family:Combah;-inkscape-font-specification:Combah;fill:#ffffff;fill-opacity:1;stroke:#000000;stroke-width:0.649528;stroke-opacity:1"><tspan
             style="font-style:normal;font-variant:normal;font-weight:normal;font-stretch:normal;font-size:93.1495px;font-family:Combah;-inkscape-font-specification:Combah;fill:#ffffff;fill-opacity:1;stroke:#000000;stroke-width:0.649528;stroke-opacity:1"
             id="tspan4315-8-0-2-1-9-1">KLUNG</tspan><tspan
             style="font-style:normal;font-variant:normal;font-weight:normal;font-stretch:normal;font-size:114.732px;font-family:Combah;-inkscape-font-specification:Combah;fill:#ffffff;fill-opacity:1;stroke:#000000;stroke-width:0.649528;stroke-opacity:1"
             id="tspan4313-2-6-7-5-0-0">!</tspan></tspan></text>
    </g>
    <g
       id="text4251-g894-7"
       transform="matrix(0.2660753,-0.65352272,0.64804701,0.27096543,-962.9723,2539.9528)">
      <text
         xml:space="preserve"
         style="font-style:normal;font-variant:normal;font-weight:normal;font-stretch:normal;line-height:0%;font-family:Lavi;-inkscape-font-specification:Lavi;letter-spacing:0px;word-spacing:0px;display:inline;fill:#ffffff;fill-opacity:1;stroke:#000000;stroke-width:0.649528;stroke-miterlimit:4;stroke-dasharray:none;stroke-opacity:1;filter:url(#filter4375-4-1-1-1-9-5-8-3-4-2)"
         x="787.65729"
         y="1584.5073"
         id="text4580-6-0-3-1"
         transform="matrix(0.56396936,0.29200899,-0.49083985,0.74440634,2281.3949,1535.2837)"
         inkscape:transform-center-x="-5.9254429"
         inkscape:transform-center-y="0.58615246"><tspan
           sodipodi:role="line"
           id="tspan4582-1-1-6-7"
           x="787.65729"
           y="1584.5073"
           style="font-style:normal;font-variant:normal;font-weight:normal;font-stretch:normal;font-size:70px;line-height:1.25;font-family:Combah;-inkscape-font-specification:Combah;fill:#ffffff;fill-opacity:1;stroke:#000000;stroke-width:0.649528;stroke-opacity:1"><tspan
             style="font-style:normal;font-variant:normal;font-weight:normal;font-stretch:normal;font-size:93.1495px;font-family:Combah;-inkscape-font-specification:Combah;fill:#ffffff;fill-opacity:1;stroke:#000000;stroke-width:0.649528;stroke-opacity:1"
             id="tspan4315-8-0-2">PENG</tspan><tspan
             style="font-style:normal;font-variant:normal;font-weight:normal;font-stretch:normal;font-size:114.732px;font-family:Combah;-inkscape-font-specification:Combah;fill:#ffffff;fill-opacity:1;stroke:#000000;stroke-width:0.649528;stroke-opacity:1"
             id="tspan4313-2-6-7">!</tspan></tspan></text>
    </g>
    <g
       id="text4251-g894-7-7"
       transform="matrix(0.45457311,-0.53967703,0.53296055,0.45753715,-1047.5736,1867.716)">
      <text
         xml:space="preserve"
         style="font-style:normal;font-variant:normal;font-weight:normal;font-stretch:normal;line-height:0%;font-family:Lavi;-inkscape-font-specification:Lavi;letter-spacing:0px;word-spacing:0px;display:inline;fill:#ffffff;fill-opacity:1;stroke:#000000;stroke-width:0.649528;stroke-miterlimit:4;stroke-dasharray:none;stroke-opacity:1;filter:url(#filter4375-4-1-1-1-9-5-8-3-4-2-2)"
         x="787.65729"
         y="1584.5073"
         id="text4580-6-0-3-1-7"
         transform="matrix(0.56396936,0.29200899,-0.49083985,0.74440634,2281.3949,1535.2837)"
         inkscape:transform-center-x="-5.9254429"
         inkscape:transform-center-y="0.58615246"><tspan
           sodipodi:role="line"
           id="tspan4582-1-1-6-7-1"
           x="787.65729"
           y="1584.5073"
           style="font-style:normal;font-variant:normal;font-weight:normal;font-stretch:normal;font-size:70px;line-height:1.25;font-family:Combah;-inkscape-font-specification:Combah;fill:#ffffff;fill-opacity:1;stroke:#000000;stroke-width:0.649528;stroke-opacity:1"><tspan
             style="font-style:normal;font-variant:normal;font-weight:normal;font-stretch:normal;font-size:93.1495px;font-family:Combah;-inkscape-font-specification:Combah;fill:#ffffff;fill-opacity:1;stroke:#000000;stroke-width:0.649528;stroke-opacity:1"
             id="tspan4315-8-0-2-1">KLONG</tspan><tspan
             style="font-style:normal;font-variant:normal;font-weight:normal;font-stretch:normal;font-size:114.732px;font-family:Combah;-inkscape-font-specification:Combah;fill:#ffffff;fill-opacity:1;stroke:#000000;stroke-width:0.649528;stroke-opacity:1"
             id="tspan4313-2-6-7-5">!</tspan></tspan></text>
    </g>
    <g
       id="text4251-g894-7-7-2"
       transform="matrix(0.23227068,-0.66628698,0.66106879,0.23743471,-799.5741,2807.9446)">
      <text
         xml:space="preserve"
         style="font-style:normal;font-variant:normal;font-weight:normal;font-stretch:normal;line-height:0%;font-family:Lavi;-inkscape-font-specification:Lavi;letter-spacing:0px;word-spacing:0px;display:inline;fill:#ffffff;fill-opacity:1;stroke:#000000;stroke-width:0.649528;stroke-miterlimit:4;stroke-dasharray:none;stroke-opacity:1;filter:url(#filter4375-4-1-1-1-9-5-8-3-4-2-2-9)"
         x="787.65729"
         y="1584.5073"
         id="text4580-6-0-3-1-7-9"
         transform="matrix(0.56396936,0.29200899,-0.49083985,0.74440634,2281.3949,1535.2837)"
         inkscape:transform-center-x="-5.9254429"
         inkscape:transform-center-y="0.58615246"><tspan
           sodipodi:role="line"
           id="tspan4582-1-1-6-7-1-3"
           x="787.65729"
           y="1584.5073"
           style="font-style:normal;font-variant:normal;font-weight:normal;font-stretch:normal;font-size:70px;line-height:1.25;font-family:Combah;-inkscape-font-specification:Combah;fill:#ffffff;fill-opacity:1;stroke:#000000;stroke-width:0.649528;stroke-opacity:1"><tspan
             style="font-style:normal;font-variant:normal;font-weight:normal;font-stretch:normal;font-size:93.1495px;font-family:Combah;-inkscape-font-specification:Combah;fill:#ffffff;fill-opacity:1;stroke:#000000;stroke-width:0.649528;stroke-opacity:1"
             id="tspan4315-8-0-2-1-9">BONG</tspan><tspan
             style="font-style:normal;font-variant:normal;font-weight:normal;font-stretch:normal;font-size:114.732px;font-family:Combah;-inkscape-font-specification:Combah;fill:#ffffff;fill-opacity:1;stroke:#000000;stroke-width:0.649528;stroke-opacity:1"
             id="tspan4313-2-6-7-5-0">!</tspan></tspan></text>
    </g>
    <text
       xml:space="preserve"
       style="font-style:normal;font-variant:normal;font-weight:normal;font-stretch:normal;font-size:27.2915px;line-height:0%;font-family:Lavi;-inkscape-font-specification:Lavi;text-align:center;letter-spacing:0px;word-spacing:0px;text-anchor:middle;display:inline;fill:#000000;fill-opacity:1;stroke:none;stroke-width:1.12112"
       x="2884.5964"
       y="1786.5194"
       id="text4246-3-5"
       transform="matrix(0.81263366,0,-0.31508537,1.2305668,0,0)"><tspan
         sodipodi:role="line"
         style="font-style:normal;font-variant:normal;font-weight:bold;font-stretch:normal;font-size:102.343px;line-height:1.2;font-family:Lavi;-inkscape-font-specification:'Lavi Bold';stroke-width:1.12112"
         x="2884.5964"
         y="1786.5194"
         id="tspan872-2"><tspan
   id="tspan714918"
   style="font-style:normal;font-variant:normal;font-weight:bold;font-stretch:normal;font-size:70.343px;font-family:Lavi;-inkscape-font-specification:'Lavi Bold'">!</tspan><tspan
   style="font-style:normal;font-variant:normal;font-weight:bold;font-stretch:normal;font-size:82.343px;font-family:Lavi;-inkscape-font-specification:'Lavi Bold'"
   id="tspan706548">!</tspan>!</tspan></text>
    <text
       xml:space="preserve"
       style="font-style:normal;font-variant:normal;font-weight:normal;font-stretch:normal;font-size:27.2915px;line-height:0%;font-family:Lavi;-inkscape-font-specification:Lavi;text-align:center;letter-spacing:0px;word-spacing:0px;text-anchor:middle;fill:#000000;fill-opacity:1;stroke:none;stroke-width:1.12112"
       x="3270.3779"
       y="1775.1808"
       id="text4246-3-5-3"
       transform="matrix(0.81263366,0,-0.31508537,1.2305668,0,0)"><tspan
         sodipodi:role="line"
         style="font-style:normal;font-variant:normal;font-weight:bold;font-stretch:normal;font-size:102.343px;line-height:1.2;font-family:Lavi;-inkscape-font-specification:'Lavi Bold';stroke-width:1.12112"
         x="3270.3779"
         y="1775.1808"
         id="tspan872-2-0"><tspan
   id="tspan714918-4"
   style="font-style:normal;font-variant:normal;font-weight:bold;font-stretch:normal;font-size:70.343px;font-family:Lavi;-inkscape-font-specification:'Lavi Bold'">!</tspan><tspan
   style="font-style:normal;font-variant:normal;font-weight:bold;font-stretch:normal;font-size:82.343px;font-family:Lavi;-inkscape-font-specification:'Lavi Bold'"
   id="tspan706548-4">!</tspan>!</tspan></text>
    <text
       id="text4246-4-2-3-2-89-1-3-5-7-4-36"
       y="2633.928"
       x="928.99988"
       style="font-style:normal;font-variant:normal;font-weight:normal;font-stretch:normal;font-size:77.051px;line-height:0%;font-family:Lavi;-inkscape-font-specification:Lavi;text-align:center;letter-spacing:2.03292px;word-spacing:0px;text-anchor:middle;display:inline;fill:#000000;fill-opacity:1;stroke:none;stroke-width:1.14598"
       xml:space="preserve"
       transform="matrix(0.93037166,-0.07161155,-0.19071907,1.0895191,0,0)"><tspan
         y="2633.928"
         x="930.01636"
         style="font-style:normal;font-variant:normal;font-weight:bold;font-stretch:normal;font-size:77.051px;font-family:Lavi;-inkscape-font-specification:'Lavi Bold';stroke-width:1.14598"
         sodipodi:role="line"
         id="tspan719137-75">STRAŽA!</tspan></text>
    <text
       id="text4246-4-2-3-2-89-1-3-5-7-4"
       y="2712.519"
       x="1131.059"
       style="font-style:normal;font-variant:normal;font-weight:normal;font-stretch:normal;font-size:74.9842px;line-height:0%;font-family:Lavi;-inkscape-font-specification:Lavi;text-align:center;letter-spacing:1.8073px;word-spacing:0px;text-anchor:middle;fill:#000000;fill-opacity:1;stroke:none;stroke-width:1.11523"
       xml:space="preserve"
       transform="matrix(0.91671819,-0.09510693,-0.17722707,1.1092346,0,0)"><tspan
         y="2712.519"
         x="1131.9626"
         style="font-style:normal;font-variant:normal;font-weight:bold;font-stretch:normal;font-size:74.9842px;line-height:1.25;font-family:Lavi;-inkscape-font-specification:'Lavi Bold';stroke-width:1.11523"
         sodipodi:role="line"
         id="tspan719137">TAKOJ SEM!</tspan></text>
    <text
       id="text4246-4-2-3-2-89-1-3-5-7-4-3"
       y="2868.0854"
       x="1539.636"
       style="font-style:normal;font-variant:normal;font-weight:normal;font-stretch:normal;font-size:48.9104px;line-height:0%;font-family:Lavi;-inkscape-font-specification:Lavi;text-align:center;letter-spacing:0px;word-spacing:0px;text-anchor:middle;fill:#000000;fill-opacity:1;stroke:none;stroke-width:0.727446"
       xml:space="preserve"
       transform="matrix(0.97563945,-0.08959889,-0.08011561,1.0323263,0,0)"><tspan
         y="2868.0854"
         x="1539.636"
         style="font-style:normal;font-variant:normal;font-weight:bold;font-stretch:normal;font-size:48.9104px;line-height:1.25;font-family:Lavi;-inkscape-font-specification:'Lavi Bold';stroke-width:0.727446"
         sodipodi:role="line"
         id="tspan202987">VSILJIVEC</tspan><tspan
         y="2929.2234"
         x="1539.636"
         style="font-style:normal;font-variant:normal;font-weight:bold;font-stretch:normal;font-size:48.9104px;line-height:1.25;font-family:Lavi;-inkscape-font-specification:'Lavi Bold';stroke-width:0.727446"
         sodipodi:role="line"
         id="tspan18309">OSVOBAJA</tspan><tspan
         y="2990.3613"
         x="1539.636"
         style="font-style:normal;font-variant:normal;font-weight:bold;font-stretch:normal;font-size:48.9104px;line-height:1.25;font-family:Lavi;-inkscape-font-specification:'Lavi Bold';stroke-width:0.727446"
         sodipodi:role="line"
         id="tspan121175">ZAPORNICO!</tspan></text>
  </g>
</svg>
