<?xml version="1.0" encoding="UTF-8" standalone="no"?>
<svg
   xmlns:dc="http://purl.org/dc/elements/1.1/"
   xmlns:cc="http://creativecommons.org/ns#"
   xmlns:rdf="http://www.w3.org/1999/02/22-rdf-syntax-ns#"
   xmlns:svg="http://www.w3.org/2000/svg"
   xmlns="http://www.w3.org/2000/svg"
   xmlns:xlink="http://www.w3.org/1999/xlink"
   xmlns:sodipodi="http://sodipodi.sourceforge.net/DTD/sodipodi-0.dtd"
   xmlns:inkscape="http://www.inkscape.org/namespaces/inkscape"
   id="svg2"
   version="1.1"
   inkscape:version="1.0 (4035a4fb49, 2020-05-01)"
   width="2481"
   height="3503"
   sodipodi:docname="E26P02.svg">
  <metadata
     id="metadata8">
    <rdf:RDF>
      <cc:Work
         rdf:about="">
        <dc:format>image/svg+xml</dc:format>
        <dc:type
           rdf:resource="http://purl.org/dc/dcmitype/StillImage" />
        <dc:title />
      </cc:Work>
    </rdf:RDF>
  </metadata>
  <defs
     id="defs6">
    <filter
       style="color-interpolation-filters:sRGB"
       id="filter4375-4-1-1-15-1-3"
       inkscape:label="deevad outline effect">
      <feFlood
         id="feFlood4377-7-9-0-4-4-4"
         flood-opacity="1"
         flood-color="rgb(0,0,0)"
         result="flood" />
      <feComposite
         id="feComposite4379-3-8-8-6-0-7"
         in2="SourceGraphic"
         in="flood"
         operator="in"
         result="composite1" />
      <feMorphology
         id="feMorphology4393-1-0-49-8-2-7"
         operator="dilate"
         radius="0.69999999999999996"
         result="result3" />
      <feComposite
         id="feComposite4385-9-5-7-2-1-2"
         in2="result3"
         in="SourceGraphic"
         operator="over"
         result="composite2" />
    </filter>
    <filter
       style="color-interpolation-filters:sRGB"
       id="filter4375-4-1-1-15-1-3-0"
       inkscape:label="deevad outline effect">
      <feFlood
         id="feFlood4377-7-9-0-4-4-4-0"
         flood-opacity="1"
         flood-color="rgb(0,0,0)"
         result="flood" />
      <feComposite
         id="feComposite4379-3-8-8-6-0-7-3"
         in2="SourceGraphic"
         in="flood"
         operator="in"
         result="composite1" />
      <feMorphology
         id="feMorphology4393-1-0-49-8-2-7-4"
         operator="dilate"
         radius="0.90000000000000002"
         result="result3" />
      <feComposite
         id="feComposite4385-9-5-7-2-1-2-6"
         in2="result3"
         in="SourceGraphic"
         operator="over"
         result="composite2" />
    </filter>
  </defs>
  <sodipodi:namedview
     pagecolor="#ffffff"
     bordercolor="#666666"
     borderopacity="1"
     objecttolerance="10"
     gridtolerance="10"
     guidetolerance="10"
     inkscape:pageopacity="0"
     inkscape:pageshadow="2"
     inkscape:window-width="1920"
     inkscape:window-height="1033"
     id="namedview4"
     showgrid="false"
     inkscape:zoom="0.37593704"
     inkscape:cx="1308.1983"
     inkscape:cy="2609.7635"
     inkscape:window-x="0"
     inkscape:window-y="47"
     inkscape:window-maximized="0"
     inkscape:current-layer="layer1"
     inkscape:snap-global="false"
     borderlayer="true"
     inkscape:showpageshadow="false"
     inkscape:document-rotation="0" />
  <g
     inkscape:groupmode="layer"
     id="layer2"
     inkscape:label="artwork"
     sodipodi:insensitive="true">
    <image
       sodipodi:absref="C:\Users\stero\Documents\Kernewek\Pepper and Carrot\webcomics\ep26_Books-Are-Great\lang\gfx_Pepper-and-Carrot_by-David-Revoy_E26P02.png"
       xlink:href="../gfx_Pepper-and-Carrot_by-David-Revoy_E26P02.png"
       width="2481"
       height="3503"
       id="image10"
       x="0"
       y="0" />
  </g>
  <g
     inkscape:groupmode="layer"
     id="layer3"
     inkscape:label="speechbubbles">
    <path
       style="color:#000000;display:inline;overflow:visible;visibility:visible;fill:#ffffff;fill-opacity:1;fill-rule:nonzero;stroke:none;stroke-width:1.29816473px;marker:none;enable-background:accumulate"
       d="M 76.470802,661.00169 C 70.59599,637.97962 80.157676,533.58483 216.22301,524.31738 c 136.06544,-9.26747 176.35034,74.87042 180.16778,106.31448 3.81745,31.44388 -3.48963,66.53509 -34.07622,91.14313 -27.2372,22.1727 -56.99345,22.6164 -103.5579,29.5048 -53.71887,8.8109 -137.8831,-5.0701 -162.017464,-29.5142 -24.134249,-24.44404 -11.251254,-19.55635 -20.268404,-60.7639 z"
       id="path3365-3"
       inkscape:connector-curvature="0"
       sodipodi:nodetypes="cssccsc" />
    <path
       style="color:#000000;display:inline;overflow:visible;visibility:visible;fill:#ffffff;fill-opacity:1;fill-rule:nonzero;stroke:none;stroke-width:1.63566649px;marker:none;enable-background:accumulate"
       d="M 181.80721,311.01848 C 194.59145,543.14637 235.94745,787.00744 378.6466,837.81258 276.65833,787.36708 219.49009,550.6603 218.48358,327.373 218.27015,280.02456 199.72673,307.82462 199.72673,307.82462 Z"
       id="path4440"
       inkscape:connector-curvature="0"
       sodipodi:nodetypes="ccscc" />
    <path
       style="fill:#ffffff;stroke:none;stroke-width:1.44062"
       d="m 1120.891,89.632513 c 34.5123,-1.448117 242.1307,-18.823424 192.1195,115.482817 -26.7424,71.81726 -3.9872,138.22896 0.4747,179.78325 6.8505,63.80091 -70.904,89.96931 -177.3819,88.3665 C 944.2743,470.3775 982.88297,364.83151 981.38091,232.57547 980.05115,115.48815 1028.2815,93.865103 1120.891,89.632513 Z"
       id="path3280-8"
       inkscape:connector-curvature="0"
       sodipodi:nodetypes="cssssc" />
    <path
       style="color:#000000;display:inline;overflow:visible;visibility:visible;fill:#ffffff;fill-opacity:1;fill-rule:nonzero;stroke:none;stroke-width:1.45931px;marker:none;enable-background:accumulate"
       d="m 1270.4587,715.02326 c -52.2412,-10.38957 -90.1219,-52.2826 -82.2673,-117.43179 7.8551,-73.36812 7.6985,-80.57712 7.6985,-80.57712 l -55.1615,2.38205 c 0,0 3.3492,196.86393 129.7303,195.62686 z"
       id="path3072"
       inkscape:connector-curvature="0"
       inkscape:transform-center-x="-3.4248275"
       inkscape:transform-center-y="27.464172"
       sodipodi:nodetypes="ccccc" />
    <path
       style="fill:#ffffff;fill-rule:evenodd;stroke:none;stroke-width:1.34936px;stroke-linecap:butt;stroke-linejoin:miter;stroke-opacity:1"
       d="m 983.05067,489.49962 c 39.26493,3.4952 78.34073,-1.8493 46.59653,-54.4718 30.8078,18.642 81.5006,38.2355 117.4285,-6.633 10.2901,56.8613 76.0853,24.3712 108.6151,-0.5503 -48.5205,59.1974 92.451,43.42073 112.7399,11.85058 -14.6432,34.40947 41.5323,33.73186 78.9562,35.27366 -79.1665,59.3702 -79.4617,102.36486 -48.2672,124.72626 -77.802,-16.5442 -58.9854,16.9775 -68.2781,35.9333 -84.5446,-54.69404 -129.5484,-42.16952 -153.6255,7.1867 -20.0554,-21.7218 -26.3505,-66.617 -100.2833,2.3955 27.1869,-59.5777 -8.4491,-53.3242 -66.1441,-23.9554 9.042,-20.293 62.7832,-51.1514 -27.73803,-47.9112 56.54123,-19.2915 68.39823,-45.4244 0,-83.8443 z"
       id="path4584"
       inkscape:connector-curvature="0"
       sodipodi:nodetypes="ccccccccccccc" />
    <path
       style="fill:#ffffff;fill-opacity:1;stroke:none;stroke-width:1.88949561"
       d="m 2017.0594,189.66508 c -4.4678,-59.44873 13.1959,-85.03165 40.1775,-99.040619 34.1953,-17.754389 332.4514,-21.582033 362.2188,28.180479 27.4148,45.82971 15.2677,130.0876 -66.593,171.70895 -81.8607,41.6212 -218.4804,18.82333 -241.7363,11.25595 -23.2559,-7.56755 -89.416,-47.7811 -94.067,-112.10476 z"
       id="path3659-8"
       inkscape:connector-curvature="0"
       sodipodi:nodetypes="cssssc" />
    <path
       style="fill:#ffffff;stroke:none;stroke-width:1.12429571"
       d="m 2187.8594,352.9469 c -0.8756,-41.87209 25.2691,-51.27448 51.8008,-57.16805 26.5317,-5.89345 108.9888,0.63901 102.9316,51.8773 -6.0571,51.23841 -45.9531,58.33952 -78.9162,56.07445 -32.9632,-2.2652 -71.0332,-11.10871 -75.8162,-50.7837 z"
       id="path3938"
       inkscape:connector-curvature="0"
       sodipodi:nodetypes="csssc" />
    <path
       style="color:#000000;display:inline;overflow:visible;visibility:visible;fill:#ffffff;fill-opacity:1;fill-rule:nonzero;stroke:none;stroke-width:1px;marker:none;enable-background:accumulate"
       d="m 2155.8807,413.81052 c 41.2209,-1.94348 55.6641,-5.00539 71.331,-50.72285 15.6671,-45.71761 32.4158,-38.48457 32.4158,-38.48457 l 7.7097,32.88324 c 0,0 -40.1576,94.75832 -111.4565,56.32418 z"
       id="path3072-5"
       inkscape:connector-curvature="0" />
    <path
       style="color:#000000;display:inline;overflow:visible;visibility:visible;fill:#ffffff;fill-opacity:1;fill-rule:nonzero;stroke:none;stroke-width:1.19104683px;marker:none;enable-background:accumulate"
       d="m 1929.763,980.69769 c 13.4731,-75.1209 42.1671,-127.26315 233.6338,-134.5503 373.5846,-14.21852 253.1672,133.44793 251.6051,170.35731 -1.5619,36.9091 -59.1867,110.4552 -87.3021,119.6825 -117.2841,31.218 -284.2349,36.4779 -367.8629,-19.1691 -53.2364,-49.5548 -34.3454,-102.1037 -30.0739,-136.32041 z"
       id="path3365-5"
       inkscape:connector-curvature="0"
       sodipodi:nodetypes="cscccc" />
    <path
       style="fill:#ffffff;stroke:none;stroke-width:1"
       d="m 2198.814,1073.9531 c -28.3487,40.1842 -21.9808,80.5701 -11.3851,96.8521 10.5958,16.2818 -14.1224,62.2852 -32.5966,66.3613 42.1318,-2.545 63.2033,-58.0225 57.8284,-106.2564 -1.5781,-14.1607 13.8192,-31.6694 32.5349,-30.4271 17.298,1.1482 33.3984,-19.3288 33.3984,-19.3288 z"
       id="path3276"
       inkscape:connector-curvature="0"
       sodipodi:nodetypes="cscsscc" />
    <path
       style="fill:#ffffff;stroke:none;stroke-width:1.09929"
       d="m 61.733269,2233.8541 c -1.216445,-117.0147 20.616567,-178.5016 276.774191,-174.5571 358.5505,5.5212 384.13242,79.9025 387.71675,217.1782 4.90769,187.9586 -211.57515,155.929 -384.57268,157.3727 -298.536013,2.4914 -271.462247,-80.1685 -279.918261,-199.9938 z"
       id="path3280-8-0"
       inkscape:connector-curvature="0"
       sodipodi:nodetypes="csssc" />
    <path
       style="fill:#ffffff;stroke:none;stroke-width:1"
       d="m 716.99413,2551.2037 c 2.69935,99.6845 -9.0448,137.2658 -176.23628,149.1922 -231.39279,16.5062 -252.31922,-67.3541 -254.4242,-184.3389 -2.27111,-126.2186 108.41564,-115.1005 216.04067,-129.5056 191.68546,-25.6565 207.19012,62.5863 214.61981,164.6523 z"
       id="path3280-8-0-3"
       inkscape:connector-curvature="0"
       sodipodi:nodetypes="csssc" />
    <path
       style="color:#000000;display:inline;overflow:visible;visibility:visible;fill:#ffffff;fill-opacity:1;fill-rule:nonzero;stroke:none;stroke-width:1.07269px;marker:none;enable-background:accumulate"
       d="m 1693.019,2905.7298 c -21.3181,-37.2281 -27.2419,-133.73 159.3166,-121.0156 145.0493,7.7726 188.2087,33.7355 193.1906,78.1374 4.9819,44.4019 15.9371,86.5455 -100.2153,92.9818 -106.3443,3.3092 -216.914,0.9743 -252.2919,-50.1036 z"
       id="path3525"
       inkscape:connector-curvature="0"
       sodipodi:nodetypes="cczcc" />
    <path
       style="color:#000000;display:inline;overflow:visible;visibility:visible;fill:#ffffff;fill-opacity:1;fill-rule:nonzero;stroke:none;stroke-width:0.932679px;marker:none;enable-background:accumulate"
       d="m 788.59271,2654.0243 c -38.61235,13.1991 -53.23313,15.8331 -88.53084,-16.7571 -35.29767,-32.5903 -47.30824,-20.5196 -47.30824,-20.5196 l 8.02128,30.2663 c 0,0 80.19331,64.7861 127.8178,7.0104 z"
       id="path3072-6"
       inkscape:connector-curvature="0" />
    <path
       style="color:#000000;display:inline;overflow:visible;visibility:visible;fill:#ffffff;fill-opacity:1;fill-rule:nonzero;stroke:none;stroke-width:1px;marker:none;enable-background:accumulate"
       d="m 1885.9302,2880.543 c -8.5379,-41.2674 -44.7927,-105.1616 -72.2125,-139.41 -35.1182,-43.864 -72.8214,-53.3837 -92.0424,-60.2184 -19.2212,-6.8347 -32.1844,10.3588 -49.896,10.3433 -15.217,-0.013 -25.6847,-6.7896 -32.7226,-18.2648 9.7927,27.8644 34.0049,32.1826 44.6949,29.5469 10.6902,-2.6357 26.8117,-12.6559 45.0036,-2.5829 24.2118,13.4064 47.6718,29.1496 76.3935,72.336 25.957,39.0295 44.3792,76.7753 41.8276,91.0824 -2.5517,14.3073 38.9539,17.1675 38.9539,17.1675 z"
       id="path4562"
       inkscape:connector-curvature="0"
       sodipodi:nodetypes="cssscssssc" />
  </g>
  <g
     inkscape:groupmode="layer"
     id="layer1"
     inkscape:label="txt">
    <path
       style="color:#000000;display:inline;overflow:visible;visibility:visible;fill:#ffffff;fill-opacity:1;fill-rule:nonzero;stroke:none;stroke-width:1.41941655px;marker:none;enable-background:accumulate"
       d="m 41.381895,210.90916 c -2.833048,-22.29049 24.620698,-88.46018 198.279435,-89.31804 228.00665,-1.12633 214.7,111.20157 201.96489,144.20085 -10.88381,28.20228 -34.91332,43.83686 -71.74708,64.98562 -36.83375,21.14875 -141.29465,23.70185 -183.79089,17.75793 C 143.59231,342.59129 90.960697,341.41918 56.382794,302.83445 31.824442,275.43032 44.214955,216.85323 41.381895,210.90916 Z"
       id="path3365"
       inkscape:connector-curvature="0"
       sodipodi:nodetypes="csszcsc" />
    <text
       xml:space="preserve"
       style="font-style:normal;font-variant:normal;font-weight:normal;font-stretch:normal;line-height:0%;font-family:Lavi;-inkscape-font-specification:Lavi;text-align:center;letter-spacing:0px;word-spacing:0px;text-anchor:middle;fill:#000000;fill-opacity:1;stroke:none"
       x="256.7869"
       y="193.31723"
       id="text4246"><tspan
         sodipodi:role="line"
         style="font-size:45px;line-height:1.25"
         x="256.7869"
         y="193.31723"
         id="tspan835">...hag ena</tspan><tspan
         sodipodi:role="line"
         style="font-size:45px;line-height:1.25"
         x="256.7869"
         y="249.56723"
         id="tspan105">kudha an lagas</tspan><tspan
         sodipodi:role="line"
         style="font-size:45px;line-height:1.25"
         x="256.7869"
         y="305.81723"
         id="tspan107">gans hatt...</tspan></text>
    <text
       xml:space="preserve"
       style="font-style:normal;font-variant:normal;font-weight:normal;font-stretch:normal;line-height:0%;font-family:Lavi;-inkscape-font-specification:Lavi;text-align:center;letter-spacing:0px;word-spacing:0px;text-anchor:middle;fill:#000000;fill-opacity:1;stroke:none"
       x="234.4431"
       y="597.30139"
       id="text4246-3"><tspan
         sodipodi:role="line"
         style="font-size:45px;line-height:1.25"
         x="234.4431"
         y="597.30139"
         id="tspan901">...y tal </tspan><tspan
         sodipodi:role="line"
         style="font-size:45px;line-height:1.25"
         x="234.4431"
         y="653.55139"
         id="tspan114">dhe'n daras </tspan><tspan
         sodipodi:role="line"
         style="font-size:45px;line-height:1.25"
         x="234.4431"
         y="709.80139"
         id="tspan116">omygeri!</tspan></text>
    <text
       xml:space="preserve"
       style="font-style:normal;font-variant:normal;font-weight:normal;font-stretch:normal;font-size:12.4169px;line-height:0%;font-family:Lavi;-inkscape-font-specification:Lavi;text-align:center;letter-spacing:0px;word-spacing:0px;text-anchor:middle;fill:#000000;fill-opacity:1;stroke:none;stroke-width:1.03474"
       x="1106.0535"
       y="181.92639"
       id="text4246-5"
       transform="scale(1.0347385,0.96642774)"><tspan
         sodipodi:role="line"
         style="font-style:normal;font-variant:normal;font-weight:normal;font-stretch:normal;font-size:45px;line-height:1.25;font-family:Lavi;-inkscape-font-specification:'Lavi, Normal';font-variant-ligatures:normal;font-variant-caps:normal;font-variant-numeric:normal;font-feature-settings:normal;text-align:center;writing-mode:lr-tb;text-anchor:middle;stroke-width:1.03474"
         x="1106.0535"
         y="181.92639"
         id="tspan98">An awtour a</tspan><tspan
         sodipodi:role="line"
         style="font-style:normal;font-variant:normal;font-weight:normal;font-stretch:normal;font-size:45px;line-height:1.25;font-family:Lavi;-inkscape-font-specification:'Lavi, Normal';font-variant-ligatures:normal;font-variant-caps:normal;font-variant-numeric:normal;font-feature-settings:normal;text-align:center;writing-mode:lr-tb;text-anchor:middle;stroke-width:1.03474"
         x="1106.0535"
         y="238.17639"
         id="tspan145">brof gasa an</tspan><tspan
         sodipodi:role="line"
         style="font-style:normal;font-variant:normal;font-weight:normal;font-stretch:normal;font-size:45px;line-height:1.25;font-family:Lavi;-inkscape-font-specification:'Lavi, Normal';font-variant-ligatures:normal;font-variant-caps:normal;font-variant-numeric:normal;font-feature-settings:normal;text-align:center;writing-mode:lr-tb;text-anchor:middle;stroke-width:1.03474"
         x="1106.0535"
         y="294.42639"
         id="tspan147">hatt yn y le </tspan><tspan
         sodipodi:role="line"
         style="font-style:normal;font-variant:normal;font-weight:normal;font-stretch:normal;font-size:45px;line-height:1.25;font-family:Lavi;-inkscape-font-specification:'Lavi, Normal';font-variant-ligatures:normal;font-variant-caps:normal;font-variant-numeric:normal;font-feature-settings:normal;text-align:center;writing-mode:lr-tb;text-anchor:middle;stroke-width:1.03474"
         x="1106.0535"
         y="350.67639"
         id="tspan149">may hyllir</tspan><tspan
         sodipodi:role="line"
         style="font-style:normal;font-variant:normal;font-weight:normal;font-stretch:normal;font-size:45px;line-height:1.25;font-family:Lavi;-inkscape-font-specification:'Lavi, Normal';font-variant-ligatures:normal;font-variant-caps:normal;font-variant-numeric:normal;font-feature-settings:normal;text-align:center;writing-mode:lr-tb;text-anchor:middle;stroke-width:1.03474"
         x="1106.0535"
         y="406.92639"
         id="tspan151">skapya esya!</tspan></text>
    <text
       xml:space="preserve"
       style="font-style:normal;font-variant:normal;font-weight:normal;font-stretch:normal;line-height:0%;font-family:Lavi;-inkscape-font-specification:Lavi;text-align:center;letter-spacing:0px;word-spacing:0px;text-anchor:middle;fill:#000000;fill-opacity:1;stroke:none"
       x="1192.4738"
       y="506.10974"
       id="text4246-1"><tspan
         sodipodi:role="line"
         style="font-style:normal;font-variant:normal;font-weight:bold;font-stretch:normal;font-size:45px;line-height:1.25;font-family:Lavi;-inkscape-font-specification:'Lavi Bold'"
         x="1192.4738"
         y="506.10974"
         id="tspan1013">Ass yw</tspan><tspan
         sodipodi:role="line"
         style="font-style:normal;font-variant:normal;font-weight:bold;font-stretch:normal;font-size:45px;line-height:1.25;font-family:Lavi;-inkscape-font-specification:'Lavi Bold'"
         x="1192.4738"
         y="562.35974"
         id="tspan157">lyvrow splann!</tspan></text>
    <text
       xml:space="preserve"
       style="font-style:normal;font-variant:normal;font-weight:normal;font-stretch:normal;line-height:0%;font-family:Lavi;-inkscape-font-specification:Lavi;text-align:center;letter-spacing:0px;word-spacing:0px;text-anchor:middle;fill:#000000;fill-opacity:1;stroke:none"
       x="2355.262"
       y="148.03572"
       id="text4246-5-5"><tspan
         sodipodi:role="line"
         style="font-style:italic;font-variant:normal;font-weight:normal;font-stretch:normal;font-size:45px;line-height:1.25;font-family:Lavi;-inkscape-font-specification:'Lavi Italic';text-align:end;text-anchor:end"
         x="2355.262"
         y="148.03572"
         id="tspan926">“Lamm yn ewn</tspan><tspan
         sodipodi:role="line"
         style="font-style:italic;font-variant:normal;font-weight:normal;font-stretch:normal;font-size:45px;line-height:1.25;font-family:Lavi;-inkscape-font-specification:'Lavi Italic';text-align:end;text-anchor:end"
         x="2355.262"
         y="204.28572"
         id="tspan166">dres an kynsa</tspan><tspan
         sodipodi:role="line"
         style="font-style:italic;font-variant:normal;font-weight:normal;font-stretch:normal;font-size:45px;line-height:1.25;font-family:Lavi;-inkscape-font-specification:'Lavi Italic';text-align:end;text-anchor:end"
         x="2355.262"
         y="260.53571"
         id="tspan168">balegva.”</tspan></text>
    <text
       xml:space="preserve"
       style="font-style:normal;font-variant:normal;font-weight:normal;font-stretch:normal;line-height:0%;font-family:Lavi;-inkscape-font-specification:Lavi;text-align:center;letter-spacing:0px;word-spacing:0px;text-anchor:middle;fill:#000000;fill-opacity:1;stroke:none"
       x="2266.8933"
       y="365.76685"
       id="text4246-1-3"><tspan
         sodipodi:role="line"
         style="font-style:normal;font-variant:normal;font-weight:bold;font-stretch:normal;font-size:45px;line-height:1.25;font-family:Lavi;-inkscape-font-specification:'Lavi Bold'"
         x="2266.8933"
         y="365.76685"
         id="tspan1013-7">OK!</tspan></text>
    <text
       xml:space="preserve"
       style="color:#000000;font-style:normal;font-variant:normal;font-weight:normal;font-stretch:normal;font-size:12px;line-height:0.01%;font-family:Lavi;-inkscape-font-specification:'Lavi, Normal';font-variant-ligatures:normal;font-variant-caps:normal;font-variant-numeric:normal;font-feature-settings:normal;text-align:start;letter-spacing:0.00204969px;word-spacing:0px;writing-mode:lr-tb;text-anchor:start;display:inline;overflow:visible;visibility:visible;fill:#ffffff;fill-opacity:1;fill-rule:nonzero;stroke:#ffffff;stroke-width:0.0836072;stroke-linecap:butt;stroke-linejoin:miter;stroke-miterlimit:4;stroke-dasharray:none;stroke-dashoffset:0;stroke-opacity:1;marker:none;filter:url(#filter4375-4-1-1-15-1-3);enable-background:accumulate"
       x="1125.3203"
       y="1091.2349"
       id="text1702"
       transform="matrix(5.7002708,-3.8236609,4.4936667,6.6234627,-10757.229,-1056.1997)"><tspan
         sodipodi:role="line"
         id="tspan1032"
         x="1125.3203"
         y="1091.2349"
         style="font-style:normal;font-variant:normal;font-weight:bold;font-stretch:normal;font-family:Lavi;-inkscape-font-specification:'Lavi Bold'">BOYNG</tspan></text>
    <text
       xml:space="preserve"
       style="color:#000000;font-style:normal;font-variant:normal;font-weight:normal;font-stretch:normal;font-size:12px;line-height:0.01%;font-family:Lavi;-inkscape-font-specification:'Lavi, Normal';font-variant-ligatures:normal;font-variant-caps:normal;font-variant-numeric:normal;font-feature-settings:normal;text-align:start;letter-spacing:0.00204969px;word-spacing:0px;writing-mode:lr-tb;text-anchor:start;display:inline;overflow:visible;visibility:visible;fill:#ffffff;fill-opacity:1;fill-rule:nonzero;stroke:#ffffff;stroke-width:0.126006;stroke-linecap:butt;stroke-linejoin:miter;stroke-miterlimit:4;stroke-dasharray:none;stroke-dashoffset:0;stroke-opacity:1;marker:none;filter:url(#filter4375-4-1-1-15-1-3-0);enable-background:accumulate"
       x="1125.3203"
       y="1091.2349"
       id="text1702-6"
       transform="matrix(3.1869294,3.2574207,-3.7023322,3.8125721,2175.23,-6084.2675)"><tspan
         sodipodi:role="line"
         id="tspan1032-0"
         x="1125.3203"
         y="1091.2349"
         style="font-style:normal;font-variant:normal;font-weight:bold;font-stretch:normal;font-family:Lavi;-inkscape-font-specification:'Lavi Bold';stroke-width:0.126006;stroke-miterlimit:4;stroke-dasharray:none">BOYNG</tspan></text>
    <text
       xml:space="preserve"
       style="font-style:normal;font-variant:normal;font-weight:normal;font-stretch:normal;line-height:0%;font-family:Lavi;-inkscape-font-specification:Lavi;text-align:center;letter-spacing:0px;word-spacing:0px;text-anchor:middle;fill:#000000;fill-opacity:1;stroke:none"
       x="2367.1755"
       y="934.49329"
       id="text4246-5-5-2"><tspan
         sodipodi:role="line"
         style="font-style:italic;font-variant:normal;font-weight:normal;font-stretch:normal;font-size:45px;line-height:1.25;font-family:Lavi;-inkscape-font-specification:'Lavi Italic';text-align:end;text-anchor:end"
         x="2367.1755"
         y="934.49329"
         id="tspan200">“Y ferki omglewans</tspan><tspan
         sodipodi:role="line"
         style="font-style:italic;font-variant:normal;font-weight:normal;font-stretch:normal;font-size:45px;line-height:1.25;font-family:Lavi;-inkscape-font-specification:'Lavi Italic';text-align:end;text-anchor:end"
         x="2367.1755"
         y="990.74329"
         id="tspan202">a godha. Normal yw</tspan><tspan
         sodipodi:role="line"
         style="font-style:italic;font-variant:normal;font-weight:normal;font-stretch:normal;font-size:45px;line-height:1.25;font-family:Lavi;-inkscape-font-specification:'Lavi Italic';text-align:end;text-anchor:end"
         x="2367.1755"
         y="1046.9933"
         id="tspan204">hemma. Skochfordh</tspan><tspan
         sodipodi:role="line"
         style="font-style:italic;font-variant:normal;font-weight:normal;font-stretch:normal;font-size:45px;line-height:1.25;font-family:Lavi;-inkscape-font-specification:'Lavi Italic';text-align:end;text-anchor:end"
         x="2367.1755"
         y="1103.2433"
         id="tspan216">yw hemma.”</tspan></text>
    <text
       xml:space="preserve"
       style="font-style:normal;font-variant:normal;font-weight:normal;font-stretch:normal;line-height:0%;font-family:Lavi;-inkscape-font-specification:Lavi;text-align:center;letter-spacing:0px;word-spacing:0px;text-anchor:middle;fill:#000000;fill-opacity:1;stroke:none"
       x="394.3584"
       y="2151.1831"
       id="text4246-5-5-2-0"><tspan
         sodipodi:role="line"
         style="font-style:italic;font-variant:normal;font-weight:normal;font-stretch:normal;font-size:45px;line-height:1.25;font-family:Lavi;-inkscape-font-specification:'Lavi Italic';text-align:center;text-anchor:middle"
         x="394.3584"
         y="2151.1831"
         id="tspan564">“Omlowenha yn konfort an</tspan><tspan
         sodipodi:role="line"
         style="font-style:italic;font-variant:normal;font-weight:normal;font-stretch:normal;font-size:45px;line-height:1.25;font-family:Lavi;-inkscape-font-specification:'Lavi Italic';text-align:center;text-anchor:middle"
         x="394.3584"
         y="2207.4331"
         id="tspan232">gwias golowys heb peryl vyth:</tspan><tspan
         sodipodi:role="line"
         style="font-style:italic;font-variant:normal;font-weight:normal;font-stretch:normal;font-size:45px;line-height:1.25;font-family:Lavi;-inkscape-font-specification:'Lavi Italic';text-align:center;text-anchor:middle"
         x="394.3584"
         y="2263.6831"
         id="tspan234">an kevnisennow ma yw</tspan><tspan
         sodipodi:role="line"
         style="font-style:italic;font-variant:normal;font-weight:normal;font-stretch:normal;font-size:45px;line-height:1.25;font-family:Lavi;-inkscape-font-specification:'Lavi Italic';text-align:center;text-anchor:middle"
         x="394.3584"
         y="2319.9331"
         id="tspan236">lughwriansek ha maga war</tspan><tspan
         sodipodi:role="line"
         style="font-style:italic;font-variant:normal;font-weight:normal;font-stretch:normal;font-size:45px;line-height:1.25;font-family:Lavi;-inkscape-font-specification:'Lavi Italic';text-align:center;text-anchor:middle"
         x="394.3584"
         y="2376.1831"
         id="tspan238">an golow dastewynnys.”</tspan></text>
    <flowRoot
       xml:space="preserve"
       id="flowRoot1141"
       style="font-style:normal;font-variant:normal;font-weight:normal;font-stretch:normal;font-size:0.666667px;line-height:0%;font-family:Lavi;-inkscape-font-specification:Lavi;text-align:center;letter-spacing:0px;word-spacing:0px;writing-mode:lr-tb;text-anchor:middle;fill:#000000;fill-opacity:1;stroke:none;stroke-width:1px;stroke-linecap:butt;stroke-linejoin:miter;stroke-opacity:1"><flowRegion
         id="flowRegion1143"><rect
           id="rect1145"
           width="37.375"
           height="11.5"
           x="1802.6249"
           y="2272.5" /></flowRegion><flowPara
         id="flowPara1147" /></flowRoot>
    <text
       xml:space="preserve"
       style="font-style:normal;font-variant:normal;font-weight:normal;font-stretch:normal;line-height:0%;font-family:Lavi;-inkscape-font-specification:Lavi;text-align:center;letter-spacing:0px;word-spacing:0px;text-anchor:middle;fill:#000000;fill-opacity:1;stroke:none"
       x="502.41183"
       y="2482.4917"
       id="text4246-5-5-2-0-7"><tspan
         sodipodi:role="line"
         style="font-style:italic;font-variant:normal;font-weight:normal;font-stretch:normal;font-size:45px;line-height:1.25;font-family:Lavi;-inkscape-font-specification:'Lavi Italic';text-align:center;text-anchor:middle"
         x="502.41183"
         y="2482.4917"
         id="tspan1226">“My a gomend</tspan><tspan
         sodipodi:role="line"
         style="font-style:italic;font-variant:normal;font-weight:normal;font-stretch:normal;font-size:45px;line-height:1.25;font-family:Lavi;-inkscape-font-specification:'Lavi Italic';text-align:center;text-anchor:middle"
         x="502.41183"
         y="2538.7417"
         id="tspan249">gogosk rag</tspan><tspan
         sodipodi:role="line"
         style="font-style:italic;font-variant:normal;font-weight:normal;font-stretch:normal;font-size:45px;line-height:1.25;font-family:Lavi;-inkscape-font-specification:'Lavi Italic';text-align:center;text-anchor:middle"
         x="502.41183"
         y="2594.9917"
         id="tspan251">daskor oll dha</tspan><tspan
         sodipodi:role="line"
         style="font-style:italic;font-variant:normal;font-weight:normal;font-stretch:normal;font-size:45px;line-height:1.25;font-family:Lavi;-inkscape-font-specification:'Lavi Italic';text-align:center;text-anchor:middle"
         x="502.41183"
         y="2651.2417"
         id="tspan253">nerth.”</tspan></text>
    <text
       xml:space="preserve"
       style="font-style:normal;font-variant:normal;font-weight:normal;font-stretch:normal;font-size:14.0949px;line-height:0%;font-family:Lavi;-inkscape-font-specification:Lavi;text-align:center;letter-spacing:0px;word-spacing:0px;text-anchor:middle;fill:#000000;fill-opacity:1;stroke:none;stroke-width:1"
       x="1845.7053"
       y="2888.4749"
       id="text4246-1-8"
       transform="scale(1.0104523,0.98965582)"><tspan
         sodipodi:role="line"
         style="font-style:normal;font-variant:normal;font-weight:bold;font-stretch:normal;font-size:52.8558px;line-height:1.25;font-family:Lavi;-inkscape-font-specification:'Lavi Bold';stroke-width:1"
         x="1845.7053"
         y="2888.4749"
         id="tspan1251">Assa garav</tspan><tspan
         sodipodi:role="line"
         style="font-style:normal;font-variant:normal;font-weight:bold;font-stretch:normal;font-size:52.8558px;line-height:1.25;font-family:Lavi;-inkscape-font-specification:'Lavi Bold';stroke-width:1"
         x="1845.7053"
         y="2954.5447"
         id="tspan257">lyvrow!</tspan><tspan
         sodipodi:role="line"
         style="font-style:normal;font-variant:normal;font-weight:bold;font-stretch:normal;font-size:52.8558px;line-height:1.25;font-family:Lavi;-inkscape-font-specification:'Lavi Bold';stroke-width:1"
         x="1845.7053"
         y="2976.2825"
         id="tspan259" /></text>
    <text
       xml:space="preserve"
       style="color:#000000;font-style:normal;font-variant:normal;font-weight:normal;font-stretch:normal;font-size:11.1064px;line-height:0.01%;font-family:Arial;-inkscape-font-specification:Arial;letter-spacing:0.895707px;word-spacing:0px;display:inline;overflow:visible;visibility:visible;fill:#e69d76;fill-opacity:1;fill-rule:nonzero;stroke:#e99f77;stroke-width:4.05567;stroke-opacity:1;marker:none;enable-background:accumulate"
       x="610.2511"
       y="601.31281"
       id="text1711"
       transform="matrix(0.78576578,-0.49307246,0.54549744,0.93034115,0,0)"><tspan
         sodipodi:role="line"
         x="610.69897"
         y="601.31281"
         id="tspan1709"
         style="letter-spacing:0.895707px;word-spacing:0px;fill:#ffffff;fill-opacity:1;stroke:#ffffff;stroke-width:4.05567;stroke-opacity:1"><tspan
           x="610.2511"
           y="601.31281"
           style="color:#000000;font-style:normal;font-variant:normal;font-weight:normal;font-stretch:normal;font-size:59.2341px;line-height:1.25;font-family:Lavi;-inkscape-font-specification:Lavi;text-align:center;letter-spacing:0.895707px;word-spacing:0px;text-anchor:middle;display:inline;overflow:visible;visibility:visible;fill:#ffffff;fill-opacity:1;fill-rule:nonzero;stroke:#ffffff;stroke-width:3.197;stroke-miterlimit:4;stroke-dasharray:none;stroke-opacity:1;marker:none;enable-background:accumulate"
           id="tspan1707">Pouf!</tspan></tspan></text>
  </g>
  <g
     inkscape:groupmode="layer"
     id="layer4"
     inkscape:label="notes"
     style="display:inline"
     sodipodi:insensitive="true">
    <path
       style="color:#000000;clip-rule:nonzero;display:inline;overflow:visible;visibility:visible;opacity:0.481;isolation:auto;mix-blend-mode:normal;color-interpolation:sRGB;color-interpolation-filters:linearRGB;solid-color:#000000;solid-opacity:1;fill:#ffe680;fill-opacity:1;fill-rule:nonzero;stroke:#565656;stroke-width:1.20000005;stroke-linecap:butt;stroke-linejoin:miter;stroke-miterlimit:4;stroke-dasharray:none;stroke-dashoffset:0;stroke-opacity:1;marker:none;color-rendering:auto;image-rendering:auto;shape-rendering:auto;text-rendering:auto;enable-background:accumulate"
       d="M 1803.0237,-298.37057 H 846.35615 v 253.040394 h 289.92535 v 10 h -15.6308 l 26.9824,30.9825 26.9804,-30.9825 h -16.6171 v -10 h 645.0273 z"
       id="rect4191-6"
       inkscape:connector-curvature="0"
       sodipodi:nodetypes="cccccccccccc" />
    <flowRoot
       xml:space="preserve"
       id="flowRoot4212-7"
       style="font-style:normal;font-variant:normal;font-weight:normal;font-stretch:normal;line-height:0.01%;font-family:Lavi;-inkscape-font-specification:'Lavi, Normal';text-align:center;letter-spacing:0px;word-spacing:0px;writing-mode:lr-tb;text-anchor:middle;display:inline;opacity:0.689;fill:#000000;fill-opacity:1;stroke:none;stroke-width:0.799589px;stroke-linecap:butt;stroke-linejoin:miter;stroke-opacity:1"
       transform="matrix(1.2506418,0,0,1.2506418,1218.2001,-1598.9961)"><flowRegion
         id="flowRegion4214-5"
         style="stroke-width:0.799589px"><rect
           id="rect4216-3"
           width="718.88867"
           height="174.37697"
           x="-275.14545"
           y="1061.6674"
           style="stroke-width:0.79958946px" /></flowRegion><flowPara
         id="flowPara4564"
         style="font-size:25.3242px;line-height:1.25;stroke-width:0.799589px">This “they” means one person, without specifying their gender.</flowPara><flowPara
         style="font-size:25.3242px;line-height:1.25;stroke-width:0.799589px"
         id="flowPara936">If possible, please try to do the same in your language</flowPara><flowPara
         style="font-size:25.3242px;line-height:1.25;stroke-width:0.799589px"
         id="flowPara934">(suggestion: if your language doesn't have genderless pronouns, maybe you can translate as “the author”).</flowPara><flowPara
         style="font-size:25.3242px;line-height:1.25;stroke-width:0.799589px"
         id="flowPara920">If that doesn't really work well, assume the author is a woman.</flowPara></flowRoot>
  </g>
</svg>
