<?xml version="1.0" encoding="UTF-8" standalone="no"?>
<!-- Created with Inkscape (http://www.inkscape.org/) -->

<svg
   xmlns:dc="http://purl.org/dc/elements/1.1/"
   xmlns:cc="http://creativecommons.org/ns#"
   xmlns:rdf="http://www.w3.org/1999/02/22-rdf-syntax-ns#"
   xmlns:svg="http://www.w3.org/2000/svg"
   xmlns="http://www.w3.org/2000/svg"
   xmlns:xlink="http://www.w3.org/1999/xlink"
   xmlns:sodipodi="http://sodipodi.sourceforge.net/DTD/sodipodi-0.dtd"
   xmlns:inkscape="http://www.inkscape.org/namespaces/inkscape"
   id="svg2"
   version="1.1"
   inkscape:version="0.92.3 (2405546, 2018-03-11)"
   width="2481"
   height="3503"
   sodipodi:docname="E28P09.svg">
  <metadata
     id="metadata8">
    <rdf:RDF>
      <cc:Work
         rdf:about="">
        <dc:format>image/svg+xml</dc:format>
        <dc:type
           rdf:resource="http://purl.org/dc/dcmitype/StillImage" />
        <dc:title />
      </cc:Work>
    </rdf:RDF>
  </metadata>
  <defs
     id="defs6" />
  <sodipodi:namedview
     pagecolor="#ffffff"
     bordercolor="#666666"
     borderopacity="1"
     objecttolerance="10"
     gridtolerance="10"
     guidetolerance="10"
     inkscape:pageopacity="0"
     inkscape:pageshadow="2"
     inkscape:window-width="1920"
     inkscape:window-height="1022"
     id="namedview4"
     showgrid="false"
     inkscape:zoom="0.51498715"
     inkscape:cx="968.21562"
     inkscape:cy="431.07877"
     inkscape:window-x="0"
     inkscape:window-y="0"
     inkscape:window-maximized="1"
     inkscape:current-layer="layer3" />
  <g
     inkscape:groupmode="layer"
     id="layer2"
     inkscape:label="artwork"
     sodipodi:insensitive="true">
    <image
       sodipodi:absref="/home/peppercarrot/webcomics/"
       xlink:href="../gfx_Pepper-and-Carrot_by-David-Revoy_E28P09.png"
       width="2481"
       height="3503"
       id="image10"
       x="0"
       y="0" />
  </g>
  <g
     inkscape:groupmode="layer"
     id="layer3"
     inkscape:label="speechbubbles">
    <path
       style="fill:#ffffff;fill-rule:evenodd;stroke:none;stroke-width:0.91172516px;stroke-linecap:butt;stroke-linejoin:miter;stroke-opacity:1"
       d="m 1178.9227,261.71563 c 20.193,-55.54754 49.7057,-75.95276 85.4317,-80.48725 35.7259,-4.53449 164.65,-3.40088 208.1424,-2.26724 43.4924,1.13361 104.0712,12.46985 113.391,49.87941 9.3199,37.40957 9.3199,123.56494 -15.5331,145.10378 -24.8527,21.53885 -82.3249,35.14233 -139.7971,34.00871 -57.4721,-1.13363 -184.8428,10.2026 -219.0155,-28.34059 -34.1726,-38.54319 -35.7259,-89.55623 -32.6194,-117.89682 z"
       id="path889"
       inkscape:connector-curvature="0" />
    <path
       style="fill:#ffffff;fill-rule:evenodd;stroke:none;stroke-width:1px;stroke-linecap:butt;stroke-linejoin:miter;stroke-opacity:1"
       d="m 1115.0193,506.87426 c 34.1115,-49.03527 51.8779,-64.6697 63.2484,-73.19757 -2.8427,27.00493 -2.8427,32.69017 4.2639,32.69017 7.1066,0 170.5574,-137.15661 170.5574,-137.15661 l -87.4106,23.45165 c 0,0 -32.6902,47.61396 -46.9033,61.11642 -14.2132,13.50246 -29.1369,24.87296 -29.1369,24.87296 0,0 6.3959,-14.92378 4.2639,-19.89837 -2.132,-4.97459 -20.609,-17.7664 -78.8828,88.12135 z"
       id="path891"
       inkscape:connector-curvature="0" />
    <path
       style="fill:#ffffff;fill-rule:evenodd;stroke:none;stroke-width:1.05024767px;stroke-linecap:butt;stroke-linejoin:miter;stroke-opacity:1"
       d="m 2028.0096,120.38398 c 12.239,-36.33592 43.7992,-35.141934 65.6989,-35.959188 21.8997,-0.817255 218.9966,-0.817255 250.2818,1.634508 31.2853,2.451764 59.4419,16.34509 62.5705,36.77645 3.1285,20.43136 8.6272,52.62495 -36.4993,68.64937 -48.2742,17.14205 -238.8107,16.34509 -289.9099,4.90353 -51.0992,-11.44157 -64.3811,-39.66874 -52.142,-76.00467 z"
       id="path893"
       inkscape:connector-curvature="0"
       sodipodi:nodetypes="zsscssz" />
    <path
       style="fill:#ffffff;fill-rule:evenodd;stroke:none;stroke-width:1px;stroke-linecap:butt;stroke-linejoin:miter;stroke-opacity:1"
       d="m 2267.1497,172.17705 c -25.3365,54.38062 -31.9986,68.79 -36.9423,79.91331 -4.9437,11.12331 1.2237,26.43947 21.9453,22.50245 28.8196,-5.4756 85.7031,8.41081 27.3562,113.25288 42.6394,-101.96369 -1.8539,-98.25592 -18.5389,-93.93019 -16.6849,4.32573 -76.0093,8.65147 -60.5602,-45.11121 15.449,-53.76267 50.0549,-124.2103 50.0549,-124.2103 l 25.9544,16.68497 z"
       id="path895"
       inkscape:connector-curvature="0"
       sodipodi:nodetypes="csscccccc" />
    <path
       style="fill:#ffffff;fill-rule:evenodd;stroke:none;stroke-width:0.97721589px;stroke-linecap:butt;stroke-linejoin:miter;stroke-opacity:1"
       d="m 1969.2163,1018.3127 c 10.9731,-65.50215 104.9921,-85.20122 201.2599,-78.39563 96.2678,6.80558 145.8968,49.3144 147.6284,86.85223 0.3742,31.1419 -12.1302,78.9591 -111.1521,88.8286 -99.022,9.8696 -246.548,-2.882 -237.7362,-97.2852 z"
       id="path912"
       inkscape:connector-curvature="0"
       sodipodi:nodetypes="cscsc" />
    <path
       style="fill:#ffffff;fill-rule:evenodd;stroke:none;stroke-width:1px;stroke-linecap:butt;stroke-linejoin:miter;stroke-opacity:1"
       d="m 2172.6623,824.46041 c 28.5876,33.55943 48.4747,75.81945 -1.243,121.8083 -49.7176,45.98884 31.0736,31.07354 31.0736,31.07354 0,0 72.0906,-75.81945 -29.8306,-152.88184 z"
       id="path914"
       inkscape:connector-curvature="0" />
    <text
       xml:space="preserve"
       style="font-style:normal;font-variant:normal;font-weight:normal;font-stretch:normal;font-size:43.85733414px;line-height:0%;font-family:Lavi;-inkscape-font-specification:'Lavi, Normal';font-variant-ligatures:normal;font-variant-caps:normal;font-variant-numeric:normal;font-feature-settings:normal;text-align:center;letter-spacing:0px;word-spacing:0px;writing-mode:lr-tb;text-anchor:middle;display:inline;fill:#241c1c;fill-opacity:1;stroke:#000000;stroke-width:0.82200003;stroke-miterlimit:4;stroke-dasharray:none;stroke-opacity:1"
       x="2421.6179"
       y="3314.9802"
       id="text4213"
       transform="matrix(0.96049651,0,-0.32716292,1.0411282,0,0)"><tspan
         sodipodi:role="line"
         id="tspan3562"
         x="2421.6179"
         y="3314.9802"
         style="font-style:normal;font-variant:normal;font-weight:normal;font-stretch:normal;font-size:43.85733414px;line-height:1.25;font-family:Lavi;-inkscape-font-specification:'Lavi, Normal';font-variant-ligatures:normal;font-variant-caps:normal;font-variant-numeric:normal;font-feature-settings:normal;text-align:center;writing-mode:lr-tb;text-anchor:middle;stroke-width:0.82200003">FORTSETZUNG FOLGT…</tspan></text>
  </g>
  <g
     inkscape:groupmode="layer"
     id="layer1"
     inkscape:label="txt">
    <text
       xml:space="preserve"
       style="font-style:normal;font-variant:normal;font-weight:normal;font-stretch:normal;line-height:0%;font-family:Lavi;-inkscape-font-specification:Lavi;text-align:center;letter-spacing:0px;word-spacing:0px;text-anchor:middle;fill:#000000;fill-opacity:1;stroke:none"
       x="1392.7542"
       y="249.04494"
       id="text4246"><tspan
         sodipodi:role="line"
         style="font-size:45px;line-height:1.20000005"
         x="1392.7542"
         y="249.04494"
         id="tspan823">Oh! Pepper!?</tspan><tspan
         sodipodi:role="line"
         style="font-size:45px;line-height:1.20000005"
         x="1392.7542"
         y="303.04495"
         id="tspan831">Haben wir was</tspan><tspan
         sodipodi:role="line"
         style="font-size:45px;line-height:1.20000005"
         x="1392.7542"
         y="357.04495"
         id="tspan33">Falsches gesagt?</tspan></text>
    <text
       xml:space="preserve"
       style="font-style:normal;font-variant:normal;font-weight:normal;font-stretch:normal;line-height:0%;font-family:Lavi;-inkscape-font-specification:Lavi;text-align:center;letter-spacing:0px;word-spacing:0px;text-anchor:middle;fill:#000000;fill-opacity:1;stroke:none"
       x="2206.9097"
       y="157.13844"
       id="text4246-3"><tspan
         sodipodi:role="line"
         style="font-size:45px;line-height:1.20000005"
         x="2206.9097"
         y="157.13844"
         id="tspan831-3">Nein, gar nicht!</tspan></text>
    <text
       xml:space="preserve"
       style="font-style:normal;font-variant:normal;font-weight:normal;font-stretch:normal;line-height:0%;font-family:Lavi;-inkscape-font-specification:Lavi;text-align:center;letter-spacing:0px;word-spacing:0px;text-anchor:middle;fill:#000000;fill-opacity:1;stroke:none"
       x="2144.7637"
       y="1019.1569"
       id="text4246-3-5"><tspan
         sodipodi:role="line"
         style="font-size:45px;line-height:1.20000005"
         x="2144.7637"
         y="1019.1569"
         id="tspan887">Danke, meine</tspan><tspan
         sodipodi:role="line"
         style="font-size:45px;line-height:1.20000005"
         x="2144.7637"
         y="1073.1569"
         id="tspan37">Freunde!</tspan></text>
  </g>
</svg>
