<?xml version="1.0" encoding="UTF-8" standalone="no"?>
<!-- Created with Inkscape (http://www.inkscape.org/) -->

<svg
   xmlns:dc="http://purl.org/dc/elements/1.1/"
   xmlns:cc="http://creativecommons.org/ns#"
   xmlns:rdf="http://www.w3.org/1999/02/22-rdf-syntax-ns#"
   xmlns:svg="http://www.w3.org/2000/svg"
   xmlns="http://www.w3.org/2000/svg"
   xmlns:xlink="http://www.w3.org/1999/xlink"
   xmlns:sodipodi="http://sodipodi.sourceforge.net/DTD/sodipodi-0.dtd"
   xmlns:inkscape="http://www.inkscape.org/namespaces/inkscape"
   id="svg2"
   version="1.1"
   inkscape:version="0.92.2 (5c3e80d, 2017-08-06)"
   width="2481"
   height="3503"
   sodipodi:docname="E21P04.svg"
   inkscape:export-filename="E:\Users\jamesmichael\Downloads\Compressed\eps\ep21_The-Magic-Contest_lang-pack\lang\ph\E21P04.png"
   inkscape:export-xdpi="90"
   inkscape:export-ydpi="90">
  <sodipodi:namedview
     pagecolor="#ffffff"
     bordercolor="#666666"
     inkscape:pageopacity="0"
     inkscape:pageshadow="2"
     inkscape:window-width="1813"
     inkscape:window-height="955"
     id="namedview70"
     showgrid="false"
     inkscape:zoom="0.28284271"
     inkscape:cx="1376.7707"
     inkscape:cy="1818.2616"
     inkscape:current-layer="layer3"
     inkscape:snap-grids="false"
     inkscape:snap-to-guides="false"
     inkscape:snap-others="false"
     inkscape:snap-nodes="false"
     inkscape:snap-global="false" />
  <metadata
     id="metadata8">
    <rdf:RDF>
      <cc:Work
         rdf:about="">
        <dc:format>image/svg+xml</dc:format>
        <dc:type
           rdf:resource="http://purl.org/dc/dcmitype/StillImage" />
        <dc:title />
      </cc:Work>
    </rdf:RDF>
  </metadata>
  <defs
     id="defs6">
    <filter
       style="color-interpolation-filters:sRGB"
       id="filter4375-4-1-1-1-9"
       inkscape:label="deevad outline effect">
      <feFlood
         id="feFlood4377-7-9-0-8-1"
         flood-opacity="1"
         flood-color="rgb(0,0,0)"
         result="flood" />
      <feComposite
         id="feComposite4379-3-8-8-2-77"
         in2="SourceGraphic"
         in="flood"
         operator="in"
         result="composite1" />
      <feMorphology
         id="feMorphology4393-1-0-49-8-9"
         operator="dilate"
         radius="4"
         result="result3" />
      <feComposite
         id="feComposite4385-9-5-7-0-8"
         in2="result3"
         in="SourceGraphic"
         operator="over"
         result="composite2" />
    </filter>
    <filter
       style="color-interpolation-filters:sRGB"
       id="filter4375-4-1-1-1-9-6"
       inkscape:label="deevad outline effect">
      <feFlood
         id="feFlood4377-7-9-0-8-1-0"
         flood-opacity="1"
         flood-color="rgb(0,0,0)"
         result="flood" />
      <feComposite
         id="feComposite4379-3-8-8-2-77-6"
         in2="SourceGraphic"
         in="flood"
         operator="in"
         result="composite1" />
      <feMorphology
         id="feMorphology4393-1-0-49-8-9-2"
         operator="dilate"
         radius="4"
         result="result3" />
      <feComposite
         id="feComposite4385-9-5-7-0-8-6"
         in2="result3"
         in="SourceGraphic"
         operator="over"
         result="composite2" />
    </filter>
    <filter
       style="color-interpolation-filters:sRGB"
       id="filter4375-4-1-1-1-9-6-7"
       inkscape:label="deevad outline effect">
      <feFlood
         id="feFlood4377-7-9-0-8-1-0-9"
         flood-opacity="1"
         flood-color="rgb(0,0,0)"
         result="flood" />
      <feComposite
         id="feComposite4379-3-8-8-2-77-6-2"
         in2="SourceGraphic"
         in="flood"
         operator="in"
         result="composite1" />
      <feMorphology
         id="feMorphology4393-1-0-49-8-9-2-0"
         operator="dilate"
         radius="4"
         result="result3" />
      <feComposite
         id="feComposite4385-9-5-7-0-8-6-2"
         in2="result3"
         in="SourceGraphic"
         operator="over"
         result="composite2" />
    </filter>
    <filter
       style="color-interpolation-filters:sRGB"
       id="filter4375-4-1-1-1-9-6-7-5"
       inkscape:label="deevad outline effect">
      <feFlood
         id="feFlood4377-7-9-0-8-1-0-9-9"
         flood-opacity="1"
         flood-color="rgb(0,0,0)"
         result="flood" />
      <feComposite
         id="feComposite4379-3-8-8-2-77-6-2-2"
         in2="SourceGraphic"
         in="flood"
         operator="in"
         result="composite1" />
      <feMorphology
         id="feMorphology4393-1-0-49-8-9-2-0-2"
         operator="dilate"
         radius="4"
         result="result3" />
      <feComposite
         id="feComposite4385-9-5-7-0-8-6-2-8"
         in2="result3"
         in="SourceGraphic"
         operator="over"
         result="composite2" />
    </filter>
    <filter
       style="color-interpolation-filters:sRGB"
       id="filter4375-4-1-1-1-9-6-9-2-3"
       inkscape:label="deevad outline effect">
      <feFlood
         id="feFlood4377-7-9-0-8-1-0-2-2-6"
         flood-opacity="1"
         flood-color="rgb(0,0,0)"
         result="flood" />
      <feComposite
         id="feComposite4379-3-8-8-2-77-6-0-8-7"
         in2="SourceGraphic"
         in="flood"
         operator="in"
         result="composite1" />
      <feMorphology
         id="feMorphology4393-1-0-49-8-9-2-2-9-5"
         operator="dilate"
         radius="4"
         result="result3" />
      <feComposite
         id="feComposite4385-9-5-7-0-8-6-3-7-3"
         in2="result3"
         in="SourceGraphic"
         operator="over"
         result="composite2" />
    </filter>
    <filter
       style="color-interpolation-filters:sRGB"
       id="filter4375-4-1-1-1-9-6-9-2-2"
       inkscape:label="deevad outline effect">
      <feFlood
         id="feFlood4377-7-9-0-8-1-0-2-2-0"
         flood-opacity="1"
         flood-color="rgb(0,0,0)"
         result="flood" />
      <feComposite
         id="feComposite4379-3-8-8-2-77-6-0-8-6"
         in2="SourceGraphic"
         in="flood"
         operator="in"
         result="composite1" />
      <feMorphology
         id="feMorphology4393-1-0-49-8-9-2-2-9-1"
         operator="dilate"
         radius="4"
         result="result3" />
      <feComposite
         id="feComposite4385-9-5-7-0-8-6-3-7-5"
         in2="result3"
         in="SourceGraphic"
         operator="over"
         result="composite2" />
    </filter>
    <filter
       style="color-interpolation-filters:sRGB"
       id="filter4375-4-1-1-1-9-6-9-2"
       inkscape:label="deevad outline effect">
      <feFlood
         id="feFlood4377-7-9-0-8-1-0-2-2"
         flood-opacity="1"
         flood-color="rgb(0,0,0)"
         result="flood" />
      <feComposite
         id="feComposite4379-3-8-8-2-77-6-0-8"
         in2="SourceGraphic"
         in="flood"
         operator="in"
         result="composite1" />
      <feMorphology
         id="feMorphology4393-1-0-49-8-9-2-2-9"
         operator="dilate"
         radius="4"
         result="result3" />
      <feComposite
         id="feComposite4385-9-5-7-0-8-6-3-7"
         in2="result3"
         in="SourceGraphic"
         operator="over"
         result="composite2" />
    </filter>
    <filter
       style="color-interpolation-filters:sRGB"
       id="filter4375-4-1-1-1-9-6-9"
       inkscape:label="deevad outline effect">
      <feFlood
         id="feFlood4377-7-9-0-8-1-0-2"
         flood-opacity="1"
         flood-color="rgb(0,0,0)"
         result="flood" />
      <feComposite
         id="feComposite4379-3-8-8-2-77-6-0"
         in2="SourceGraphic"
         in="flood"
         operator="in"
         result="composite1" />
      <feMorphology
         id="feMorphology4393-1-0-49-8-9-2-2"
         operator="dilate"
         radius="4"
         result="result3" />
      <feComposite
         id="feComposite4385-9-5-7-0-8-6-3"
         in2="result3"
         in="SourceGraphic"
         operator="over"
         result="composite2" />
    </filter>
    <filter
       style="color-interpolation-filters:sRGB"
       id="filter4375-4-1-1-1-9-3"
       inkscape:label="deevad outline effect">
      <feFlood
         id="feFlood4377-7-9-0-8-1-6"
         flood-opacity="1"
         flood-color="rgb(0,0,0)"
         result="flood" />
      <feComposite
         id="feComposite4379-3-8-8-2-77-1"
         in2="SourceGraphic"
         in="flood"
         operator="in"
         result="composite1" />
      <feMorphology
         id="feMorphology4393-1-0-49-8-9-29"
         operator="dilate"
         radius="4"
         result="result3" />
      <feComposite
         id="feComposite4385-9-5-7-0-8-3"
         in2="result3"
         in="SourceGraphic"
         operator="over"
         result="composite2" />
    </filter>
    <filter
       style="color-interpolation-filters:sRGB"
       id="filter4375-4-1-1-1-9-6-9-2-2-4"
       inkscape:label="deevad outline effect">
      <feFlood
         id="feFlood4377-7-9-0-8-1-0-2-2-0-7"
         flood-opacity="1"
         flood-color="rgb(0,0,0)"
         result="flood" />
      <feComposite
         id="feComposite4379-3-8-8-2-77-6-0-8-6-8"
         in2="SourceGraphic"
         in="flood"
         operator="in"
         result="composite1" />
      <feMorphology
         id="feMorphology4393-1-0-49-8-9-2-2-9-1-4"
         operator="dilate"
         radius="4"
         result="result3" />
      <feComposite
         id="feComposite4385-9-5-7-0-8-6-3-7-5-5"
         in2="result3"
         in="SourceGraphic"
         operator="over"
         result="composite2" />
    </filter>
    <filter
       style="color-interpolation-filters:sRGB"
       id="filter4375-4-1-1-1-9-6-9-2-1"
       inkscape:label="deevad outline effect">
      <feFlood
         id="feFlood4377-7-9-0-8-1-0-2-2-06"
         flood-opacity="1"
         flood-color="rgb(0,0,0)"
         result="flood" />
      <feComposite
         id="feComposite4379-3-8-8-2-77-6-0-8-3"
         in2="SourceGraphic"
         in="flood"
         operator="in"
         result="composite1" />
      <feMorphology
         id="feMorphology4393-1-0-49-8-9-2-2-9-2"
         operator="dilate"
         radius="4"
         result="result3" />
      <feComposite
         id="feComposite4385-9-5-7-0-8-6-3-7-0"
         in2="result3"
         in="SourceGraphic"
         operator="over"
         result="composite2" />
    </filter>
    <filter
       inkscape:collect="always"
       style="color-interpolation-filters:sRGB"
       id="filter4903"
       x="-0.0053790888"
       width="1.0107582"
       y="-0.0027052583"
       height="1.0054105">
      <feGaussianBlur
         inkscape:collect="always"
         stdDeviation="0.84355953"
         id="feGaussianBlur4905" />
    </filter>
    <clipPath
       clipPathUnits="userSpaceOnUse"
       id="clipPath4989">
      <rect
         rx="24.280441"
         style="color:#000000;display:inline;overflow:visible;visibility:visible;opacity:1;fill:#550000;fill-opacity:1;fill-rule:nonzero;stroke:none;stroke-width:2.5999999;marker:none;enable-background:accumulate"
         id="rect4991"
         width="628.99707"
         height="304.66232"
         x="66.095261"
         y="143.83429"
         ry="18.245518"
         transform="matrix(0,1,1,0,0,0)" />
    </clipPath>
  </defs>
  <sodipodi:namedview
     pagecolor="#ffffff"
     bordercolor="#666666"
     borderopacity="1"
     objecttolerance="10"
     gridtolerance="10"
     guidetolerance="10"
     inkscape:pageopacity="0"
     inkscape:pageshadow="2"
     inkscape:window-width="1920"
     inkscape:window-height="1025"
     id="namedview4"
     showgrid="false"
     inkscape:zoom="0.35198686"
     inkscape:cx="1763.4817"
     inkscape:cy="1820.9906"
     inkscape:window-x="0"
     inkscape:window-y="26"
     inkscape:window-maximized="1"
     inkscape:current-layer="layer1" />
  <g
     inkscape:groupmode="layer"
     id="layer2"
     inkscape:label="artwork"
     sodipodi:insensitive="true">
    <image
       sodipodi:absref="E:\Users\jamesmichael\Downloads\Compressed\eps\ep21_The-Magic-Contest_lang-pack\lang\ph\../gfx_Pepper-and-Carrot_by-David-Revoy_E21P04.png"
       xlink:href="../gfx_Pepper-and-Carrot_by-David-Revoy_E21P04.png"
       width="2481"
       height="3503"
       id="image10"
       x="0"
       y="0" />
  </g>
  <g
     inkscape:groupmode="layer"
     id="layer4"
     inkscape:label="transla-notes"
     style="display:inline">
    <path
       style="color:#000000;clip-rule:nonzero;display:inline;overflow:visible;visibility:visible;opacity:0.481;isolation:auto;mix-blend-mode:normal;color-interpolation:sRGB;color-interpolation-filters:linearRGB;solid-color:#000000;solid-opacity:1;fill:#ffe680;fill-opacity:1;fill-rule:nonzero;stroke:#565656;stroke-width:1.20000005;stroke-linecap:butt;stroke-linejoin:miter;stroke-miterlimit:4;stroke-dasharray:none;stroke-dashoffset:0;stroke-opacity:1;marker:none;color-rendering:auto;image-rendering:auto;shape-rendering:auto;text-rendering:auto;enable-background:accumulate"
       d="m -462.00591,562.85601 0,189.0351 203.83,0 0,-90.9805 10,0 0,15.6308 30.9825,-26.9824 -30.9825,-26.9804 0,16.6171 -10,0 0,-76.3397 -203.83,0 z"
       id="rect4191-6"
       inkscape:connector-curvature="0" />
    <flowRoot
       xml:space="preserve"
       id="flowRoot4212-7"
       style="font-style:normal;font-variant:normal;font-weight:normal;font-stretch:normal;line-height:0.01%;font-family:Lavi;-inkscape-font-specification:'Lavi, Normal';text-align:center;letter-spacing:0px;word-spacing:0px;writing-mode:lr-tb;text-anchor:middle;display:inline;opacity:0.481;fill:#000000;fill-opacity:1;stroke:none;stroke-width:1px;stroke-linecap:butt;stroke-linejoin:miter;stroke-opacity:1"
       transform="translate(-232.31551,-445.38759)"><flowRegion
         id="flowRegion4214-5"><rect
           id="rect4216-3"
           width="291.95547"
           height="247.52747"
           x="-275.14545"
           y="1061.6674" /></flowRegion><flowPara
         id="flowPara4218-5"
         style="font-size:25.3241539px;line-height:1.25">Edit this one,</flowPara><flowPara
         id="flowPara4562"
         style="font-size:25.3241539px;line-height:1.25">all other one</flowPara><flowPara
         id="flowPara4564"
         style="font-size:25.3241539px;line-height:1.25">are linked</flowPara></flowRoot>    <text
       xml:space="preserve"
       style="font-style:normal;font-variant:normal;font-weight:normal;font-stretch:normal;line-height:0%;font-family:Lavi;-inkscape-font-specification:Lavi;letter-spacing:0px;word-spacing:0px;fill:#000000;fill-opacity:1;stroke:#ffffff;stroke-width:2.59577419;stroke-miterlimit:4;stroke-dasharray:none;stroke-opacity:1;filter:url(#filter4375-4-1-1-1-9-6-9-2-1);"
       x="787.65729"
       y="1584.5073"
       id="text4580-1-7-3-6"
       transform="matrix(0.96380061,-0.56217228,-0.1779318,1.4896521,-677.83157,-1204.7396)"><tspan
         sodipodi:role="line"
         id="tspan4582-8-5-6-1"
         x="787.65729"
         y="1584.5073"
         style="font-size:70px;line-height:1.25;fill:#ffffff;stroke-width:2.59577419;stroke-miterlimit:4;stroke-dasharray:none;stroke:#ffffff;stroke-opacity:1;">Clap</tspan></text>
  </g>
  <g
     inkscape:groupmode="layer"
     id="layer3"
     inkscape:label="speechbubbles"
     style="display:inline">
    <path
       style="color:#000000;display:inline;overflow:visible;visibility:visible;fill:#550000;fill-opacity:1;fill-rule:nonzero;stroke:none;stroke-width:1px;marker:none;enable-background:accumulate"
       d="m 156.49785,652.62619 c -8.67947,18.40711 -57.632715,19.95061 -75.653791,16.20911 36.326301,20.5918 35.059861,33.3858 -14.26091,35.3724 82.711751,37.1119 15.12077,31.496 1.78884,40.9065 64.944191,12.7896 35.887501,28.7065 24.325336,44.5515 74.646705,0.5443 50.218235,25.9434 53.364525,46.17215 6.32817,-9.4922 36.39195,-38.39075 38.20089,-6.2142 49.37452,-30.69815 108.8449,-50.52775 113.56704,3.1943 19.89375,-27.02615 39.72795,-38.44845 38.20105,-6.2142 49.2908,-41.92455 108.3514,-36.42575 157.1273,-5.3922 -25.2127,-23.31165 -5.9187,-41.68585 31.9421,-37.13025 -5.3085,-12.5422 7.4749,-21.1637 36.3441,-26.2835 -38.3625,-7.5763 -45.4326,-15.3912 25.7981,-23.8012 -54.2025,-0.8135 -104.7466,-2.4802 -41.1554,-31.1607 -19.9503,-0.694 -67.2845,23.2379 -45.2155,-46.7992 -34.3057,22.4213 -70.9068,34.7962 -116.808,-12.17081 -21.7227,23.46381 -59.4003,35.07461 -75.792,5.7665 -5.8914,12.49461 -30.32079,17.19361 -51.05925,17.76341 -8.0196,-4.9631 -16.29104,-11.7041 -24.9226,-20.53611 -14.10739,18.54471 -35.21068,31.06901 -75.79183,5.7665 z"
       id="path3549-3-7"
       inkscape:connector-curvature="0"
       sodipodi:nodetypes="cccccccccccccccccccc" />
    <rect
       style="color:#000000;clip-rule:nonzero;display:inline;overflow:visible;visibility:visible;opacity:1;isolation:auto;mix-blend-mode:normal;color-interpolation:sRGB;color-interpolation-filters:linearRGB;solid-color:#000000;solid-opacity:1;fill:#550000;fill-opacity:1;fill-rule:nonzero;stroke:none;stroke-width:2.5999999;stroke-linecap:butt;stroke-linejoin:miter;stroke-miterlimit:4;stroke-dasharray:none;stroke-dashoffset:0;stroke-opacity:1;marker:none;color-rendering:auto;image-rendering:auto;shape-rendering:auto;text-rendering:auto;enable-background:accumulate"
       id="rect4632-8-6"
       width="573.35162"
       height="342.57202"
       x="97.484344"
       y="1991.1005"
       ry="7.5756016"
       rx="14.646608"
       transform="matrix(0,1,1,0,0,0)" />
    <path
       style="color:#000000;display:inline;overflow:visible;visibility:visible;fill:#550000;fill-opacity:1;fill-rule:nonzero;stroke:none;stroke-width:1px;marker:none;enable-background:accumulate"
       d="m 2005.2504,562.44413 c -9.3024,18.40711 -61.7698,19.95061 -81.0845,16.20911 38.934,20.5918 37.5766,33.3858 -15.2846,35.3724 88.6492,37.1119 16.2062,31.496 1.9173,40.9065 69.6062,12.7896 38.4637,28.7065 26.0715,44.5515 80.0051,0.5443 53.823,25.9434 57.1952,46.17215 6.7825,-9.4922 39.0044,-38.39075 40.9431,-6.2142 52.9188,-30.69815 116.6582,-50.52775 121.7193,3.1943 21.3219,-27.02615 42.5798,-38.44845 40.9433,-6.2142 52.8291,-41.92455 116.1293,-36.42575 168.4065,-5.3922 -27.0225,-23.31165 -6.3436,-41.68585 34.2351,-37.13025 -5.6897,-12.5422 8.0115,-21.1637 38.9529,-26.2835 -41.1162,-7.5763 -48.6939,-15.3912 27.6501,-23.8012 -58.0935,-0.8135 -112.2657,-2.4802 -44.1097,-31.1607 -21.3824,-0.694 -72.1144,23.2379 -48.4613,-46.7992 -36.7682,22.4213 -75.9967,34.7962 -125.1929,-12.17081 -23.282,23.46381 -63.6643,35.07461 -81.2326,5.7665 -6.3144,12.49461 -32.4974,17.19361 -54.7246,17.76341 -8.5953,-4.9631 -17.4604,-11.7041 -26.7116,-20.53611 -15.12,18.54471 -37.7383,31.06901 -81.2326,5.7665 z"
       id="path3549-3-7-7"
       inkscape:connector-curvature="0"
       sodipodi:nodetypes="cccccccccccccccccccc" />
    <rect
       style="color:#000000;clip-rule:nonzero;display:inline;overflow:visible;visibility:visible;opacity:1;isolation:auto;mix-blend-mode:normal;color-interpolation:sRGB;color-interpolation-filters:linearRGB;solid-color:#000000;solid-opacity:1;fill:#550000;fill-opacity:1;fill-rule:nonzero;stroke:none;stroke-width:2.57858253;stroke-linecap:butt;stroke-linejoin:miter;stroke-miterlimit:4;stroke-dasharray:none;stroke-dashoffset:0;stroke-opacity:1;marker:none;color-rendering:auto;image-rendering:auto;shape-rendering:auto;text-rendering:auto;enable-background:accumulate"
       id="rect4632-8-6-1"
       width="423.90622"
       height="396.86139"
       x="1581.6542"
       y="-551.80566"
       ry="0"
       rx="0"
       transform="rotate(90)" />
    <rect
       style="color:#000000;clip-rule:nonzero;display:inline;overflow:visible;visibility:visible;opacity:1;isolation:auto;mix-blend-mode:normal;color-interpolation:sRGB;color-interpolation-filters:linearRGB;solid-color:#000000;solid-opacity:1;fill:#550000;fill-opacity:1;fill-rule:nonzero;stroke:none;stroke-width:2.6378231;stroke-linecap:butt;stroke-linejoin:miter;stroke-miterlimit:4;stroke-dasharray:none;stroke-dashoffset:0;stroke-opacity:1;marker:none;color-rendering:auto;image-rendering:auto;shape-rendering:auto;text-rendering:auto;enable-background:accumulate"
       id="rect4632-8-6-6"
       width="391.05688"
       height="329.36139"
       x="2074.0752"
       y="-1249.2086"
       ry="0"
       rx="0"
       transform="rotate(90)" />
    <path
       style="color:#000000;display:inline;overflow:visible;visibility:visible;fill:#550000;fill-opacity:1;fill-rule:nonzero;stroke:none;stroke-width:1px;marker:none;enable-background:accumulate"
       d="m 1137.3144,2584.052 -41.2466,-28.6788 -9.3443,13.5528 -29.9778,-8.321 33.0629,29.0443 10.6968,-16.5912 z"
       id="path4456"
       inkscape:connector-curvature="0"
       sodipodi:nodetypes="ccccccc" />
    <path
       style="color:#000000;display:inline;overflow:visible;visibility:visible;fill:#550000;fill-opacity:1;fill-rule:nonzero;stroke:none;stroke-width:1px;marker:none;enable-background:accumulate"
       d="m 934.48352,2370.44 c -8.84044,18.4071 -58.70249,19.9506 -77.0581,16.2091 37.00068,20.5918 35.71068,33.3858 -14.52562,35.3724 84.2472,37.1119 15.40145,31.496 1.82209,40.9065 66.14981,12.7896 36.55373,28.7065 24.77688,44.5515 76.03233,0.5443 51.15035,25.9434 54.35509,46.1721 6.44571,-9.4922 37.06764,-38.3907 38.90994,-6.2142 50.2912,-30.6981 110.8654,-50.5277 115.6752,3.1943 20.2632,-27.0261 40.4655,-38.4484 38.9102,-6.2142 50.2059,-41.9245 110.3628,-36.4257 160.0442,-5.3922 -25.6808,-23.3116 -6.0286,-41.6858 32.535,-37.1302 -5.4071,-12.5422 7.6137,-21.1637 37.0187,-26.2835 -39.0746,-7.5763 -46.2759,-15.3912 26.277,-23.8012 -55.2086,-0.8135 -106.691,-2.4802 -41.9193,-31.1607 -20.3207,-0.694 -68.5336,23.2379 -46.0548,-46.7992 -34.9426,22.4213 -72.223,34.7962 -118.9764,-12.1708 -22.1259,23.4638 -60.503,35.0746 -77.1989,5.7665 -6.0008,12.4946 -30.8837,17.1936 -52.0071,17.7634 -8.1686,-4.9631 -16.5934,-11.7041 -25.3852,-20.5361 -14.3693,18.5447 -35.8643,31.069 -77.19888,5.7665 z"
       id="path3549-3-7-7-9"
       inkscape:connector-curvature="0"
       sodipodi:nodetypes="cccccccccccccccccccc" />
    <path
       style="color:#000000;display:inline;overflow:visible;visibility:visible;fill:#ffffff;fill-opacity:1;fill-rule:nonzero;stroke:none;stroke-width:1px;marker:none;enable-background:accumulate"
       d="m 2039.0474,2107.2935 c 33.3777,-3.271 30.4601,6.9274 36.0441,11.6008 27.8694,-6.6965 60.2411,2.621 73.3715,44.4199 21.8074,9.9561 38.0064,44.0534 19.9975,67.6919 16.9028,16.5162 16.7272,42.8345 3.2455,53.6717 14.8403,11.6302 -1.8611,27.673 -5.3069,29.134 7.9487,14.5524 2.1134,34.9492 -6.2371,42.9704 11.7717,19.3321 -6.9413,60.5514 -31.742,59.5459 -18.0845,22.3902 -39.2129,23.6679 -51.9906,16.9239 -14.865,17.1847 -83.2302,26.3296 -89.6952,-22.1364 -25.5554,-13.4879 -36.6231,-50.4008 -21.758,-67.5852 -6.7163,-23.3962 -12.904,-38.055 0.8796,-43.8994 -14.8403,-11.6299 -14.8911,-41.6927 10.3625,-33.1977 -16.6762,-14.4663 -12.3891,-31.766 -2.0923,-45.2811 -19.5442,-22.4548 -12.2103,-51.5485 7.0029,-51.2781 -7.9819,-31.7491 22.0028,-37.1435 33.2056,-35.6719 1.7115,-5.1176 2.9909,-17.3716 24.7129,-26.9087 z"
       id="path4043"
       inkscape:connector-curvature="0" />
    <path
       style="color:#000000;display:inline;overflow:visible;visibility:visible;fill:#ffffff;fill-opacity:1;fill-rule:nonzero;stroke:none;stroke-width:1px;marker:none;enable-background:accumulate"
       d="m 2117.8728,2343.3531 c 17.15,-17.4058 44.9166,-16.6147 42.4665,7.1205 12.25,10.2853 6.5333,39.5587 -41.6499,22.1529 -18.7831,-8.703 -25.3164,-26.1088 -0.8166,-29.2734 z"
       id="path4051"
       inkscape:connector-curvature="0" />
    <path
       style="color:#000000;display:inline;overflow:visible;visibility:visible;fill:#ffffff;fill-opacity:1;fill-rule:nonzero;stroke:none;stroke-width:1px;marker:none;enable-background:accumulate"
       d="m 2114.6124,2504.9905 c 4.5827,-1.0212 8.3975,1.1598 11.3791,4.1414 7.7521,-4.1742 29.8159,11.3301 -0.5963,19.6785 -11.33,2.9816 -22.6601,-9.5411 -14.3116,-14.9079 -3.2186,-3.2186 -1.0539,-7.8909 3.5288,-8.912 z"
       id="path4059"
       inkscape:connector-curvature="0"
       sodipodi:nodetypes="zcccz" />
    <path
       style="fill:#550000;stroke:none;stroke-width:1px;stroke-linecap:butt;stroke-linejoin:miter;stroke-opacity:1;filter:url(#filter4903)"
       d="m 466.69048,508.40278 c 0,0 -24.30679,-3.7565 -30.49398,-2.43068 -14.81711,1.32583 -29.0743,11.93243 -41.10058,22.98097 -3.45051,21.28903 -6.18719,48.83456 11.04854,76.67689 7.95495,11.93243 20.32932,35.79728 29.16815,41.7635 -4.02952,0.78246 -3.97747,1.98873 -3.97747,1.98873 0.20118,1.5468 -4.73174,3.0936 -8.3969,4.64039 l 2.65165,2.43068 c -3.60342,1.91863 -3.17383,6.31912 -13.70019,3.97748 -0.80884,3.99539 -2.76666,6.71412 -8.83883,4.86136 l -8.3969,24.74873 c 0,0 53.03301,22.53903 57.45243,21.65515 4.41942,-0.88389 21.65514,-0.88389 21.65514,-0.88389 L 475,836.75 c 0,0 -375.11039,17.77728 -372.61039,10.27728 C 104.88961,839.52728 105,100.5 105,100.5 l 373.75,2.5 z"
       id="path4897"
       inkscape:connector-curvature="0"
       sodipodi:nodetypes="ccccccccccccccsccc"
       clip-path="url(#clipPath4989)" />
    <rect
       style="opacity:1;fill:#550000;fill-opacity:1;fill-rule:nonzero;stroke:none;stroke-width:3;stroke-linecap:round;stroke-miterlimit:4;stroke-dasharray:none;stroke-opacity:1"
       id="rect5034"
       width="56.25"
       height="53.75"
       x="423.75"
       y="1863"
       rx="51.769699"
       ry="51.769699" />
    <path
       sodipodi:nodetypes="ccccccc"
       inkscape:connector-curvature="0"
       id="path5078"
       d="m 532.3144,1966.552 -41.2466,-28.6788 -9.3443,13.5528 -29.97782,-8.321 33.06288,29.0443 10.69681,-16.5912 z"
       style="color:#000000;display:inline;overflow:visible;visibility:visible;fill:#d8a87c;fill-opacity:1;fill-rule:nonzero;stroke:none;stroke-width:1px;marker:none;enable-background:accumulate" />
    <path
       sodipodi:nodetypes="zcccz"
       inkscape:connector-curvature="0"
       id="path5098"
       d="m 2086.9395,2457.417 c 7.5468,-1.6468 13.829,1.8703 18.7391,6.6785 12.7662,-6.7314 49.1009,18.2711 -0.982,31.7339 -18.6583,4.8082 -37.3167,-15.3861 -23.5684,-24.0407 -5.3003,-5.1904 -1.7355,-12.725 5.8113,-14.3717 z"
       style="color:#000000;display:inline;overflow:visible;visibility:visible;fill:#ffffff;fill-opacity:1;fill-rule:nonzero;stroke:none;stroke-width:1.62962019px;marker:none;enable-background:accumulate" />
    <path
       sodipodi:nodetypes="ccccccc"
       inkscape:connector-curvature="0"
       id="path5100"
       d="m 2229.7944,788.00078 -41.2466,-28.6788 -9.3443,13.5528 -29.9778,-8.321 33.0629,29.0443 10.6968,-16.5912 z"
       style="color:#000000;display:inline;overflow:visible;visibility:visible;fill:#550000;fill-opacity:1;fill-rule:nonzero;stroke:none;stroke-width:1px;marker:none;enable-background:accumulate" />
    <path
       style="color:#000000;display:inline;overflow:visible;visibility:visible;fill:#550000;fill-opacity:1;fill-rule:nonzero;stroke:none;stroke-width:1px;marker:none;enable-background:accumulate"
       d="m 324.14159,872.85359 -41.2466,-28.6788 -9.3443,13.5528 -29.9778,-8.321 33.0629,29.0443 10.6968,-16.5912 z"
       id="path5102"
       inkscape:connector-curvature="0"
       sodipodi:nodetypes="ccccccc" />
  </g>
  <g
     inkscape:groupmode="layer"
     id="layer1"
     inkscape:label="txt"
     style="display:inline">
    <g
       id="g3474"
       transform="translate(24.354375,89.296719)"
       style="fill:#ffffff">
      <text
         id="text4246-2-3-1-3-9-3-7-6"
         y="129.6239"
         x="278.3739"
         style="font-style:normal;font-variant:normal;font-weight:normal;font-stretch:normal;line-height:0%;font-family:Lavi;-inkscape-font-specification:Lavi;text-align:center;letter-spacing:0px;word-spacing:0px;text-anchor:middle;fill:#ffffff;fill-opacity:1;stroke:none"
         xml:space="preserve"><tspan
           y="129.6239"
           x="286.28406"
           style="font-size:45px;line-height:1;fill:#ffffff"
           sodipodi:role="line"
           id="tspan4155">Bihasa sa </tspan><tspan
           y="174.6239"
           x="278.3739"
           style="font-size:45px;line-height:1;fill:#ffffff"
           sodipodi:role="line"
           id="tspan4887">makanginig-</tspan><tspan
           y="219.6239"
           x="286.28406"
           style="font-size:45px;line-height:1;fill:#ffffff"
           sodipodi:role="line"
           id="tspan8404">balahibong </tspan><tspan
           y="264.6239"
           x="286.28406"
           style="font-size:45px;line-height:1;fill:#ffffff"
           sodipodi:role="line"
           id="tspan4889">mahika ng </tspan><tspan
           y="309.6239"
           x="286.28406"
           style="font-size:45px;line-height:1;fill:#ffffff"
           sodipodi:role="line"
           id="tspan4165">mga patay, </tspan><tspan
           y="354.6239"
           x="286.28406"
           style="font-size:45px;line-height:1;fill:#ffffff"
           sodipodi:role="line"
           id="tspan4891">ang </tspan><tspan
           y="399.6239"
           x="278.3739"
           style="font-size:45px;line-height:1;fill:#ffffff"
           sodipodi:role="line"
           id="tspan5030">&quot;Zombiah&quot;,</tspan><tspan
           y="444.6239"
           x="286.28406"
           style="font-size:45px;line-height:1;fill:#ffffff"
           sodipodi:role="line"
           id="tspan8410"> ikinararangal    </tspan><tspan
           y="489.6239"
           x="286.28406"
           style="font-size:45px;line-height:1;fill:#ffffff"
           sodipodi:role="line"
           id="tspan4893">naming </tspan><tspan
           y="534.6239"
           x="286.28406"
           style="font-size:45px;line-height:1;fill:#ffffff"
           sodipodi:role="line"
           id="tspan8412">ipakilala... </tspan><tspan
           y="579.6239"
           x="278.3739"
           style="font-size:45px;line-height:1;fill:#ffffff"
           sodipodi:role="line"
           id="tspan4895">si binibining</tspan></text>
    </g>
    <text
       xml:space="preserve"
       style="font-style:normal;font-variant:normal;font-weight:normal;font-stretch:normal;line-height:0%;font-family:Lavi;-inkscape-font-specification:Lavi;text-align:center;letter-spacing:0px;word-spacing:0px;text-anchor:middle;fill:#ffffff;fill-opacity:1;stroke:#ffffff;stroke-width:3.5321846;stroke-miterlimit:4;stroke-dasharray:none;stroke-opacity:1"
       x="403.14255"
       y="707.56158"
       id="text4246-2-3-1-3-9-3-7-9"
       transform="matrix(0.93835319,0,-0.12334078,1.0656968,0,0)"><tspan
         sodipodi:role="line"
         style="font-size:61.13397217px;line-height:1.25;fill:#ffffff;stroke:#ffffff;stroke-width:3.5321846;stroke-miterlimit:4;stroke-dasharray:none;stroke-opacity:1"
         x="403.14255"
         y="707.56158"
         id="tspan4814-3"> CORIANDER!</tspan></text>
    <use
       x="0"
       y="0"
       xlink:href="#use4531"
       id="use4615"
       transform="translate(-829.209,-2105.655)"
       width="100%"
       height="100%" />
    <use
       x="0"
       y="0"
       xlink:href="#use4533"
       id="use4617"
       transform="matrix(0.79456111,0,0,0.79456111,-650.5093,-1402.1715)"
       width="100%"
       height="100%" />
    <use
       x="0"
       y="0"
       xlink:href="#use4537"
       id="use4619"
       transform="matrix(0.79814913,-0.08198379,0.08198379,0.79814913,-1028.6471,-1215.036)"
       width="100%"
       height="100%" />
    <use
       x="0"
       y="0"
       xlink:href="#use4541"
       id="use4621"
       transform="matrix(0.90154637,-0.0150643,0.01480904,0.88627,95.218457,-1443.95)"
       width="100%"
       height="100%" />
    <use
       x="0"
       y="0"
       xlink:href="#use4623"
       id="use4625"
       transform="translate(-142.54958,58.596671)"
       width="100%"
       height="100%" />
    <use
       x="0"
       y="0"
       xlink:href="#use4543"
       id="use4623"
       transform="translate(213.80644,-1758.8492)"
       width="100%"
       height="100%" />
    <text
       xml:space="preserve"
       style="font-style:normal;font-variant:normal;font-weight:normal;font-stretch:normal;line-height:1;font-family:Lavi;-inkscape-font-specification:Lavi;text-align:center;letter-spacing:0px;word-spacing:0px;text-anchor:middle;fill:#ffffff;fill-opacity:1;stroke:none"
       x="2161.4014"
       y="175.21573"
       id="text4246-2-3-1-3-9-3-7-6-5"><tspan
         sodipodi:role="line"
         style="font-size:45px;line-height:1;fill:#ffffff"
         x="2169.3115"
         y="175.21573"
         id="tspan4201">Walang </tspan><tspan
         sodipodi:role="line"
         style="font-size:45px;line-height:1;fill:#ffffff"
         x="2169.3115"
         y="220.21573"
         id="tspan5008">sikreto ang </tspan><tspan
         sodipodi:role="line"
         style="font-size:45px;line-height:1;fill:#ffffff"
         x="2161.4014"
         y="265.21573"
         id="tspan5028">hindi alam,</tspan><tspan
         sodipodi:role="line"
         style="font-size:45px;line-height:1;fill:#ffffff"
         x="2169.3115"
         y="310.21573"
         id="tspan5002">Halaman man </tspan><tspan
         sodipodi:role="line"
         style="font-size:45px;line-height:1;fill:#ffffff"
         x="2161.4014"
         y="355.21573"
         id="tspan5010">o Halimaw</tspan><tspan
         sodipodi:role="line"
         style="font-size:45px;line-height:1;fill:#ffffff"
         x="2169.3115"
         y="400.21573"
         id="tspan5004">sa isang witch </tspan><tspan
         sodipodi:role="line"
         style="font-size:45px;line-height:1;fill:#ffffff"
         x="2161.4014"
         y="445.21573"
         id="tspan5012">ng Hippiah</tspan><tspan
         sodipodi:role="line"
         style="font-size:45px;line-height:1;fill:#ffffff"
         x="2161.4014"
         y="490.21573"
         id="tspan5014">Please welcome</tspan><tspan
         sodipodi:role="line"
         style="font-size:45px;line-height:1;fill:#ffffff"
         x="2161.4014"
         y="535.2157"
         id="tspan5032">...</tspan><tspan
         sodipodi:role="line"
         style="font-size:45px;line-height:1;fill:#ffffff"
         x="2169.3115"
         y="580.21576"
         id="tspan5018">Ms.                </tspan></text>
    <text
       xml:space="preserve"
       style="font-style:normal;font-variant:normal;font-weight:normal;font-stretch:normal;line-height:0%;font-family:Lavi;-inkscape-font-specification:Lavi;text-align:center;letter-spacing:0px;word-spacing:0px;text-anchor:middle;fill:#ffffff;fill-opacity:1;stroke:#ffffff;stroke-width:3.5321846;stroke-miterlimit:4;stroke-dasharray:none;stroke-opacity:1"
       x="2386.6775"
       y="614.26965"
       id="text4246-2-3-1-3-9-3-7-9-5"
       transform="matrix(0.93835319,0,-0.12334078,1.0656968,0,0)"><tspan
         sodipodi:role="line"
         style="font-size:61.13397217px;line-height:1.25;fill:#ffffff;stroke:#ffffff;stroke-width:3.5321846;stroke-miterlimit:4;stroke-dasharray:none;stroke-opacity:1"
         x="2386.6775"
         y="614.26965"
         id="tspan4814-3-3"> CAMOMILE!</tspan></text>
    <use
       x="0"
       y="0"
       xlink:href="#use4617"
       id="use4633"
       transform="matrix(0.99489199,-0.10094516,0.10094516,0.99489199,1011.3205,86.175619)"
       width="100%"
       height="100%" />
    <use
       x="0"
       y="0"
       xlink:href="#use4615"
       id="use4635"
       transform="matrix(1.1838394,0,0,1.3004419,1240.6281,-150.25014)"
       width="100%"
       height="100%" />
    <use
       x="0"
       y="0"
       xlink:href="#use4617"
       id="use4637"
       transform="matrix(0.88647762,-0.08530562,0.08668772,0.90084017,1008.5331,349.52821)"
       width="100%"
       height="100%" />
    <use
       x="0"
       y="0"
       xlink:href="#use4623"
       id="use4627"
       transform="translate(908.78917,-92.733529)"
       width="100%"
       height="100%" />
    <use
       x="0"
       y="0"
       xlink:href="#use4621"
       id="use4631"
       transform="translate(1165.6643,56.855347)"
       width="100%"
       height="100%" />
    <use
       x="0"
       y="0"
       xlink:href="#use4625"
       id="use4629"
       transform="translate(1242.489,12.944936)"
       width="100%"
       height="100%" />
    <text
       xml:space="preserve"
       style="font-style:normal;font-variant:normal;font-weight:normal;font-stretch:normal;line-height:0%;font-family:Lavi;-inkscape-font-specification:Lavi;text-align:center;letter-spacing:0px;word-spacing:0px;text-anchor:middle;fill:#ffffff;fill-opacity:1;stroke:none"
       x="355.0332"
       y="1679.5936"
       id="text4246-2-3-1-3-9-3-7-6-5-2"><tspan
         sodipodi:role="line"
         style="font-size:45px;line-height:1.25;fill:#ffffff"
         x="362.94336"
         y="1679.5936"
         id="tspan4197">At ngayon salamat </tspan><tspan
         sodipodi:role="line"
         style="font-size:45px;line-height:1.25;fill:#ffffff"
         x="362.94336"
         y="1735.8436"
         id="tspan5048">sa aming bihasang </tspan><tspan
         sodipodi:role="line"
         style="font-size:45px;line-height:1.25;fill:#ffffff"
         x="362.94336"
         y="1792.0936"
         id="tspan5050">technical team, </tspan><tspan
         sodipodi:role="line"
         style="font-size:45px;line-height:1.25;fill:#ffffff"
         x="362.94336"
         y="1848.3436"
         id="tspan5052">inimbitahan namin </tspan><tspan
         sodipodi:role="line"
         style="font-size:45px;line-height:1.25;fill:#ffffff"
         x="362.94336"
         y="1904.5936"
         id="tspan5054">mula sa ibang </tspan><tspan
         sodipodi:role="line"
         style="font-size:45px;line-height:1.25;fill:#ffffff"
         x="355.0332"
         y="1960.8436"
         id="tspan5062">mundo...</tspan><tspan
         sodipodi:role="line"
         style="font-size:45px;line-height:1.25;fill:#ffffff"
         x="355.0332"
         y="1979.3772"
         id="tspan5056" /><tspan
         sodipodi:role="line"
         style="font-size:45px;line-height:1.25;fill:#ffffff"
         x="355.0332"
         y="1979.3772"
         id="tspan5058" /></text>
    <text
       xml:space="preserve"
       style="font-style:normal;font-variant:normal;font-weight:normal;font-stretch:normal;line-height:0%;font-family:Lavi;-inkscape-font-specification:Lavi;letter-spacing:0px;word-spacing:0px;fill:#000000;fill-opacity:1;stroke:#000000;stroke-width:0.99236238;stroke-miterlimit:4;stroke-dasharray:none;stroke-opacity:1;filter:url(#filter4375-4-1-1-1-9)"
       x="787.65729"
       y="1584.5073"
       id="text4580"
       transform="matrix(0.77749876,-0.47144279,-0.14353773,1.2492358,81.042154,1568.506)"><tspan
         sodipodi:role="line"
         id="tspan4582"
         x="787.65729"
         y="1584.5073"
         style="font-size:70px;line-height:1.25;fill:#ffffff">Flop!</tspan></text>
    <text
       xml:space="preserve"
       style="font-style:normal;font-variant:normal;font-weight:normal;font-stretch:normal;line-height:0%;font-family:Lavi;-inkscape-font-specification:Lavi;text-align:center;letter-spacing:0px;word-spacing:0px;text-anchor:middle;fill:#ffffff;fill-opacity:1;stroke:none"
       x="1083.2861"
       y="2175.2944"
       id="text4246-2-3-1-3-9-3-7-6-5-4"><tspan
         sodipodi:role="line"
         style="font-size:45px;line-height:1;fill:#ffffff"
         x="1091.1963"
         y="2175.2944"
         id="tspan4205">...isang witch </tspan><tspan
         sodipodi:role="line"
         style="font-size:45px;line-height:1;fill:#ffffff"
         x="1091.1963"
         y="2220.2944"
         id="tspan5066">na nagmula sa </tspan><tspan
         sodipodi:role="line"
         style="font-size:45px;line-height:1;fill:#ffffff"
         x="1091.1963"
         y="2265.2944"
         id="tspan8391">malalim na </tspan><tspan
         sodipodi:role="line"
         style="font-size:45px;line-height:1;fill:#ffffff"
         x="1091.1963"
         y="2310.2944"
         id="tspan5072">katubigan ng </tspan><tspan
         sodipodi:role="line"
         style="font-size:45px;line-height:1;fill:#ffffff"
         x="1083.2861"
         y="2355.2944"
         id="tspan5076">&quot;Mahika Aquah&quot;</tspan><tspan
         sodipodi:role="line"
         style="font-size:45px;line-height:1;fill:#ffffff"
         x="1083.2861"
         y="2368.2029"
         id="tspan5080" /><tspan
         sodipodi:role="line"
         style="font-size:45px;line-height:1;fill:#ffffff"
         x="1083.2861"
         y="2368.2029"
         id="tspan5082" /><tspan
         sodipodi:role="line"
         style="font-size:45px;line-height:1;fill:#ffffff"
         x="1083.2861"
         y="2368.2029"
         id="tspan5084" /><tspan
         sodipodi:role="line"
         style="font-size:45px;line-height:1;fill:#ffffff"
         x="1091.1963"
         y="2422.7944"
         id="tspan5088"> <tspan
   style="line-height:2"
   id="tspan5094">Ms.               </tspan></tspan><tspan
         sodipodi:role="line"
         style="font-size:45px;line-height:1;fill:#ffffff"
         x="1091.1963"
         y="2490.2944"
         id="tspan4691"> </tspan></text>
    <text
       xml:space="preserve"
       style="font-style:normal;font-variant:normal;font-weight:normal;font-stretch:normal;line-height:0%;font-family:Lavi;-inkscape-font-specification:Lavi;text-align:center;letter-spacing:0px;word-spacing:0px;text-anchor:middle;fill:#ffffff;fill-opacity:1;stroke:#ffffff;stroke-width:3.5321846;stroke-miterlimit:4;stroke-dasharray:none;stroke-opacity:1"
       x="1465.4395"
       y="2326.2708"
       id="text4246-2-3-1-3-9-3-7-9-5-3"
       transform="matrix(0.93835319,0,-0.12334078,1.0656968,0,0)"><tspan
         sodipodi:role="line"
         style="font-size:61.13397217px;line-height:1.25;fill:#ffffff;stroke:#ffffff;stroke-width:3.5321846;stroke-miterlimit:4;stroke-dasharray:none;stroke-opacity:1"
         x="1465.4395"
         y="2326.2708"
         id="tspan4814-3-3-7"> SPIRULINA!</tspan></text>
    <use
       x="0"
       y="0"
       xlink:href="#use4531"
       id="use4539"
       transform="matrix(0.99766312,0.06832494,-0.06832494,0.99766312,95.605212,11.288062)"
       width="100%"
       height="100%" />
    <use
       x="0"
       y="0"
       xlink:href="#use4531"
       id="use4543"
       transform="matrix(0.88115496,0.04946838,-0.05305626,0.82156758,195.75521,389.14199)"
       width="100%"
       height="100%" />
    <use
       x="0"
       y="0"
       xlink:href="#text4580-1-7-3-6"
       id="use4531"
       transform="matrix(0.77520109,0,0,0.77350724,1118.6134,2753.0811)"
       width="100%"
       height="100%" />
    <use
       x="0"
       y="0"
       xlink:href="#use4531"
       id="use4533"
       transform="matrix(1.3943222,0.02342648,-0.0210694,1.2540314,-239.60492,-786.84032)"
       width="100%"
       height="100%" />
    <use
       x="0"
       y="0"
       xlink:href="#use4533"
       id="use4535"
       transform="matrix(0.80574379,0.02924242,-0.03634386,0.7290677,549.01074,760.34106)"
       width="100%"
       height="100%" />
    <use
       x="0"
       y="0"
       xlink:href="#use4535"
       id="use4537"
       transform="matrix(1.3677664,-0.00784959,0.05996307,1.2741545,-704.28183,-765.83487)"
       width="100%"
       height="100%" />
    <use
       x="0"
       y="0"
       xlink:href="#text4580-1-7-3-6"
       id="use4560"
       transform="matrix(0.99863528,0.05222618,-0.05222618,0.99863528,1332.977,2552.5961)"
       width="100%"
       height="100%" />
    <use
       x="0"
       y="0"
       xlink:href="#text4580-1-7-3-6"
       id="use4541"
       transform="matrix(0.74452441,0.02853948,-0.03939499,0.64274603,1208.3008,2659.8563)"
       width="100%"
       height="100%" />
    <text
       xml:space="preserve"
       style="font-style:normal;font-variant:normal;font-weight:normal;font-stretch:normal;line-height:0%;font-family:Lavi;-inkscape-font-specification:Lavi;text-align:center;letter-spacing:0px;word-spacing:0px;text-anchor:middle;fill:#000000;fill-opacity:1;stroke:none"
       x="2070.2688"
       y="2197.4302"
       id="text4246-2-3-1-3-9-3-7-6-5-4-7"><tspan
         sodipodi:role="line"
         style="font-size:45px;line-height:1.25"
         x="2078.179"
         y="2197.4302"
         id="tspan3501">Aquah?! </tspan><tspan
         sodipodi:role="line"
         style="font-size:45px;line-height:1.25"
         x="2070.2688"
         y="2253.6802"
         id="tspan3505">Dito?!</tspan><tspan
         sodipodi:role="line"
         style="font-size:45px;line-height:1.25"
         x="2078.179"
         y="2309.9302"
         id="tspan4755">Ang </tspan><tspan
         sodipodi:role="line"
         style="font-size:45px;line-height:1.25"
         x="2078.179"
         y="2366.1802"
         id="tspan5096">Galing! </tspan><tspan
         sodipodi:role="line"
         style="font-size:45px;line-height:1.25"
         x="2078.179"
         y="2422.4302"
         id="tspan4749"> </tspan></text>
    <text
       xml:space="preserve"
       style="font-style:normal;font-weight:normal;font-size:40px;line-height:1.25;font-family:sans-serif;letter-spacing:0px;word-spacing:0px;fill:#000000;fill-opacity:1;stroke:none"
       x="636.25"
       y="1610.5"
       id="text8389"><tspan
         sodipodi:role="line"
         id="tspan8387"
         x="636.25"
         y="1610.5" /></text>
    <text
       xml:space="preserve"
       style="font-style:normal;font-weight:normal;font-size:40px;line-height:1.25;font-family:sans-serif;letter-spacing:0px;word-spacing:0px;fill:#000000;fill-opacity:1;stroke:none"
       x="2140.7659"
       y="575.57794"
       id="text5022"><tspan
         sodipodi:role="line"
         id="tspan5020"
         x="2140.7659"
         y="575.57794">  </tspan></text>
  </g>
</svg>
