<?xml version="1.0" encoding="UTF-8" standalone="no"?>
<svg
   xmlns:dc="http://purl.org/dc/elements/1.1/"
   xmlns:cc="http://creativecommons.org/ns#"
   xmlns:rdf="http://www.w3.org/1999/02/22-rdf-syntax-ns#"
   xmlns:svg="http://www.w3.org/2000/svg"
   xmlns="http://www.w3.org/2000/svg"
   xmlns:xlink="http://www.w3.org/1999/xlink"
   xmlns:sodipodi="http://sodipodi.sourceforge.net/DTD/sodipodi-0.dtd"
   xmlns:inkscape="http://www.inkscape.org/namespaces/inkscape"
   sodipodi:docname="E03P01.svg"
   height="3503"
   width="2481"
   inkscape:version="1.0 (4035a4f, 2020-05-01)"
   version="1.1"
   id="svg2">
  <sodipodi:namedview
     inkscape:document-rotation="0"
     inkscape:window-maximized="0"
     inkscape:window-y="23"
     inkscape:window-x="0"
     inkscape:current-layer="layer3"
     inkscape:cy="467.42599"
     inkscape:cx="1185.8476"
     inkscape:zoom="0.55663125"
     showgrid="false"
     id="namedview70"
     inkscape:window-height="782"
     inkscape:window-width="1440"
     inkscape:pageshadow="2"
     inkscape:pageopacity="0"
     bordercolor="#666666"
     pagecolor="#ffffff" />
  <metadata
     id="metadata8">
    <rdf:RDF>
      <cc:Work
         rdf:about="">
        <dc:format>image/svg+xml</dc:format>
        <dc:type
           rdf:resource="http://purl.org/dc/dcmitype/StillImage" />
        <dc:title></dc:title>
      </cc:Work>
    </rdf:RDF>
  </metadata>
  <defs
     id="defs6" />
  <sodipodi:namedview
     inkscape:current-layer="layer1"
     inkscape:window-maximized="1"
     inkscape:window-y="26"
     inkscape:window-x="0"
     inkscape:cy="1165.4795"
     inkscape:cx="1261.9251"
     inkscape:zoom="0.40000002"
     showgrid="false"
     id="namedview4"
     inkscape:window-height="1025"
     inkscape:window-width="1920"
     inkscape:pageshadow="2"
     inkscape:pageopacity="0"
     guidetolerance="10"
     gridtolerance="10"
     objecttolerance="10"
     borderopacity="1"
     bordercolor="#666666"
     pagecolor="#ffffff" />
  <g
     sodipodi:insensitive="true"
     inkscape:label="artwork"
     id="layer2"
     inkscape:groupmode="layer">
    <image
       sodipodi:absref="/Users/julienj-mauduit/Downloads/lang-4/gfx_Pepper-and-Carrot_by-David-Revoy_E03P01.png"
       xlink:href="../gfx_Pepper-and-Carrot_by-David-Revoy_E03P01.png"
       width="2481"
       height="3503"
       id="image10"
       x="0"
       y="0" />
  </g>
  <g
     inkscape:label="speechbubbles"
     id="layer3"
     inkscape:groupmode="layer">
    <path
       inkscape:connector-curvature="0"
       id="path3238"
       d="m 205.96486,2296.5121 c -7.13208,-127.7935 68.46811,-169.9071 266.74031,-164.0983 198.2722,5.8087 245.34402,79.8708 259.60822,124.8889 14.26418,45.0182 -17.11704,156.8374 -139.78904,206.2122 -122.67201,49.3746 -328.07632,-20.3308 -353.75185,-56.6358 -25.67554,-36.305 -31.38122,-76.9665 -32.80764,-110.367 z"
       style="fill:#ffffff;fill-opacity:1;stroke:none" />
    <path
       inkscape:connector-curvature="0"
       id="path4008"
       d="m 457.93404,2454.7172 c 28.96571,41.3796 44.13823,118.6215 -13.79319,227.5877 73.10393,-81.3798 70.34529,-179.3115 67.58665,-208.2772 -2.75864,-28.9657 -53.79346,-19.3105 -53.79346,-19.3105 z"
       style="fill:#ffffff;stroke:none;stroke-width:1px;stroke-linecap:butt;stroke-linejoin:miter;stroke-opacity:1;color:#000000;fill-opacity:1;fill-rule:nonzero;marker:none;visibility:visible;display:inline;overflow:visible;enable-background:accumulate" />
    <path
       sodipodi:nodetypes="csssssc"
       inkscape:connector-curvature="0"
       id="path4027"
       d="m 1082.7577,2263.429 c -2.6339,-72.3368 23.7048,-113.1085 209.3919,-102.5867 185.6872,10.5215 188.3211,55.239 181.7365,102.5867 -6.5847,47.3477 -21.071,59.1847 -42.1418,69.7064 -21.0709,10.5218 -156.9397,4.4558 -187.229,3.1406 -30.2895,-1.3153 -118.2988,-16.2928 -127.5174,-21.5535 -21.0836,-12.032 -34.2402,-28.9349 -34.2402,-51.2935 z"
       style="color:#000000;display:inline;overflow:visible;visibility:visible;fill:#ffffff;fill-opacity:1;fill-rule:nonzero;stroke:none;stroke-width:1px;marker:none;enable-background:accumulate" />
    <path
       sodipodi:nodetypes="ccscc"
       inkscape:connector-curvature="0"
       id="path4035"
       d="m 1455.4406,2245.3193 c 30.345,26.2071 92.4144,-26.207 97.9317,-37.2416 5.5173,-11.0345 -8.2759,49.6555 -67.5867,63.4487 -59.3107,13.7932 -30.345,-26.2071 -30.345,-26.2071 z"
       style="color:#000000;display:inline;overflow:visible;visibility:visible;fill:#ffffff;fill-opacity:1;fill-rule:nonzero;stroke:none;stroke-width:1px;marker:none;enable-background:accumulate" />
    <path
       inkscape:connector-curvature="0"
       id="path4043"
       d="m 2104.6489,2526.786 c -0.8033,-19.8163 5.623,-17.7303 8.8362,-20.8592 -3.2132,-16.6875 4.0164,-35.4608 31.3279,-41.7186 7.2296,-12.5155 29.7215,-20.8593 44.1807,-9.3867 11.2459,-9.3866 28.1148,-8.3437 34.5411,0 8.0329,-8.3437 17.6722,2.086 18.4755,4.1719 9.6394,-4.1719 22.4919,0 27.3116,5.2148 12.8526,-6.2578 38.5576,6.2578 36.9511,20.8593 13.6558,11.4726 13.6558,23.9882 8.8361,31.2889 10.4427,9.3867 13.6558,50.0623 -17.6722,52.1482 -9.6395,14.6015 -33.738,19.8163 -44.1805,10.4296 -15.2625,3.1289 -24.9019,6.2578 -28.1151,-2.0859 -8.0328,8.3437 -27.3115,7.3007 -20.8852,-7.3008 -9.9226,9.326 -20.8492,6.1783 -29.1162,-0.3812 -15.1562,10.7337 -33.5273,5.3668 -32.6089,-5.9632 -20.6676,3.5779 -22.964,-14.3117 -21.586,-20.8711 -3.2151,-1.1927 -11.0229,-2.3853 -16.2961,-15.546 z"
       style="color:#000000;fill:#ffffff;fill-opacity:1;fill-rule:nonzero;stroke:none;stroke-width:1px;marker:none;visibility:visible;display:inline;overflow:visible;enable-background:accumulate" />
    <path
       inkscape:connector-curvature="0"
       id="path4051"
       d="m 2119.8192,2601.0952 c 12.5227,-13.119 32.7975,-12.5227 31.0085,5.3668 8.9448,7.7522 4.7706,29.8159 -30.4122,16.6969 -13.7153,-6.5595 -18.4858,-19.6785 -0.5963,-22.0637 z"
       style="color:#000000;fill:#ffffff;fill-opacity:1;fill-rule:nonzero;stroke:none;stroke-width:1px;marker:none;visibility:visible;display:inline;overflow:visible;enable-background:accumulate" />
    <path
       sodipodi:nodetypes="zcccz"
       inkscape:connector-curvature="0"
       id="path4059"
       d="m 2084.0818,2637.1793 c 4.5827,-1.0212 8.3975,1.1598 11.3791,4.1414 7.7521,-4.1742 29.8159,11.3301 -0.5963,19.6785 -11.33,2.9816 -22.6601,-9.5411 -14.3116,-14.9079 -3.2186,-3.2186 -1.0539,-7.8909 3.5288,-8.912 z"
       style="fill:#ffffff;stroke:none;stroke-width:1px;stroke-linecap:butt;stroke-linejoin:miter;stroke-opacity:1;color:#000000;fill-opacity:1;fill-rule:nonzero;marker:none;visibility:visible;display:inline;overflow:visible;enable-background:accumulate" />
    <flowRoot
       transform="matrix(0.66530597,0,0,0.68592152,834.16897,3220.5234)"
       style="font-style:normal;font-variant:normal;font-weight:normal;font-stretch:normal;line-height:0.01%;font-family:Lavi;-inkscape-font-specification:Lavi;text-align:center;letter-spacing:0px;word-spacing:0px;text-anchor:middle;fill:#000000;fill-opacity:1;stroke:none"
       id="flowRoot2987-4-9-9-9"
       xml:space="preserve"><flowRegion
         id="flowRegion2989-5-4-7-7"><rect
           style="font-style:normal;font-variant:normal;font-weight:normal;font-stretch:normal;font-family:Lavi;-inkscape-font-specification:Lavi;text-align:center;text-anchor:middle"
           y="265.53046"
           x="120.55251"
           height="56.407585"
           width="884.68256"
           id="rect2991-7-9-4-3" /></flowRegion><flowPara
         id="flowPara3080-9-7"
         style="font-size:48px;line-height:1.25;text-align:start;text-anchor:start;fill:#a0a0a0;fill-opacity:1">* Ko = Lé Ko est la mounaie del Komona.</flowPara></flowRoot>
  </g>
  <g
     inkscape:label="txt"
     id="layer1"
     inkscape:groupmode="layer">
    <flowRoot
       transform="matrix(0.95842652,0,0,0.92639044,69.237675,-92.25767)"
       style="font-style:normal;font-variant:normal;font-weight:normal;font-stretch:normal;line-height:0.01%;font-family:Lavi;-inkscape-font-specification:Lavi;letter-spacing:0px;word-spacing:0px;fill:#000000;fill-opacity:1;stroke:none"
       id="flowRoot2987"
       xml:space="preserve"><flowRegion
         id="flowRegion2989"><rect
           style="font-style:normal;font-variant:normal;font-weight:normal;font-stretch:normal;font-family:Lavi;-inkscape-font-specification:Lavi"
           y="265.53046"
           x="120.55251"
           height="222.0042"
           width="802.00476"
           id="rect2991" /></flowRegion><flowPara
         style="font-size:48px;line-height:1.3"
         id="flowPara2993">Citaé dé Komona,</flowPara><flowPara
         style="font-size:48px;line-height:1.3"
         id="flowPara2995">            Jou dé marchi</flowPara></flowRoot>
    <flowRoot
       transform="translate(53.005366,1925.5191)"
       style="font-style:normal;font-variant:normal;font-weight:normal;font-stretch:normal;line-height:0.01%;font-family:Lavi;-inkscape-font-specification:Lavi;text-align:center;letter-spacing:0px;word-spacing:0px;text-anchor:middle;fill:#000000;fill-opacity:1;stroke:none"
       id="flowRoot2987-4"
       xml:space="preserve"><flowRegion
         id="flowRegion2989-5"><rect
           style="font-style:normal;font-variant:normal;font-weight:normal;font-stretch:normal;font-family:Lavi;-inkscape-font-specification:Lavi;text-align:center;text-anchor:middle"
           y="265.53046"
           x="120.55251"
           height="310.73996"
           width="602.40173"
           id="rect2991-7" /></flowRegion><flowPara
         id="flowPara3033"
         style="font-size:48px;line-height:1.25;text-align:center;text-anchor:middle">Bonjou Moussieu,</flowPara><flowPara
         id="flowPara3022"
         style="font-size:48px;line-height:1.25;text-align:center;text-anchor:middle">je vourai hui</flowPara><flowPara
         id="flowPara3024"
         style="font-size:48px;line-height:1.25;text-align:center;text-anchor:middle">courgétoiles, </flowPara><flowPara
         id="flowPara3026"
         style="font-size:48px;line-height:1.25;text-align:center;text-anchor:middle">si vo pllaît !</flowPara></flowRoot>
    <flowRoot
       transform="translate(862.44277,1928.7801)"
       style="font-style:normal;font-variant:normal;font-weight:normal;font-stretch:normal;line-height:0.01%;font-family:Lavi;-inkscape-font-specification:Lavi;text-align:center;letter-spacing:0px;word-spacing:0px;text-anchor:middle;fill:#000000;fill-opacity:1;stroke:none"
       id="flowRoot2987-4-9"
       xml:space="preserve"><flowRegion
         id="flowRegion2989-5-4"><rect
           style="font-style:normal;font-variant:normal;font-weight:normal;font-stretch:normal;font-family:Lavi;-inkscape-font-specification:Lavi;text-align:center;text-anchor:middle"
           y="265.53046"
           x="120.55251"
           height="310.73996"
           width="602.40173"
           id="rect2991-7-9" /></flowRegion><flowPara
         id="flowPara3080"
         style="font-size:48px;line-height:1.25;text-align:center;text-anchor:middle">Et véchi, cha </flowPara><flowPara
         id="flowPara3030"
         style="font-size:48px;line-height:1.25;text-align:center;text-anchor:middle">fera 60Ko*</flowPara></flowRoot>
    <flowRoot
       transform="translate(1803.4943,2222.6016)"
       style="font-style:normal;font-variant:normal;font-weight:normal;font-stretch:normal;line-height:0.01%;font-family:Lavi;-inkscape-font-specification:Lavi;text-align:center;letter-spacing:0px;word-spacing:0px;text-anchor:middle;fill:#000000;fill-opacity:1;stroke:none"
       id="flowRoot2987-4-9-9"
       xml:space="preserve"><flowRegion
         id="flowRegion2989-5-4-7"><rect
           style="font-style:normal;font-variant:normal;font-weight:normal;font-stretch:normal;font-family:Lavi;-inkscape-font-specification:Lavi;text-align:center;text-anchor:middle"
           y="265.53046"
           x="120.55251"
           height="310.73996"
           width="602.40173"
           id="rect2991-7-9-4" /></flowRegion><flowPara
         id="flowPara3080-9"
         style="font-size:48px;line-height:1.25;text-align:center;text-anchor:middle">zut ...</flowPara></flowRoot>
  </g>
</svg>
