<?xml version="1.0" encoding="UTF-8" standalone="no"?>
<!-- Created with Inkscape (http://www.inkscape.org/) -->

<svg
   xmlns:dc="http://purl.org/dc/elements/1.1/"
   xmlns:cc="http://creativecommons.org/ns#"
   xmlns:rdf="http://www.w3.org/1999/02/22-rdf-syntax-ns#"
   xmlns:svg="http://www.w3.org/2000/svg"
   xmlns="http://www.w3.org/2000/svg"
   xmlns:xlink="http://www.w3.org/1999/xlink"
   xmlns:sodipodi="http://sodipodi.sourceforge.net/DTD/sodipodi-0.dtd"
   xmlns:inkscape="http://www.inkscape.org/namespaces/inkscape"
   id="svg2"
   version="1.1"
   inkscape:version="0.92.4 5da689c313, 2019-01-14"
   width="2481"
   height="3503"
   sodipodi:docname="E28P07.svg">
  <metadata
     id="metadata8">
    <rdf:RDF>
      <cc:Work
         rdf:about="">
        <dc:format>image/svg+xml</dc:format>
        <dc:type
           rdf:resource="http://purl.org/dc/dcmitype/StillImage" />
        <dc:title />
      </cc:Work>
    </rdf:RDF>
  </metadata>
  <defs
     id="defs6" />
  <sodipodi:namedview
     pagecolor="#ffffff"
     bordercolor="#666666"
     borderopacity="1"
     objecttolerance="10"
     gridtolerance="10"
     guidetolerance="10"
     inkscape:pageopacity="0"
     inkscape:pageshadow="2"
     inkscape:window-width="1280"
     inkscape:window-height="756"
     id="namedview4"
     showgrid="false"
     inkscape:zoom="0.25749358"
     inkscape:cx="562.30377"
     inkscape:cy="537.50458"
     inkscape:window-x="0"
     inkscape:window-y="0"
     inkscape:window-maximized="1"
     inkscape:current-layer="layer1" />
  <g
     inkscape:groupmode="layer"
     id="layer2"
     inkscape:label="artwork"
     sodipodi:insensitive="true">
    <image
       sodipodi:absref="/home/wolfy/Downloads/pepper/ep28/lang/cs/../gfx_Pepper-and-Carrot_by-David-Revoy_E28P07.png"
       xlink:href="../gfx_Pepper-and-Carrot_by-David-Revoy_E28P07.png"
       y="0"
       x="0"
       id="image10"
       height="3503"
       width="2481" />
  </g>
  <g
     inkscape:groupmode="layer"
     id="layer3"
     inkscape:label="speechbubbles">
    <path
       style="fill:#ffffff;fill-rule:evenodd;stroke:none;stroke-width:1px;stroke-linecap:butt;stroke-linejoin:miter;stroke-opacity:1"
       d="m 139.4599,119.38529 c 58.20387,-38.453819 160.13208,-38.34134 216.01266,-37.378358 55.88058,0.962982 192.35159,0.0267 224.826,23.602808 32.4744,23.57612 53.81219,25.58786 52.90585,78.18134 -0.90633,52.59349 -14.50788,78.66366 -52.76262,104.30897 -38.25473,25.64532 -189.60263,31.25733 -232.36316,32.16448 -42.76053,0.90715 -149.5344,-4.22094 -182.03715,-26.15351 -32.50273,-21.93255 -61.40681,-61.88749 -59.19681,-94.7301 2.21002,-32.8426 14.2813,-65.51527 32.61523,-79.99563 z"
       id="path1035"
       inkscape:connector-curvature="0" />
    <path
       style="fill:#ffffff;fill-rule:evenodd;stroke:none;stroke-width:1px;stroke-linecap:butt;stroke-linejoin:miter;stroke-opacity:1"
       d="m 196.4271,253.96422 c -32.89449,39.47339 -40.41323,56.39055 -51.69134,74.24756 -11.27811,17.85701 -8.45859,59.21009 6.57889,70.4882 15.03749,11.27811 23.49607,17.857 15.97733,33.83433 -7.51874,15.97732 -7.37083,33.58627 -0.79194,42.9847 6.5789,9.39842 29.92706,24.68396 29.92706,24.68396 0,0 -21.13136,-17.00501 -23.34412,-22.26143 -3.75295,-8.91514 -2.08603,-20.48379 2.61318,-28.94238 4.69922,-8.45858 19.28439,-35.64147 -2.76513,-53.11871 -14.61974,-11.58813 -21.61638,-35.71402 -1.87968,-65.78898 19.73669,-30.07496 90.22489,-81.76631 90.22489,-81.76631 z"
       id="path1037"
       inkscape:connector-curvature="0"
       sodipodi:nodetypes="csssccscsscc" />
    <path
       style="fill:#ffffff;fill-rule:evenodd;stroke:none;stroke-width:1.03906333px;stroke-linecap:butt;stroke-linejoin:miter;stroke-opacity:1"
       d="m 130.82136,968.15969 c 22.09411,-61.97056 58.61602,-67.93321 114.1647,-72.21396 55.54868,-4.28075 256.0212,-11.69523 304.83671,4.78943 48.81551,16.48463 62.43244,37.40889 76.55001,78.95627 12.3035,36.20867 15.87051,112.62297 4.08745,138.52267 -11.78305,25.9 -32.07499,59.165 -82.5738,61.7912 -50.49879,2.6262 -298.42699,4.1035 -328.72627,3.5913 -30.29928,-0.5121 -89.30688,-17.2813 -101.09001,-64.4588 -11.78306,-47.1773 -9.34288,-89.0076 12.75121,-150.97811 z"
       id="path1039"
       inkscape:connector-curvature="0"
       sodipodi:nodetypes="zsssccssz" />
    <path
       style="fill:#ffffff;fill-rule:evenodd;stroke:none;stroke-width:1px;stroke-linecap:butt;stroke-linejoin:miter;stroke-opacity:1"
       d="m 197.23517,923.5374 c -17.7664,-36.95411 -18.47706,-61.82707 -3.55328,-69.64429 14.92378,-7.81721 21.31968,-12.7918 12.79181,-21.31968 -8.52787,-8.52787 -16.34509,-27.71558 -9.94919,-39.08608 6.39591,-11.37049 16.34509,-17.05574 26.29428,-18.47705 -15.63444,9.23852 -19.89837,17.05574 -19.18772,25.58361 0.71066,8.52787 2.84263,19.18771 12.79181,25.58362 9.94919,6.3959 23.45165,22.74099 2.13197,39.08608 -21.31968,16.34509 43.35002,66.09101 43.35002,66.09101 z"
       id="path1041"
       inkscape:connector-curvature="0" />
    <path
       style="fill:#ffffff;fill-rule:evenodd;stroke:none;stroke-width:1px;stroke-linecap:butt;stroke-linejoin:miter;stroke-opacity:1"
       d="m 1810.2187,188.73057 c 10.8239,-30.89516 34.8771,-41.58964 50.5116,-43.96619 15.6345,-2.37655 55.3222,1.18827 78.1726,2.37655 22.8505,1.18827 92.6046,1.18827 98.6178,0 6.0134,-1.18828 105.8338,7.12965 120.2657,4.7531 14.4319,-2.37655 50.6395,-4.4733 67.4767,-2.09675 16.8372,2.37655 44.4984,20.20068 46.9036,29.70689 2.4053,9.5062 8.2907,25.86225 3.48,41.30983 -4.8105,15.44758 -33.6743,32.08343 -62.5381,40.40137 -28.8638,8.31792 -111.847,1.18827 -123.8736,-1.18829 -12.0266,-2.37654 -55.3222,-10.69447 -79.3753,-5.94136 -24.0532,4.75309 -92.6045,11.88274 -129.8869,7.12965 -37.2823,-4.75311 -68.5514,-19.01241 -69.7541,-33.27171 -1.2026,-14.25931 -3.608,-10.69448 0,-39.21309 z"
       id="path1043"
       inkscape:connector-curvature="0"
       sodipodi:nodetypes="csscssccsccscc" />
    <path
       style="fill:#ffffff;fill-rule:evenodd;stroke:none;stroke-width:1px;stroke-linecap:butt;stroke-linejoin:miter;stroke-opacity:1"
       d="m 1944.3016,233.0595 c -22.8961,17.75617 -71.9593,58.40848 -78.0338,64.01569 -6.0744,5.60722 -9.8126,23.83066 4.2055,19.15798 14.018,-4.67267 32.2414,-13.0835 37.8487,-14.01803 5.6072,-0.93454 9.8126,-1.86907 13.5507,-1.4018 -18.2234,4.20541 -68.2211,21.49432 -96.7244,92.51903 35.5123,-65.4175 80.37,-77.0992 89.2481,-80.37007 8.8781,-3.27088 23.8307,-7.47629 24.298,-14.95257 0.4672,-7.47629 -9.8127,-14.95257 -27.5688,-10.27989 22.4288,-13.08351 59.343,-45.32499 73.8283,-45.32499 14.4853,0 -40.6523,-9.34535 -40.6523,-9.34535 z"
       id="path1045"
       inkscape:connector-curvature="0" />
    <path
       style="fill:#ffffff;fill-rule:evenodd;stroke:none;stroke-width:1.04479074px;stroke-linecap:butt;stroke-linejoin:miter;stroke-opacity:1"
       d="m 210.95062,1362.7906 c 37.22801,-28.0194 50.02516,-26.1515 65.14906,-28.9534 15.12387,-2.8018 130.29809,-6.5378 152.40224,-4.6699 22.10415,1.8681 120.9911,9.3398 152.40226,35.4912 31.41113,26.1515 61.65892,48.5669 58.1688,87.794 -3.49014,39.2271 -12.79715,110.2096 -33.73791,133.5589 -20.94078,23.3495 -66.31243,39.2272 -117.50097,47.633 -51.18855,8.4058 -198.93731,-3.7359 -221.04145,-5.6039 -22.10414,-1.8679 -75.61944,-19.6136 -93.07006,-42.963 -17.45065,-23.3495 -43.04493,-75.6523 -34.90129,-110.2095 8.14363,-34.5571 27.92102,-81.2562 72.12932,-112.0774 z"
       id="path1047"
       inkscape:connector-curvature="0" />
    <path
       style="fill:#ffffff;fill-rule:evenodd;stroke:none;stroke-width:1px;stroke-linecap:butt;stroke-linejoin:miter;stroke-opacity:1"
       d="m 271.50243,1608.4597 c 44.91316,-22.9051 72.62553,-25.7681 98.4267,-27.6769 25.80118,-1.9088 84.09273,0.9543 111.8051,13.3612 27.71238,12.4069 46.82436,36.2663 53.51355,48.6732 6.68919,12.4068 12.42279,52.4905 1.9112,70.6237 -10.51159,18.133 -45.86876,44.8555 -66.89194,53.4449 -21.02317,8.5894 -113.71629,11.4525 -151.94025,0 -38.22397,-11.4525 -65.93634,-29.5856 -75.49234,-55.3537 -9.55599,-25.7681 -9.55599,-82.0762 28.66798,-103.0724 z"
       id="path1049"
       inkscape:connector-curvature="0" />
    <path
       style="fill:#ffffff;fill-rule:evenodd;stroke:none;stroke-width:1px;stroke-linecap:butt;stroke-linejoin:miter;stroke-opacity:1"
       d="m 571.51827,1489.8102 c 22.69719,-37.8287 85.61623,-110.0078 124.52571,-129.4625 38.90949,-19.4548 94.88053,-25.0946 113.25446,-22.933 15.70987,1.7353 35.90084,19.0754 55.12176,42.152 -15.13146,-30.263 -47.25978,-48.6478 -52.66387,-49.7286 -18.40862,-4.2887 -108.87383,-25.5751 -222.35983,69.5369 -113.48599,95.1121 -51.38362,121.779 -51.38362,121.779 z"
       id="path1051"
       inkscape:connector-curvature="0"
       sodipodi:nodetypes="cccccscc" />
    <path
       style="fill:#ffffff;fill-rule:evenodd;stroke:none;stroke-width:0.88129705px;stroke-linecap:butt;stroke-linejoin:miter;stroke-opacity:1"
       d="m 186.70546,2222.383 c -1.3117,-31.4542 24.92234,-42.3423 47.22126,-45.9716 22.29893,-3.6294 99.68933,-3.6294 112.80634,-1.2098 13.11701,2.4195 90.50742,0 106.24784,1.2098 15.74042,1.2097 66.89677,9.6782 76.0787,31.4543 9.18191,21.776 22.29891,27.8249 9.18191,48.3912 -13.11703,20.5663 -28.85745,38.713 -82.63722,43.5521 -53.77976,4.8392 -169.2095,1.2098 -217.74246,-10.888 -48.53297,-12.0978 -51.15637,-36.2934 -51.15637,-66.538 z"
       id="path1053"
       inkscape:connector-curvature="0" />
    <path
       style="fill:#ffffff;fill-rule:evenodd;stroke:none;stroke-width:1px;stroke-linecap:butt;stroke-linejoin:miter;stroke-opacity:1"
       d="m 348.19942,2246.5661 c -29.42116,45.7663 -39.16091,33.6645 -43.24718,61.4512 -4.08627,27.7866 9.73975,53.7817 22.81582,64.406 13.07607,10.6243 34.32468,25.3349 15.52783,41.68 -18.79685,16.3451 -40.04547,26.1521 -35.95919,72.7356 4.08627,46.5835 21.24861,49.0353 27.78665,53.1215 -25.33489,-10.1025 -30.23842,-73.5529 -15.52784,-93.167 14.71058,-19.6141 16.91712,-15.0754 32.69018,-26.1521 13.88076,-9.7478 27.00207,-30.3114 -3.85728,-57.4442 -30.85936,-27.1329 -14.46952,-78.6996 28.77766,-101.4055 85.22691,-44.7462 -29.00665,-15.2255 -29.00665,-15.2255 z"
       id="path1055"
       inkscape:connector-curvature="0"
       sodipodi:nodetypes="csssscsszsc" />
    <path
       style="fill:#ffffff;fill-rule:evenodd;stroke:none;stroke-width:0.91185403px;stroke-linecap:butt;stroke-linejoin:miter;stroke-opacity:1"
       d="m 809.43922,2240.0967 c 25.53242,-43.7226 53.52609,-48.6346 91.72949,-55.5466 82.78977,-8.0285 153.09259,2.6162 232.52299,0.2504 41.1247,-1.2859 97.2884,16.7175 115.6921,39.8648 18.404,23.1472 46.8394,92.5889 40.321,114.4502 -6.5184,21.8614 -18.5233,79.7296 -46.1203,95.1611 -27.597,15.4314 -47.9854,29.5771 -94.6021,33.4349 -46.6167,3.8578 -223.47398,6.4298 -244.82618,5.1438 -21.35224,-1.286 -82.80266,-20.5753 -100.31685,-60.4401 -17.51419,-39.8647 -19.65884,-133.7396 5.59985,-172.3185 z"
       id="path1057"
       inkscape:connector-curvature="0"
       sodipodi:nodetypes="cccscssssc" />
    <path
       style="fill:#ffffff;fill-rule:evenodd;stroke:none;stroke-width:1px;stroke-linecap:butt;stroke-linejoin:miter;stroke-opacity:1"
       d="m 1078.5698,2470.4285 c 7.4155,31.516 12.9772,52.5267 19.7748,59.9423 6.7976,7.4155 22.8646,14.2131 33.3699,15.449 10.5054,1.236 21.0107,6.1796 6.1796,23.4826 -14.831,17.3029 -1.8538,54.9986 45.1112,57.4704 -46.965,-11.7413 -43.8752,-47.583 -27.8082,-54.3806 16.067,-6.7976 20.3927,-39.5496 -16.685,-50.6729 -32.752,-8.6514 -11.1233,-129.7719 -11.1233,-129.7719 z"
       id="path1059"
       inkscape:connector-curvature="0" />
  </g>
  <g
     inkscape:groupmode="layer"
     id="layer1"
     inkscape:label="txt"
     style="opacity:1">
    <text
       xml:space="preserve"
       style="font-style:normal;font-variant:normal;font-weight:normal;font-stretch:normal;line-height:0%;font-family:Lavi;-inkscape-font-specification:Lavi;text-align:center;letter-spacing:0px;word-spacing:0px;text-anchor:middle;fill:#000000;fill-opacity:1;stroke:none"
       x="375.40958"
       y="165.38466"
       id="text4246"><tspan
         sodipodi:role="line"
         style="font-size:45px;line-height:1.20000005"
         x="375.40958"
         y="165.38466"
         id="tspan4252">Přijde mi divné,</tspan><tspan
         sodipodi:role="line"
         style="font-size:45px;line-height:1.20000005"
         x="375.40958"
         y="219.38466"
         id="tspan218">že se musím vykrást,</tspan><tspan
         sodipodi:role="line"
         style="font-size:45px;line-height:1.20000005"
         x="375.40958"
         y="273.38467"
         id="tspan825">abych se najedla.</tspan></text>
    <text
       xml:space="preserve"
       style="font-style:normal;font-variant:normal;font-weight:normal;font-stretch:normal;line-height:0%;font-family:Lavi;-inkscape-font-specification:Lavi;text-align:center;letter-spacing:0px;word-spacing:0px;text-anchor:middle;fill:#000000;fill-opacity:1;stroke:none"
       x="377.96841"
       y="954.22314"
       id="text4246-3"><tspan
         sodipodi:role="line"
         style="font-size:45px;line-height:1.20000005"
         x="377.96841"
         y="954.22314"
         id="tspan825-5">Ale, naše učitelka</tspan><tspan
         sodipodi:role="line"
         style="font-size:45px;line-height:1.20000005"
         x="377.96841"
         y="1008.2231"
         id="tspan233">říká, že se musíme</tspan><tspan
         sodipodi:role="line"
         style="font-size:45px;line-height:1.20000005"
         x="385.12051"
         y="1062.2231"
         id="tspan868">chovat jako éterické </tspan><tspan
         sodipodi:role="line"
         style="font-size:45px;line-height:1.20000005"
         x="385.12051"
         y="1116.2231"
         id="tspan246">bytosti bez lidských </tspan><tspan
         sodipodi:role="line"
         style="font-size:45px;line-height:1.20000005"
         x="377.96841"
         y="1170.2231"
         id="tspan254">potřeb.</tspan></text>
    <text
       xml:space="preserve"
       style="font-style:normal;font-variant:normal;font-weight:normal;font-stretch:normal;line-height:0%;font-family:Lavi;-inkscape-font-specification:Lavi;text-align:center;letter-spacing:0px;word-spacing:0px;text-anchor:middle;fill:#000000;fill-opacity:1;stroke:none"
       x="2047.1042"
       y="217.40169"
       id="text4246-3-3"><tspan
         sodipodi:role="line"
         style="font-size:45px;line-height:1.20000005"
         x="2047.1042"
         y="217.40169"
         id="tspan868-9">Ha! Tady jste!</tspan></text>
    <text
       xml:space="preserve"
       style="font-style:normal;font-variant:normal;font-weight:normal;font-stretch:normal;line-height:0%;font-family:Lavi;-inkscape-font-specification:Lavi;text-align:center;letter-spacing:0px;word-spacing:0px;text-anchor:middle;fill:#000000;fill-opacity:1;stroke:none"
       x="391.99753"
       y="1404.5085"
       id="text4246-3-3-1"><tspan
         sodipodi:role="line"
         style="font-size:45px;line-height:1.20000005"
         x="391.99753"
         y="1404.5085"
         id="tspan924">Konečně!</tspan><tspan
         sodipodi:role="line"
         style="font-size:45px;line-height:1.20000005"
         x="391.99753"
         y="1458.5085"
         id="tspan928">Můžu být někde,</tspan><tspan
         sodipodi:role="line"
         style="font-size:45px;line-height:1.20000005"
         x="399.14963"
         y="1512.5085"
         id="tspan261"> kde nejsou </tspan><tspan
         sodipodi:role="line"
         style="font-size:45px;line-height:1.20000005"
         x="391.99753"
         y="1566.5085"
         id="tspan267">fotografové.</tspan></text>
    <text
       xml:space="preserve"
       style="font-style:normal;font-variant:normal;font-weight:normal;font-stretch:normal;line-height:0%;font-family:Lavi;-inkscape-font-specification:Lavi;text-align:center;letter-spacing:0px;word-spacing:0px;text-anchor:middle;fill:#000000;fill-opacity:1;stroke:none"
       x="390.59467"
       y="1666.9772"
       id="text4246-3-3-1-7"><tspan
         sodipodi:role="line"
         style="font-size:45px;line-height:1.20000005"
         x="397.74677"
         y="1666.9772"
         id="tspan966">Už z nich </tspan><tspan
         sodipodi:role="line"
         style="font-size:45px;line-height:1.20000005"
         x="390.59467"
         y="1720.9772"
         id="tspan271">šílím.</tspan></text>
    <text
       xml:space="preserve"
       style="font-style:normal;font-variant:normal;font-weight:normal;font-stretch:normal;line-height:0%;font-family:Lavi;-inkscape-font-specification:Lavi;text-align:center;letter-spacing:0px;word-spacing:0px;text-anchor:middle;fill:#000000;fill-opacity:1;stroke:none"
       x="370.32666"
       y="2251.155"
       id="text4246-3-3-1-7-0"><tspan
         sodipodi:role="line"
         style="font-size:45px;line-height:1.20000005"
         x="370.32666"
         y="2251.155"
         id="tspan966-2">Fotografové?</tspan></text>
    <text
       xml:space="preserve"
       style="font-style:normal;font-variant:normal;font-weight:normal;font-stretch:normal;line-height:0%;font-family:Lavi;-inkscape-font-specification:Lavi;text-align:center;letter-spacing:0px;word-spacing:0px;text-anchor:middle;fill:#000000;fill-opacity:1;stroke:none"
       x="1041.2277"
       y="2262.4744"
       id="text4246-3-3-1-7-0-6"><tspan
         sodipodi:role="line"
         style="font-size:45px;line-height:1.20000005"
         x="1041.2277"
         y="2262.4744"
         id="tspan1023">Zkus se vyhnout,</tspan><tspan
         sodipodi:role="line"
         style="font-size:45px;line-height:1.20000005"
         x="1048.3798"
         y="2316.4744"
         id="tspan287">nudné debatě </tspan><tspan
         sodipodi:role="line"
         style="font-size:45px;line-height:1.20000005"
         x="1048.3798"
         y="2370.4744"
         id="tspan289">s politiky, když máš </tspan><tspan
         sodipodi:role="line"
         style="font-size:45px;line-height:1.20000005"
         x="1041.2277"
         y="2424.4744"
         id="tspan291">na hlavě tohle.</tspan></text>
    <text
       xml:space="preserve"
       style="font-style:normal;font-variant:normal;font-weight:normal;font-stretch:normal;font-size:13.67166328px;line-height:0%;font-family:Lavi;-inkscape-font-specification:Lavi;text-align:center;letter-spacing:0px;word-spacing:0px;text-anchor:middle;fill:#ffffff;fill-opacity:0.43137255;stroke:#ffffff;stroke-width:0.41015574;stroke-miterlimit:4;stroke-dasharray:none;stroke-opacity:1"
       x="1673.4884"
       y="2527.4509"
       id="text4246-8"
       transform="matrix(0.89761483,-0.24846861,0.02683826,1.1066345,0,0)"><tspan
         sodipodi:role="line"
         style="font-size:35.04694366px;line-height:1.25;fill:#ffffff;fill-opacity:0.43137255;stroke:#ffffff;stroke-width:0.41015574;stroke-miterlimit:4;stroke-dasharray:none;stroke-opacity:1"
         x="1673.4884"
         y="2527.4509"
         id="tspan1033">škráb</tspan><tspan
         sodipodi:role="line"
         style="font-size:35.04694366px;line-height:1.25;fill:#ffffff;fill-opacity:0.43137255;stroke:#ffffff;stroke-width:0.41015574;stroke-miterlimit:4;stroke-dasharray:none;stroke-opacity:1"
         x="1673.4884"
         y="2571.2595"
         id="tspan295">škráb</tspan></text>
  </g>
</svg>
