<?xml version="1.0" encoding="UTF-8" standalone="no"?>
<svg
   xmlns:dc="http://purl.org/dc/elements/1.1/"
   xmlns:cc="http://creativecommons.org/ns#"
   xmlns:rdf="http://www.w3.org/1999/02/22-rdf-syntax-ns#"
   xmlns:svg="http://www.w3.org/2000/svg"
   xmlns="http://www.w3.org/2000/svg"
   xmlns:xlink="http://www.w3.org/1999/xlink"
   xmlns:sodipodi="http://sodipodi.sourceforge.net/DTD/sodipodi-0.dtd"
   xmlns:inkscape="http://www.inkscape.org/namespaces/inkscape"
   id="svg2"
   version="1.1"
   inkscape:version="1.0.2 (e86c870879, 2021-01-15)"
   width="2481"
   height="3503"
   sodipodi:docname="E06P04.svg">
  <metadata
     id="metadata8">
    <rdf:RDF>
      <cc:Work
         rdf:about="">
        <dc:format>image/svg+xml</dc:format>
        <dc:type
           rdf:resource="http://purl.org/dc/dcmitype/StillImage" />
        <dc:title />
      </cc:Work>
    </rdf:RDF>
  </metadata>
  <defs
     id="defs6">
    <filter
       color-interpolation-filters="sRGB"
       id="filter4375-4"
       inkscape:label="deevad outline effect">
      <feFlood
         id="feFlood4377-7"
         flood-opacity="1"
         flood-color="rgb(0,0,0)"
         result="flood" />
      <feComposite
         id="feComposite4379-3"
         in2="SourceGraphic"
         in="flood"
         operator="in"
         result="composite1" />
      <feMorphology
         id="feMorphology4393-1"
         operator="dilate"
         radius="4"
         result="result3" />
      <feComposite
         id="feComposite4385-9"
         in2="result3"
         in="SourceGraphic"
         operator="over"
         result="composite2" />
    </filter>
    <filter
       color-interpolation-filters="sRGB"
       id="filter4375-4-1"
       inkscape:label="deevad outline effect">
      <feFlood
         id="feFlood4377-7-9"
         flood-opacity="1"
         flood-color="rgb(0,0,0)"
         result="flood" />
      <feComposite
         id="feComposite4379-3-8"
         in2="SourceGraphic"
         in="flood"
         operator="in"
         result="composite1" />
      <feMorphology
         id="feMorphology4393-1-0"
         operator="dilate"
         radius="4"
         result="result3" />
      <feComposite
         id="feComposite4385-9-5"
         in2="result3"
         in="SourceGraphic"
         operator="over"
         result="composite2" />
    </filter>
    <filter
       color-interpolation-filters="sRGB"
       id="filter4375-4-1-4"
       inkscape:label="deevad outline effect">
      <feFlood
         id="feFlood4377-7-9-7"
         flood-opacity="1"
         flood-color="rgb(0,0,0)"
         result="flood" />
      <feComposite
         id="feComposite4379-3-8-1"
         in2="SourceGraphic"
         in="flood"
         operator="in"
         result="composite1" />
      <feMorphology
         id="feMorphology4393-1-0-6"
         operator="dilate"
         radius="4"
         result="result3" />
      <feComposite
         id="feComposite4385-9-5-9"
         in2="result3"
         in="SourceGraphic"
         operator="over"
         result="composite2" />
    </filter>
    <filter
       color-interpolation-filters="sRGB"
       id="filter4375-4-1-7"
       inkscape:label="deevad outline effect">
      <feFlood
         id="feFlood4377-7-9-2"
         flood-opacity="1"
         flood-color="rgb(0,0,0)"
         result="flood" />
      <feComposite
         id="feComposite4379-3-8-5"
         in2="SourceGraphic"
         in="flood"
         operator="in"
         result="composite1" />
      <feMorphology
         id="feMorphology4393-1-0-4"
         operator="dilate"
         radius="4"
         result="result3" />
      <feComposite
         id="feComposite4385-9-5-2"
         in2="result3"
         in="SourceGraphic"
         operator="over"
         result="composite2" />
    </filter>
    <filter
       color-interpolation-filters="sRGB"
       id="filter4375-4-1-1"
       inkscape:label="deevad outline effect">
      <feFlood
         id="feFlood4377-7-9-0"
         flood-opacity="1"
         flood-color="rgb(0,0,0)"
         result="flood" />
      <feComposite
         id="feComposite4379-3-8-8"
         in2="SourceGraphic"
         in="flood"
         operator="in"
         result="composite1" />
      <feMorphology
         id="feMorphology4393-1-0-49"
         operator="dilate"
         radius="4"
         result="result3" />
      <feComposite
         id="feComposite4385-9-5-7"
         in2="result3"
         in="SourceGraphic"
         operator="over"
         result="composite2" />
    </filter>
    <filter
       color-interpolation-filters="sRGB"
       id="filter4375-4-1-40"
       inkscape:label="deevad outline effect">
      <feFlood
         id="feFlood4377-7-9-5"
         flood-opacity="1"
         flood-color="rgb(0,0,0)"
         result="flood" />
      <feComposite
         id="feComposite4379-3-8-7"
         in2="SourceGraphic"
         in="flood"
         operator="in"
         result="composite1" />
      <feMorphology
         id="feMorphology4393-1-0-7"
         operator="dilate"
         radius="4"
         result="result3" />
      <feComposite
         id="feComposite4385-9-5-5"
         in2="result3"
         in="SourceGraphic"
         operator="over"
         result="composite2" />
    </filter>
    <filter
       color-interpolation-filters="sRGB"
       id="filter4375-4-1-40-7"
       inkscape:label="deevad outline effect">
      <feFlood
         id="feFlood4377-7-9-5-6"
         flood-opacity="1"
         flood-color="rgb(0,0,0)"
         result="flood" />
      <feComposite
         id="feComposite4379-3-8-7-8"
         in2="SourceGraphic"
         in="flood"
         operator="in"
         result="composite1" />
      <feMorphology
         id="feMorphology4393-1-0-7-9"
         operator="dilate"
         radius="4"
         result="result3" />
      <feComposite
         id="feComposite4385-9-5-5-3"
         in2="result3"
         in="SourceGraphic"
         operator="over"
         result="composite2" />
    </filter>
    <filter
       color-interpolation-filters="sRGB"
       id="filter4375-4-1-1-1"
       inkscape:label="deevad outline effect">
      <feFlood
         id="feFlood4377-7-9-0-8"
         flood-opacity="1"
         flood-color="rgb(0,0,0)"
         result="flood" />
      <feComposite
         id="feComposite4379-3-8-8-2"
         in2="SourceGraphic"
         in="flood"
         operator="in"
         result="composite1" />
      <feMorphology
         id="feMorphology4393-1-0-49-8"
         operator="dilate"
         radius="4"
         result="result3" />
      <feComposite
         id="feComposite4385-9-5-7-0"
         in2="result3"
         in="SourceGraphic"
         operator="over"
         result="composite2" />
    </filter>
    <filter
       color-interpolation-filters="sRGB"
       id="filter4375-4-1-7-8"
       inkscape:label="deevad outline effect">
      <feFlood
         id="feFlood4377-7-9-2-5"
         flood-opacity="1"
         flood-color="rgb(0,0,0)"
         result="flood" />
      <feComposite
         id="feComposite4379-3-8-5-8"
         in2="SourceGraphic"
         in="flood"
         operator="in"
         result="composite1" />
      <feMorphology
         id="feMorphology4393-1-0-4-9"
         operator="dilate"
         radius="4"
         result="result3" />
      <feComposite
         id="feComposite4385-9-5-2-2"
         in2="result3"
         in="SourceGraphic"
         operator="over"
         result="composite2" />
    </filter>
    <filter
       color-interpolation-filters="sRGB"
       id="filter4375-4-1-7-3"
       inkscape:label="deevad outline effect">
      <feFlood
         id="feFlood4377-7-9-2-4"
         flood-opacity="1"
         flood-color="rgb(0,0,0)"
         result="flood" />
      <feComposite
         id="feComposite4379-3-8-5-4"
         in2="SourceGraphic"
         in="flood"
         operator="in"
         result="composite1" />
      <feMorphology
         id="feMorphology4393-1-0-4-5"
         operator="dilate"
         radius="4"
         result="result3" />
      <feComposite
         id="feComposite4385-9-5-2-1"
         in2="result3"
         in="SourceGraphic"
         operator="over"
         result="composite2" />
    </filter>
    <filter
       color-interpolation-filters="sRGB"
       id="filter4375-4-1-7-3-3"
       inkscape:label="deevad outline effect">
      <feFlood
         id="feFlood4377-7-9-2-4-4"
         flood-opacity="1"
         flood-color="rgb(0,0,0)"
         result="flood" />
      <feComposite
         id="feComposite4379-3-8-5-4-7"
         in2="SourceGraphic"
         in="flood"
         operator="in"
         result="composite1" />
      <feMorphology
         id="feMorphology4393-1-0-4-5-4"
         operator="dilate"
         radius="4"
         result="result3" />
      <feComposite
         id="feComposite4385-9-5-2-1-3"
         in2="result3"
         in="SourceGraphic"
         operator="over"
         result="composite2" />
    </filter>
    <filter
       color-interpolation-filters="sRGB"
       id="filter4375-4-1-7-3-7"
       inkscape:label="deevad outline effect">
      <feFlood
         id="feFlood4377-7-9-2-4-1"
         flood-opacity="1"
         flood-color="rgb(0,0,0)"
         result="flood" />
      <feComposite
         id="feComposite4379-3-8-5-4-75"
         in2="SourceGraphic"
         in="flood"
         operator="in"
         result="composite1" />
      <feMorphology
         id="feMorphology4393-1-0-4-5-8"
         operator="dilate"
         radius="4"
         result="result3" />
      <feComposite
         id="feComposite4385-9-5-2-1-5"
         in2="result3"
         in="SourceGraphic"
         operator="over"
         result="composite2" />
    </filter>
    <filter
       color-interpolation-filters="sRGB"
       id="filter4375-4-1-1-1-1"
       inkscape:label="deevad outline effect">
      <feFlood
         id="feFlood4377-7-9-0-8-5"
         flood-opacity="1"
         flood-color="rgb(0,0,0)"
         result="flood" />
      <feComposite
         id="feComposite4379-3-8-8-2-7"
         in2="SourceGraphic"
         in="flood"
         operator="in"
         result="composite1" />
      <feMorphology
         id="feMorphology4393-1-0-49-8-7"
         operator="dilate"
         radius="4"
         result="result3" />
      <feComposite
         id="feComposite4385-9-5-7-0-3"
         in2="result3"
         in="SourceGraphic"
         operator="over"
         result="composite2" />
    </filter>
    <filter
       color-interpolation-filters="sRGB"
       id="filter4375-4-1-1-1-8"
       inkscape:label="deevad outline effect">
      <feFlood
         id="feFlood4377-7-9-0-8-4"
         flood-opacity="1"
         flood-color="rgb(0,0,0)"
         result="flood" />
      <feComposite
         id="feComposite4379-3-8-8-2-6"
         in2="SourceGraphic"
         in="flood"
         operator="in"
         result="composite1" />
      <feMorphology
         id="feMorphology4393-1-0-49-8-2"
         operator="dilate"
         radius="4"
         result="result3" />
      <feComposite
         id="feComposite4385-9-5-7-0-33"
         in2="result3"
         in="SourceGraphic"
         operator="over"
         result="composite2" />
    </filter>
    <filter
       color-interpolation-filters="sRGB"
       id="filter4375-4-1-1-7"
       inkscape:label="deevad outline effect">
      <feFlood
         id="feFlood4377-7-9-0-6"
         flood-opacity="1"
         flood-color="rgb(0,0,0)"
         result="flood" />
      <feComposite
         id="feComposite4379-3-8-8-6"
         in2="SourceGraphic"
         in="flood"
         operator="in"
         result="composite1" />
      <feMorphology
         id="feMorphology4393-1-0-49-4"
         operator="dilate"
         radius="4"
         result="result3" />
      <feComposite
         id="feComposite4385-9-5-7-4"
         in2="result3"
         in="SourceGraphic"
         operator="over"
         result="composite2" />
    </filter>
    <filter
       color-interpolation-filters="sRGB"
       id="filter4375-4-1-1-7-3"
       inkscape:label="deevad outline effect">
      <feFlood
         id="feFlood4377-7-9-0-6-8"
         flood-opacity="1"
         flood-color="rgb(0,0,0)"
         result="flood" />
      <feComposite
         id="feComposite4379-3-8-8-6-8"
         in2="SourceGraphic"
         in="flood"
         operator="in"
         result="composite1" />
      <feMorphology
         id="feMorphology4393-1-0-49-4-0"
         operator="dilate"
         radius="4"
         result="result3" />
      <feComposite
         id="feComposite4385-9-5-7-4-7"
         in2="result3"
         in="SourceGraphic"
         operator="over"
         result="composite2" />
    </filter>
    <filter
       style="color-interpolation-filters:sRGB"
       id="filter4375-4-1-7-1"
       inkscape:label="deevad outline effect">
      <feFlood
         id="feFlood4377-7-9-2-9"
         flood-opacity="1"
         flood-color="rgb(0,0,0)"
         result="flood" />
      <feComposite
         id="feComposite4379-3-8-5-6"
         in2="SourceGraphic"
         in="flood"
         operator="in"
         result="composite1" />
      <feMorphology
         id="feMorphology4393-1-0-4-93"
         operator="dilate"
         radius="4"
         result="result3" />
      <feComposite
         id="feComposite4385-9-5-2-3"
         in2="result3"
         in="SourceGraphic"
         operator="over"
         result="composite2" />
    </filter>
    <filter
       style="color-interpolation-filters:sRGB"
       id="filter4375-4-1-7-6"
       inkscape:label="deevad outline effect">
      <feFlood
         id="feFlood4377-7-9-2-40"
         flood-opacity="1"
         flood-color="rgb(0,0,0)"
         result="flood" />
      <feComposite
         id="feComposite4379-3-8-5-0"
         in2="SourceGraphic"
         in="flood"
         operator="in"
         result="composite1" />
      <feMorphology
         id="feMorphology4393-1-0-4-4"
         operator="dilate"
         radius="4"
         result="result3" />
      <feComposite
         id="feComposite4385-9-5-2-6"
         in2="result3"
         in="SourceGraphic"
         operator="over"
         result="composite2" />
    </filter>
    <filter
       style="color-interpolation-filters:sRGB"
       id="filter4375-4-1-7-87"
       inkscape:label="deevad outline effect">
      <feFlood
         id="feFlood4377-7-9-2-2"
         flood-opacity="1"
         flood-color="rgb(0,0,0)"
         result="flood" />
      <feComposite
         id="feComposite4379-3-8-5-82"
         in2="SourceGraphic"
         in="flood"
         operator="in"
         result="composite1" />
      <feMorphology
         id="feMorphology4393-1-0-4-99"
         operator="dilate"
         radius="4"
         result="result3" />
      <feComposite
         id="feComposite4385-9-5-2-60"
         in2="result3"
         in="SourceGraphic"
         operator="over"
         result="composite2" />
    </filter>
    <filter
       style="color-interpolation-filters:sRGB"
       id="filter4375-4-1-7-15"
       inkscape:label="deevad outline effect">
      <feFlood
         id="feFlood4377-7-9-2-99"
         flood-opacity="1"
         flood-color="rgb(0,0,0)"
         result="flood" />
      <feComposite
         id="feComposite4379-3-8-5-1"
         in2="SourceGraphic"
         in="flood"
         operator="in"
         result="composite1" />
      <feMorphology
         id="feMorphology4393-1-0-4-49"
         operator="dilate"
         radius="4"
         result="result3" />
      <feComposite
         id="feComposite4385-9-5-2-10"
         in2="result3"
         in="SourceGraphic"
         operator="over"
         result="composite2" />
    </filter>
    <filter
       style="color-interpolation-filters:sRGB"
       id="filter4375-4-1-7-0"
       inkscape:label="deevad outline effect">
      <feFlood
         id="feFlood4377-7-9-2-48"
         flood-opacity="1"
         flood-color="rgb(0,0,0)"
         result="flood" />
      <feComposite
         id="feComposite4379-3-8-5-04"
         in2="SourceGraphic"
         in="flood"
         operator="in"
         result="composite1" />
      <feMorphology
         id="feMorphology4393-1-0-4-2"
         operator="dilate"
         radius="4"
         result="result3" />
      <feComposite
         id="feComposite4385-9-5-2-9"
         in2="result3"
         in="SourceGraphic"
         operator="over"
         result="composite2" />
    </filter>
    <filter
       style="color-interpolation-filters:sRGB"
       id="filter4375-4-1-7-2"
       inkscape:label="deevad outline effect">
      <feFlood
         id="feFlood4377-7-9-2-22"
         flood-opacity="1"
         flood-color="rgb(0,0,0)"
         result="flood" />
      <feComposite
         id="feComposite4379-3-8-5-05"
         in2="SourceGraphic"
         in="flood"
         operator="in"
         result="composite1" />
      <feMorphology
         id="feMorphology4393-1-0-4-52"
         operator="dilate"
         radius="4"
         result="result3" />
      <feComposite
         id="feComposite4385-9-5-2-90"
         in2="result3"
         in="SourceGraphic"
         operator="over"
         result="composite2" />
    </filter>
    <filter
       style="color-interpolation-filters:sRGB"
       id="filter4375-4-1-7-04"
       inkscape:label="deevad outline effect">
      <feFlood
         id="feFlood4377-7-9-2-0"
         flood-opacity="1"
         flood-color="rgb(0,0,0)"
         result="flood" />
      <feComposite
         id="feComposite4379-3-8-5-9"
         in2="SourceGraphic"
         in="flood"
         operator="in"
         result="composite1" />
      <feMorphology
         id="feMorphology4393-1-0-4-1"
         operator="dilate"
         radius="4"
         result="result3" />
      <feComposite
         id="feComposite4385-9-5-2-96"
         in2="result3"
         in="SourceGraphic"
         operator="over"
         result="composite2" />
    </filter>
    <filter
       style="color-interpolation-filters:sRGB"
       id="filter4375-4-1-7-36"
       inkscape:label="deevad outline effect">
      <feFlood
         id="feFlood4377-7-9-2-05"
         flood-opacity="1"
         flood-color="rgb(0,0,0)"
         result="flood" />
      <feComposite
         id="feComposite4379-3-8-5-02"
         in2="SourceGraphic"
         in="flood"
         operator="in"
         result="composite1" />
      <feMorphology
         id="feMorphology4393-1-0-4-94"
         operator="dilate"
         radius="4"
         result="result3" />
      <feComposite
         id="feComposite4385-9-5-2-35"
         in2="result3"
         in="SourceGraphic"
         operator="over"
         result="composite2" />
    </filter>
  </defs>
  <sodipodi:namedview
     pagecolor="#ffffff"
     bordercolor="#666666"
     borderopacity="1"
     objecttolerance="10"
     gridtolerance="10"
     guidetolerance="10"
     inkscape:pageopacity="0"
     inkscape:pageshadow="2"
     inkscape:window-width="960"
     inkscape:window-height="1022"
     id="namedview4"
     showgrid="false"
     inkscape:zoom="0.3959798"
     inkscape:cx="1048.8531"
     inkscape:cy="2494.7324"
     inkscape:window-x="0"
     inkscape:window-y="28"
     inkscape:window-maximized="0"
     inkscape:current-layer="layer1"
     showguides="true"
     inkscape:guide-bbox="true"
     inkscape:document-rotation="0">
    <sodipodi:guide
       orientation="0,1"
       position="262.49999,3074.9998"
       id="guide3937" />
  </sodipodi:namedview>
  <g
     inkscape:groupmode="layer"
     id="layer2"
     inkscape:label="artwork"
     sodipodi:insensitive="true"
     style="display:inline">
    <image
       sodipodi:absref="/home/cherry/Workspace/peppercarrot/webcomics/ep06_The-Potion-Contest/lang/gfx_Pepper-and-Carrot_by-David-Revoy_E06P04.png"
       xlink:href="../gfx_Pepper-and-Carrot_by-David-Revoy_E06P04.png"
       y="0"
       x="0"
       id="image10"
       height="3503"
       width="2481" />
  </g>
  <g
     inkscape:groupmode="layer"
     id="layer3"
     inkscape:label="speechbubbles" />
  <g
     inkscape:groupmode="layer"
     id="layer1"
     inkscape:label="txt">
    <path
       inkscape:connector-curvature="0"
       id="path5208-3-6"
       d="m 1510.9996,2175.8364 c 22.7984,-6.2071 53.9035,-14.714 84.2447,-14.0584 30.3413,0.6559 56.9309,9.067 78.4147,35.3288 24.8122,36.6399 50.2795,13.081 19.3552,-14.4214 -31.5522,-38.569 -72.4984,-50.884 -107.764,-51.6462 -35.2657,-0.7622 -67.8477,8.6184 -90.5081,14.7877 -55.1405,6.4013 -216.3127,102.3392 16.2575,30.0095 z"
       style="color:#000000;font-style:normal;font-variant:normal;font-weight:normal;font-stretch:normal;font-size:medium;line-height:normal;font-family:Sans;-inkscape-font-specification:Sans;text-indent:0;text-align:start;text-decoration:none;text-decoration-line:none;letter-spacing:normal;word-spacing:normal;text-transform:none;direction:ltr;block-progression:tb;writing-mode:lr-tb;baseline-shift:baseline;text-anchor:start;display:inline;overflow:visible;visibility:visible;fill:#ffffff;fill-opacity:1;fill-rule:nonzero;stroke:none;stroke-width:31.89999962;marker:none;enable-background:accumulate"
       sodipodi:nodetypes="csccscc" />
    <path
       inkscape:connector-curvature="0"
       id="path5208-3"
       d="m 945.68212,2343.1577 c 18.48539,-23.8118 53.55747,-56.3505 80.77608,-76.2754 27.2189,-19.925 58.3035,-23.7585 85.149,-3.827 32.8568,31.3448 40.4068,-10.6167 4.7881,-25.7165 -39.4266,-29.2719 -79.5138,-17.4646 -111.1501,5.694 -31.63624,23.1588 -57.90475,57.8622 -76.27818,81.53 -47.23693,46.2294 -169.21228,273.3942 16.7151,18.5949 z"
       style="font-size:medium;font-style:normal;font-variant:normal;font-weight:normal;font-stretch:normal;text-indent:0;text-align:start;text-decoration:none;line-height:normal;letter-spacing:normal;word-spacing:normal;text-transform:none;direction:ltr;block-progression:tb;writing-mode:lr-tb;text-anchor:start;baseline-shift:baseline;color:#000000;fill:#ffffff;fill-opacity:1;fill-rule:nonzero;stroke:none;stroke-width:31.89999962;marker:none;visibility:visible;display:inline;overflow:visible;enable-background:accumulate;font-family:Sans;-inkscape-font-specification:Sans"
       sodipodi:nodetypes="csccscc" />
    <path
       style="color:#000000;display:inline;overflow:visible;visibility:visible;fill:#ffffff;fill-opacity:1;fill-rule:nonzero;stroke:none;stroke-width:1px;marker:none;enable-background:accumulate"
       d="m 812.8891,2622.0058 c -61.26382,-6.5994 -151.11729,-28.0475 -168.47546,-68.4688 -17.35805,-40.4213 -13.2738,-90.7418 22.46345,-113.0148 35.73714,-22.273 97.00096,-41.2463 150.09627,-33.822 53.0953,7.4244 122.52763,34.6469 138.86465,72.5935 16.33701,37.9466 1.02103,118.7894 -67.39014,134.4628 -68.4113,15.6736 -75.55877,8.2493 -75.55877,8.2493 z"
       id="path3970"
       inkscape:connector-curvature="0" />
    <path
       style="color:#000000;display:inline;overflow:visible;visibility:visible;fill:#ffffff;fill-opacity:1;fill-rule:nonzero;stroke:none;stroke-width:1px;marker:none;enable-background:accumulate"
       d="m 818.53102,2091.2128 c -1.84703,26.9409 -9.88688,52.8977 -22.41937,71.7737 -10.59406,16.0795 -25.39767,25.3267 -40.24526,24.3082 -19.58439,-1.0733 -37.5715,-15.9638 -53.11499,-33.4618 -11.59129,-12.2928 -23.47548,-24.6703 -36.86391,-31.7267 -5.18531,-2.4084 -11.53021,-4.7873 -16.28954,0.6338 -2.84549,3.6271 -3.84412,10.1591 -3.13814,15.5104 9.43448,15.8621 18.86899,31.7242 28.30351,47.5864 21.89013,12.4319 44.7188,21.3748 67.96167,24.6781 17.41851,2.1213 35.85099,1.2426 51.75225,-11.2318 11.57383,-8.8982 20.17349,-25.9155 23.40192,-45.2702 3.61716,-20.4382 2.83845,-42.0962 0.65186,-62.8001 z"
       id="path4048"
       inkscape:connector-curvature="0" />
    <path
       style="color:#000000;display:inline;overflow:visible;visibility:visible;fill:#ffffff;fill-opacity:1;fill-rule:nonzero;stroke:none;stroke-width:1px;marker:none;enable-background:accumulate"
       d="m 487.74961,2128.1831 c 37.1537,-64.0285 230.49303,-69.7955 255.15044,-21.7142 24.65741,48.0814 45.02654,165.9579 10.72063,204.7332 -34.30598,38.7751 -245.50193,54.2852 -268.0152,-3.1021 -22.51328,-57.3874 -35.00962,-115.8885 2.14413,-179.9169 z"
       id="path4008-8"
       inkscape:connector-curvature="0"
       sodipodi:nodetypes="zsssz" />
    <path
       inkscape:connector-curvature="0"
       id="path5208"
       d="m 698.83755,1782.6244 c -29.35548,-11.9054 -69.44188,-28.1159 -100.30159,-51.5254 -30.85959,-23.4098 -50.68956,-50.5737 -48.79257,-89.0376 7.99925,-49.7764 -40.09716,-48.9694 -33.34663,-2.3422 -2.78576,56.4898 28.33791,97.7794 64.20609,124.9883 35.86804,27.2089 78.29042,43.7908 107.46823,55.6241 63.07215,36.101 318.52062,76.0964 10.76647,-37.7072 z"
       style="font-size:medium;font-style:normal;font-variant:normal;font-weight:normal;font-stretch:normal;text-indent:0;text-align:start;text-decoration:none;line-height:normal;letter-spacing:normal;word-spacing:normal;text-transform:none;direction:ltr;block-progression:tb;writing-mode:lr-tb;text-anchor:start;baseline-shift:baseline;color:#000000;fill:#ffffff;fill-opacity:1;fill-rule:nonzero;stroke:none;stroke-width:31.89999962;marker:none;visibility:visible;display:inline;overflow:visible;enable-background:accumulate;font-family:Sans;-inkscape-font-specification:Sans"
       sodipodi:nodetypes="csccscc" />
    <path
       style="color:#000000;fill:#ffffff;fill-opacity:1;fill-rule:nonzero;stroke:none;stroke-width:1px;marker:none;visibility:visible;display:inline;overflow:visible;enable-background:accumulate"
       d="m 1380.0517,1873.7848 c -51.4287,53.2544 -122.847,86.2056 -196.5922,91.7894 -66.3698,5.5593 -134.5787,-7.1349 -193.71546,-38.0251 -20.55354,-11.2495 -40.41416,-24.3883 -56.97689,-41.0648 -7.72516,-5.7683 -11.15252,-20.1711 1.14374,-22.7742 7.61944,-2.4443 15.70855,-1.6736 23.11764,0.9973 8.89759,2.5266 17.79518,5.0533 26.69277,7.5799 47.7086,34.5502 102.6963,59.4803 160.5544,70.9329 54.6408,10.4359 113.0432,5.712 163.41,-18.8692 26.6854,-12.7368 50.9952,-30.187 72.366,-50.5662 z"
       id="path3541"
       inkscape:connector-curvature="0" />
    <path
       style="fill:#ffffff;fill-opacity:1;stroke:none;stroke-width:16.7995;stroke-linecap:round;stroke-linejoin:miter;stroke-miterlimit:4;stroke-dasharray:16.7995, 16.7995;stroke-dashoffset:0;stroke-opacity:1"
       d="m 595.97496,1856.0787 c -7.07561,-84.3844 36.78034,-80.0314 73.99648,-97.1222 40.47506,-18.5873 382.20206,-22.7609 419.74716,23.5362 37.3695,46.0803 65.2607,127.3138 -48.8453,164.2639 -114.10623,36.95 -311.56603,24.4756 -343.36518,16.2937 -30.05223,-7.7324 -90.75351,-40.5711 -101.53316,-106.9716 z"
       id="path3659-7"
       inkscape:connector-curvature="0"
       sodipodi:nodetypes="cssssc" />
    <path
       style="fill:#ffffff;fill-opacity:1;stroke:none"
       d="m 177.21437,1685.0399 c -6.13236,-90.2333 31.87721,-85.5787 64.13212,-103.854 35.07938,-19.8756 331.25123,-24.3384 363.79132,25.1675 32.38781,49.2743 56.56091,136.1383 -42.33387,175.6495 -98.89489,39.5111 -270.03159,26.1721 -297.59165,17.4231 -26.04601,-8.2684 -78.65528,-43.3833 -87.99792,-114.3861 z"
       id="path3659"
       inkscape:connector-curvature="0"
       sodipodi:nodetypes="cssssc" />
    <path
       style="color:#000000;display:inline;overflow:visible;visibility:visible;fill:#ffffff;fill-opacity:1;fill-rule:nonzero;stroke:none;stroke-width:1px;marker:none;enable-background:accumulate"
       d="m 1748.2356,121.99596 c 14.4686,-74.76139 76.967,-74.959589 292.643,-71.930769 215.6762,3.028822 354.2189,8.830993 372.3361,14.258093 32.5551,9.752063 12.8361,77.786446 -9.2845,134.577806 -22.1209,56.79135 -120.0956,94.21155 -331.624,89.66828 -211.5286,-4.5434 -170.045,7.7054 -247.1042,-26.84354 -114.8914,-51.51065 -91.435,-64.96846 -76.9664,-139.72987 z"
       id="path4530-7-6-0"
       inkscape:connector-curvature="0"
       sodipodi:nodetypes="zsssssz" />
    <path
       style="color:#000000;display:inline;overflow:visible;visibility:visible;fill:#ffffff;fill-opacity:1;fill-rule:nonzero;stroke:none;stroke-width:1px;marker:none;enable-background:accumulate"
       d="m 1255.9322,137.79911 c 10.9242,-69.639366 58.112,-69.823986 220.9526,-67.002675 162.8408,2.821312 267.4439,8.225966 281.1228,13.281245 24.5799,9.083933 9.6916,72.45718 -7.01,125.35766 -16.7018,52.90047 -90.6751,87.75694 -250.3842,83.52494 -159.7092,-4.23212 -128.3881,7.17749 -186.5697,-25.00443 -86.7458,-47.98158 -69.0356,-60.51737 -58.1115,-130.15674 z"
       id="path4530-7-6"
       inkscape:connector-curvature="0"
       sodipodi:nodetypes="zsssssz" />
    <path
       style="color:#000000;display:inline;overflow:visible;visibility:visible;fill:#ffffff;fill-opacity:1;fill-rule:nonzero;stroke:none;stroke-width:1px;marker:none;enable-background:accumulate"
       d="m 826.22249,435.53402 c 25.90914,-14.7905 52.33148,-29.41822 6.21792,-67.06471 43.77204,9.67373 16.98295,-11.15288 6.24369,-25.04189 78.18403,27.41781 27.70644,-16.92424 8.50818,-43.82059 17.42333,10.70828 45.19827,40.90205 34.70824,-0.93284 5.53861,1.91823 12.05759,7.42204 14.79334,-0.91057 7.05905,5.74406 12.30171,7.21525 15.36512,3.55931 6.9407,10.45977 11.42309,13.21086 11.38094,1.77548 6.56113,8.61604 8.57839,5.64584 10.24304,1.77684 11.26282,18.50139 15.4617,13.2739 19.92038,8.91882 6.37716,11.1089 13.83067,8.58289 22.18746,-5.3893 8.57084,18.89586 17.76766,17.73541 27.3151,5.33415 2.8094,4.65418 5.3629,12.54772 9.1073,5.35452 3.7949,2.48252 7.592,8.85062 11.3816,2.66965 40.0513,24.42838 57.5018,3.73655 76.2367,-14.3906 10.4573,7.98213 17.9989,23.42438 35.8545,12.47747 1.6766,11.15604 11.2567,15.67591 27.8894,14.27461 -17.0524,13.48482 -17.9254,21.15186 21.6307,14.28158 -27.567,11.05799 -52.9706,22.11357 -10.2217,33.09323 -10.008,4.38908 -42.7351,-5.87309 -6.7995,46.50102 -25.5022,-11.53981 -48.6486,-14.51962 -55.742,32.24989 -13.7616,-12.28225 -28.9942,-18.35722 -40.9619,9.8808 -10.924,-13.2125 -26.1953,-10.02051 -34.1418,-3.53837 -2.16,-14.48133 -18.4176,-36.6761 -40.39654,3.62142 4.81384,-22.89575 1.13732,-59.35117 -24.46634,0.92134 -0.51482,-10.47917 10.00885,-67.48221 -61.45105,0.96264 8.89131,-45.87742 -14.83267,-19.16199 -33.57292,-3.53902 9.28029,-28.76809 -4.71391,-30.97641 -35.28646,-14.26636 23.57571,-27.33214 -0.6782,-19.76613 -15.9434,-18.75852 z"
       id="path3549-3-3"
       inkscape:connector-curvature="0"
       sodipodi:nodetypes="ccccccccccccccccccccccccccccc" />
    <path
       style="color:#000000;display:inline;overflow:visible;visibility:visible;fill:#ffffff;fill-opacity:1;fill-rule:nonzero;stroke:none;stroke-width:0.970019px;marker:none;enable-background:accumulate"
       d="m 799.98939,137.39289 c 10.11972,-94.443283 53.83278,-94.69366 204.68241,-90.867465 150.8497,3.826198 247.7502,11.155864 260.4218,18.011716 22.7699,12.319413 8.9779,98.264719 -6.4938,170.007119 -15.4719,71.74238 -83.9981,119.01391 -231.9468,113.27458 -147.94871,-5.73951 -181.44861,-4.66553 -204.35222,-19.26667 -43.51441,-27.74041 -32.43111,-96.71599 -22.31139,-191.15928 z"
       id="path4530-7"
       inkscape:connector-curvature="0"
       sodipodi:nodetypes="zsssssz" />
    <path
       style="color:#000000;display:inline;overflow:visible;visibility:visible;fill:#ffffff;fill-opacity:1;fill-rule:nonzero;stroke:none;stroke-width:1px;marker:none;enable-background:accumulate"
       d="M 80.159304,123.43256 C 95.58883,49.227398 162.23812,49.030674 392.23841,52.03696 c 230.00039,3.006286 377.74446,8.76529 397.06494,14.152011 34.71732,9.679504 13.6886,77.207719 -9.90108,133.576539 C 755.8123,256.13432 651.33051,293.2761 425.75321,288.76664 200.17587,284.25705 149.09859,285.10088 114.17747,273.6286 47.831072,251.83264 64.729777,197.63774 80.159304,123.43256 Z"
       id="path4530"
       inkscape:connector-curvature="0"
       sodipodi:nodetypes="zsssssz" />
    <path
       style="color:#000000;display:inline;overflow:visible;visibility:visible;fill:#ffffff;fill-opacity:1;fill-rule:nonzero;stroke:none;stroke-width:1px;marker:none;enable-background:accumulate"
       d="m 272.72249,274.06083 c 19.05266,13.73001 38.48268,27.3089 4.57244,62.25609 32.18838,-8.98011 12.48864,10.3532 4.59138,23.24636 57.4937,-25.45192 20.37432,15.71075 6.2566,40.67859 12.81249,-9.94048 33.23719,-37.96932 25.52318,0.86596 4.0729,-1.78069 8.86673,-6.88987 10.8785,0.84528 5.19098,-5.3322 9.04623,-6.69791 11.29895,-3.3041 5.10394,-9.70979 8.40013,-12.26363 8.36914,-1.64818 4.82481,-7.99826 6.30823,-5.24103 7.53236,-1.64944 8.28227,-17.17481 11.36997,-12.32214 14.64873,-8.27933 4.68953,-10.31237 10.17057,-7.96748 16.31586,5.00288 6.30268,-17.541 13.06569,-16.46376 20.08659,-4.95168 1.27409,-13.76768 5.17002,-27.55185 9.76839,1.13659 2.7906,-2.30452 4.55915,-20.43039 14.00021,9.73613 0.7875,-33.14629 33.58291,-21.79018 47.3599,-4.96277 -4.08312,-25.73135 2.9983,-37.44901 26.36607,-11.58282 1.23289,-10.35614 8.27781,-14.55193 20.5089,-13.2511 -12.53974,-12.51795 -13.1817,-19.63525 15.9064,-13.25758 -20.27171,-10.26512 -38.95271,-20.528 -7.51668,-30.7204 -7.35955,-4.07438 -31.42583,5.45198 -5.00013,-43.16684 -18.75333,10.71239 -35.77437,13.47854 -40.99062,-29.93753 -10.11981,11.40159 -21.32128,17.04098 -30.12181,-9.17234 -8.03317,12.26515 -19.26321,9.30203 -25.10672,3.28467 -1.58837,13.443 -13.54361,34.04637 -29.70615,-3.36176 3.53986,21.25409 0.83634,55.09561 -17.9917,-0.85528 -0.37858,9.7278 7.36014,62.64365 -45.18889,-0.89362 6.53835,42.58795 -10.90742,17.78805 -24.68831,3.28527 6.82438,26.70538 -3.46644,28.75536 -25.94839,13.24344 17.33673,25.37239 -0.49872,18.34888 -11.7242,17.41351 z"
       id="path3549-3-3-0"
       inkscape:connector-curvature="0"
       sodipodi:nodetypes="ccccccccccccccccccccccccccccc" />
    <path
       style="color:#000000;display:inline;overflow:visible;visibility:visible;fill:#ffffff;fill-opacity:1;fill-rule:nonzero;stroke:none;stroke-width:1px;marker:none;enable-background:accumulate"
       d="m 1348.5079,282.04832 c 21.0727,12.64497 42.5625,25.15001 5.0889,57.44239 35.5837,-8.32839 13.8134,9.53747 5.0888,21.44518 63.5534,-23.56099 22.5349,14.47103 6.9393,37.52905 14.1605,-9.18945 36.7278,-35.08025 28.2197,0.76596 4.5022,-1.64846 9.7997,-6.36931 12.0281,0.76588 5.7364,-4.92716 9.9982,-6.1924 12.4907,-3.0636 5.6379,-8.96657 9.2809,-11.32746 9.2524,-1.53176 5.3302,-7.38685 6.9718,-4.84447 8.3271,-1.53183 9.1479,-15.85923 12.5644,-11.38531 16.1917,-7.65896 5.1794,-9.52209 11.2406,-7.3654 18.0421,4.59535 6.9591,-16.19457 14.437,-15.20929 22.2057,-4.59535 2.2818,-3.9895 4.3539,-10.75363 7.4019,-4.59544 3.0842,-2.13016 6.1682,-7.58877 9.2525,-2.29771 32.5512,-20.96382 46.7494,-3.25564 61.9908,12.25438 8.4982,-6.84755 14.6223,-20.08274 29.145,-10.72255 1.3575,-9.55797 9.1445,-13.43888 22.6683,-12.25438 -13.8712,-11.53497 -14.5847,-18.1018 17.5796,-12.2544 -22.4187,-9.44608 -43.0785,-18.89216 -8.3272,-28.33825 -8.1392,-3.75018 -34.7426,5.07174 -5.5515,-39.82676 -20.7285,9.90946 -39.5461,12.48409 -45.3366,-27.57239 -11.1828,10.53423 -23.5644,15.75265 -33.3086,-8.42491 -8.8751,11.32839 -21.2931,8.60867 -27.7571,3.06359 -1.7489,12.40692 -14.956,31.43471 -32.8459,-3.06359 3.9252,19.60814 0.9542,50.83974 -19.8925,-0.76588 -0.4135,8.97705 8.1711,57.7964 -49.9629,-0.76596 7.2518,39.29059 -12.0502,16.42851 -27.2946,3.0636 7.5596,24.63418 -3.8172,26.53921 -28.6823,12.25439 19.1817,23.39049 -0.5415,16.93251 -12.9534,16.08395 z"
       id="path3549"
       inkscape:connector-curvature="0"
       sodipodi:nodetypes="ccccccccccccccccccccccccccccc" />
    <path
       style="color:#000000;display:inline;overflow:visible;visibility:visible;fill:#ffffff;fill-opacity:1;fill-rule:nonzero;stroke:none;stroke-width:1px;marker:none;enable-background:accumulate"
       d="m 2195.2001,383.71697 c -18.2279,-14.7905 -36.8166,-29.41822 -4.3745,-67.06471 -30.7948,9.67373 -11.948,-11.15288 -4.3926,-25.04189 -55.0047,27.41781 -19.4923,-16.92424 -5.9858,-43.82059 -12.2578,10.70828 -31.7982,40.90205 -24.4182,-0.93284 -3.8965,1.91823 -8.4828,7.42204 -10.4075,-0.91057 -4.9663,5.74406 -8.6546,7.21525 -10.8098,3.55931 -4.883,10.45977 -8.0364,13.21086 -8.0068,1.77548 -4.6159,8.61604 -6.0352,5.64584 -7.2062,1.77684 -7.9238,18.50139 -10.8778,13.2739 -14.0146,8.91882 -4.4865,11.1089 -9.7303,8.58289 -15.6095,-5.3893 -6.0298,18.89586 -12.5,17.73541 -19.2169,5.33415 -1.9765,4.65418 -3.7729,12.54772 -6.4073,5.35452 -2.6697,2.48252 -5.3412,8.85062 -8.0072,2.66965 -28.1773,24.42838 -40.4541,3.73655 -53.6347,-14.3906 -7.357,7.98213 -12.6627,23.42438 -25.2246,12.47747 -1.1795,11.15604 -7.9195,15.67591 -19.621,14.27461 11.9968,13.48482 12.611,21.15186 -15.2178,14.28158 19.3941,11.05799 37.2663,22.11357 7.1913,33.09323 7.0409,4.38908 30.0653,-5.87309 4.7837,46.50102 17.9414,-11.53981 34.2256,-14.51962 39.216,32.24989 9.6817,-12.28225 20.3982,-18.35722 28.8177,9.8808 7.6854,-13.2125 18.4293,-10.02051 24.0198,-3.53837 1.5196,-14.48133 12.9572,-36.6761 28.4201,3.62142 -3.3866,-22.89575 -0.8002,-59.35117 17.2127,0.92134 0.3622,-10.47917 -7.0415,-67.48221 43.2326,0.96264 -6.2553,-45.87742 10.4352,-19.16199 23.6195,-3.53902 -6.529,-28.76809 3.3163,-30.97641 24.8249,-14.26636 -16.5861,-27.33214 0.4772,-19.76613 11.2167,-18.75852 z"
       id="path3549-3"
       inkscape:connector-curvature="0"
       sodipodi:nodetypes="ccccccccccccccccccccccccccccc" />
    <flowRoot
       xml:space="preserve"
       id="flowRoot2987"
       style="font-style:normal;font-variant:normal;font-weight:normal;font-stretch:normal;line-height:0.01%;font-family:Lavi;-inkscape-font-specification:Lavi;text-align:center;letter-spacing:0px;word-spacing:0px;text-anchor:middle;fill:#000000;fill-opacity:1;stroke:none"
       transform="matrix(0.95842652,0,0,0.92639044,61.631114,-94.148029)"><flowRegion
         id="flowRegion2989"><rect
           id="rect2991"
           width="802.00476"
           height="222.0042"
           x="120.55251"
           y="265.53046"
           style="font-style:normal;font-variant:normal;font-weight:normal;font-stretch:normal;text-align:center;text-anchor:middle;font-family:Lavi;-inkscape-font-specification:Lavi" /></flowRegion><flowPara
         id="flowPara2995"
         style="font-size:48px;line-height:1.25;text-align:center;text-anchor:middle"> </flowPara></flowRoot>
    <flowRoot
       xml:space="preserve"
       id="flowRoot3095"
       style="font-style:normal;font-variant:normal;font-weight:normal;font-stretch:normal;line-height:0.01%;font-family:Arial;-inkscape-font-specification:Arial;letter-spacing:0px;word-spacing:0px;fill:#000000;fill-opacity:1;stroke:none;stroke-width:1px;stroke-linecap:butt;stroke-linejoin:miter;stroke-opacity:1"><flowRegion
         id="flowRegion3097"><rect
           id="rect3099"
           width="573.91302"
           height="178.26086"
           x="128.26086"
           y="263.86972" /></flowRegion><flowPara
         id="flowPara3101"
         style="font-size:12px;line-height:1.25"> </flowPara></flowRoot>
    <path
       style="color:#000000;fill:#ffffff;fill-opacity:1;fill-rule:nonzero;stroke:none;stroke-width:1px;marker:none;visibility:visible;display:inline;overflow:visible;enable-background:accumulate"
       d="m 780.28717,2580.2849 c -2.4049,47.1601 -60.1208,116.0864 -121.44397,107.924 73.34739,-26.3008 92.58602,-87.0647 87.77636,-101.5755 -4.80966,-14.5108 33.66761,-6.3485 33.66761,-6.3485 z"
       id="path3978"
       inkscape:connector-curvature="0" />
    <path
       style="color:#000000;fill:#ffffff;fill-opacity:1;fill-rule:nonzero;stroke:none;stroke-width:1px;marker:none;visibility:visible;display:inline;overflow:visible;enable-background:accumulate"
       d="m 1241.5645,2288.9702 c -89.6471,-6.0129 -257.29259,-17.8141 -282.69274,-54.6434 -25.39998,-36.8292 -26.33895,-123.015 18.07653,-150.5226 32.76741,-20.2937 197.82991,-14.3583 275.52411,-7.5937 77.694,6.7646 176.0064,-8.2423 199.9122,26.332 23.906,34.5746 32.7262,157.9958 -67.3796,172.2765 -100.1059,14.2808 -143.4405,14.1512 -143.4405,14.1512 z"
       id="path3970-7"
       inkscape:connector-curvature="0"
       sodipodi:nodetypes="csssssc" />
    <path
       style="color:#000000;display:inline;overflow:visible;visibility:visible;fill:#ffffff;fill-opacity:1;fill-rule:nonzero;stroke:none;stroke-width:1px;marker:none;enable-background:accumulate"
       d="m 1903.0311,2282.1238 c -86.3107,-5.7277 -212.8993,-24.3429 -237.354,-59.4251 -24.4547,-35.0822 -18.7006,-78.7562 31.6472,-98.0873 50.3477,-19.331 136.6584,-35.7983 211.461,-29.3546 74.8024,6.4438 172.621,30.0706 195.6371,63.005 23.0162,32.9344 1.4386,103.0991 -94.9414,116.7024 -96.3803,13.6033 -106.4499,7.1596 -106.4499,7.1596 z"
       id="path3970-7-9"
       inkscape:connector-curvature="0" />
    <flowRoot
       transform="translate(1489.4921,1890.9669)"
       style="font-style:normal;font-variant:normal;font-weight:normal;font-stretch:normal;line-height:0.01%;font-family:Lavi;-inkscape-font-specification:Lavi;text-align:center;letter-spacing:0px;word-spacing:0px;text-anchor:middle;fill:#000000;fill-opacity:1;stroke:none"
       id="flowRoot4212-3-7-9"
       xml:space="preserve"><flowRegion
         id="flowRegion4214-6-7-9"><rect
           style="font-style:normal;font-variant:normal;font-weight:normal;font-stretch:normal;text-align:center;text-anchor:middle;font-family:Lavi;-inkscape-font-specification:Lavi"
           y="265.53046"
           x="120.55251"
           height="310.73996"
           width="602.40173"
           id="rect4216-4-0-2" /></flowRegion><flowPara
         style="font-size:48px;line-height:1.25;text-align:center;text-anchor:middle"
         id="flowPara4358-6"> </flowPara></flowRoot>
    <flowRoot
       xml:space="preserve"
       id="flowRoot2987-7-9-9-7-0"
       style="font-style:normal;font-variant:normal;font-weight:normal;font-stretch:normal;line-height:0.01%;font-family:Lavi;-inkscape-font-specification:Lavi;letter-spacing:0px;word-spacing:0px;fill:#000000;fill-opacity:1;stroke:#000000;stroke-width:0.22858;stroke-miterlimit:1.5;stroke-dasharray:none;stroke-opacity:1;filter:url(#filter4375-4)"
       transform="matrix(1.4686232,-0.68197126,0,2.5917347,1329.2182,2643.0625)"><flowRegion
         id="flowRegion2989-4-5-8-7-41"
         style="stroke-width:5.40286"><rect
           id="rect2991-45-1-3-3-8"
           width="306.89008"
           height="67.94516"
           x="120.55251"
           y="265.53046"
           style="font-style:normal;font-variant:normal;font-weight:normal;font-stretch:normal;font-family:Lavi;-inkscape-font-specification:Lavi;fill:#000000;fill-opacity:1;stroke:#000000;stroke-width:0.2285798;stroke-miterlimit:1.5;stroke-dasharray:none;stroke-opacity:1" /></flowRegion><flowPara
         id="flowPara2995-4-1-5-0-7"
         style="font-style:normal;font-variant:normal;font-weight:normal;font-stretch:normal;font-size:48px;line-height:1.25;font-family:'Nanum Pen Script OTF';-inkscape-font-specification:'Nanum Pen Script OTF';letter-spacing:7.06853px;fill:#ffffff;fill-opacity:1;stroke:#ffffff;stroke-width:0.22858;stroke-linejoin:miter;stroke-miterlimit:1.5;stroke-dasharray:none;stroke-opacity:1">짝짝</flowPara></flowRoot>
    <flowRoot
       xml:space="preserve"
       id="flowRoot2987-7-9-9-7-0-3"
       style="font-style:normal;font-variant:normal;font-weight:normal;font-stretch:normal;line-height:0.01%;font-family:Lavi;-inkscape-font-specification:Lavi;letter-spacing:0px;word-spacing:0px;fill:#000000;fill-opacity:1;stroke:#000000;stroke-width:0.992362;stroke-miterlimit:4;stroke-dasharray:none;stroke-opacity:1;filter:url(#filter4375-4-1)"
       transform="matrix(1.2321131,-0.56757922,0,2.519627,1489.824,2666.5798)"><flowRegion
         id="flowRegion2989-4-5-8-7-41-7"
         style="stroke-width:5.40286"><rect
           id="rect2991-45-1-3-3-8-0"
           width="323.24509"
           height="62.009487"
           x="120.55251"
           y="265.53046"
           style="font-style:normal;font-variant:normal;font-weight:normal;font-stretch:normal;font-family:Lavi;-inkscape-font-specification:Lavi;fill:#000000;fill-opacity:1;stroke:#000000;stroke-width:0.99236238;stroke-miterlimit:4;stroke-dasharray:none;stroke-opacity:1" /></flowRegion><flowPara
         id="flowPara2995-4-1-5-0-7-2"
         style="font-style:normal;font-variant:normal;font-weight:normal;font-stretch:normal;font-size:48px;line-height:1.25;font-family:'Nanum Pen Script OTF';-inkscape-font-specification:'Nanum Pen Script OTF';letter-spacing:7.06853px;fill:#ffffff;fill-opacity:1;stroke:#ffffff;stroke-width:0.992362;stroke-linejoin:miter;stroke-miterlimit:4;stroke-dasharray:none;stroke-opacity:1">짝짝</flowPara></flowRoot>
    <flowRoot
       xml:space="preserve"
       id="flowRoot2987-7-9-9-7-0-3-0"
       style="font-style:normal;font-variant:normal;font-weight:normal;font-stretch:normal;line-height:0.01%;font-family:Lavi;-inkscape-font-specification:Lavi;letter-spacing:0px;word-spacing:0px;fill:#000000;fill-opacity:1;stroke:#000000;stroke-width:0.992362;stroke-miterlimit:4;stroke-dasharray:none;stroke-opacity:1;filter:url(#filter4375-4-1-4)"
       transform="matrix(1.2723639,-0.63053473,0,2.3432874,1332.6326,2619.9184)"><flowRegion
         id="flowRegion2989-4-5-8-7-41-7-6"
         style="stroke-width:5.40286"><rect
           id="rect2991-45-1-3-3-8-0-8"
           width="316.73358"
           height="56.892223"
           x="120.55251"
           y="265.53046"
           style="font-style:normal;font-variant:normal;font-weight:normal;font-stretch:normal;font-family:Lavi;-inkscape-font-specification:Lavi;fill:#000000;fill-opacity:1;stroke:#000000;stroke-width:0.99236238;stroke-miterlimit:4;stroke-dasharray:none;stroke-opacity:1" /></flowRegion><flowPara
         id="flowPara2995-4-1-5-0-7-2-9"
         style="font-style:normal;font-variant:normal;font-weight:normal;font-stretch:normal;font-size:48px;line-height:1.25;font-family:'Nanum Pen Script OTF';-inkscape-font-specification:'Nanum Pen Script OTF';letter-spacing:7.06853px;fill:#ffffff;fill-opacity:1;stroke:#ffffff;stroke-width:0.992362;stroke-linejoin:miter;stroke-miterlimit:4;stroke-dasharray:none;stroke-opacity:1">짝짝</flowPara></flowRoot>
    <flowRoot
       xml:space="preserve"
       id="flowRoot2987-7-9-9-7-0-3-5"
       style="font-style:normal;font-variant:normal;font-weight:normal;font-stretch:normal;line-height:0.01%;font-family:'Nanum Pen Script OTF';-inkscape-font-specification:'Nanum Pen Script OTF';letter-spacing:0px;word-spacing:0px;fill:#000000;fill-opacity:1;stroke:#000000;stroke-width:0.992362;stroke-miterlimit:4;stroke-dasharray:none;stroke-opacity:1;filter:url(#filter4375-4-1-7)"
       transform="matrix(1.1815592,-0.57429363,0,2.5277454,1613.3839,2613.2393)"
       inkscape:transform-center-x="379.15009"
       inkscape:transform-center-y="-219.39394"><flowRegion
         id="flowRegion2989-4-5-8-7-41-7-68"
         style="stroke-width:5.40286"><rect
           id="rect2991-45-1-3-3-8-0-3"
           width="323.24509"
           height="64.349487"
           x="120.55251"
           y="265.53046"
           style="font-style:normal;font-variant:normal;font-weight:normal;font-stretch:normal;font-family:'Nanum Pen Script OTF';-inkscape-font-specification:'Nanum Pen Script OTF';fill:#000000;fill-opacity:1;stroke:#000000;stroke-width:0.99236238;stroke-miterlimit:4;stroke-dasharray:none;stroke-opacity:1" /></flowRegion><flowPara
         id="flowPara2995-4-1-5-0-7-2-5"
         style="font-style:normal;font-variant:normal;font-weight:normal;font-stretch:normal;font-size:48px;line-height:1.25;font-family:'Nanum Pen Script OTF';-inkscape-font-specification:'Nanum Pen Script OTF';letter-spacing:7.06853px;fill:#ffffff;fill-opacity:1;stroke:#ffffff;stroke-width:0.992362;stroke-linejoin:miter;stroke-miterlimit:4;stroke-dasharray:none;stroke-opacity:1">짝짝</flowPara></flowRoot>
    <flowRoot
       xml:space="preserve"
       id="flowRoot2987-7-9-9-7-0-3-7"
       style="font-style:normal;font-variant:normal;font-weight:normal;font-stretch:normal;line-height:0.01%;font-family:Lavi;-inkscape-font-specification:Lavi;letter-spacing:0px;word-spacing:0px;fill:#000000;fill-opacity:1;stroke:#000000;stroke-width:0.992362;stroke-miterlimit:4;stroke-dasharray:none;stroke-opacity:1;filter:url(#filter4375-4-1-40)"
       transform="matrix(0.96499256,-0.45071976,0,2.1605191,1771.9827,2658.8641)"><flowRegion
         id="flowRegion2989-4-5-8-7-41-7-5"
         style="stroke-width:5.40286"><rect
           id="rect2991-45-1-3-3-8-0-5"
           width="324.07104"
           height="68.583199"
           x="120.55251"
           y="265.53046"
           style="font-style:normal;font-variant:normal;font-weight:normal;font-stretch:normal;font-family:Lavi;-inkscape-font-specification:Lavi;fill:#000000;fill-opacity:1;stroke:#000000;stroke-width:0.99236238;stroke-miterlimit:4;stroke-dasharray:none;stroke-opacity:1" /></flowRegion><flowPara
         id="flowPara2995-4-1-5-0-7-2-92"
         style="font-style:normal;font-variant:normal;font-weight:normal;font-stretch:normal;font-size:48px;line-height:1.25;font-family:'Nanum Pen Script OTF';-inkscape-font-specification:'Nanum Pen Script OTF';letter-spacing:7.06853px;fill:#ffffff;fill-opacity:1;stroke:#ffffff;stroke-width:0.992362;stroke-linejoin:miter;stroke-miterlimit:4;stroke-dasharray:none;stroke-opacity:1">짝짝</flowPara></flowRoot>
    <flowRoot
       xml:space="preserve"
       id="flowRoot2987-7-9-9-7-0-3-4-1-7"
       style="font-style:normal;font-variant:normal;font-weight:normal;font-stretch:normal;line-height:0.01%;font-family:Lavi;-inkscape-font-specification:Lavi;letter-spacing:0px;word-spacing:0px;fill:#000000;fill-opacity:1;stroke:#000000;stroke-width:0.992362;stroke-miterlimit:4;stroke-dasharray:none;stroke-opacity:1;filter:url(#filter4375-4-1-1-1-8)"
       transform="matrix(1.4459176,-0.70410995,0,2.6167187,1438.6701,2526.0503)"><flowRegion
         id="flowRegion2989-4-5-8-7-41-7-62-2-4"
         style="stroke-width:5.40286"><rect
           id="rect2991-45-1-3-3-8-0-4-6-7"
           width="319.66232"
           height="58.910675"
           x="120.55251"
           y="265.53046"
           style="font-style:normal;font-variant:normal;font-weight:normal;font-stretch:normal;font-family:Lavi;-inkscape-font-specification:Lavi;fill:#000000;fill-opacity:1;stroke:#000000;stroke-width:0.99236238;stroke-miterlimit:4;stroke-dasharray:none;stroke-opacity:1" /></flowRegion><flowPara
         id="flowPara2995-4-1-5-0-7-2-6-4-2"
         style="font-style:normal;font-variant:normal;font-weight:normal;font-stretch:normal;font-size:48px;line-height:1.25;font-family:'Nanum Pen Script OTF';-inkscape-font-specification:'Nanum Pen Script OTF';letter-spacing:7.06853px;fill:#ffffff;fill-opacity:1;stroke:#ffffff;stroke-width:0.992362;stroke-linejoin:miter;stroke-miterlimit:4;stroke-dasharray:none;stroke-opacity:1">짝짝</flowPara></flowRoot>
    <flowRoot
       xml:space="preserve"
       id="flowRoot2987-7-9-9-7-0-3-5-8"
       style="font-style:normal;font-variant:normal;font-weight:normal;font-stretch:normal;line-height:0.01%;font-family:'Nanum Pen Script OTF';-inkscape-font-specification:'Nanum Pen Script OTF';letter-spacing:0px;word-spacing:0px;fill:#000000;fill-opacity:1;stroke:#000000;stroke-width:0.992362;stroke-miterlimit:4;stroke-dasharray:none;stroke-opacity:1;filter:url(#filter4375-4-1-7-1)"
       transform="matrix(1.4542174,-0.40696179,0,3.1110508,1645.0115,2499.3066)"
       inkscape:transform-center-x="466.64325"
       inkscape:transform-center-y="-366.2425"><flowRegion
         id="flowRegion2989-4-5-8-7-41-7-68-0"
         style="stroke-width:5.40286"><rect
           id="rect2991-45-1-3-3-8-0-3-5"
           width="323.24509"
           height="64.349487"
           x="120.55251"
           y="265.53046"
           style="font-style:normal;font-variant:normal;font-weight:normal;font-stretch:normal;font-family:'Nanum Pen Script OTF';-inkscape-font-specification:'Nanum Pen Script OTF';fill:#000000;fill-opacity:1;stroke:#000000;stroke-width:0.99236238;stroke-miterlimit:4;stroke-dasharray:none;stroke-opacity:1" /></flowRegion><flowPara
         id="flowPara2995-4-1-5-0-7-2-5-6"
         style="font-style:normal;font-variant:normal;font-weight:normal;font-stretch:normal;font-size:48px;line-height:1.25;font-family:'Nanum Pen Script OTF';-inkscape-font-specification:'Nanum Pen Script OTF';letter-spacing:7.06853px;fill:#ffffff;fill-opacity:1;stroke:#ffffff;stroke-width:0.992362;stroke-linejoin:miter;stroke-miterlimit:4;stroke-dasharray:none;stroke-opacity:1">짝짝</flowPara></flowRoot>
    <flowRoot
       xml:space="preserve"
       id="flowRoot2987-7-9-9-7-0-3-5-26"
       style="font-style:normal;font-variant:normal;font-weight:normal;font-stretch:normal;line-height:0.01%;font-family:'Nanum Pen Script OTF';-inkscape-font-specification:'Nanum Pen Script OTF';letter-spacing:0px;word-spacing:0px;fill:#000000;fill-opacity:1;stroke:#000000;stroke-width:0.992362;stroke-miterlimit:4;stroke-dasharray:none;stroke-opacity:1;filter:url(#filter4375-4-1-7-6)"
       transform="matrix(0.96265296,-0.55415466,0,2.0594324,1854.429,2749.6293)"
       inkscape:transform-center-x="308.90533"
       inkscape:transform-center-y="-151.06722"><flowRegion
         id="flowRegion2989-4-5-8-7-41-7-68-7"
         style="stroke-width:5.40286"><rect
           id="rect2991-45-1-3-3-8-0-3-56"
           width="323.24509"
           height="64.349487"
           x="120.55251"
           y="265.53046"
           style="font-style:normal;font-variant:normal;font-weight:normal;font-stretch:normal;font-family:'Nanum Pen Script OTF';-inkscape-font-specification:'Nanum Pen Script OTF';fill:#000000;fill-opacity:1;stroke:#000000;stroke-width:0.99236238;stroke-miterlimit:4;stroke-dasharray:none;stroke-opacity:1" /></flowRegion><flowPara
         id="flowPara2995-4-1-5-0-7-2-5-9"
         style="font-style:normal;font-variant:normal;font-weight:normal;font-stretch:normal;font-size:48px;line-height:1.25;font-family:'Nanum Pen Script OTF';-inkscape-font-specification:'Nanum Pen Script OTF';letter-spacing:7.06853px;fill:#ffffff;fill-opacity:1;stroke:#ffffff;stroke-width:0.992362;stroke-linejoin:miter;stroke-miterlimit:4;stroke-dasharray:none;stroke-opacity:1">짝짝</flowPara></flowRoot>
    <flowRoot
       xml:space="preserve"
       id="flowRoot2987-7-9-9-7-0-3-5-7"
       style="font-style:normal;font-variant:normal;font-weight:normal;font-stretch:normal;line-height:0.01%;font-family:'Nanum Pen Script OTF';-inkscape-font-specification:'Nanum Pen Script OTF';letter-spacing:0px;word-spacing:0px;fill:#000000;fill-opacity:1;stroke:#000000;stroke-width:0.992362;stroke-miterlimit:4;stroke-dasharray:none;stroke-opacity:1;filter:url(#filter4375-4-1-7-15)"
       transform="matrix(1.0287523,-0.48164996,0,2.2008407,1994.9134,2637.2793)"
       inkscape:transform-center-x="330.11597"
       inkscape:transform-center-y="-196.91599"><flowRegion
         id="flowRegion2989-4-5-8-7-41-7-68-5"
         style="stroke-width:5.40286"><rect
           id="rect2991-45-1-3-3-8-0-3-8"
           width="323.24509"
           height="64.349487"
           x="120.55251"
           y="265.53046"
           style="font-style:normal;font-variant:normal;font-weight:normal;font-stretch:normal;font-family:'Nanum Pen Script OTF';-inkscape-font-specification:'Nanum Pen Script OTF';fill:#000000;fill-opacity:1;stroke:#000000;stroke-width:0.99236238;stroke-miterlimit:4;stroke-dasharray:none;stroke-opacity:1" /></flowRegion><flowPara
         id="flowPara2995-4-1-5-0-7-2-5-7"
         style="font-style:normal;font-variant:normal;font-weight:normal;font-stretch:normal;font-size:48px;line-height:1.25;font-family:'Nanum Pen Script OTF';-inkscape-font-specification:'Nanum Pen Script OTF';letter-spacing:7.06853px;fill:#ffffff;fill-opacity:1;stroke:#ffffff;stroke-width:0.992362;stroke-linejoin:miter;stroke-miterlimit:4;stroke-dasharray:none;stroke-opacity:1">짝짝</flowPara></flowRoot>
    <flowRoot
       xml:space="preserve"
       id="flowRoot2987-7-9-9-7-0-3-5-27"
       style="font-style:normal;font-variant:normal;font-weight:normal;font-stretch:normal;line-height:0.01%;font-family:'Nanum Pen Script OTF';-inkscape-font-specification:'Nanum Pen Script OTF';letter-spacing:0px;word-spacing:0px;fill:#000000;fill-opacity:1;stroke:#000000;stroke-width:0.992362;stroke-miterlimit:4;stroke-dasharray:none;stroke-opacity:1;filter:url(#filter4375-4-1-7-87)"
       transform="matrix(1.2343948,-0.57792936,0,2.6407777,1828.6108,2663.2688)"
       inkscape:transform-center-x="396.10437"
       inkscape:transform-center-y="-236.27858"><flowRegion
         id="flowRegion2989-4-5-8-7-41-7-68-6"
         style="stroke-width:5.40286"><rect
           id="rect2991-45-1-3-3-8-0-3-1"
           width="323.24509"
           height="64.349487"
           x="120.55251"
           y="265.53046"
           style="font-style:normal;font-variant:normal;font-weight:normal;font-stretch:normal;font-family:'Nanum Pen Script OTF';-inkscape-font-specification:'Nanum Pen Script OTF';fill:#000000;fill-opacity:1;stroke:#000000;stroke-width:0.99236238;stroke-miterlimit:4;stroke-dasharray:none;stroke-opacity:1" /></flowRegion><flowPara
         id="flowPara2995-4-1-5-0-7-2-5-32"
         style="font-style:normal;font-variant:normal;font-weight:normal;font-stretch:normal;font-size:48px;line-height:1.25;font-family:'Nanum Pen Script OTF';-inkscape-font-specification:'Nanum Pen Script OTF';letter-spacing:7.06853px;fill:#ffffff;fill-opacity:1;stroke:#ffffff;stroke-width:0.992362;stroke-linejoin:miter;stroke-miterlimit:4;stroke-dasharray:none;stroke-opacity:1">짝짝</flowPara></flowRoot>
    <flowRoot
       xml:space="preserve"
       id="flowRoot2987-7-9-9-7-0-3-5-6"
       style="font-style:normal;font-variant:normal;font-weight:normal;font-stretch:normal;line-height:0.01%;font-family:'Nanum Pen Script OTF';-inkscape-font-specification:'Nanum Pen Script OTF';letter-spacing:0px;word-spacing:0px;fill:#000000;fill-opacity:1;stroke:#000000;stroke-width:0.992362;stroke-miterlimit:4;stroke-dasharray:none;stroke-opacity:1;filter:url(#filter4375-4-1-7-0)"
       transform="matrix(0.94862216,-0.44413395,0,2.0294159,1979.6438,2799.3283)"
       inkscape:transform-center-x="304.40295"
       inkscape:transform-center-y="-181.57803"><flowRegion
         id="flowRegion2989-4-5-8-7-41-7-68-1"
         style="stroke-width:5.40286"><rect
           id="rect2991-45-1-3-3-8-0-3-0"
           width="323.24509"
           height="64.349487"
           x="120.55251"
           y="265.53046"
           style="font-style:normal;font-variant:normal;font-weight:normal;font-stretch:normal;font-family:'Nanum Pen Script OTF';-inkscape-font-specification:'Nanum Pen Script OTF';fill:#000000;fill-opacity:1;stroke:#000000;stroke-width:0.99236238;stroke-miterlimit:4;stroke-dasharray:none;stroke-opacity:1" /></flowRegion><flowPara
         id="flowPara2995-4-1-5-0-7-2-5-4"
         style="font-style:normal;font-variant:normal;font-weight:normal;font-stretch:normal;font-size:48px;line-height:1.25;font-family:'Nanum Pen Script OTF';-inkscape-font-specification:'Nanum Pen Script OTF';letter-spacing:7.06853px;fill:#ffffff;fill-opacity:1;stroke:#ffffff;stroke-width:0.992362;stroke-linejoin:miter;stroke-miterlimit:4;stroke-dasharray:none;stroke-opacity:1">짝짝</flowPara></flowRoot>
    <flowRoot
       xml:space="preserve"
       id="flowRoot2987-7-9-9-7-0-3-5-25"
       style="font-style:normal;font-variant:normal;font-weight:normal;font-stretch:normal;line-height:0.01%;font-family:'Nanum Pen Script OTF';-inkscape-font-specification:'Nanum Pen Script OTF';letter-spacing:0px;word-spacing:0px;fill:#000000;fill-opacity:1;stroke:#000000;stroke-width:0.992362;stroke-miterlimit:4;stroke-dasharray:none;stroke-opacity:1;filter:url(#filter4375-4-1-7-04)"
       transform="matrix(1.0358909,-0.57260596,0,2.541716,2121.7351,2534.1647)"
       inkscape:transform-center-x="332.40658"
       inkscape:transform-center-y="-222.16667"><flowRegion
         id="flowRegion2989-4-5-8-7-41-7-68-4"
         style="stroke-width:5.40286"><rect
           id="rect2991-45-1-3-3-8-0-3-4"
           width="323.24509"
           height="64.349487"
           x="120.55251"
           y="265.53046"
           style="font-style:normal;font-variant:normal;font-weight:normal;font-stretch:normal;font-family:'Nanum Pen Script OTF';-inkscape-font-specification:'Nanum Pen Script OTF';fill:#000000;fill-opacity:1;stroke:#000000;stroke-width:0.99236238;stroke-miterlimit:4;stroke-dasharray:none;stroke-opacity:1" /></flowRegion><flowPara
         id="flowPara2995-4-1-5-0-7-2-5-99"
         style="font-style:normal;font-variant:normal;font-weight:normal;font-stretch:normal;font-size:48px;line-height:1.25;font-family:'Nanum Pen Script OTF';-inkscape-font-specification:'Nanum Pen Script OTF';letter-spacing:7.06853px;fill:#ffffff;fill-opacity:1;stroke:#ffffff;stroke-width:0.992362;stroke-linejoin:miter;stroke-miterlimit:4;stroke-dasharray:none;stroke-opacity:1">짝짝</flowPara></flowRoot>
    <flowRoot
       xml:space="preserve"
       id="flowRoot2987-7-9-9-7-0-3-5-1"
       style="font-style:normal;font-variant:normal;font-weight:normal;font-stretch:normal;line-height:0.01%;font-family:'Nanum Pen Script OTF';-inkscape-font-specification:'Nanum Pen Script OTF';letter-spacing:0px;word-spacing:0px;fill:#000000;fill-opacity:1;stroke:#000000;stroke-width:0.992362;stroke-miterlimit:4;stroke-dasharray:none;stroke-opacity:1;filter:url(#filter4375-4-1-7-36)"
       transform="matrix(0.97197105,-0.44218878,0,2.031512,2164.8397,2752.7479)"
       inkscape:transform-center-x="311.89538"
       inkscape:transform-center-y="-182.53707"><flowRegion
         id="flowRegion2989-4-5-8-7-41-7-68-74"
         style="stroke-width:5.40286"><rect
           id="rect2991-45-1-3-3-8-0-3-31"
           width="323.24509"
           height="64.349487"
           x="120.55251"
           y="265.53046"
           style="font-style:normal;font-variant:normal;font-weight:normal;font-stretch:normal;font-family:'Nanum Pen Script OTF';-inkscape-font-specification:'Nanum Pen Script OTF';fill:#000000;fill-opacity:1;stroke:#000000;stroke-width:0.99236238;stroke-miterlimit:4;stroke-dasharray:none;stroke-opacity:1" /></flowRegion><flowPara
         id="flowPara2995-4-1-5-0-7-2-5-46"
         style="font-style:normal;font-variant:normal;font-weight:normal;font-stretch:normal;font-size:48px;line-height:1.25;font-family:'Nanum Pen Script OTF';-inkscape-font-specification:'Nanum Pen Script OTF';letter-spacing:7.06853px;fill:#ffffff;fill-opacity:1;stroke:#ffffff;stroke-width:0.992362;stroke-linejoin:miter;stroke-miterlimit:4;stroke-dasharray:none;stroke-opacity:1">짝짝</flowPara></flowRoot>
    <flowRoot
       xml:space="preserve"
       id="flowRoot2987-7-9-9-7-0-3-5-2"
       style="font-style:normal;font-variant:normal;font-weight:normal;font-stretch:normal;line-height:0.01%;font-family:'Nanum Pen Script OTF';-inkscape-font-specification:'Nanum Pen Script OTF';letter-spacing:0px;word-spacing:0px;fill:#000000;fill-opacity:1;stroke:#000000;stroke-width:0.992362;stroke-miterlimit:4;stroke-dasharray:none;stroke-opacity:1;filter:url(#filter4375-4-1-7-2)"
       transform="matrix(1.3725268,-0.63840349,0,2.9206877,2021.4809,2523.71)"
       inkscape:transform-center-x="440.42948"
       inkscape:transform-center-y="-261.57449"><flowRegion
         id="flowRegion2989-4-5-8-7-41-7-68-8"
         style="stroke-width:5.40286"><rect
           id="rect2991-45-1-3-3-8-0-3-3"
           width="323.24509"
           height="64.349487"
           x="120.55251"
           y="265.53046"
           style="font-style:normal;font-variant:normal;font-weight:normal;font-stretch:normal;font-family:'Nanum Pen Script OTF';-inkscape-font-specification:'Nanum Pen Script OTF';fill:#000000;fill-opacity:1;stroke:#000000;stroke-width:0.99236238;stroke-miterlimit:4;stroke-dasharray:none;stroke-opacity:1" /></flowRegion><flowPara
         id="flowPara2995-4-1-5-0-7-2-5-8"
         style="font-style:normal;font-variant:normal;font-weight:normal;font-stretch:normal;font-size:48px;line-height:1.25;font-family:'Nanum Pen Script OTF';-inkscape-font-specification:'Nanum Pen Script OTF';letter-spacing:7.06853px;fill:#ffffff;fill-opacity:1;stroke:#ffffff;stroke-width:0.992362;stroke-linejoin:miter;stroke-miterlimit:4;stroke-dasharray:none;stroke-opacity:1">짝짝</flowPara></flowRoot>
    <flowRoot
       xml:space="preserve"
       id="flowRoot296"
       style="font-style:normal;font-variant:normal;font-weight:normal;font-stretch:normal;line-height:1.25;font-family:'Xiaolai SC';-inkscape-font-specification:'Xiaolai SC';text-align:start;letter-spacing:0px;word-spacing:0px;text-anchor:start;fill:#000000;fill-opacity:1;stroke:none"
       transform="matrix(1.0722809,0,0,1.0722809,-31.488235,-160.64535)"><flowRegion
         id="flowRegion290"
         style="font-style:normal;font-variant:normal;font-weight:normal;font-stretch:normal;font-family:'Xiaolai SC';-inkscape-font-specification:'Xiaolai SC'"><rect
           id="rect288"
           width="613.05389"
           height="260.30518"
           x="120.55251"
           y="265.53046"
           style="font-style:normal;font-variant:normal;font-weight:normal;font-stretch:normal;font-family:'Xiaolai SC';-inkscape-font-specification:'Xiaolai SC';text-align:start;text-anchor:start;" /></flowRegion><flowPara
         style="font-style:normal;font-variant:normal;font-weight:normal;font-stretch:normal;font-size:48px;font-family:'Xiaolai SC';-inkscape-font-specification:'Xiaolai SC';text-align:center;text-anchor:middle"
         id="flowPara292">偉大한技術者聯合에서 온,</flowPara><flowPara
         style="font-style:normal;font-variant:normal;font-weight:normal;font-stretch:normal;font-size:48px;font-family:'Xiaolai SC';-inkscape-font-specification:'Xiaolai SC';text-align:center;text-anchor:middle"
         id="flowPara294">魅惑的이고天才的인</flowPara></flowRoot>
    <flowRoot
       xml:space="preserve"
       id="flowRoot308"
       style="font-style:normal;font-variant:normal;font-weight:normal;font-stretch:normal;line-height:1.25;font-family:'Xiaolai SC';-inkscape-font-specification:'Xiaolai SC';text-align:center;letter-spacing:0px;word-spacing:0px;text-anchor:middle;fill:#000000;fill-opacity:1;stroke:none"
       transform="matrix(1.0038617,0,0,1.0038617,676.45528,-144.35455)"><flowRegion
         id="flowRegion300"
         style="font-style:normal;font-variant:normal;font-weight:normal;font-stretch:normal;font-family:'Xiaolai SC';-inkscape-font-specification:'Xiaolai SC'"><rect
           id="rect298"
           width="429.35825"
           height="477.69647"
           x="120.55251"
           y="265.53046"
           style="font-style:normal;font-variant:normal;font-weight:normal;font-stretch:normal;font-family:'Xiaolai SC';-inkscape-font-specification:'Xiaolai SC';text-align:center;text-anchor:middle;" /></flowRegion><flowPara
         style="font-style:normal;font-variant:normal;font-weight:normal;font-stretch:normal;font-size:48px;font-family:'Xiaolai SC';-inkscape-font-specification:'Xiaolai SC';text-align:center;text-anchor:middle"
         id="flowPara302">...우리</flowPara><flowPara
         style="font-style:normal;font-variant:normal;font-weight:normal;font-stretch:normal;font-size:48px;font-family:'Xiaolai SC';-inkscape-font-specification:'Xiaolai SC';text-align:center;text-anchor:middle"
         id="flowPara304">코모나市의魔女도</flowPara><flowPara
         style="font-style:normal;font-variant:normal;font-weight:normal;font-stretch:normal;font-size:48px;font-family:'Xiaolai SC';-inkscape-font-specification:'Xiaolai SC';text-align:center;text-anchor:middle"
         id="flowPara306">잊지 않았겠죠,</flowPara></flowRoot>
    <flowRoot
       xml:space="preserve"
       id="flowRoot318"
       style="font-style:normal;font-variant:normal;font-weight:normal;font-stretch:normal;line-height:1.25;font-family:'Xiaolai SC';-inkscape-font-specification:'Xiaolai SC';text-align:center;letter-spacing:0px;word-spacing:0px;text-anchor:middle;fill:#000000;fill-opacity:1;stroke:none"
       transform="matrix(1.0312119,0,0,1.0312119,1115.3295,-151.48455)"><flowRegion
         id="flowRegion312"
         style="font-style:normal;font-variant:normal;font-weight:normal;font-stretch:normal;font-family:'Xiaolai SC';-inkscape-font-specification:'Xiaolai SC'"><rect
           id="rect310"
           width="482.4017"
           height="380.73993"
           x="120.55251"
           y="265.53046"
           style="font-style:normal;font-variant:normal;font-weight:normal;font-stretch:normal;font-family:'Xiaolai SC';-inkscape-font-specification:'Xiaolai SC';text-align:center;text-anchor:middle;" /></flowRegion><flowPara
         style="font-style:normal;font-variant:normal;font-weight:normal;font-stretch:normal;font-size:48px;font-family:'Xiaolai SC';-inkscape-font-specification:'Xiaolai SC';text-align:center;text-anchor:middle"
         id="flowPara314">...세번째參加者는</flowPara><flowPara
         style="font-style:normal;font-variant:normal;font-weight:normal;font-stretch:normal;font-size:48px;font-family:'Xiaolai SC';-inkscape-font-specification:'Xiaolai SC';text-align:center;text-anchor:middle"
         id="flowPara422">落月地에서 온</flowPara></flowRoot>
    <flowRoot
       xml:space="preserve"
       id="flowRoot328"
       style="font-style:normal;font-variant:normal;font-weight:normal;font-stretch:normal;line-height:1.25;font-family:'Xiaolai SC';-inkscape-font-specification:'Xiaolai SC';text-align:center;letter-spacing:0px;word-spacing:0px;text-anchor:middle;fill:#000000;fill-opacity:1;stroke:none"
       transform="matrix(1.0658584,0,0,1.0658584,1650.3496,-173.28359)"><flowRegion
         id="flowRegion322"
         style="font-style:normal;font-variant:normal;font-weight:normal;font-stretch:normal;font-family:'Xiaolai SC';-inkscape-font-specification:'Xiaolai SC'"><rect
           id="rect320"
           width="557.40173"
           height="438.23993"
           x="120.55251"
           y="265.53046"
           style="font-style:normal;font-variant:normal;font-weight:normal;font-stretch:normal;font-family:'Xiaolai SC';-inkscape-font-specification:'Xiaolai SC';text-align:center;text-anchor:middle;" /></flowRegion><flowPara
         style="font-style:normal;font-variant:normal;font-weight:normal;font-stretch:normal;font-size:48px;font-family:'Xiaolai SC';-inkscape-font-specification:'Xiaolai SC';text-align:center;text-anchor:middle"
         id="flowPara324">...그리고 마지막參加者,</flowPara><flowPara
         style="font-style:normal;font-variant:normal;font-weight:normal;font-stretch:normal;font-size:48px;font-family:'Xiaolai SC';-inkscape-font-specification:'Xiaolai SC';text-align:center;text-anchor:middle"
         id="flowPara424">栗鼠尾林에서 온</flowPara></flowRoot>
    <flowRoot
       transform="matrix(1.2715957,0,0,1.2971043,-97.068449,-58.128854)"
       style="font-style:normal;font-variant:normal;font-weight:normal;font-stretch:normal;line-height:1.25;font-family:'Xiaolai SC';-inkscape-font-specification:'Xiaolai SC';text-align:center;letter-spacing:0px;word-spacing:0px;text-anchor:middle;fill:#000000;fill-opacity:1;stroke:#000000;stroke-width:1.50473;stroke-miterlimit:4;stroke-dasharray:none;stroke-opacity:1"
       id="flowRoot336"
       xml:space="preserve"><flowRegion
         id="flowRegion332"
         style="font-style:normal;font-variant:normal;font-weight:normal;font-stretch:normal;font-family:'Xiaolai SC';-inkscape-font-specification:'Xiaolai SC';stroke-width:1.50473"><rect
           style="font-style:normal;font-variant:normal;font-weight:normal;font-stretch:normal;font-family:'Xiaolai SC';-inkscape-font-specification:'Xiaolai SC';text-align:center;text-anchor:middle;stroke:#000000;stroke-width:1.50473308;stroke-miterlimit:4;stroke-dasharray:none;stroke-opacity:1;"
           y="265.53046"
           x="120.55251"
           height="191.17474"
           width="541.5321"
           id="rect330" /></flowRegion><flowPara
         id="flowPara334"
         style="font-style:normal;font-variant:normal;font-weight:normal;font-stretch:normal;font-size:48px;font-family:'Xiaolai SC';-inkscape-font-specification:'Xiaolai SC';text-align:center;text-anchor:middle;stroke:#000000;stroke-width:1.50473;stroke-miterlimit:4;stroke-dasharray:none;stroke-opacity:1">고수!</flowPara></flowRoot>
    <flowRoot
       transform="matrix(1.4796329,0,0,1.4857575,426.56464,-52.997799)"
       style="font-style:normal;font-variant:normal;font-weight:normal;font-stretch:normal;line-height:1.25;font-family:'Xiaolai SC';-inkscape-font-specification:'Xiaolai SC';text-align:center;letter-spacing:0px;word-spacing:0px;text-anchor:middle;fill:#000000;fill-opacity:1;stroke:#000000;stroke-width:0.688435;stroke-miterlimit:4;stroke-dasharray:none;stroke-opacity:1"
       id="flowRoot344"
       xml:space="preserve"><flowRegion
         id="flowRegion340"
         style="font-style:normal;font-variant:normal;font-weight:normal;font-stretch:normal;font-family:'Xiaolai SC';-inkscape-font-specification:'Xiaolai SC'"><rect
           style="font-style:normal;font-variant:normal;font-weight:normal;font-stretch:normal;font-family:'Xiaolai SC';-inkscape-font-specification:'Xiaolai SC';text-align:center;text-anchor:middle;stroke:#000000;stroke-width:0.68843514;stroke-miterlimit:4;stroke-dasharray:none;stroke-opacity:1;"
           y="265.53046"
           x="120.55251"
           height="191.17474"
           width="541.5321"
           id="rect338" /></flowRegion><flowPara
         id="flowPara342"
         style="font-style:normal;font-variant:normal;font-weight:normal;font-stretch:normal;font-size:48px;font-family:'Xiaolai SC';-inkscape-font-specification:'Xiaolai SC';text-align:center;text-anchor:middle;stroke:#000000;stroke-width:0.688435;stroke-miterlimit:4;stroke-dasharray:none;stroke-opacity:1">사프란!</flowPara></flowRoot>
    <flowRoot
       transform="matrix(1.3379724,0,0,1.3845132,970.00258,-83.30005)"
       style="font-style:normal;font-variant:normal;font-weight:normal;font-stretch:normal;line-height:1.25;font-family:'Xiaolai SC';-inkscape-font-specification:'Xiaolai SC';text-align:center;letter-spacing:0px;word-spacing:0px;text-anchor:middle;fill:#000000;fill-opacity:1;stroke:#000000;stroke-width:0.688435;stroke-miterlimit:4;stroke-dasharray:none;stroke-opacity:1"
       id="flowRoot352"
       xml:space="preserve"><flowRegion
         id="flowRegion348"
         style="font-style:normal;font-variant:normal;font-weight:normal;font-stretch:normal;font-family:'Xiaolai SC';-inkscape-font-specification:'Xiaolai SC'"><rect
           style="font-style:normal;font-variant:normal;font-weight:normal;font-stretch:normal;font-family:'Xiaolai SC';-inkscape-font-specification:'Xiaolai SC';text-align:center;text-anchor:middle;stroke:#000000;stroke-width:0.68843514;stroke-miterlimit:4;stroke-dasharray:none;stroke-opacity:1;"
           y="265.53046"
           x="120.55251"
           height="191.17474"
           width="541.5321"
           id="rect346" /></flowRegion><flowPara
         id="flowPara350"
         style="font-style:normal;font-variant:normal;font-weight:normal;font-stretch:normal;font-size:48px;font-family:'Xiaolai SC';-inkscape-font-specification:'Xiaolai SC';text-align:center;text-anchor:middle;stroke:#000000;stroke-width:0.688435;stroke-miterlimit:4;stroke-dasharray:none;stroke-opacity:1">七味!</flowPara></flowRoot>
    <flowRoot
       transform="matrix(1.3500923,0,0,1.487756,1539.5289,-103.29251)"
       style="font-style:normal;font-variant:normal;font-weight:normal;font-stretch:normal;line-height:1.25;font-family:'Xiaolai SC';-inkscape-font-specification:'Xiaolai SC';text-align:center;letter-spacing:0px;word-spacing:0px;text-anchor:middle;fill:#000000;fill-opacity:1;stroke:#000000;stroke-width:0.688435;stroke-miterlimit:4;stroke-dasharray:none;stroke-opacity:1"
       id="flowRoot360"
       xml:space="preserve"><flowRegion
         id="flowRegion356"
         style="font-style:normal;font-variant:normal;font-weight:normal;font-stretch:normal;font-family:'Xiaolai SC';-inkscape-font-specification:'Xiaolai SC'"><rect
           style="font-style:normal;font-variant:normal;font-weight:normal;font-stretch:normal;font-family:'Xiaolai SC';-inkscape-font-specification:'Xiaolai SC';text-align:center;text-anchor:middle;stroke:#000000;stroke-width:0.68843514;stroke-miterlimit:4;stroke-dasharray:none;stroke-opacity:1;"
           y="265.53046"
           x="120.55251"
           height="191.17474"
           width="541.5321"
           id="rect354" /></flowRegion><flowPara
         id="flowPara358"
         style="font-style:normal;font-variant:normal;font-weight:normal;font-stretch:normal;font-size:48px;font-family:'Xiaolai SC';-inkscape-font-specification:'Xiaolai SC';text-align:center;text-anchor:middle;stroke:#000000;stroke-width:0.688435;stroke-miterlimit:4;stroke-dasharray:none;stroke-opacity:1">후추!</flowPara></flowRoot>
    <flowRoot
       xml:space="preserve"
       id="flowRoot370"
       style="font-style:normal;font-variant:normal;font-weight:normal;font-stretch:normal;line-height:1.25;font-family:'Xiaolai SC';-inkscape-font-specification:'Xiaolai SC';text-align:center;letter-spacing:0px;word-spacing:0px;text-anchor:middle;fill:#000000;fill-opacity:1;stroke:none"
       transform="matrix(1.0466618,0,0,1.0466618,-34.4295,1343.336)"><flowRegion
         id="flowRegion364"
         style="font-style:normal;font-variant:normal;font-weight:normal;font-stretch:normal;font-family:'Xiaolai SC';-inkscape-font-specification:'Xiaolai SC'"><rect
           id="rect362"
           width="602.40173"
           height="310.73996"
           x="120.55251"
           y="265.53046"
           style="font-style:normal;font-variant:normal;font-weight:normal;font-stretch:normal;font-family:'Xiaolai SC';-inkscape-font-specification:'Xiaolai SC';text-align:center;text-anchor:middle;" /></flowRegion><flowPara
         style="font-style:normal;font-variant:normal;font-weight:normal;font-stretch:normal;font-size:48px;font-family:'Xiaolai SC';-inkscape-font-specification:'Xiaolai SC';text-align:center;text-anchor:middle"
         id="flowPara366">이제 大會를</flowPara><flowPara
         style="font-style:normal;font-variant:normal;font-weight:normal;font-stretch:normal;font-size:48px;font-family:'Xiaolai SC';-inkscape-font-specification:'Xiaolai SC';text-align:center;text-anchor:middle"
         id="flowPara368">始作하겠습니다!</flowPara></flowRoot>
    <flowRoot
       xml:space="preserve"
       id="flowRoot380"
       style="font-style:normal;font-variant:normal;font-weight:normal;font-stretch:normal;line-height:1.25;font-family:'Xiaolai SC';-inkscape-font-specification:'Xiaolai SC';text-align:center;letter-spacing:0px;word-spacing:0px;text-anchor:middle;fill:#000000;fill-opacity:1;stroke:none"
       transform="matrix(0.93459756,0,0,1.005198,477.1868,1500.3338)"><flowRegion
         id="flowRegion374"
         style="font-style:normal;font-variant:normal;font-weight:normal;font-stretch:normal;font-family:'Xiaolai SC';-inkscape-font-specification:'Xiaolai SC'"><rect
           id="rect372"
           width="574.81952"
           height="183.9639"
           x="120.55251"
           y="265.53046"
           style="font-style:normal;font-variant:normal;font-weight:normal;font-stretch:normal;font-family:'Xiaolai SC';-inkscape-font-specification:'Xiaolai SC';text-align:center;text-anchor:middle" /></flowRegion><flowPara
         style="font-style:normal;font-variant:normal;font-weight:normal;font-stretch:normal;font-size:48px;font-family:'Xiaolai SC';-inkscape-font-specification:'Xiaolai SC';text-align:center;text-anchor:middle"
         id="flowPara376">拍手喝采를</flowPara><flowPara
         style="font-style:normal;font-variant:normal;font-weight:normal;font-stretch:normal;font-size:48px;font-family:'Xiaolai SC';-inkscape-font-specification:'Xiaolai SC';text-align:center;text-anchor:middle"
         id="flowPara378">第一 많이 받은參加者가</flowPara><flowPara
         style="font-style:normal;font-variant:normal;font-weight:normal;font-stretch:normal;font-size:48px;font-family:'Xiaolai SC';-inkscape-font-specification:'Xiaolai SC';text-align:center;text-anchor:middle"
         id="flowPara434">優勝합니다</flowPara></flowRoot>
    <flowRoot
       transform="matrix(0.9828632,0,0,0.9828632,204.14421,1859.2189)"
       style="font-style:normal;font-variant:normal;font-weight:normal;font-stretch:normal;line-height:1.25;font-family:'Xiaolai SC';-inkscape-font-specification:'Xiaolai SC';text-align:center;letter-spacing:0px;word-spacing:0px;text-anchor:middle;fill:#000000;fill-opacity:1;stroke:none"
       id="flowRoot392"
       xml:space="preserve"><flowRegion
         id="flowRegion384"
         style="font-style:normal;font-variant:normal;font-weight:normal;font-stretch:normal;font-family:'Xiaolai SC';-inkscape-font-specification:'Xiaolai SC'"><rect
           style="font-style:normal;font-variant:normal;font-weight:normal;font-stretch:normal;font-family:'Xiaolai SC';-inkscape-font-specification:'Xiaolai SC';text-align:center;text-anchor:middle;"
           y="265.53046"
           x="120.55251"
           height="310.73996"
           width="602.40173"
           id="rect382" /></flowRegion><flowPara
         style="font-style:normal;font-variant:normal;font-weight:normal;font-stretch:normal;font-size:48px;font-family:'Xiaolai SC';-inkscape-font-specification:'Xiaolai SC';text-align:center;text-anchor:middle"
         id="flowPara386">먼저,</flowPara><flowPara
         style="font-style:normal;font-variant:normal;font-weight:normal;font-stretch:normal;font-size:48px;font-family:'Xiaolai SC';-inkscape-font-specification:'Xiaolai SC';text-align:center;text-anchor:middle"
         id="flowPara388">고수氏의</flowPara><flowPara
         style="font-style:normal;font-variant:normal;font-weight:normal;font-stretch:normal;font-size:48px;font-family:'Xiaolai SC';-inkscape-font-specification:'Xiaolai SC';text-align:center;text-anchor:middle"
         id="flowPara390">試演입니다.</flowPara></flowRoot>
    <flowRoot
       transform="matrix(0.92962208,0,0,0.95507737,814.84188,1880.5764)"
       style="font-style:normal;font-variant:normal;font-weight:normal;font-stretch:normal;line-height:1.25;font-family:'Xiaolai SC';-inkscape-font-specification:'Xiaolai SC';text-align:center;letter-spacing:0px;word-spacing:0px;text-anchor:middle;fill:#000000;fill-opacity:1;stroke:none"
       id="flowRoot402"
       xml:space="preserve"><flowRegion
         id="flowRegion396"
         style="font-style:normal;font-variant:normal;font-weight:normal;font-stretch:normal;font-family:'Xiaolai SC';-inkscape-font-specification:'Xiaolai SC'"><rect
           style="font-style:normal;font-variant:normal;font-weight:normal;font-stretch:normal;font-family:'Xiaolai SC';-inkscape-font-specification:'Xiaolai SC';text-align:center;text-anchor:middle;"
           y="265.53046"
           x="120.55251"
           height="310.73996"
           width="602.40173"
           id="rect394" /></flowRegion><flowPara
         style="font-style:normal;font-variant:normal;font-weight:normal;font-stretch:normal;font-size:48px;font-family:'Xiaolai SC';-inkscape-font-specification:'Xiaolai SC';text-align:center;text-anchor:middle"
         id="flowPara398">... 죽음이여 물렀거라,</flowPara><flowPara
         style="font-style:normal;font-variant:normal;font-weight:normal;font-stretch:normal;font-size:48px;font-family:'Xiaolai SC';-inkscape-font-specification:'Xiaolai SC';text-align:center;text-anchor:middle"
         id="flowPara400">紹介합니다...</flowPara></flowRoot>
    <flowRoot
       transform="matrix(0.95892977,0,-0.23363273,1.4464144,1453.8965,1760.2015)"
       style="font-style:normal;font-variant:normal;font-weight:normal;font-stretch:normal;line-height:1.25;font-family:'Xiaolai SC';-inkscape-font-specification:'Xiaolai SC';text-align:center;letter-spacing:0px;word-spacing:0px;text-anchor:middle;fill:#000000;fill-opacity:1;stroke:#000000;stroke-width:1.89656;stroke-miterlimit:4;stroke-dasharray:none;stroke-opacity:1"
       id="flowRoot410"
       xml:space="preserve"><flowRegion
         id="flowRegion406"
         style="font-style:normal;font-variant:normal;font-weight:normal;font-stretch:normal;font-family:'Xiaolai SC';-inkscape-font-specification:'Xiaolai SC';stroke-width:1.89656"><rect
           style="font-style:normal;font-variant:normal;font-weight:normal;font-stretch:normal;font-family:'Xiaolai SC';-inkscape-font-specification:'Xiaolai SC';text-align:center;text-anchor:middle;stroke:#000000;stroke-width:1.89655595;stroke-miterlimit:4;stroke-dasharray:none;stroke-opacity:1;"
           y="265.53046"
           x="120.55251"
           height="355.03918"
           width="798.1947"
           id="rect404" /></flowRegion><flowPara
         style="font-style:normal;font-variant:normal;font-weight:normal;font-stretch:normal;font-size:48px;font-family:'Xiaolai SC';-inkscape-font-specification:'Xiaolai SC';text-align:center;letter-spacing:5.20896px;text-anchor:middle;stroke:#000000;stroke-width:1.89656;stroke-miterlimit:4;stroke-dasharray:none;stroke-opacity:1"
         id="flowPara408"><flowSpan
   style="fill:#000000;fill-opacity:1;stroke:none"
   id="flowSpan1259">...</flowSpan>좀비의 물藥!</flowPara></flowRoot>
    <flowRoot
       transform="matrix(1.1644093,0,0,1.1748271,304.72072,2134.364)"
       style="font-style:normal;font-variant:normal;font-weight:normal;font-stretch:normal;line-height:1.25;font-family:'Xiaolai SC';-inkscape-font-specification:'Xiaolai SC';text-align:center;letter-spacing:0px;word-spacing:0px;text-anchor:middle;fill:#000000;fill-opacity:1;stroke:none"
       id="flowRoot420"
       xml:space="preserve"><flowRegion
         id="flowRegion414"
         style="font-style:normal;font-variant:normal;font-weight:normal;font-stretch:normal;font-family:'Xiaolai SC';-inkscape-font-specification:'Xiaolai SC'"><rect
           style="font-style:normal;font-variant:normal;font-weight:normal;font-stretch:normal;font-family:'Xiaolai SC';-inkscape-font-specification:'Xiaolai SC';text-align:center;text-anchor:middle;"
           y="265.53046"
           x="120.55251"
           height="310.73996"
           width="602.40173"
           id="rect412" /></flowRegion><flowPara
         style="font-style:normal;font-variant:normal;font-weight:normal;font-stretch:normal;font-size:48px;font-family:'Xiaolai SC';-inkscape-font-specification:'Xiaolai SC';text-align:center;text-anchor:middle"
         id="flowPara416">紳士淑女</flowPara><flowPara
         style="font-style:normal;font-variant:normal;font-weight:normal;font-stretch:normal;font-size:48px;font-family:'Xiaolai SC';-inkscape-font-specification:'Xiaolai SC';text-align:center;text-anchor:middle"
         id="flowPara418">여러분...</flowPara></flowRoot>
  </g>
</svg>
