<?xml version="1.0" encoding="UTF-8" standalone="no"?>
<!-- Created with Inkscape (http://www.inkscape.org/) -->

<svg
   xmlns:dc="http://purl.org/dc/elements/1.1/"
   xmlns:cc="http://creativecommons.org/ns#"
   xmlns:rdf="http://www.w3.org/1999/02/22-rdf-syntax-ns#"
   xmlns:svg="http://www.w3.org/2000/svg"
   xmlns="http://www.w3.org/2000/svg"
   xmlns:xlink="http://www.w3.org/1999/xlink"
   xmlns:sodipodi="http://sodipodi.sourceforge.net/DTD/sodipodi-0.dtd"
   xmlns:inkscape="http://www.inkscape.org/namespaces/inkscape"
   id="svg2"
   version="1.1"
   inkscape:version="0.92.2 (5c3e80d, 2017-08-06)"
   width="2481"
   height="3503"
   sodipodi:docname="Pepper-and-Carrot_by-David-Revoy_E15P04.svg">
  <metadata
     id="metadata8">
    <rdf:RDF>
      <cc:Work
         rdf:about="">
        <dc:format>image/svg+xml</dc:format>
        <dc:type
           rdf:resource="http://purl.org/dc/dcmitype/StillImage" />
        <dc:title />
      </cc:Work>
    </rdf:RDF>
  </metadata>
  <defs
     id="defs6">
    <filter
       inkscape:collect="always"
       style="color-interpolation-filters:sRGB"
       id="filter859"
       x="-0.01095532"
       width="1.0219106"
       y="-0.013171281"
       height="1.0263426">
      <feGaussianBlur
         inkscape:collect="always"
         stdDeviation="0.78202241"
         id="feGaussianBlur861" />
    </filter>
    <filter
       inkscape:collect="always"
       style="color-interpolation-filters:sRGB"
       id="filter867"
       x="-0.01090475"
       width="1.0218095"
       y="-0.012919174"
       height="1.0258383">
      <feGaussianBlur
         inkscape:collect="always"
         stdDeviation="0.35121698"
         id="feGaussianBlur869" />
    </filter>
  </defs>
  <sodipodi:namedview
     pagecolor="#ffffff"
     bordercolor="#666666"
     borderopacity="1"
     objecttolerance="10"
     gridtolerance="10"
     guidetolerance="10"
     inkscape:pageopacity="0"
     inkscape:pageshadow="2"
     inkscape:window-width="1366"
     inkscape:window-height="705"
     id="namedview4"
     showgrid="false"
     inkscape:zoom="0.30074964"
     inkscape:cx="873.77782"
     inkscape:cy="980.88788"
     inkscape:window-x="-8"
     inkscape:window-y="-8"
     inkscape:window-maximized="1"
     inkscape:current-layer="layer1" />
  <g
     inkscape:groupmode="layer"
     id="layer2"
     inkscape:label="artwork"
     sodipodi:insensitive="true">
    <image
       sodipodi:absref="E:\Users\jamesmichael\Downloads\Compressed\eps\peppercarrot_ep15_translation-master\peppercarrot_ep15_translation-master\ph\../gfx_Pepper-and-Carrot_by-David-Revoy_E15P04.png"
       xlink:href="../gfx_Pepper-and-Carrot_by-David-Revoy_E15P04.png"
       y="0"
       x="0"
       id="image10"
       height="3503"
       width="2481" />
  </g>
  <g
     inkscape:groupmode="layer"
     id="layer3"
     inkscape:label="speechbubbles" />
  <g
     inkscape:groupmode="layer"
     id="layer1"
     inkscape:label="txt">
    <text
       xml:space="preserve"
       style="font-style:normal;font-weight:normal;font-size:114.882164px;line-height:1.25;font-family:sans-serif;letter-spacing:0px;word-spacing:0px;opacity:0.881;fill:#ffffff;fill-opacity:1;stroke:none;stroke-width:2.8720541;filter:url(#filter859)"
       x="402.24796"
       y="1605.1754"
       id="text817"
       transform="matrix(1.0182186,-0.28464827,0.08397413,0.95863198,110.50394,86.99246)"><tspan
         sodipodi:role="line"
         id="tspan815"
         x="402.24796"
         y="1605.1754"
         style="fill:#ffffff;stroke-width:2.8720541"> <tspan
   style="font-size:93.33333588px;fill:#ffffff"
   id="tspan821">♫</tspan><tspan
   style="font-size:133.33332825px;fill:#ffffff"
   id="tspan819">♪</tspan></tspan></text>
    <text
       xml:space="preserve"
       style="font-style:normal;font-weight:normal;font-size:106.47268677px;line-height:1.25;font-family:sans-serif;letter-spacing:0px;word-spacing:0px;opacity:0.73400005;fill:#ffffff;fill-opacity:1;stroke:none;stroke-width:1.10909045;filter:url(#filter867)"
       x="-1172.582"
       y="1608.6782"
       id="text825"
       transform="matrix(-1.9480655,0,0.50635425,1.5836879,-1285.7782,-1030.4387)"><tspan
         sodipodi:role="line"
         id="tspan823"
         x="-1172.582"
         y="1608.6782"
         style="fill:#ffffff;stroke-width:1.10909045">♥</tspan></text>
    <text
       xml:space="preserve"
       style="font-style:normal;font-variant:normal;font-weight:normal;font-stretch:normal;font-size:69.55302429px;line-height:1.25;font-family:'Drukaatie burti';-inkscape-font-specification:'Drukaatie burti';letter-spacing:0px;word-spacing:0px;fill:#ffffff;fill-opacity:1;stroke:none;stroke-width:1.73882556"
       x="2355.0688"
       y="2710.98"
       id="text829"
       transform="skewX(-16.108149)"><tspan
         sodipodi:role="line"
         id="tspan827"
         x="2355.0688"
         y="2710.98"
         style="stroke-width:1.73882556">meaow!</tspan></text>
    <text
       xml:space="preserve"
       style="font-style:normal;font-weight:normal;font-size:40px;line-height:1.25;font-family:sans-serif;letter-spacing:0px;word-spacing:0px;fill:#ffffff;fill-opacity:1;stroke:none"
       x="2665.8376"
       y="2563.8081"
       id="text833"
       transform="matrix(0.92288889,0.38506636,-0.62089687,0.82449091,0,0)"><tspan
         sodipodi:role="line"
         id="tspan831"
         x="2665.8376"
         y="2563.8081">click!</tspan></text>
    <text
       id="text837"
       y="1662.3597"
       x="3147.3159"
       style="font-style:normal;font-weight:normal;font-size:40px;line-height:1.25;font-family:sans-serif;letter-spacing:0px;word-spacing:0px;fill:#ffffff;fill-opacity:1;stroke:none"
       xml:space="preserve"
       transform="matrix(0.73846197,0.67429513,-0.86299809,0.56615588,0,0)"><tspan
         y="1662.3597"
         x="3147.3159"
         id="tspan835"
         sodipodi:role="line">click!</tspan></text>
  </g>
</svg>
