<?xml version="1.0" encoding="UTF-8" standalone="no"?>
<svg
   xmlns:dc="http://purl.org/dc/elements/1.1/"
   xmlns:cc="http://creativecommons.org/ns#"
   xmlns:rdf="http://www.w3.org/1999/02/22-rdf-syntax-ns#"
   xmlns:svg="http://www.w3.org/2000/svg"
   xmlns="http://www.w3.org/2000/svg"
   xmlns:xlink="http://www.w3.org/1999/xlink"
   xmlns:sodipodi="http://sodipodi.sourceforge.net/DTD/sodipodi-0.dtd"
   xmlns:inkscape="http://www.inkscape.org/namespaces/inkscape"
   sodipodi:docname="E35P12.svg"
   height="3503"
   width="2481"
   inkscape:version="1.0.1 (3bc2e813f5, 2020-09-07)"
   version="1.1"
   id="svg2">
  <metadata
     id="metadata8">
    <rdf:RDF>
      <cc:Work
         rdf:about="">
        <dc:format>image/svg+xml</dc:format>
        <dc:type
           rdf:resource="http://purl.org/dc/dcmitype/StillImage" />
        <dc:title />
      </cc:Work>
    </rdf:RDF>
  </metadata>
  <defs
     id="defs6" />
  <sodipodi:namedview
     inkscape:pagecheckerboard="0"
     inkscape:document-rotation="0"
     inkscape:current-layer="layer3"
     inkscape:window-maximized="1"
     inkscape:window-y="27"
     inkscape:window-x="72"
     inkscape:cy="1491.2628"
     inkscape:cx="1265.5611"
     inkscape:zoom="0.49469369"
     showgrid="false"
     id="namedview4"
     inkscape:window-height="1016"
     inkscape:window-width="1848"
     inkscape:pageshadow="2"
     inkscape:pageopacity="0"
     guidetolerance="10"
     gridtolerance="10"
     objecttolerance="10"
     borderopacity="1"
     bordercolor="#666666"
     pagecolor="#ffffff" />
  <g
     sodipodi:insensitive="true"
     inkscape:label="artwork"
     id="layer2"
     inkscape:groupmode="layer">
    <image
       sodipodi:absref="/home/emmiline/Documents/git/webcomics/ep35_The-Reflection/lang/gfx_Pepper-and-Carrot_by-David-Revoy_E35P12.png"
       xlink:href="../gfx_Pepper-and-Carrot_by-David-Revoy_E35P12.png"
       width="2481"
       height="3503"
       id="image10"
       x="0"
       y="0" />
  </g>
  <g
     inkscape:label="speechbubbles"
     id="layer3"
     inkscape:groupmode="layer">
    <rect
       y="865.21362"
       x="196.06126"
       height="154.91502"
       width="293.91602"
       id="rect1254"
       style="color:#000000;font-variation-settings:normal;overflow:visible;opacity:1;vector-effect:none;fill:#ffffff;fill-opacity:1;stroke-width:0;stroke-linecap:round;stroke-linejoin:miter;stroke-miterlimit:4;stroke-dasharray:none;stroke-dashoffset:0;stroke-opacity:1;paint-order:stroke fill markers;stop-color:#000000;stop-opacity:1" />
    <rect
       y="1804.7479"
       x="1142.806"
       height="208.88817"
       width="382.57297"
       id="rect1256"
       style="color:#000000;font-variation-settings:normal;overflow:visible;opacity:1;vector-effect:none;fill:#ffffff;fill-opacity:1;stroke-width:0;stroke-linecap:round;stroke-linejoin:miter;stroke-miterlimit:4;stroke-dasharray:none;stroke-dashoffset:0;stroke-opacity:1;paint-order:stroke fill markers;stop-color:#000000;stop-opacity:1" />
    <rect
       y="888.93719"
       x="1634.1818"
       height="130.19362"
       width="349.26062"
       id="rect1256-3"
       style="color:#000000;font-variation-settings:normal;overflow:visible;opacity:1;vector-effect:none;fill:#ffffff;fill-opacity:1;stroke-width:0;stroke-linecap:round;stroke-linejoin:miter;stroke-miterlimit:4;stroke-dasharray:none;stroke-dashoffset:0;stroke-opacity:1;paint-order:stroke fill markers;stop-color:#000000" />
  </g>
  <g
     inkscape:label="txt"
     id="layer1"
     inkscape:groupmode="layer">
    <text
       id="text4246-3-2-2"
       y="935.68262"
       x="344.936"
       style="font-style:normal;font-variant:normal;font-weight:normal;font-stretch:normal;font-size:45px;line-height:1.25;font-family:Lavi;-inkscape-font-specification:Lavi;text-align:center;letter-spacing:0px;word-spacing:0px;text-anchor:middle;fill:#000000;fill-opacity:1;stroke:none"
       xml:space="preserve"><tspan
         y="935.68262"
         x="344.936"
         sodipodi:role="line"
         style="font-size:45px"
         id="tspan33">Uanset risici</tspan><tspan
         y="991.93262"
         x="344.936"
         sodipodi:role="line"
         style="font-size:45px"
         id="tspan35">og farer...</tspan></text>
    <text
       id="text4246-3-2-2-1"
       y="1872.3959"
       x="1331.5509"
       style="font-style:normal;font-variant:normal;font-weight:normal;font-stretch:normal;font-size:45px;line-height:1.25;font-family:Lavi;-inkscape-font-specification:Lavi;text-align:center;letter-spacing:0px;word-spacing:0px;text-anchor:middle;fill:#000000;fill-opacity:1;stroke:none"
       xml:space="preserve"><tspan
         id="tspan867"
         y="1872.3959"
         x="1331.5509"
         sodipodi:role="line"
         style="font-size:45px">...vil jeg fra nu af</tspan><tspan
         y="1928.6459"
         x="1331.5509"
         sodipodi:role="line"
         style="font-size:45px"
         id="tspan34">forblive tro</tspan><tspan
         y="1984.8959"
         x="1331.5509"
         sodipodi:role="line"
         style="font-size:45px"
         id="tspan30">mod mig selv.</tspan></text>
    <text
       id="text4246-3-2-2-1-6"
       y="968.28711"
       x="1806.0106"
       style="font-style:normal;font-variant:normal;font-weight:normal;font-stretch:normal;font-size:45px;line-height:1.25;font-family:Lavi;-inkscape-font-specification:Lavi;text-align:center;letter-spacing:0px;word-spacing:0px;text-anchor:middle;fill:#000000;fill-opacity:1;stroke:none"
       xml:space="preserve"><tspan
         id="tspan864-5"
         y="968.28711"
         x="1806.0106"
         sodipodi:role="line"
         style="font-size:45px">Det lover jeg!</tspan></text>
    <text
       transform="matrix(0.91327378,0,-0.07872707,1.0949619,0,0)"
       id="text4246-3-2-2-6-3-8"
       y="3167.2151"
       x="2741.9949"
       style="font-style:normal;font-variant:normal;font-weight:normal;font-stretch:normal;font-size:46.9748px;line-height:1.25;font-family:Lavi;-inkscape-font-specification:Lavi;text-align:center;letter-spacing:0px;word-spacing:0px;text-anchor:middle;fill:#000000;fill-opacity:1;stroke:none;stroke-width:1.04388"
       xml:space="preserve"><tspan
         y="3167.2151"
         x="2741.9949"
         id="tspan1097-2-6-7"
         sodipodi:role="line"
         style="font-style:normal;font-variant:normal;font-weight:bold;font-stretch:normal;font-size:46.9748px;font-family:Lavi;-inkscape-font-specification:'Lavi Bold';stroke-width:1.04388">FORTSÆTTES...</tspan></text>
    <text
       id="text860"
       y="1890.0585"
       x="1372.5665"
       style="font-size:29.3333px;line-height:1.25;font-family:Sword;-inkscape-font-specification:Sword;text-align:center;letter-spacing:0px;word-spacing:0px;writing-mode:lr-tb;text-anchor:middle"
       xml:space="preserve"><tspan
         y="1890.0585"
         x="1372.5665"
         id="tspan858"
         sodipodi:role="line" /><tspan
         id="tspan862"
         y="1926.7251"
         x="1372.5665"
         sodipodi:role="line" /><tspan
         id="tspan865"
         y="1963.3917"
         x="1372.5665"
         sodipodi:role="line" /></text>
  </g>
</svg>
