<?xml version="1.0" encoding="UTF-8" standalone="no"?>
<!-- Created with Inkscape (http://www.inkscape.org/) -->

<svg
   xmlns:dc="http://purl.org/dc/elements/1.1/"
   xmlns:cc="http://creativecommons.org/ns#"
   xmlns:rdf="http://www.w3.org/1999/02/22-rdf-syntax-ns#"
   xmlns:svg="http://www.w3.org/2000/svg"
   xmlns="http://www.w3.org/2000/svg"
   xmlns:xlink="http://www.w3.org/1999/xlink"
   xmlns:sodipodi="http://sodipodi.sourceforge.net/DTD/sodipodi-0.dtd"
   xmlns:inkscape="http://www.inkscape.org/namespaces/inkscape"
   id="svg2"
   version="1.1"
   inkscape:version="0.92.3 (2405546, 2018-03-11)"
   width="2481"
   height="3503"
   sodipodi:docname="E27P03.svg">
  <metadata
     id="metadata8">
    <rdf:RDF>
      <cc:Work
         rdf:about="">
        <dc:format>image/svg+xml</dc:format>
        <dc:type
           rdf:resource="http://purl.org/dc/dcmitype/StillImage" />
        <dc:title />
      </cc:Work>
    </rdf:RDF>
  </metadata>
  <defs
     id="defs6">
    <filter
       style="color-interpolation-filters:sRGB"
       id="filter4375-4-1-1-1-9"
       inkscape:label="deevad outline effect">
      <feFlood
         id="feFlood4377-7-9-0-8-1"
         flood-opacity="1"
         flood-color="rgb(0,0,0)"
         result="flood" />
      <feComposite
         id="feComposite4379-3-8-8-2-77"
         in2="SourceGraphic"
         in="flood"
         operator="in"
         result="composite1" />
      <feMorphology
         id="feMorphology4393-1-0-49-8-9"
         operator="dilate"
         radius="4"
         result="result3" />
      <feComposite
         id="feComposite4385-9-5-7-0-8"
         in2="result3"
         in="SourceGraphic"
         operator="over"
         result="composite2" />
    </filter>
    <filter
       style="color-interpolation-filters:sRGB"
       id="filter4375-4-1-1-1-9-5"
       inkscape:label="deevad outline effect">
      <feFlood
         id="feFlood4377-7-9-0-8-1-8"
         flood-opacity="1"
         flood-color="rgb(0,0,0)"
         result="flood" />
      <feComposite
         id="feComposite4379-3-8-8-2-77-0"
         in2="SourceGraphic"
         in="flood"
         operator="in"
         result="composite1" />
      <feMorphology
         id="feMorphology4393-1-0-49-8-9-0"
         operator="dilate"
         radius="4"
         result="result3" />
      <feComposite
         id="feComposite4385-9-5-7-0-8-0"
         in2="result3"
         in="SourceGraphic"
         operator="over"
         result="composite2" />
    </filter>
    <filter
       style="color-interpolation-filters:sRGB;"
       inkscape:label="Roughen"
       id="filter952"
       width="1.2"
       x="-0.10000000000000002">
      <feTurbulence
         type="fractalNoise"
         numOctaves="2"
         seed="1"
         baseFrequency="0.001 0.95399999999999996"
         result="turbulence"
         id="feTurbulence948" />
      <feDisplacementMap
         in="SourceGraphic"
         in2="turbulence"
         scale="4.1"
         yChannelSelector="G"
         xChannelSelector="R"
         id="feDisplacementMap950" />
    </filter>
    <filter
       style="color-interpolation-filters:sRGB"
       inkscape:label="Roughen"
       id="filter952-2">
      <feTurbulence
         type="fractalNoise"
         numOctaves="2"
         seed="1"
         baseFrequency="0.001 1.6071"
         result="turbulence"
         id="feTurbulence948-8" />
      <feDisplacementMap
         in="SourceGraphic"
         in2="turbulence"
         scale="4.1"
         yChannelSelector="G"
         xChannelSelector="R"
         id="feDisplacementMap950-5" />
    </filter>
    <filter
       style="color-interpolation-filters:sRGB"
       inkscape:label="Roughen"
       id="filter952-3">
      <feTurbulence
         type="fractalNoise"
         numOctaves="2"
         seed="1"
         baseFrequency="0.001 1.6071"
         result="turbulence"
         id="feTurbulence948-7" />
      <feDisplacementMap
         in="SourceGraphic"
         in2="turbulence"
         scale="4.1"
         yChannelSelector="G"
         xChannelSelector="R"
         id="feDisplacementMap950-4" />
    </filter>
    <filter
       style="color-interpolation-filters:sRGB"
       inkscape:label="Roughen"
       id="filter952-9"
       width="1.2"
       x="-0.1">
      <feTurbulence
         type="fractalNoise"
         numOctaves="2"
         seed="1"
         baseFrequency="0.001 0.95399999999999996"
         result="turbulence"
         id="feTurbulence948-6" />
      <feDisplacementMap
         in="SourceGraphic"
         in2="turbulence"
         scale="4.1"
         yChannelSelector="G"
         xChannelSelector="R"
         id="feDisplacementMap950-42" />
    </filter>
    <filter
       style="color-interpolation-filters:sRGB"
       inkscape:label="Roughen"
       id="filter952-7"
       width="1.2"
       x="-0.1">
      <feTurbulence
         type="fractalNoise"
         numOctaves="2"
         seed="1"
         baseFrequency="0.001 0.95399999999999996"
         result="turbulence"
         id="feTurbulence948-4" />
      <feDisplacementMap
         in="SourceGraphic"
         in2="turbulence"
         scale="4.1"
         yChannelSelector="G"
         xChannelSelector="R"
         id="feDisplacementMap950-6" />
    </filter>
    <filter
       style="color-interpolation-filters:sRGB"
       inkscape:label="Roughen"
       id="filter952-31"
       width="1.2"
       x="-0.1">
      <feTurbulence
         type="fractalNoise"
         numOctaves="2"
         seed="1"
         baseFrequency="0.001 0.95399999999999996"
         result="turbulence"
         id="feTurbulence948-81" />
      <feDisplacementMap
         in="SourceGraphic"
         in2="turbulence"
         scale="4.1"
         yChannelSelector="G"
         xChannelSelector="R"
         id="feDisplacementMap950-3" />
    </filter>
  </defs>
  <sodipodi:namedview
     pagecolor="#ffffff"
     bordercolor="#666666"
     borderopacity="1"
     objecttolerance="10"
     gridtolerance="10"
     guidetolerance="10"
     inkscape:pageopacity="0"
     inkscape:pageshadow="2"
     inkscape:window-width="1280"
     inkscape:window-height="752"
     id="namedview4"
     showgrid="false"
     inkscape:zoom="0.37194736"
     inkscape:cx="1492.2236"
     inkscape:cy="741.5139"
     inkscape:window-x="29"
     inkscape:window-y="26"
     inkscape:window-maximized="0"
     inkscape:current-layer="layer3"
     inkscape:snap-global="false" />
  <g
     inkscape:groupmode="layer"
     id="layer2"
     inkscape:label="artwork"
     sodipodi:insensitive="true">
    <image
       sodipodi:absref="/home/deevad/peppercarrot/webcomics/ep27_Coriander-s-Invention/lang/vi/../gfx_Pepper-and-Carrot_by-David-Revoy_E27P03.png"
       xlink:href="../gfx_Pepper-and-Carrot_by-David-Revoy_E27P03.png"
       width="2481"
       height="3503"
       id="image10"
       x="0"
       y="0" />
  </g>
  <g
     inkscape:groupmode="layer"
     id="layer3"
     inkscape:label="speechbubbles">
    <path
       style="fill:#ffffff;fill-rule:evenodd;stroke:none;stroke-width:1.06538737px;stroke-linecap:butt;stroke-linejoin:miter;stroke-opacity:1"
       d="m 1121.973,1575.3738 c 3.0625,-55.8541 19.1477,-94.0323 43.6596,-107.5615 24.5121,-13.529 210.748,-13.9309 225.7717,-12.9046 15.0237,1.0264 46.8834,7.3205 60.095,4.1053 13.2114,-3.2151 51.4792,-4.2434 71.5932,-0.4937 20.1141,3.7496 106.9919,4.2495 117.3705,15.4109 10.3785,11.1616 56.3066,41.8742 55.83,76.2082 -0.4768,34.3339 -12.3894,52.3394 -25.0568,71.2705 -12.6675,18.931 -78.1852,46.1505 -104.8556,45.4371 -26.6704,-0.7134 -115.6688,2.3795 -130.6431,2.7819 -14.9743,0.4024 -107.9991,7.1922 -139.6116,8.0417 -31.6123,0.8494 -79.8124,-12.5504 -112.1174,-31.7029 -32.3048,-19.1526 -62.0355,-70.5929 -62.0355,-70.5929 z"
       id="path263"
       inkscape:connector-curvature="0"
       sodipodi:nodetypes="ccccccccssccc" />
    <path
       style="fill:#ffffff;fill-rule:evenodd;stroke:none;stroke-width:1px;stroke-linecap:butt;stroke-linejoin:miter;stroke-opacity:1"
       d="m 1252.6692,1467.8179 c 0,0 -14.7372,-14.1832 -28.1318,-24.3459 -13.1591,-9.9839 -23.1743,-37.0399 -19.4243,-57.7963 -18.1089,29.447 -5.815,53.6299 11.889,81.0614 15.1315,24.8588 35.6671,1.0808 35.6671,1.0808 z"
       id="path265"
       inkscape:connector-curvature="0"
       sodipodi:nodetypes="csccc" />
    <path
       style="fill:#ffffff;fill-rule:evenodd;stroke:none;stroke-width:0.8370176px;stroke-linecap:butt;stroke-linejoin:miter;stroke-opacity:1"
       d="m 1946.6632,1847.5976 c 26.3737,-24.5771 84.4942,-37.4336 130.0489,-38.1163 45.5545,-0.6827 165.4349,6.8269 204.9954,18.4328 39.5605,11.6058 76.1455,25.1451 72.5491,58.5971 -3.5964,33.4521 -14.3857,68.2695 -21.5785,80.5581 -7.1928,12.2885 -29.97,31.404 -52.7473,42.3271 -22.7774,10.9231 -100.6996,13.6539 -128.272,13.6539 -27.5726,0 -123.4769,-8.1924 -143.8565,-18.4328 -20.3797,-10.2404 -62.3379,-27.3078 -69.5307,-58.0291 -7.1928,-30.7213 -3.5964,-80.558 8.3916,-98.9908 z"
       id="path267"
       inkscape:connector-curvature="0"
       sodipodi:nodetypes="csccccscsc" />
    <path
       style="fill:#ffffff;fill-rule:evenodd;stroke:none;stroke-width:1px;stroke-linecap:butt;stroke-linejoin:miter;stroke-opacity:1"
       d="m 1825.1743,1897.7489 c 53.571,-19.7367 111.3904,-9.3727 131.1271,16.0031 19.7367,25.3757 16.4282,45.0866 16.4282,45.0866 l -21.6164,9.3985 c 0,14.3171 5.8835,-17.1392 -7.2743,-30.7446 -12.9359,-13.376 -35.6882,-34.1046 -57.3046,-37.8639 -21.6164,-3.7594 -50.0819,-2.8196 -61.36,-1.8797 z"
       id="path269"
       inkscape:connector-curvature="0"
       sodipodi:nodetypes="ccccscc" />
    <path
       style="fill:#ffffff;fill-rule:evenodd;stroke:none;stroke-width:0.87170345px;stroke-linecap:butt;stroke-linejoin:miter;stroke-opacity:1"
       d="m 273.4472,2459.7952 c 21.61638,-13.9617 71.33405,-18.0681 92.95043,-22.9957 21.61638,-4.9277 50.79849,-0.8213 64.84914,-1.6426 14.05064,-0.8213 52.96012,-4.9277 63.76831,-4.1064 10.80819,0.8213 79.98061,4.9277 94.03125,5.749 14.05065,0.8212 74.57651,4.9276 81.06143,20.5319 6.48491,15.6043 25.93965,45.9915 16.21228,60.7746 -9.72737,14.783 -21.61638,40.2427 -49.71767,49.2767 -28.1013,9.034 -71.33405,23.8171 -122.13254,25.4597 -50.7985,1.6425 -121.05173,-4.9277 -131.85992,-4.9277 -10.80819,0 -68.09159,0.8212 -90.78879,-19.7107 -22.6972,-20.532 -38.90948,-43.5278 -35.66703,-64.0597 3.24246,-20.532 17.29311,-44.3491 17.29311,-44.3491 z"
       id="path271"
       inkscape:connector-curvature="0" />
    <path
       style="fill:#ffffff;fill-rule:evenodd;stroke:none;stroke-width:1px;stroke-linecap:butt;stroke-linejoin:miter;stroke-opacity:1"
       d="m 549.40558,2567.868 c 0,0 -6.17962,40.1675 -4.9437,48.819 1.23593,8.6515 12.35924,48.201 19.77478,58.0884 -19.15682,-22.2466 -31.51605,-51.2908 -33.9879,-61.1782 -2.47184,-9.8874 -1.23592,-50.0549 -1.23592,-50.0549 z"
       id="path273"
       inkscape:connector-curvature="0" />
    <path
       style="fill:#ffffff;fill-rule:evenodd;stroke:none;stroke-width:1px;stroke-linecap:butt;stroke-linejoin:miter;stroke-opacity:1"
       d="m 862.15526,2399.2521 c 41.37152,-5.6852 31.82424,7.8173 67.6265,7.1066 35.80228,-0.7106 108.99794,-7.8172 126.50134,-14.2131 9.5472,-3.5533 10.3429,2.132 10.3429,2.132 0,0 29.4374,1.4213 35.0067,2.8426 5.5691,1.4213 27.0506,10.6598 35.0066,8.5279 7.9561,-2.132 21.4813,-5.6853 21.4813,-5.6853 0,0 -0.7955,47.614 -1.5912,51.1672 -0.7955,3.5533 -6.3648,30.5582 -6.3648,39.7968 0,9.2385 4.7736,23.4516 3.978,27.7156 -0.7956,4.2639 10.3429,14.9237 10.3429,14.9237 l -30.2331,0.7107 -20.6857,2.132 -8.7516,-2.132 -37.3936,2.8426 -21.4813,0.7107 1.5912,-4.264 -92.29024,4.264 3.97803,-6.3959 -31.82424,1.4213 -11.93409,6.3959 -3.97803,-5.6853 -27.0506,0.7107 -14.32091,6.3959 7.95606,-13.5025 -11.93409,-7.8172 -2.38681,-104.4664 7.16045,-4.264 z"
       id="path275"
       inkscape:connector-curvature="0" />
    <path
       style="fill:#ffffff;fill-rule:evenodd;stroke:none;stroke-width:0.99999994px;stroke-linecap:butt;stroke-linejoin:miter;stroke-opacity:1"
       d="m 1132.8048,2429.7117 c 31.3618,-5.1743 52.2696,9.6094 59.9359,8.1311 7.6663,-1.4784 32.7558,-11.0878 41.1189,-10.3487 8.3631,0.7393 61.3299,8.8703 77.3592,5.9136 16.0294,-2.9568 51.5728,0 57.1483,-0.7392 5.5753,-0.7392 27.8771,-14.7838 34.1496,-14.7838 6.2723,0 16.7262,6.6527 39.725,-9.6094 -9.7571,19.2188 -15.3325,32.5242 -15.3325,32.5242 0,0 24.3925,-7.3918 34.1494,-7.3918 9.7571,0 17.4234,3.6958 22.3019,1.4784 4.8785,-2.2176 31.3618,-2.9568 35.5434,-2.9568 4.1817,0 14.6355,-3.6959 19.5141,-3.6959 4.8785,0 49.482,4.4351 55.7543,4.4351 6.2724,0 64.8145,-7.392 71.0868,-7.392 6.2724,0 34.8465,2.2176 46.6945,-2.9567 1.3937,14.7837 -2.7878,50.2648 -2.7878,58.3959 0,8.1311 0.6968,18.4797 0.6968,25.1325 -10.4538,7.3918 -18.1202,22.1755 -18.1202,22.1755 0,0 17.4234,3.696 22.3018,0.7393 4.8785,-2.9568 2.0908,54.6999 2.7878,65.7878 0.6969,11.0877 -8.3632,0.7391 -8.3632,0.7391 0,0 -1.3939,8.131 -6.9693,9.6095 -5.5754,1.4784 -103.8425,-0.7392 -114.9934,-0.7392 -11.1509,0 -14.6356,3.6959 -14.6356,3.6959 h -48.0882 l -1.3938,-6.6527 -21.6047,4.4351 -29.2712,5.1744 -17.4232,3.6959 -9.7569,-2.9567 -48.0883,0.7391 -41.8157,1.4784 10.4539,-11.0878 -108.721,8.1311 -50.179,1.4783 -45.9974,6.6527 -9.06,-23.654 -4.8786,-51.004 c 0,0 -2.7877,-14.0447 4.8786,-16.2622 7.6662,-2.2175 -5.5755,-4.4351 -6.9693,-17.7404 -1.394,-13.3054 -5.5754,-47.3081 -5.5754,-47.3081 l 9.06,-2.9567 -11.1508,-7.392 z"
       id="path277"
       inkscape:connector-curvature="0" />
    <path
       style="fill:#ffffff;fill-rule:evenodd;stroke:none;stroke-width:0.99999994px;stroke-linecap:butt;stroke-linejoin:miter;stroke-opacity:1"
       d="m 1327.3521,2751.2587 c 32.6788,-36.3054 55.3539,-80.3905 55.3539,-94.0051 8.6697,12.9662 8.0028,10.373 8.0028,10.373 0,0 14.6721,-38.8987 14.0051,-62.8862 -0.6667,-23.9875 26.6766,-24.6358 30.0111,-19.4493 3.3345,5.1864 9.47,23.9875 9.47,23.9875 l -4.1347,13.6145 -4.0015,-3.2415 c 0,0 -15.3389,40.1952 -17.3397,44.7334 -2.0008,4.5382 -10.6705,23.9876 -10.6705,23.9876 l -2.6677,-11.6696 -14.6721,10.373 0.6669,16.2077 -8.003,-7.1314 c 0,0 -0.6667,9.7247 -4.0014,14.9112 -3.3346,5.1864 -24.0089,27.8774 -26.6765,31.1189 -2.6676,3.2415 -25.3427,9.0763 -25.3427,9.0763 z"
       id="path279"
       inkscape:connector-curvature="0" />
    <path
       style="fill:#ffffff;fill-rule:evenodd;stroke:none;stroke-width:1px;stroke-linecap:butt;stroke-linejoin:miter;stroke-opacity:1"
       d="m 1875.1677,2410.7996 6.1493,7.358 31.24,-4.3215 6.2475,-8.3665 c 0,0 13.883,8.3665 18.0479,5.5777 4.1649,-2.7889 20.8245,-4.6481 20.8245,-4.6481 l 6.2475,7.4369 15.2713,-2.7888 c 0,0 35.4018,7.4369 43.7315,6.5072 8.3299,-0.9295 22.9071,-10.2256 22.9071,-10.2256 0,0 28.4604,10.2256 32.6253,8.3664 4.1649,-1.8592 11.8005,-2.7887 11.8005,-2.7887 l 9.024,20.4515 c 0,0 18.048,-19.522 18.048,-28.8181 11.8006,-0.9297 27.7661,0 30.5427,-1.8593 2.7767,-1.8592 4.1649,11.1554 4.1649,11.1554 l 8.3298,6.5073 c 0,0 20.8246,-20.4515 22.9071,-24.1699 2.0824,-3.7185 15.9655,-2.789 15.9655,-2.789 0,0 19.4362,0.9297 22.2128,0 2.7766,-0.9295 14.5772,0.9297 24.9896,1.8592 10.4123,0.9298 20.8246,0.9298 28.4602,-2.7887 2.0826,15.8034 0,72.51 -0.6941,79.0173 -7.6357,15.8034 -15.2714,45.5512 -21.5187,51.1289 16.6596,-11.1555 16.6596,-14.8739 22.907,-22.3108 -0.6942,23.2405 -6.2474,72.51 -6.9415,78.0878 11.1065,-12.085 9.7182,-9.2962 8.3299,-4.6481 -1.3884,4.6481 -5.5533,18.5923 -6.9416,29.7476 -1.3883,11.1554 0,25.0997 -1.3883,32.5366 -1.3883,7.437 -2.7766,17.6628 -2.7766,17.6628 0,0 -27.7662,11.1553 -32.6252,13.0146 -4.8592,1.8592 -47.8966,1.8592 -59.003,1.8592 -11.1065,0 -27.7661,2.7888 -35.4019,1.8592 4.165,-10.2257 6.9416,-17.6627 6.9416,-17.6627 0,0 -34.7076,4.6481 -43.0374,6.5074 -8.3299,1.8592 -43.0375,-8.3666 -50.6732,-7.4369 -7.6357,0.9295 -49.979,2.7887 -61.0855,3.7184 -11.1063,0.9295 -38.8724,2.7888 -49.2848,5.5777 -10.4122,2.7888 -41.6491,4.648 -48.5906,4.648 -6.9416,0 -20.1304,0.9297 -20.1304,0.9297 0,0 -1.3883,-33.4661 -1.3883,-45.5512 0,-12.085 -3.4708,-71.5804 -0.6942,-78.0877 2.7766,-6.5074 4.8591,-52.0586 4.8591,-56.7066 0,-4.6481 -6.5495,-40.4078 -6.5495,-40.4078 z"
       id="path283"
       inkscape:connector-curvature="0"
       sodipodi:nodetypes="ccccscccccsccccccccccccccccccccscccccsscssscc" />
    <path
       style="fill:#ffffff;fill-rule:evenodd;stroke:none;stroke-width:0.99999994px;stroke-linecap:butt;stroke-linejoin:miter;stroke-opacity:1"
       d="m 1933.4227,2824.6366 c -13.1433,-30.6118 9.2927,-109.1953 20.1114,-126.6745 0,-10.6243 -4.641,-22.8831 -4.641,-22.8831 0,0 -11.6028,4.9035 -14.6968,10.6243 -3.0941,5.7208 13.1497,-34.3247 22.4319,-40.8627 9.2823,-6.538 -6.9616,-37.5937 -6.9616,-37.5937 0,0 -31.7143,26.1521 -33.2613,37.5937 -1.547,11.4416 -10.0557,70.2839 -6.1881,80.9082 3.8676,10.6243 6.1881,4.9035 9.2821,0.8172 3.0942,-4.0862 11.6029,-12.2588 16.244,-15.5278 -7.7353,19.6141 -20.1115,84.1772 -2.3206,113.5984 z"
       id="path285"
       inkscape:connector-curvature="0"
       sodipodi:nodetypes="ccccccssccc" />
  </g>
  <g
     inkscape:groupmode="layer"
     id="layer1"
     inkscape:label="txt">
    <text
       xml:space="preserve"
       style="font-style:normal;font-variant:normal;font-weight:normal;font-stretch:normal;line-height:0%;font-family:'ComicSpice';-inkscape-font-specification:'ComicSpice';text-align:center;letter-spacing:0px;word-spacing:0px;text-anchor:middle;fill:#000000;fill-opacity:1;stroke:none"
       x="1407.3555"
       y="1524.687"
       id="text4246"><tspan
         sodipodi:role="line"
         style="font-style:normal;font-variant:normal;font-weight:normal;font-stretch:normal;font-size:48px;line-height:1.20000005;font-family:'ComicSpice';-inkscape-font-specification:'ComicSpice'"
         x="1407.3555"
         y="1524.687"
         id="tspan794">Các bạn sẽ nhanh hiểu</tspan><tspan
         sodipodi:role="line"
         style="font-style:normal;font-variant:normal;font-weight:normal;font-stretch:normal;font-size:48px;line-height:1.20000005;font-family:'ComicSpice';-inkscape-font-specification:'ComicSpice'"
         x="1407.3555"
         y="1578.687"
         id="tspan3427">tại sao chị muốn sáng chế</tspan><tspan
         sodipodi:role="line"
         style="font-style:normal;font-variant:normal;font-weight:normal;font-stretch:normal;font-size:48px;line-height:1.20000005;font-family:'ComicSpice';-inkscape-font-specification:'ComicSpice'"
         x="1407.3555"
         y="1632.687"
         id="tspan3431">đồ phát minh này</tspan></text>
    <text
       xml:space="preserve"
       style="font-style:normal;font-variant:normal;font-weight:normal;font-stretch:normal;line-height:0%;font-family:'ComicSpice';-inkscape-font-specification:'ComicSpice';text-align:center;letter-spacing:0px;word-spacing:0px;text-anchor:middle;fill:#000000;fill-opacity:1;stroke:none"
       x="2139.2803"
       y="1878.3798"
       id="text4246-3"><tspan
         sodipodi:role="line"
         style="font-style:normal;font-variant:normal;font-weight:normal;font-stretch:normal;font-size:48px;line-height:1.20000005;font-family:'ComicSpice';-inkscape-font-specification:'ComicSpice'"
         x="2139.2803"
         y="1878.3798"
         id="tspan66">Nó liên quan với</tspan><tspan
         sodipodi:role="line"
         style="font-style:normal;font-variant:normal;font-weight:normal;font-stretch:normal;font-size:48px;line-height:1.20000005;font-family:'ComicSpice';-inkscape-font-specification:'ComicSpice'"
         x="2139.2803"
         y="1932.3798"
         id="tspan3461">sự lo lắng của chị</tspan><tspan
         sodipodi:role="line"
         style="font-style:normal;font-variant:normal;font-weight:normal;font-stretch:normal;font-size:48px;line-height:1.20000005;font-family:'ComicSpice';-inkscape-font-specification:'ComicSpice'"
         x="2145.5205"
         y="1986.3798"
         id="tspan3463">về lễ tức vị. </tspan></text>
    <text
       xml:space="preserve"
       style="font-style:normal;font-variant:normal;font-weight:normal;font-stretch:normal;line-height:0%;font-family:'ComicSpice';-inkscape-font-specification:'ComicSpice';text-align:center;letter-spacing:0px;word-spacing:0px;text-anchor:middle;fill:#000000;fill-opacity:1;stroke:none"
       x="474.53574"
       y="2503.4622"
       id="text4246-3-3"><tspan
         sodipodi:role="line"
         style="font-style:normal;font-variant:normal;font-weight:normal;font-stretch:normal;font-size:48px;line-height:1.20000005;font-family:'ComicSpice';-inkscape-font-specification:'ComicSpice'"
         x="474.53574"
         y="2503.4622"
         id="tspan113">Xem đồ phát minh</tspan><tspan
         sodipodi:role="line"
         style="font-style:normal;font-variant:normal;font-weight:normal;font-stretch:normal;font-size:48px;line-height:1.20000005;font-family:'ComicSpice';-inkscape-font-specification:'ComicSpice'"
         x="474.53574"
         y="2557.4622"
         id="tspan3450">mới của chị...</tspan></text>
    <text
       xml:space="preserve"
       style="font-style:normal;font-variant:normal;font-weight:normal;font-stretch:normal;font-size:17.03793526px;line-height:0%;font-family:'Press Start 2P';-inkscape-font-specification:'Press Start 2P';text-align:center;letter-spacing:0px;word-spacing:0px;text-anchor:middle;fill:#000000;fill-opacity:1;stroke:none;stroke-width:1.96399999;stroke-miterlimit:4;stroke-dasharray:none;filter:url(#filter952)"
       x="1291.7806"
       y="2742.261"
       id="text4246-3-3-2-2"
       transform="scale(1.1028585,0.90673464)"><tspan
         sodipodi:role="line"
         style="font-style:normal;font-variant:normal;font-weight:normal;font-stretch:normal;font-size:37.86207581px;line-height:1.39999998;font-family:'Noto Mono';-inkscape-font-specification:'Noto Mono';stroke:#000000;stroke-width:1.96399999;stroke-linecap:square;stroke-linejoin:bevel;stroke-miterlimit:4;stroke-dasharray:none;stroke-opacity:1"
         x="1291.7806"
         y="2742.261"
         id="tspan169">Tôi là rô bô bác sí</tspan><tspan
         sodipodi:role="line"
         style="font-style:normal;font-variant:normal;font-weight:normal;font-stretch:normal;font-size:37.86207581px;line-height:1.39999998;font-family:'Noto Mono';-inkscape-font-specification:'Noto Mono';stroke:#000000;stroke-width:1.96399999;stroke-linecap:square;stroke-linejoin:bevel;stroke-miterlimit:4;stroke-dasharray:none;stroke-opacity:1"
         x="1291.7806"
         y="2795.2678"
         id="tspan3439">TÂM LÝ HỌC của bạn</tspan><tspan
         sodipodi:role="line"
         style="font-style:normal;font-variant:normal;font-weight:normal;font-stretch:normal;font-size:37.86207581px;line-height:1.39999998;font-family:'Noto Mono';-inkscape-font-specification:'Noto Mono';stroke:#000000;stroke-width:1.96399999;stroke-linecap:square;stroke-linejoin:bevel;stroke-miterlimit:4;stroke-dasharray:none;stroke-opacity:1"
         x="1291.7806"
         y="2848.2749"
         id="tspan171"> bíp, búp!</tspan></text>
    <text
       xml:space="preserve"
       style="font-style:normal;font-variant:normal;font-weight:bold;font-stretch:normal;line-height:0%;font-family:'ComicSpice';-inkscape-font-specification:'ComicSpice Bold';letter-spacing:0px;word-spacing:0px;fill:#000000;fill-opacity:1;stroke:#000000;stroke-width:2.15795588;stroke-miterlimit:4;stroke-dasharray:none;stroke-opacity:1;filter:url(#filter4375-4-1-1-1-9)"
       x="787.65729"
       y="1584.5073"
       id="text4580"
       transform="matrix(0.46879428,-0.12606586,-0.08654633,0.61214652,623.13411,2085.4411)"><tspan
         sodipodi:role="line"
         id="tspan4582"
         x="787.65729"
         y="1584.5073"
         style="font-style:normal;font-variant:normal;font-weight:bold;font-stretch:normal;font-size:80.40014648px;line-height:1.25;font-family:'ComicSpice';-inkscape-font-specification:'ComicSpice Bold';fill:#ffffff;stroke-width:2.15795588">Bất!</tspan></text>
    <text
       xml:space="preserve"
       style="font-style:normal;font-variant:normal;font-weight:bold;font-stretch:normal;line-height:0%;font-family:ComicSpice;-inkscape-font-specification:'ComicSpice Bold';letter-spacing:0px;word-spacing:0px;fill:#000000;fill-opacity:1;stroke:#000000;stroke-width:1.32408154;stroke-miterlimit:4;stroke-dasharray:none;stroke-opacity:1;filter:url(#filter4375-4-1-1-1-9-5)"
       x="787.65729"
       y="1584.5073"
       id="text4580-4"
       transform="matrix(0.82042657,-0.1913356,-0.15146283,0.92908119,1836.7252,1531.2203)"><tspan
         sodipodi:role="line"
         id="tspan4582-7"
         x="787.65729"
         y="1584.5073"
         style="font-style:normal;font-variant:normal;font-weight:bold;font-stretch:normal;font-size:80.40014648px;line-height:1.25;font-family:ComicSpice;-inkscape-font-specification:'ComicSpice Bold';fill:#ffffff;stroke-width:1.32408154">Gõ!</tspan></text>
    <text
       xml:space="preserve"
       style="font-style:normal;font-variant:normal;font-weight:normal;font-stretch:normal;font-size:17.03793526px;line-height:0%;font-family:'Press Start 2P';-inkscape-font-specification:'Press Start 2P';text-align:center;letter-spacing:0px;word-spacing:0px;text-anchor:middle;fill:#000000;fill-opacity:1;stroke:none;stroke-width:1.84114921;stroke-miterlimit:4;stroke-dasharray:none;filter:url(#filter952-9)"
       x="1291.7806"
       y="2742.261"
       id="text4246-3-3-2-2-0"
       transform="matrix(1.1690619,0,0,0.97334654,-492.23126,-213.98647)"><tspan
         sodipodi:role="line"
         style="font-style:normal;font-variant:normal;font-weight:normal;font-stretch:normal;font-size:37.86207581px;line-height:1.39999998;font-family:'Noto Mono';-inkscape-font-specification:'Noto Mono';stroke:#000000;stroke-width:1.84114921;stroke-linecap:square;stroke-linejoin:bevel;stroke-miterlimit:4;stroke-dasharray:none;stroke-opacity:1"
         x="1291.7806"
         y="2742.261"
         id="tspan171-5">Xin chào</tspan><tspan
         sodipodi:role="line"
         style="font-style:normal;font-variant:normal;font-weight:normal;font-stretch:normal;font-size:37.86207581px;line-height:1.39999998;font-family:'Noto Mono';-inkscape-font-specification:'Noto Mono';stroke:#000000;stroke-width:1.84114921;stroke-linecap:square;stroke-linejoin:bevel;stroke-miterlimit:4;stroke-dasharray:none;stroke-opacity:1"
         x="1291.7806"
         y="2795.2678"
         id="tspan1086">thế giới.</tspan></text>
    <text
       xml:space="preserve"
       style="font-style:normal;font-variant:normal;font-weight:normal;font-stretch:normal;font-size:17.03793526px;line-height:0%;font-family:'Press Start 2P';-inkscape-font-specification:'Press Start 2P';text-align:center;letter-spacing:0px;word-spacing:0px;text-anchor:middle;fill:#000000;fill-opacity:1;stroke:none;stroke-width:1.79369771;stroke-miterlimit:4;stroke-dasharray:none;filter:url(#filter952-31)"
       x="1291.7806"
       y="2742.261"
       id="text4246-3-3-2-2-8"
       transform="matrix(1.1998415,0,0,0.99921876,522.39901,-268.86477)"><tspan
         sodipodi:role="line"
         style="font-style:normal;font-variant:normal;font-weight:normal;font-stretch:normal;font-size:37.86207581px;line-height:1.39999998;font-family:'Noto Mono';-inkscape-font-specification:'Noto Mono';stroke:#000000;stroke-width:1.79369771;stroke-linecap:square;stroke-linejoin:bevel;stroke-miterlimit:4;stroke-dasharray:none;stroke-opacity:1"
         x="1291.7806"
         y="2742.261"
         id="tspan171-4">Làm ơn nằm</tspan><tspan
         sodipodi:role="line"
         style="font-style:normal;font-variant:normal;font-weight:normal;font-stretch:normal;font-size:37.86207581px;line-height:1.39999998;font-family:'Noto Mono';-inkscape-font-specification:'Noto Mono';stroke:#000000;stroke-width:1.79369771;stroke-linecap:square;stroke-linejoin:bevel;stroke-miterlimit:4;stroke-dasharray:none;stroke-opacity:1"
         x="1291.7806"
         y="2795.2678"
         id="tspan1126">xuống trên</tspan><tspan
         sodipodi:role="line"
         style="font-style:normal;font-variant:normal;font-weight:normal;font-stretch:normal;font-size:37.86207581px;line-height:1.39999998;font-family:'Noto Mono';-inkscape-font-specification:'Noto Mono';stroke:#000000;stroke-width:1.79369771;stroke-linecap:square;stroke-linejoin:bevel;stroke-miterlimit:4;stroke-dasharray:none;stroke-opacity:1"
         x="1291.7806"
         y="2848.2749"
         id="tspan1128">ghế để khám</tspan><tspan
         sodipodi:role="line"
         style="font-style:normal;font-variant:normal;font-weight:normal;font-stretch:normal;font-size:37.86207581px;line-height:1.39999998;font-family:'Noto Mono';-inkscape-font-specification:'Noto Mono';stroke:#000000;stroke-width:1.79369771;stroke-linecap:square;stroke-linejoin:bevel;stroke-miterlimit:4;stroke-dasharray:none;stroke-opacity:1"
         x="1291.7806"
         y="2901.2817"
         id="tspan1130">miễn phí</tspan></text>
  </g>
</svg>
