<?xml version="1.0" encoding="UTF-8" standalone="no"?>
<!-- Created with Inkscape (http://www.inkscape.org/) -->

<svg
   id="svg2"
   version="1.1"
   inkscape:version="1.1.1 (3bf5ae0d25, 2021-09-20)"
   width="2481"
   height="2041"
   sodipodi:docname="E03P08.svg"
   xmlns:inkscape="http://www.inkscape.org/namespaces/inkscape"
   xmlns:sodipodi="http://sodipodi.sourceforge.net/DTD/sodipodi-0.dtd"
   xmlns:xlink="http://www.w3.org/1999/xlink"
   xmlns="http://www.w3.org/2000/svg"
   xmlns:svg="http://www.w3.org/2000/svg"
   xmlns:rdf="http://www.w3.org/1999/02/22-rdf-syntax-ns#"
   xmlns:cc="http://creativecommons.org/ns#"
   xmlns:dc="http://purl.org/dc/elements/1.1/">
  <sodipodi:namedview
     pagecolor="#ffffff"
     bordercolor="#666666"
     inkscape:pageopacity="0"
     inkscape:pageshadow="2"
     inkscape:window-width="1336"
     inkscape:window-height="725"
     id="namedview70"
     showgrid="false"
     inkscape:zoom="0.4"
     inkscape:cx="1283.75"
     inkscape:cy="1732.5"
     inkscape:current-layer="layer2"
     borderopacity="1"
     inkscape:pagecheckerboard="0"
     inkscape:window-x="15"
     inkscape:window-y="15"
     inkscape:window-maximized="0" />
  <metadata
     id="metadata8">
    <rdf:RDF>
      <cc:Work
         rdf:about="">
        <dc:format>image/svg+xml</dc:format>
        <dc:type
           rdf:resource="http://purl.org/dc/dcmitype/StillImage" />
        <dc:title />
      </cc:Work>
    </rdf:RDF>
  </metadata>
  <defs
     id="defs6" />
  <sodipodi:namedview
     pagecolor="#ffffff"
     bordercolor="#666666"
     borderopacity="1"
     objecttolerance="10"
     gridtolerance="10"
     guidetolerance="10"
     inkscape:pageopacity="0"
     inkscape:pageshadow="2"
     inkscape:window-width="1920"
     inkscape:window-height="1025"
     id="namedview4"
     showgrid="false"
     inkscape:zoom="0.30757702"
     inkscape:cx="894.01231"
     inkscape:cy="1174.7782"
     inkscape:window-x="0"
     inkscape:window-y="26"
     inkscape:window-maximized="1"
     inkscape:current-layer="layer2"
     inkscape:object-nodes="true" />
  <g
     inkscape:groupmode="layer"
     id="layer1"
     inkscape:label="artwork"
     style="display:inline"
     sodipodi:insensitive="true">
    <image
       xlink:href="../gfx_Pepper-and-Carrot_by-David-Revoy_E03P08.png"
       width="2481"
       height="2041"
       id="image10"
       x="0"
       y="0" />
  </g>
  <g
     inkscape:groupmode="layer"
     id="layer3"
     inkscape:label="speechbubbles">
    <path
       style="fill:#ffffff;stroke:none;stroke-width:0.860455px;stroke-linecap:butt;stroke-linejoin:miter;stroke-opacity:1"
       d="m 140.4001,555.16506 c 0.7869,-51.0158 19.6725,-103.09442 125.904,-112.65988 106.23151,-9.56546 150.29792,48.89014 153.44552,90.34047 3.1476,41.45033 -61.3782,96.71744 -120.39571,97.78027 -59.0175,1.06282 -158.95381,-11.69112 -158.95381,-75.46086 z"
       id="path4279"
       inkscape:connector-curvature="0" />
    <path
       style="fill:#ffffff;stroke:none"
       d="m 325.22567,807.05553 c 70.14672,-44.63882 88.21481,-124.35099 45.70165,-190.24639 -42.51316,-65.8954 -82.90066,-54.20428 -82.90066,-54.20428 l 35.07336,41.45033 c 0,0 97.78026,97.78027 2.12565,203.00034 z"
       id="path4281"
       inkscape:connector-curvature="0"
       sodipodi:nodetypes="csccc" />
  </g>
  <g
     inkscape:groupmode="layer"
     id="layer2"
     inkscape:label="text"
     style="display:inline">
    <text
       xml:space="preserve"
       style="font-style:normal;font-variant:normal;font-weight:normal;font-stretch:normal;font-size:11.2389px;line-height:0.01%;font-family:Arial;-inkscape-font-specification:Arial;letter-spacing:0px;word-spacing:0px;white-space:pre;inline-size:1623;fill:#000000;fill-opacity:1;stroke:none;stroke-width:0.936578"
       x="557.15631"
       y="472.51093"
       id="text299893"
       transform="matrix(0.98115841,0,0,1.0192034,-94.91566,0)"><tspan
         x="557.15631"
         y="472.51093"
         id="tspan347147"><tspan
   style="font-size:44.9557px;line-height:1.25;font-family:Lavi;-inkscape-font-specification:Lavi;text-align:center;text-anchor:middle"
   id="tspan347139">Алексей, </tspan><tspan
   style="font-size:44.9557px;line-height:1.25;font-family:Lavi;-inkscape-font-specification:Lavi;text-align:center;text-anchor:middle"
   id="tspan347141">獨孤欣</tspan><tspan
   style="font-size:44.9557px;line-height:1.25;font-family:Lavi;-inkscape-font-specification:Lavi;text-align:center;text-anchor:middle"
   id="tspan347143">, </tspan><tspan
   dx="0 0 0 0 0 0 0 0 0 0 0 0 0 0 0 0 0 0 0 0 0 0 0 0 0 0 0 0 0 0 0 0 0 0 0.00010108948 -0.00010681152"
   style="font-size:44.9557px;line-height:1.25;font-family:Lavi;-inkscape-font-specification:Lavi;text-align:center;text-anchor:middle"
   id="tspan347145">Albert Westra, Alejandro Flores Prieto, Alex Lusco,</tspan>
</tspan><tspan
         x="557.15631"
         y="491.1677"
         id="tspan347149">
</tspan><tspan
         x="557.15631"
         y="528.70668"
         id="tspan347153"><tspan
   dx="0 0 0 0 0 0 0 0 0 0 0 0 0 0 0 0 0 0 0 0 0 0 0 0 0 0 0 0 0 0 0 0 0 0 0 0 0 0 0 0 0 0 0 0 0 0 0 0 0 0 0 0 0 0 0 0 0 0 0 0 0 0.00010108948 0 0 0 -0.00010299683"
   style="font-size:44.9557px;line-height:1.25;font-family:Lavi;-inkscape-font-specification:Lavi;text-align:center;text-anchor:middle"
   id="tspan347151">Alex Silver, Alex Vandiver, Alexander Sopicki, Andreas Rieger, Andrew,</tspan>
</tspan><tspan
         x="557.15631"
         y="547.36347"
         id="tspan347155">
</tspan><tspan
         x="557.15631"
         y="584.90242"
         id="tspan347159"><tspan
   dx="0 0 0 0 0 0 0 0 0 0 0 0 0 0 0 0 0 0 0 0 0 0 0 0 0 0 0 0 0 0 0 0 0 0 0 0 0 0 0 0 0 0 0 0 0 0 0 0 0 0 0 0 0 0 0 0 0 0 0 0 0 0 -0.00010871887"
   style="font-size:44.9557px;line-height:1.25;font-family:Lavi;-inkscape-font-specification:Lavi;text-align:center;text-anchor:middle"
   id="tspan347157">Andrew Grady, Andrey Alekseenko, Anna Orlova, Antan Karmola, Antoine,</tspan>
</tspan><tspan
         x="557.15631"
         y="603.55921"
         id="tspan347161">
</tspan><tspan
         x="557.15631"
         y="641.09816"
         id="tspan347165"><tspan
   dx="0 0 0 0 0 0 0 0 0 0 0 0 0 0 0 0 0 0 0 0 0 0 0 0 0 0 0 0 0 0 0 0 0 0 0 0 0 0 0 0 0 0 0 0 0 0 0 0 0 0 0 0 0 0 0 0 0 0 0 0 -0.00010299683"
   style="font-size:44.9557px;line-height:1.25;font-family:Lavi;-inkscape-font-specification:Lavi;text-align:center;text-anchor:middle"
   id="tspan347163">Aslak Kjølås-Sæverud, Axel Bordelon, Axel Philipsenburg, Ben Evans,</tspan>
</tspan><tspan
         x="557.15631"
         y="659.75495"
         id="tspan347167">
</tspan><tspan
         x="557.15631"
         y="697.2939"
         id="tspan347171"><tspan
   style="font-size:44.9557px;line-height:1.25;font-family:Lavi;-inkscape-font-specification:Lavi;text-align:center;text-anchor:middle"
   id="tspan347169">Boonsak Watanavisit, Boudewijn Rempt, carlos levischi, Charlotte Lacombe-bar, </tspan>
</tspan><tspan
         x="557.15631"
         y="753.48854"
         id="tspan347175"><tspan
   style="font-size:44.9557px;line-height:1.25;font-family:Lavi;-inkscape-font-specification:Lavi;text-align:center;text-anchor:middle"
   id="tspan347173">Chris Sakkas, Christophe Carré, Clara Dexter, Colby Driedger,</tspan>
</tspan><tspan
         x="557.15631"
         y="772.14533"
         id="tspan347177">
</tspan><tspan
         x="557.15631"
         y="809.68428"
         id="tspan347181"><tspan
   style="font-size:44.9557px;line-height:1.25;font-family:Lavi;-inkscape-font-specification:Lavi;text-align:center;text-anchor:middle"
   id="tspan347179">Conway Scott Smith, Dmitry, Eitan Goldshtrom, Enrico Billich,</tspan>
</tspan><tspan
         x="557.15631"
         y="828.34107"
         id="tspan347183">
</tspan><tspan
         x="557.15631"
         y="865.88002"
         id="tspan347187"><tspan
   dx="0 0 0 0 0 0 0 0 0 0 0 0 0 0 0 0 0 0 0 0 0 0 0 0 0 0 0 0 0 0 0 0 0 0 0 0 0 0 0 0 0 0 0 0 0 0 0 0 0 0 0 0 0 0.00011825562"
   style="font-size:44.9557px;line-height:1.25;font-family:Lavi;-inkscape-font-specification:Lavi;text-align:center;text-anchor:middle"
   id="tspan347185">-epsilon-, Garret Patterson, Gustav Strömbom, Guy Davis,</tspan>
</tspan><tspan
         x="557.15631"
         y="884.53681"
         id="tspan347189">
</tspan><tspan
         x="557.15631"
         y="922.07576"
         id="tspan347193"><tspan
   style="font-size:44.9557px;line-height:1.25;font-family:Lavi;-inkscape-font-specification:Lavi;text-align:center;text-anchor:middle"
   id="tspan347191">Helmar Suschka, Ilyas Akhmedov, Inga Huang, Irene C.,</tspan>
</tspan><tspan
         x="557.15631"
         y="940.73255"
         id="tspan347195">
</tspan><tspan
         x="557.15631"
         y="978.2715"
         id="tspan347199"><tspan
   dx="0 0 0 0 0 0 0 0 0 0 0 0 0 0 0 0 0 0 0 0 0 0 0 0 0 0 0 0 0 0 0 0 0 0 0 0 0 0 0 0 0 0 0 0 0 0 0 0 0 0 0 0 0 -0.00010299683"
   style="font-size:44.9557px;line-height:1.25;font-family:Lavi;-inkscape-font-specification:Lavi;text-align:center;text-anchor:middle"
   id="tspan347197">Jean-Baptiste Hebbrecht, JEM, Jessey Wright, John, Jónatan Nilsson,</tspan>
</tspan><tspan
         x="557.15631"
         y="996.92829"
         id="tspan347201">
</tspan><tspan
         x="557.15631"
         y="1034.4672"
         id="tspan347205"><tspan
   style="font-size:44.9557px;line-height:1.25;font-family:Lavi;-inkscape-font-specification:Lavi;text-align:center;text-anchor:middle"
   id="tspan347203">Joseph Bowman, Juanjo Fernández Monreal, Jurgo van den Elzen,</tspan>
</tspan><tspan
         x="557.15631"
         y="1053.124"
         id="tspan347207">
</tspan><tspan
         x="557.15631"
         y="1090.663"
         id="tspan347211"><tspan
   dx="0 0 0 0 0 0 0 0 0 0 0 0 0 0 0 0 0 0 0 0 0 0 0 0 0 0 0 0 0 0 0 0 0 0 0 0 0 0 0 0 0 0 0 0 0 0 0 0 0 0 0 0 0 0 0 0 0 0 0.00011444092 0 0 0 -0.00010871887 0.00011825562"
   style="font-size:44.9557px;line-height:1.25;font-family:Lavi;-inkscape-font-specification:Lavi;text-align:center;text-anchor:middle"
   id="tspan347209">Kai-Ting (Danil) Ko, Kasper Hansen, Kathryn Wuerstl, Ken Mingyuan Xia,</tspan>
</tspan><tspan
         x="557.15631"
         y="1146.8576"
         id="tspan347215"><tspan
   dx="0 0 0 0 0 0 0 0 0 0 0 0 0 0 0 0 0 0 0 0 0 0 0 0 0 0 0 0 0 0 0 0 0 0 0 0 0 0 0 0 0 0 0 0 0 0 0 0 0 0 0 0 0 0 0 0 0 0 0 0 0 0 0 0.00010108948 0 0 0 0 0 0 0 0 0 0.00010108948"
   style="font-size:44.9557px;line-height:1.25;font-family:Lavi;-inkscape-font-specification:Lavi;text-align:center;text-anchor:middle"
   id="tspan347213">Liselle, Lorentz Grip, MacCoy, Mandy, Martin Owens, Maurice-Marie Stromer,</tspan>
</tspan><tspan
         x="557.15631"
         y="1203.0521"
         id="tspan347219"><tspan
   dx="0 0 0 0 0 0 0 0 0 0 0 0 0 0 0 0 0 0 0 0 0 0 0 0 0 0 0 0 0 0 0 0 0 0 0 0 0 0 0 0 0 0 0 0 0 0 0 0 0 0 0 0 0 0 -0.00010490417"
   style="font-size:44.9557px;line-height:1.25;font-family:Lavi;-inkscape-font-specification:Lavi;text-align:center;text-anchor:middle"
   id="tspan347217">Mauricio Vega, mefflin ross bullis-bates, Michelle Pereira Garcia,</tspan>
</tspan><tspan
         x="557.15631"
         y="1259.2467"
         id="tspan347223"><tspan
   style="font-size:44.9557px;line-height:1.25;font-family:Lavi;-inkscape-font-specification:Lavi;text-align:center;text-anchor:middle"
   id="tspan347221">Morten Hellesø Johansen, Nazhif, Nicki Aya, Nicolae Berbece, Nicole Heersema,</tspan>
</tspan><tspan
         x="557.15631"
         y="1315.4413"
         id="tspan347227"><tspan
   style="font-size:44.9557px;line-height:1.25;font-family:Lavi;-inkscape-font-specification:Lavi;text-align:center;text-anchor:middle"
   id="tspan347225">No Reward, Noah Summers, Noble Hays, Olivier Amrein, Olivier Brun,</tspan>
</tspan><tspan
         x="557.15631"
         y="1371.6359"
         id="tspan347231"><tspan
   style="font-size:44.9557px;line-height:1.25;font-family:Lavi;-inkscape-font-specification:Lavi;text-align:center;text-anchor:middle"
   id="tspan347229">Oscar Moreno, Pavel Semenov, Peter Moonen, Pierre Vuillemin, Ret Samys,</tspan>
</tspan><tspan
         x="557.15631"
         y="1427.8305"
         id="tspan347235"><tspan
           dx="0 0 0 0 0 0 0 0 0 0 0 0 0 0 0 0 0 0 0 0 0 0 0 0 0 0 0 0 0 0 0 0 0 0 0 0 0 0 0 0 0 0 0 0 0 0 0 0 0 0 0 -0.00010681152"
           style="font-size:44.9557px;line-height:1.25;font-family:Lavi;-inkscape-font-specification:Lavi;text-align:center;text-anchor:middle"
           id="tspan347233">Reuben Tracey, Rustin Simons, Sami T, Sean Adams, Shadefalcon,</tspan></tspan></text>
    <text
       xml:space="preserve"
       style="font-style:normal;font-variant:normal;font-weight:normal;font-stretch:normal;font-size:12.9622px;line-height:0.01%;font-family:Arial;-inkscape-font-specification:Arial;text-align:center;letter-spacing:0px;word-spacing:0px;text-anchor:middle;white-space:pre;inline-size:1568.3;fill:#000000;fill-opacity:1;stroke:none;stroke-width:1.08019"
       x="1263.8057"
       y="257.33279"
       id="text299759"
       transform="matrix(0.95814815,0,0,1.0436799,28.701557,0)"><tspan
         x="1263.8057"
         y="257.33279"
         id="tspan347239"><tspan
   style="line-height:1.25"
   id="tspan347237"> </tspan>
</tspan><tspan
         x="1263.8057"
         y="265.4348"
         id="tspan347241">
</tspan><tspan
         x="1263.8057"
         y="308.72973"
         id="tspan347245"><tspan
           dx="0 0 0 0 0 0 0 0 0 0 0 0 0 0 0 0 0 0 0 0 0 0 0 0 0 0 0 0 0 0 0 0 0 0 0 0 0 0 0 0 0 0 0 0 0 0 0 -0.0001001358"
           style="font-size:51.8489px;line-height:1.25;font-family:Lavi;-inkscape-font-specification:Lavi"
           id="tspan347243">Meden wéedaná i meban ben wothem wolotheth. Áala withedim 93.</tspan></tspan></text>
    <text
       xml:space="preserve"
       style="font-style:normal;font-variant:normal;font-weight:normal;font-stretch:normal;font-size:11.12px;line-height:0.01%;font-family:Arial;-inkscape-font-specification:Arial;text-align:center;letter-spacing:0px;word-spacing:0px;text-anchor:middle;white-space:pre;inline-size:1614.98;fill:#000000;fill-opacity:1;stroke:none;stroke-width:0.926666"
       x="1219.4261"
       y="134.89848"
       id="text299745"
       transform="matrix(0.98446186,0,0,1.0157834,39.65837,0)"><tspan
         x="1219.4261"
         y="134.89848"
         id="tspan347249"><tspan
   style="line-height:1.25"
   id="tspan347247"> </tspan>
</tspan><tspan
         x="1219.4261"
         y="141.84903"
         id="tspan347251">
</tspan><tspan
         x="1219.4261"
         y="178.99078"
         id="tspan347255"><tspan
           style="font-size:44.48px;line-height:1.25;font-family:Lavi;-inkscape-font-specification:Lavi"
           id="tspan347253">Bíi dínonehóo dademelom hi wa (Creative Commons Attribution 3.0 Unported).
</tspan></tspan><tspan
         x="1219.4261"
         y="234.59079"
         id="tspan347259"><tspan
           style="font-size:44.48px;line-height:1.25;font-family:Lavi;-inkscape-font-specification:Lavi"
           id="tspan347257">Thad bel ne dademeth i thodeth.</tspan></tspan></text>
    <text
       xml:space="preserve"
       style="font-style:normal;font-variant:normal;font-weight:normal;font-stretch:normal;font-size:14.8435px;line-height:0.01%;font-family:Arial;-inkscape-font-specification:Arial;text-align:center;letter-spacing:0px;word-spacing:0px;text-anchor:middle;fill:#a72f14;fill-opacity:1;stroke:none;stroke-width:1.23696"
       x="1754.1469"
       y="330.30035"
       id="text299773"
       transform="scale(0.98905842,1.0110626)"><tspan
         sodipodi:role="line"
         x="1754.1469"
         y="335.48438"
         id="tspan299763"
         style="stroke-width:1.23696"><tspan
           x="1754.1469"
           y="330.30035"
           style="font-size:14.8435px;line-height:1.25;stroke-width:1.23696"
           id="tspan299761"> </tspan></tspan><tspan
         sodipodi:role="line"
         x="1754.1469"
         y="335.48587"
         id="tspan299767"
         style="stroke-width:1.23696"><tspan
           x="1754.1469"
           y="348.85471"
           style="font-size:14.8435px;line-height:1.25;stroke-width:1.23696"
           id="tspan299765" /></tspan><tspan
         sodipodi:role="line"
         x="1253.2518"
         y="407.70963"
         id="tspan299771"
         style="stroke-width:1.23696"><tspan
           x="1253.2518"
           y="407.70963"
           style="font-size:59.3739px;line-height:1.25;font-family:Lavi;-inkscape-font-specification:Lavi;stroke-width:1.23696"
           id="tspan299769">https://www.patreon.com/davidrevoy</tspan></tspan></text>
    <text
       xml:space="preserve"
       style="font-style:normal;font-variant:normal;font-weight:normal;font-stretch:normal;font-size:44.48px;line-height:0.01%;font-family:Arial;-inkscape-font-specification:Arial;text-align:center;letter-spacing:0px;word-spacing:0px;text-anchor:middle;white-space:pre;inline-size:784.931;fill:#000000;fill-opacity:1;stroke:none;stroke-width:0.926666"
       x="1240.3032"
       y="1477.5935"
       id="text299935"
       transform="matrix(0.98446186,0,0,1.0157834,18.22818,30)"><tspan
         x="1240.3032"
         y="1477.5935"
         id="tspan347263"><tspan
   style="line-height:1.25;font-family:Lavi;-inkscape-font-specification:Lavi"
   id="tspan347261">Áalathéle:</tspan>
</tspan><tspan
         x="1240.3032"
         y="1505.2537"
         id="tspan347265">
</tspan><tspan
         x="1240.3032"
         y="1533.1979"
         id="tspan347269"><tspan
           style="line-height:1.25;font-family:Lavi;-inkscape-font-specification:Lavi"
           id="tspan347267">David Tschumperlé (G'MIC)
</tspan></tspan><tspan
         x="1240.3032"
         y="1588.7979"
         id="tspan347273"><tspan
           style="line-height:1.25;font-family:Lavi;-inkscape-font-specification:Lavi"
           id="tspan347271">i olowod Krita bethu woho!
</tspan></tspan><tspan
         x="1240.3032"
         y="1644.3979"
         id="tspan347277"><tspan
           style="line-height:1.25;font-family:Lavi;-inkscape-font-specification:Lavi"
           id="tspan347275">Héedan Láadanedim: Yuli i Álo</tspan></tspan></text>
    <text
       xml:space="preserve"
       style="font-style:normal;font-variant:normal;font-weight:normal;font-stretch:normal;font-size:10.1194px;line-height:0.01%;font-family:Arial;-inkscape-font-specification:Arial;text-align:center;letter-spacing:0px;word-spacing:0px;text-anchor:middle;white-space:pre;inline-size:1245.22;fill:#000000;fill-opacity:1;stroke:none;stroke-width:0.843287"
       x="1328.5848"
       y="1627.6464"
       id="text299965"
       transform="matrix(0.9349154,0,0,1.0696155,3.0974176,42)"><tspan
         x="1328.5848"
         y="1627.6464"
         id="tspan347281"><tspan
           style="font-size:40.4778px;line-height:1.25;font-family:Lavi;-inkscape-font-specification:Lavi"
           id="tspan347279">Bíi wudeth hi thodeshub wodódin wobodibodenan hi wa:
</tspan></tspan><tspan
         x="1328.5848"
         y="1678.2436"
         id="tspan347285"><tspan
           style="font-size:40.4778px;line-height:1.25;font-family:Lavi;-inkscape-font-specification:Lavi"
           id="tspan347283">Krita i G'MIC, Xubuntu (GNU/Linux) beha </tspan></tspan></text>
    <text
       xml:space="preserve"
       style="font-style:normal;font-variant:normal;font-weight:normal;font-stretch:normal;font-size:13.8235px;line-height:0.01%;font-family:Arial;-inkscape-font-specification:Arial;text-align:center;letter-spacing:0px;word-spacing:0px;text-anchor:middle;white-space:pre;inline-size:304.789;display:inline;fill:#000000;fill-opacity:1;stroke:none;stroke-width:1.15196"
       x="162.29633"
       y="511.32578"
       id="text299979"
       transform="matrix(0.915269,0,0,1.092575,130.9795,0)"><tspan
         x="162.29633"
         y="511.32578"
         id="tspan347289"><tspan
   style="font-size:55.294px;line-height:1.25;font-family:Lavi;-inkscape-font-specification:Lavi"
   id="tspan347287">Áala!</tspan>
</tspan><tspan
         x="162.29633"
         y="534.27297"
         id="tspan347291">
</tspan><tspan
         x="162.29633"
         y="580.44466"
         id="tspan347295"><tspan
           style="font-size:55.294px;line-height:1.25;font-family:Lavi;-inkscape-font-specification:Lavi"
           id="tspan347293"> </tspan></tspan></text>
  </g>
</svg>
