<?xml version="1.0" encoding="UTF-8" standalone="no"?>
<!-- Created with Inkscape (http://www.inkscape.org/) -->

<svg
   id="svg2"
   version="1.1"
   inkscape:version="1.1.1 (3bf5ae0d25, 2021-09-20)"
   width="2481"
   height="3503"
   sodipodi:docname="E03P06.svg"
   xmlns:inkscape="http://www.inkscape.org/namespaces/inkscape"
   xmlns:sodipodi="http://sodipodi.sourceforge.net/DTD/sodipodi-0.dtd"
   xmlns:xlink="http://www.w3.org/1999/xlink"
   xmlns="http://www.w3.org/2000/svg"
   xmlns:svg="http://www.w3.org/2000/svg"
   xmlns:rdf="http://www.w3.org/1999/02/22-rdf-syntax-ns#"
   xmlns:cc="http://creativecommons.org/ns#"
   xmlns:dc="http://purl.org/dc/elements/1.1/">
  <sodipodi:namedview
     pagecolor="#ffffff"
     bordercolor="#666666"
     inkscape:pageopacity="0"
     inkscape:pageshadow="2"
     inkscape:window-width="1336"
     inkscape:window-height="725"
     id="namedview70"
     showgrid="false"
     inkscape:zoom="0.4"
     inkscape:cx="1283.75"
     inkscape:cy="3185"
     inkscape:current-layer="layer1"
     borderopacity="1"
     inkscape:pagecheckerboard="0"
     inkscape:window-x="15"
     inkscape:window-y="15"
     inkscape:window-maximized="0" />
  <metadata
     id="metadata8">
    <rdf:RDF>
      <cc:Work
         rdf:about="">
        <dc:format>image/svg+xml</dc:format>
        <dc:type
           rdf:resource="http://purl.org/dc/dcmitype/StillImage" />
        <dc:title />
      </cc:Work>
    </rdf:RDF>
  </metadata>
  <defs
     id="defs6" />
  <sodipodi:namedview
     pagecolor="#ffffff"
     bordercolor="#666666"
     borderopacity="1"
     objecttolerance="10"
     gridtolerance="10"
     guidetolerance="10"
     inkscape:pageopacity="0"
     inkscape:pageshadow="2"
     inkscape:window-width="1920"
     inkscape:window-height="1025"
     id="namedview4"
     showgrid="false"
     inkscape:zoom="0.36045077"
     inkscape:cx="833.73756"
     inkscape:cy="1133.7194"
     inkscape:window-x="0"
     inkscape:window-y="26"
     inkscape:window-maximized="1"
     inkscape:current-layer="layer3" />
  <g
     inkscape:groupmode="layer"
     id="layer2"
     inkscape:label="artwork"
     sodipodi:insensitive="true">
    <image
       xlink:href="../gfx_Pepper-and-Carrot_by-David-Revoy_E03P06.png"
       width="2481"
       height="3503"
       id="image10"
       x="0"
       y="0" />
  </g>
  <g
     inkscape:groupmode="layer"
     id="layer3"
     inkscape:label="speechbubbles">
    <path
       style="fill:#ffffff;stroke:none;stroke-width:1.08638"
       d="m 159.81742,952.9225 c 8.49342,-81.55976 79.27137,-143.92898 133.06261,-157.12247 53.79123,-13.19349 247.72282,-2.39882 267.54063,0 19.81793,2.39882 116.69826,11.65927 143.59382,54.83797 26.89568,43.17869 0.7933,188.6419 -61.49135,216.2283 -62.28454,27.5864 -249.13838,49.1757 -276.03406,44.3781 -26.89556,-4.7976 -216.58049,-43.1787 -206.67165,-158.3219 z"
       id="path3021"
       inkscape:connector-curvature="0"
       sodipodi:nodetypes="csssssc" />
    <path
       style="fill:#ffffff;stroke:none"
       d="m 789.88311,1097.2688 c -44.306,12.9389 -54.1082,2.7446 -64.3025,-9.8023 -10.1943,-12.5468 -18.0361,-25.0936 -28.6225,-25.8778 -10.5864,-0.7842 -23.9174,4.313 -33.3275,9.4101 -9.4102,5.0972 -16.507,-1.9213 -25.1329,-8.9789 -8.626,-7.0576 -62.695,-32.5825 -62.695,-32.5825 0,0 18.8203,41.1693 28.6225,51.7557 9.8022,10.5864 13.331,14.5073 18.4281,17.644 5.0972,3.1367 18.8203,9.0181 29.7988,6.2734 10.9785,-2.7446 19.9965,-10.5864 27.8383,-14.5072 7.8417,-3.9209 21.1532,-0.549 30.9554,7.2928 9.8022,7.8418 34.739,22.2706 51.9909,15.9972 17.2519,-6.2734 26.4464,-16.6245 26.4464,-16.6245 z"
       id="path3023"
       inkscape:connector-curvature="0"
       sodipodi:nodetypes="csssscssssssc" />
    <path
       style="fill:#ffffff;stroke:none;stroke-width:0.875277"
       d="m 1218.2497,3112.8885 c 2.8982,-69.2958 146.3048,-77.0654 220.4775,-81.1993 74.1726,-4.1339 271.0153,-18.6024 345.188,37.205 74.1726,55.8074 34.2336,105.4141 -11.4112,119.8826 -45.6446,14.4687 -65.6143,41.3389 -99.8477,41.3389 -34.2336,0 -306.2068,5.2166 -375.7371,-22.435 -37.0798,-14.7464 -81.5677,-25.4963 -78.6695,-94.7922 z"
       id="path3100"
       inkscape:connector-curvature="0"
       sodipodi:nodetypes="zsssssz" />
    <path
       style="fill:#ffffff;stroke:none;stroke-width:1px;stroke-linecap:butt;stroke-linejoin:miter;stroke-opacity:1"
       d="m 1116.307,3102.8707 c 15.5043,16.6969 26.238,26.8343 36.3754,25.6417 10.1374,-1.1926 22.0637,-1.789 29.2196,-11.33 7.1558,-9.5411 22.0637,-19.6785 28.6232,-17.2933 6.5595,2.3853 30.4122,11.9264 38.7607,29.2196 8.3484,17.2932 25.0453,-21.4674 25.0453,-21.4674 0,0 -23.2564,-25.6417 -28.6232,-28.6233 -5.3669,-2.9816 -19.6785,-16.1006 -42.3386,-0.5963 -22.6601,15.5043 -33.3938,32.7975 -45.3202,36.9717 -11.9263,4.1742 -31.0085,0.5963 -41.7422,-12.5227 z"
       id="path3137"
       inkscape:connector-curvature="0" />
  </g>
  <g
     inkscape:groupmode="layer"
     id="layer1"
     inkscape:label="txt">
    <text
       xml:space="preserve"
       style="font-style:normal;font-variant:normal;font-weight:normal;font-stretch:normal;font-size:48px;line-height:0.01%;font-family:Lavi;-inkscape-font-specification:Lavi;letter-spacing:0px;word-spacing:0px;white-space:pre;inline-size:477.806;fill:#000000;fill-opacity:1;stroke:none"
       x="214.28311"
       y="881.54645"
       id="text248980"
       transform="translate(-10)"><tspan
         x="214.28311"
         y="881.54645"
         id="tspan40891"><tspan
           style="line-height:1.25;text-align:center;text-anchor:middle"
           id="tspan40889">... i udoya máathuth </tspan></tspan><tspan
         x="214.28311"
         y="941.54646"
         id="tspan40895"><tspan
           style="line-height:1.25;text-align:center;text-anchor:middle"
           id="tspan40893">údehú mehabelid </tspan></tspan><tspan
         x="214.28311"
         y="1001.5465"
         id="tspan40899"><tspan
           style="line-height:1.25;text-align:center;text-anchor:middle"
           id="tspan40897">óowababí wohóowabo </tspan></tspan><tspan
         x="214.28311"
         y="1061.5465"
         id="tspan40903"><tspan
           style="line-height:1.25;text-align:center;text-anchor:middle"
           id="tspan40901">woyedeha...</tspan></tspan></text>
    <text
       xml:space="preserve"
       style="font-style:normal;font-variant:normal;font-weight:normal;font-stretch:normal;font-size:48px;line-height:0.01%;font-family:Lavi;-inkscape-font-specification:Lavi;letter-spacing:0px;word-spacing:0px;white-space:pre;inline-size:505.001;fill:#000000;fill-opacity:1;stroke:none"
       x="1284.4519"
       y="3123.178"
       id="text249002"
       transform="translate(-12,-2)"><tspan
         x="1284.4519"
         y="3123.178"
         id="tspan40907"><tspan
           style="line-height:1.25;text-align:center;text-anchor:middle"
           id="tspan40905">... i dóol, laleth nedebe </tspan></tspan><tspan
         x="1284.4519"
         y="3183.178"
         id="tspan40911"><tspan
           style="line-height:1.25;text-align:center;text-anchor:middle"
           id="tspan40909">yáalalóowamidede</tspan></tspan></text>
  </g>
</svg>
