<?xml version="1.0" encoding="UTF-8" standalone="no"?>
<svg
   xmlns:dc="http://purl.org/dc/elements/1.1/"
   xmlns:cc="http://creativecommons.org/ns#"
   xmlns:rdf="http://www.w3.org/1999/02/22-rdf-syntax-ns#"
   xmlns:svg="http://www.w3.org/2000/svg"
   xmlns="http://www.w3.org/2000/svg"
   xmlns:xlink="http://www.w3.org/1999/xlink"
   xmlns:sodipodi="http://sodipodi.sourceforge.net/DTD/sodipodi-0.dtd"
   xmlns:inkscape="http://www.inkscape.org/namespaces/inkscape"
   sodipodi:docname="E35P11.svg"
   height="3503"
   width="2481"
   inkscape:version="0.92.5 (2060ec1f9f, 2020-04-08)"
   version="1.1"
   id="svg2">
  <metadata
     id="metadata8">
    <rdf:RDF>
      <cc:Work
         rdf:about="">
        <dc:format>image/svg+xml</dc:format>
        <dc:type
           rdf:resource="http://purl.org/dc/dcmitype/StillImage" />
        <dc:title />
      </cc:Work>
    </rdf:RDF>
  </metadata>
  <defs
     id="defs6">
    <filter
       height="1.014349"
       width="1.0044414"
       y="-0.0071745174"
       x="-0.0022207188"
       inkscape:label="deevad outline effect"
       id="filter4375-4-1-1-1-9-3-2-3-8-7-6-4-9"
       style="color-interpolation-filters:sRGB">
      <feFlood
         result="flood"
         flood-color="rgb(95,141,211)"
         flood-opacity="1"
         id="feFlood4377-7-9-0-8-1-6-9-6-7-5-32-7-4" />
      <feComposite
         result="composite1"
         operator="in"
         in="flood"
         in2="SourceGraphic"
         id="feComposite4379-3-8-8-2-77-7-1-0-9-9-0-6-8" />
      <feMorphology
         result="result3"
         radius="4"
         operator="dilate"
         id="feMorphology4393-1-0-49-8-9-5-2-6-2-2-6-5-1" />
      <feComposite
         result="composite2"
         operator="over"
         in="SourceGraphic"
         in2="result3"
         id="feComposite4385-9-5-7-0-8-3-7-2-0-2-1-6-2" />
    </filter>
  </defs>
  <sodipodi:namedview
     inkscape:pagecheckerboard="0"
     inkscape:snap-global="false"
     inkscape:document-rotation="0"
     inkscape:current-layer="layer1"
     inkscape:window-maximized="1"
     inkscape:window-y="27"
     inkscape:window-x="0"
     inkscape:cy="623.73702"
     inkscape:cx="1301.4695"
     inkscape:zoom="0.42729428"
     showgrid="false"
     id="namedview4"
     inkscape:window-height="704"
     inkscape:window-width="1366"
     inkscape:pageshadow="2"
     inkscape:pageopacity="0"
     guidetolerance="10"
     gridtolerance="10"
     objecttolerance="10"
     borderopacity="1"
     bordercolor="#666666"
     pagecolor="#ffffff" />
  <g
     sodipodi:insensitive="true"
     inkscape:label="artwork"
     id="layer2"
     inkscape:groupmode="layer">
    <image
       sodipodi:absref="/home/juanjo/Comics/lang-ep-35/es/../gfx_Pepper-and-Carrot_by-David-Revoy_E35P11.png"
       xlink:href="../gfx_Pepper-and-Carrot_by-David-Revoy_E35P11.png"
       width="2481"
       height="3503"
       id="image10"
       x="0"
       y="0" />
  </g>
  <g
     inkscape:label="speechbubbles"
     id="layer3"
     inkscape:groupmode="layer">
    <path
       sodipodi:nodetypes="zssssz"
       inkscape:connector-curvature="0"
       id="path4040-4-9-2"
       d="m 692.7246,1526.6704 c 28.1693,-24.9106 272.04455,-35.5556 336.641,7.541 53.9173,35.9724 32.8807,122.5341 -15.0706,141.6334 -47.95088,19.099 -207.46599,13.6696 -277.37785,3.2265 -66.56578,-9.9423 -77.74329,-36.2614 -81.01761,-88.8787 -1.33637,-21.4761 8.65558,-38.612 36.82506,-63.5222 z"
       style="color:#000000;display:inline;overflow:visible;visibility:visible;fill:#ffffff;fill-opacity:1;fill-rule:nonzero;stroke:none;stroke-width:1.05826px;marker:none;enable-background:accumulate" />
    <path
       sodipodi:nodetypes="ccsc"
       inkscape:connector-curvature="0"
       id="path5010-4"
       d="m 669.06932,339.81223 c 33.46845,54.26318 16.77932,109.75225 -42.25383,148.97796 101.91057,-50.70471 112.5118,-145.0271 95.84592,-167.01491 -16.31806,-21.52888 -53.59209,18.03695 -53.59209,18.03695 z"
       style="color:#000000;display:inline;overflow:visible;visibility:visible;fill:#ffffff;fill-opacity:1;fill-rule:nonzero;stroke:none;stroke-width:1.36564004px;marker:none;enable-background:accumulate" />
    <path
       sodipodi:nodetypes="csssc"
       inkscape:connector-curvature="0"
       id="path3280-8-1"
       d="M 1234.5215 90.296875 C 1201.5221 92.143638 1168.5287 97.205789 1137.0511 107.47053 C 1126.3735 111.45494 1116.6567 119.16714 1112.2059 129.88319 C 1103.5393 147.8034 1103.3571 169.04392 1109.4277 187.78516 C 1115.6775 204.5467 1130.371 217.05916 1146.7394 223.50916 C 1164.0451 230.36581 1182.811 231.81812 1201.1692 233.52861 C 1222.6895 235.26199 1244.334 236.13967 1265.9056 234.9405 C 1292.9588 232.69587 1320.0551 225.33622 1343.0351 210.55925 C 1357.8553 199.31639 1364.8034 179.71546 1362.8195 161.50562 C 1361.789 145.95206 1356.6368 129.91665 1345.2036 118.86182 C 1334.457 108.85422 1319.9551 104.69185 1306.1553 100.8118 C 1282.8327 94.440103 1258.78 89.991741 1234.5215 90.296875 z "
       style="display:inline;fill:#ffffff;stroke:none;stroke-width:0.424687" />
    <path
       sodipodi:nodetypes="cscssssc"
       inkscape:connector-curvature="0"
       id="path4546-6-7"
       d="m 1954.5856,80.042241 c -41.3101,0.406432 -83.7721,6.568789 -117.8159,22.208449 -28.3753,13.16571 -52.1366,31.61855 -61.7081,53.53875 -5.3211,13.03951 -7.0807,26.75881 -4.6711,40.16175 4.1008,21.10953 20.5842,40.74776 43.3022,56.00596 18.9404,12.70148 43.241,22.1213 69.8125,26.47524 64.4997,12.34459 131.7187,17.93543 198.8157,19.84518 63.7725,1.52074 128.4801,-1.50162 189.7995,-13.43241 40.2244,-8.85512 78.1881,-24.40452 102.4035,-47.26665 19.736,-19.38443 25.4893,-43.2101 24.3042,-65.9967 -0.7775,-21.44646 -9.9349,-43.71351 -32.53,-60.02958 -21.3922,-15.127089 -52.8837,-22.876397 -84.0703,-24.641498 -77.0185,-7.607729 -155.1577,-5.079663 -232.7611,-6.383948 -31.6254,-0.270672 -63.252,-0.607176 -94.8811,-0.484543 z"
       style="color:#000000;display:inline;overflow:visible;visibility:visible;fill:#ffffff;fill-opacity:1;fill-rule:nonzero;stroke:none;stroke-width:0.87279606px;marker:none;enable-background:accumulate" />
    <path
       sodipodi:nodetypes="zssssz"
       inkscape:connector-curvature="0"
       id="path4040-4-9"
       d="m 552.76188,1388.2962 c 31.93806,-25.3329 308.44158,-39.6345 381.68011,2.4936 61.13111,35.164 37.27981,122.0411 -17.08671,141.8593 -54.36626,19.818 -235.22294,16.7802 -314.48834,7.3854 -75.47159,-8.9443 -88.14456,-35.0958 -91.85696,-87.6639 -1.51515,-21.4561 9.81361,-38.7418 41.7519,-64.0744 z"
       style="color:#000000;display:inline;overflow:visible;visibility:visible;fill:#ffffff;fill-opacity:1;fill-rule:nonzero;stroke:none;stroke-width:0.985823px;marker:none;enable-background:accumulate" />
    <path
       inkscape:connector-curvature="0"
       id="path1079"
       d="m 1095.4477,1635.3711 c -34.0836,0.6543 -68.1363,2.353 -102.16038,4.3311 -21.17819,1.4962 -42.62045,3.2443 -62.916,9.6027 -26.14366,9.0393 -46.96061,29.6983 -57.70838,54.0143 -4.94891,11.34 -8.41454,23.2441 -10.98764,35.2698 -2.3487,12.1244 -2.01691,25.0145 3.04134,36.5008 5.83266,14.094 15.63668,26.2836 26.10803,37.4942 19.79319,20.2167 46.5524,34.5045 75.36415,38.256 24.85915,3.9234 49.98068,6.0371 75.07148,8.0593 41.8106,2.6716 83.7598,3.2248 125.6422,2.0946 35.2289,-1.0429 70.453,-3.334 105.3918,-7.8518 18.5702,-2.8512 37.5094,-7.3645 53.0967,-17.8946 15.148,-10.4824 25.4159,-26.7383 29.3323,-44.1386 3.9466,-13.2549 7.31,-27.3799 4.0504,-41.1126 -4.0613,-16.4468 -13.0897,-31.1746 -21.5515,-45.8225 -8.8137,-14.3178 -20.2624,-27.8098 -35.7599,-35.817 -18.7561,-10.2598 -39.981,-15.0007 -60.5735,-20.6173 -32.5647,-8.1391 -66.3068,-10.6826 -99.8492,-11.4662 -15.1904,-0.5451 -30.3885,-1.0294 -45.5919,-0.9022 z"
       style="fill:#ffffff;fill-rule:evenodd;stroke:none;stroke-width:0.97317916px;stroke-linecap:butt;stroke-linejoin:miter;stroke-opacity:1" />
    <path
       sodipodi:nodetypes="csccc"
       inkscape:connector-curvature="0"
       id="path3072-12"
       d="m 1404.4998,1789.8153 c -45.9909,-29.4273 -78.0349,-27.5278 -104.8526,-18.0354 -25.7868,9.1275 -19.8278,10.3608 -19.8278,10.3608 l 10.5667,-48.0852 c -3.1179,-4.3789 71.5596,-1.8389 114.1137,55.7598 z"
       style="color:#000000;display:inline;overflow:visible;visibility:visible;fill:#ffffff;fill-opacity:1;fill-rule:nonzero;stroke:none;stroke-width:0.939237px;marker:none;enable-background:accumulate" />
    <path
       sodipodi:nodetypes="csssc"
       inkscape:connector-curvature="0"
       id="path3280-8-1-3"
       d="m 1364.4182,197.26099 c -44.3929,0.68501 -89.324,6.32199 -130.7182,22.3224 -33.934,14.99744 -61.4366,44.16867 -70.9484,79.02945 -6.1871,24.09497 -5.5987,49.11061 -5.2538,73.73537 1.5653,27.99938 16.4357,54.10943 36.9435,73.6381 12.119,11.77681 27.0431,20.56628 42.8225,27.11736 35.565,15.23619 74.5925,22.02113 113.3923,23.13852 29.1579,0.63397 58.3172,-0.36247 87.4673,-0.91335 36.1871,-1.13522 72.6284,-2.92891 108.0262,-10.71714 19.6757,-4.53411 39.5436,-11.13552 55.178,-23.85142 20.5284,-16.70284 33.7741,-40.40479 40.5626,-65.10629 6.9629,-25.94679 5.2593,-53.42606 -1.5559,-79.22619 -5.8756,-24.6612 -17.0515,-48.98653 -36.3979,-66.7058 -20.0133,-18.5613 -46.1155,-29.87988 -72.7653,-36.73032 -41.0141,-11.0156 -83.7847,-13.83791 -126.1673,-15.35151 -13.5246,-0.3807 -27.0563,-0.41056 -40.5856,-0.37918 z"
       style="display:inline;fill:#ffffff;stroke:none;stroke-width:0.86504" />
    <path
       sodipodi:nodetypes="csssc"
       inkscape:connector-curvature="0"
       id="path3280-8-1-1"
       d="m 2010.5328,209.41854 c -58.6326,0.51905 -118.305,9.31627 -172.3093,36.71618 -29.5523,16.1073 -54.0141,47.05952 -60.4424,84.39353 -6.1912,36.76262 -3.9211,75.2223 5.4451,111.01093 11.1921,33.5826 36.1031,59.08314 64.0439,74.20908 41.1293,23.80845 87.3709,32.56366 132.9198,36.39776 61.7613,5.82125 123.9116,11.51027 185.8508,5.85396 47.4089,-4.51735 94.9236,-18.74311 135.4279,-48.02423 23.185,-17.07448 44.8735,-38.87726 57.3415,-67.51711 10.5194,-23.32748 12.9704,-50.59266 9.5771,-76.32597 -4.1435,-30.84309 -18.2146,-59.6668 -38.9192,-79.96465 -24.7873,-25.29889 -56.5275,-38.9551 -87.8916,-49.71079 -42.6734,-14.19688 -87.0143,-20.45096 -131.2265,-24.14535 -33.2233,-2.50813 -66.5316,-2.97503 -99.8171,-2.89334 z"
       style="display:inline;fill:#ffffff;stroke:none;stroke-width:0.989548" />
    <path
       sodipodi:nodetypes="csssc"
       inkscape:connector-curvature="0"
       id="path3280-8-1-1-8"
       d="m 2034.7131,512.76953 c -42.0318,0.50527 -84.3926,10.14237 -121.8387,31.33808 -20.6889,12.29263 -36.3663,33.25685 -45.4281,56.74141 -8.7342,22.98325 -11.4701,48.57553 -8.285,73.17557 2.6636,20.03566 9.9821,39.68966 22.6966,54.67862 17.5486,21.03502 42.2555,34.11454 67.8409,38.66235 20.806,4.03337 41.9817,4.70801 63.0599,5.19662 13.7541,0.63952 27.4865,1.75591 41.2496,2.19021 41.639,1.71148 83.5331,1.39997 124.8379,-5.19659 26.3314,-3.50202 53.3289,-3.52094 78.8403,-12.28989 20.2785,-7.19199 35.64,-26.76846 41.3817,-48.82336 5.4907,-22.33978 5.9268,-45.74323 4.6313,-68.6973 -1.5379,-20.14159 -9.0225,-39.69992 -21.3047,-54.88115 -14.7464,-18.28977 -34.3197,-31.13251 -54.7348,-40.54723 -26.3543,-12.07545 -54.1878,-20.1181 -82.4452,-24.71664 -36.5439,-6.03523 -73.6029,-6.9876 -110.5017,-6.8307 z"
       style="display:inline;fill:#ffffff;stroke:none;stroke-width:0.73029983" />
    <path
       sodipodi:nodetypes="ccccccssc"
       inkscape:connector-curvature="0"
       id="path1081"
       d="m 1917.1509,703.14914 c -35.1448,34.55495 -40.918,43.76621 -48.2945,59.20991 -7.3765,15.44359 -1.4166,45.82505 15.3336,59.77726 16.7502,13.95231 20.6476,39.75145 6.4656,51.09426 -14.1819,11.34295 -70.6572,56.04997 -12.3413,98.68519 -52.1304,-50.93005 4.6214,-80.3316 15.046,-87.77901 10.4245,-7.44749 30.9525,-25.50425 13.4446,-59.50485 -17.5082,-34.00062 -21.7713,-50.818 31.7495,-83.72489 53.5207,-32.90685 -21.4035,-37.75787 -21.4035,-37.75787 z"
       style="fill:#ffffff;fill-rule:evenodd;stroke:none;stroke-width:1px;stroke-linecap:butt;stroke-linejoin:miter;stroke-opacity:1" />
    <path
       sodipodi:nodetypes="ccsc"
       inkscape:connector-curvature="0"
       id="path5010-4-3"
       d="m 1446.9857,482.25247 c 38.5518,83.9689 2.5856,139.06018 -54.1917,168.09629 98.918,-30.2652 116.1188,-134.92733 86.7076,-167.77583 -23.1309,-25.83416 -32.5159,-0.32046 -32.5159,-0.32046 z"
       style="color:#000000;display:inline;overflow:visible;visibility:visible;fill:#ffffff;fill-opacity:1;fill-rule:nonzero;stroke:none;stroke-width:1.4638px;marker:none;enable-background:accumulate" />
    <path
       sodipodi:nodetypes="cssssc"
       inkscape:connector-curvature="0"
       id="path4546-6-59"
       d="m 1710.9341,2324.0892 c 0.1396,-76.8955 -1.9817,-59.1167 156.3841,-57.6432 68.739,0.6396 150.308,7.7314 143.7753,114.5601 -5.1637,84.4423 -130.901,80.2914 -154.2725,82.6804 -23.2236,2.3739 -117.9728,-12.1364 -138.5725,-45.3977 -12.895,-20.821 -8.0693,-73.7916 -7.3144,-94.1996 z"
       style="color:#000000;display:inline;overflow:visible;visibility:visible;fill:#ffffff;fill-opacity:1;fill-rule:nonzero;stroke:none;stroke-width:0.73498619px;marker:none;enable-background:accumulate" />
    <path
       sodipodi:nodetypes="cccccccccccccc"
       inkscape:connector-curvature="0"
       id="path3100-2"
       d="M 686.19591,64.490493 C 628.22985,67.234476 571.48329,78.190729 514.273,85.73813 c -36.06651,5.547469 -72.02942,15.37792 -101.90902,33.71796 -18.91812,11.73616 -33.64253,28.4173 -40.4738,47.40485 -10.94539,26.76716 -11.39427,55.86554 -5.86595,83.57122 4.41256,20.43335 14.0794,40.71538 31.59052,55.73223 17.41894,15.21259 39.16824,26.7292 62.67159,34.06654 20.2938,6.97562 41.5847,11.7863 63.22814,14.66756 48.33154,6.99248 97.51052,8.7875 146.47945,8.39959 50.07661,-0.69136 100.08703,-5.48094 148.99273,-14.59343 24.38597,-4.24968 48.98071,-10.33521 69.51708,-22.59702 22.65587,-13.35361 40.64223,-32.29429 51.06314,-53.84631 4.553,-9.54361 6.77825,-19.77307 7.19697,-30.0285 0.85098,-13.17996 0.9377,-26.3852 1.26265,-39.57858 0.12289,-39.83658 -3.94499,-79.74759 -13.43993,-118.801104 -3.55153,-3.070192 -9.1044,-1.670868 -13.5158,-2.889423 C 843.26614,71.617445 764.89804,64.243542 686.19591,64.490493 Z"
       style="fill:#ffffff;stroke:none;stroke-width:1.41826522" />
    <path
       sodipodi:nodetypes="cscssc"
       inkscape:connector-curvature="0"
       id="path4186-80"
       d="m 1876.2442,2429.0319 c 29.6781,34.3855 -48.3918,61.0872 -32.7914,98.1006 6.1219,14.5249 50.1858,21.814 59.4409,88.3499 -23.107,-54.5774 -70.7535,-56.808 -83.5614,-79.4341 -24.3256,-42.971 15.5983,-74.4437 22.7675,-83.4264 9.5884,-12.0136 34.1444,-23.59 34.1444,-23.59 z"
       style="display:inline;fill:#ffffff;fill-rule:evenodd;stroke:none;stroke-width:1.14883995px;stroke-linecap:butt;stroke-linejoin:miter;stroke-opacity:1" />
    <path
       sodipodi:nodetypes="zssssz"
       inkscape:connector-curvature="0"
       id="path4040-4-9-3"
       d="m 266.97992,2086.542 c 13.37453,-13.964 129.16447,-22.406 159.83419,0.5429 25.59955,19.1552 15.61147,66.8586 -7.1553,77.8463 -22.76671,10.9877 -98.5031,9.7123 -131.69666,4.7305 -31.60485,-4.7428 -36.91183,-19.0595 -38.46644,-47.8849 -0.63452,-11.7653 4.10957,-21.2709 17.48421,-35.2348 z"
       style="color:#000000;display:inline;overflow:visible;visibility:visible;fill:#ffffff;fill-opacity:1;fill-rule:nonzero;stroke:none;stroke-width:0.472467px;marker:none;enable-background:accumulate" />
    <path
       sodipodi:nodetypes="ccsc"
       inkscape:connector-curvature="0"
       id="path5010-4-5"
       d="m 354.58902,2078.2586 c 35.58146,-4.2267 52.48817,-58.2989 28.13393,-95.1145 44.43236,49.6051 29.57055,64.2564 4.74971,120.5184 -6.58837,14.934 -32.88364,-25.4039 -32.88364,-25.4039 z"
       style="color:#000000;display:inline;overflow:visible;visibility:visible;fill:#ffffff;fill-opacity:1;fill-rule:nonzero;stroke:none;stroke-width:0.816531px;marker:none;enable-background:accumulate" />
  </g>
  <g
     inkscape:label="txt"
     id="layer1"
     inkscape:groupmode="layer">
    <text
       id="text4246-3-2-2"
       y="181.30602"
       x="660.90973"
       style="font-style:normal;font-variant:normal;font-weight:normal;font-stretch:normal;font-size:45px;line-height:1.25;font-family:Lavi;-inkscape-font-specification:Lavi;text-align:center;letter-spacing:0px;word-spacing:0px;text-anchor:middle;fill:#000000;fill-opacity:1;stroke:none"
       xml:space="preserve"><tspan
         id="tspan908"
         y="181.30602"
         x="667.94098"
         sodipodi:role="line"
         style="font-size:45px">Gracias por haber dejado </tspan><tspan
         id="tspan910"
         y="237.55602"
         x="667.94098"
         sodipodi:role="line"
         style="font-size:45px">a Carrot ir a buscarme </tspan><tspan
         id="tspan915"
         y="293.80603"
         x="660.90973"
         sodipodi:role="line"
         style="font-size:45px">una muda de ropa limpia.</tspan></text>
    <text
       id="text4246-3-2-2-3-3-3"
       y="179.79465"
       x="1235.6431"
       style="font-style:normal;font-variant:normal;font-weight:normal;font-stretch:normal;font-size:45px;line-height:1.25;font-family:Lavi;-inkscape-font-specification:Lavi;text-align:center;letter-spacing:0px;word-spacing:0px;text-anchor:middle;fill:#000000;fill-opacity:1;stroke:none"
       xml:space="preserve"><tspan
         id="tspan876-3"
         y="179.79465"
         x="1235.6431"
         sodipodi:role="line"
         style="font-size:45px">De nada.</tspan></text>
    <text
       id="text4246-3-2-2-3-3"
       y="292.4176"
       x="1403.865"
       style="font-style:normal;font-variant:normal;font-weight:normal;font-stretch:normal;font-size:45px;line-height:1.25;font-family:Lavi;-inkscape-font-specification:Lavi;text-align:center;letter-spacing:0px;word-spacing:0px;text-anchor:middle;fill:#000000;fill-opacity:1;stroke:none"
       xml:space="preserve"><tspan
         id="tspan926"
         y="292.4176"
         x="1410.8962"
         sodipodi:role="line"
         style="font-size:45px">Tú me has facilitado </tspan><tspan
         id="tspan930"
         y="348.6676"
         x="1403.865"
         sodipodi:role="line"
         style="font-size:45px">el trabajo, es lo</tspan><tspan
         y="404.9176"
         x="1403.865"
         sodipodi:role="line"
         style="font-size:45px"
         id="tspan76">mínimo que podía</tspan><tspan
         id="tspan934"
         y="461.1676"
         x="1403.865"
         sodipodi:role="line"
         style="font-size:45px">hacer por ti.</tspan></text>
    <text
       id="text4246-3-2-2-3-3-67"
       y="166.92047"
       x="2088.6965"
       style="font-style:normal;font-variant:normal;font-weight:normal;font-stretch:normal;font-size:45px;line-height:1.25;font-family:Lavi;-inkscape-font-specification:Lavi;text-align:center;letter-spacing:0px;word-spacing:0px;text-anchor:middle;fill:#000000;fill-opacity:1;stroke:none"
       xml:space="preserve"><tspan
         id="tspan898"
         y="166.92047"
         x="2088.6965"
         sodipodi:role="line"
         style="font-size:45px">Pero sabes, realmente</tspan><tspan
         id="tspan938"
         y="223.17047"
         x="2088.6965"
         sodipodi:role="line"
         style="font-size:45px">has hecho enfadar a Wasabi.</tspan></text>
    <text
       id="text4246-3-2-2-3-3-67-2"
       y="326.26599"
       x="2074.9941"
       style="font-style:normal;font-variant:normal;font-weight:normal;font-stretch:normal;font-size:45px;line-height:1.25;font-family:Lavi;-inkscape-font-specification:Lavi;text-align:center;letter-spacing:0px;word-spacing:0px;text-anchor:middle;fill:#000000;fill-opacity:1;stroke:none"
       xml:space="preserve"><tspan
         id="tspan912"
         y="326.26599"
         x="2082.0254"
         sodipodi:role="line"
         style="font-size:45px">Ella exige la perfección. </tspan><tspan
         id="tspan955"
         y="382.51599"
         x="2082.0254"
         sodipodi:role="line"
         style="font-size:45px">La has alterado con </tspan><tspan
         id="tspan957"
         y="438.76599"
         x="2082.0254"
         sodipodi:role="line"
         style="font-size:45px">tu desorden, tu ropa </tspan><tspan
         id="tspan959"
         y="495.01599"
         x="2074.9941"
         sodipodi:role="line"
         style="font-size:45px">y tu forma de llegar.</tspan></text>
    <text
       id="text4246-3-2-2-3-3-67-2-3"
       y="609.58289"
       x="2081.0774"
       style="font-style:normal;font-variant:normal;font-weight:normal;font-stretch:normal;font-size:45px;line-height:1.25;font-family:Lavi;-inkscape-font-specification:Lavi;text-align:center;letter-spacing:0px;word-spacing:0px;text-anchor:middle;fill:#000000;fill-opacity:1;stroke:none"
       xml:space="preserve"><tspan
         id="tspan1134"
         y="609.58289"
         x="2088.1086"
         sodipodi:role="line"
         style="font-size:45px">¡Además, la has </tspan><tspan
         id="tspan966"
         y="665.83289"
         x="2088.1086"
         sodipodi:role="line"
         style="font-size:45px">atacado! No te </tspan><tspan
         id="tspan968"
         y="722.08289"
         x="2081.0774"
         sodipodi:role="line"
         style="font-size:45px">hará concesiones.</tspan></text>
    <text
       id="text4246-3-2-2-3-3-6-67"
       y="2138.6455"
       x="349.56961"
       style="font-style:normal;font-variant:normal;font-weight:normal;font-stretch:normal;font-size:45px;line-height:1.25;font-family:Lavi;-inkscape-font-specification:Lavi;text-align:center;letter-spacing:0px;word-spacing:0px;text-anchor:middle;fill:#000000;fill-opacity:1;stroke:none"
       xml:space="preserve"><tspan
         id="tspan1191-3"
         y="2138.6455"
         x="349.56961"
         sodipodi:role="line"
         style="font-size:45px">Lo sé.</tspan></text>
    <text
       id="text4246-3-2-2-3-3-6"
       y="1438.3682"
       x="743.62054"
       style="font-style:normal;font-variant:normal;font-weight:normal;font-stretch:normal;font-size:45px;line-height:1.25;font-family:Lavi;-inkscape-font-specification:Lavi;text-align:center;letter-spacing:0px;word-spacing:0px;text-anchor:middle;fill:#000000;fill-opacity:1;stroke:none"
       xml:space="preserve"><tspan
         id="tspan909"
         y="1438.3682"
         x="750.65179"
         sodipodi:role="line"
         style="font-size:45px">Bueno, necesito </tspan><tspan
         id="tspan980"
         y="1494.6182"
         x="743.62054"
         sodipodi:role="line"
         style="font-size:45px">echar una siestecita.</tspan></text>
    <text
       id="text4246-3-2-2-3-3-6-6"
       y="1579.2286"
       x="863.08191"
       style="font-style:normal;font-variant:normal;font-weight:normal;font-stretch:normal;font-size:45px;line-height:1.25;font-family:Lavi;-inkscape-font-specification:Lavi;text-align:center;letter-spacing:0px;word-spacing:0px;text-anchor:middle;fill:#000000;fill-opacity:1;stroke:none"
       xml:space="preserve"><tspan
         id="tspan949"
         y="1579.2286"
         x="863.08191"
         sodipodi:role="line"
         style="font-size:45px">Partiremos</tspan><tspan
         id="tspan984"
         y="1635.4786"
         x="863.08191"
         sodipodi:role="line"
         style="font-size:45px">cuando despierte.</tspan></text>
    <text
       id="text4246-3-2-2-3-3-6-2"
       y="1713.861"
       x="1108.4032"
       style="font-style:normal;font-variant:normal;font-weight:normal;font-stretch:normal;font-size:45px;line-height:1.25;font-family:Lavi;-inkscape-font-specification:Lavi;text-align:center;letter-spacing:0px;word-spacing:0px;text-anchor:middle;fill:#000000;fill-opacity:1;stroke:none"
       xml:space="preserve"><tspan
         id="tspan958"
         y="1713.861"
         x="1108.4032"
         sodipodi:role="line"
         style="font-size:45px">Haz lo que tú quieras</tspan><tspan
         y="1770.111"
         x="1108.4032"
         sodipodi:role="line"
         style="font-size:45px"
         id="tspan92">siempre que no te</tspan><tspan
         id="tspan998"
         y="1826.361"
         x="1108.4032"
         sodipodi:role="line"
         style="font-size:45px">vayas muy lejos...</tspan></text>
    <text
       transform="matrix(0.71138619,-0.38856964,0.42362052,1.0933045,-1095.3818,1936.127)"
       id="text4580-5-0-6-2-8-5-9-9"
       y="1584.5073"
       x="787.65729"
       style="font-style:normal;font-variant:normal;font-weight:normal;font-stretch:normal;line-height:0%;font-family:Lavi;-inkscape-font-specification:Lavi;letter-spacing:0px;word-spacing:0px;display:inline;fill:#ffffff;fill-opacity:1;stroke:#5f8dd3;stroke-width:0.99236202;stroke-miterlimit:4;stroke-dasharray:none;stroke-opacity:1;filter:url(#filter4375-4-1-1-1-9-3-2-3-8-7-6-4-9)"
       xml:space="preserve"><tspan
         style="font-size:70px;line-height:1.25;fill:#ffffff;stroke:#5f8dd3"
         y="1584.5073"
         x="787.65729"
         id="tspan4582-6-9-1-3-9-5-3-3"
         sodipodi:role="line"> Splush</tspan></text>
    <text
       id="text4246-3-2-2-3-3-6-2-9"
       y="2343.0232"
       x="1865.2649"
       style="font-style:normal;font-variant:normal;font-weight:normal;font-stretch:normal;font-size:45px;line-height:1.25;font-family:Lavi;-inkscape-font-specification:Lavi;text-align:center;letter-spacing:0px;word-spacing:0px;text-anchor:middle;fill:#000000;fill-opacity:1;stroke:none"
       xml:space="preserve"><tspan
         id="tspan1080"
         y="2343.0232"
         x="1872.2961"
         sodipodi:role="line"
         style="font-size:45px">¡Qué bruja </tspan><tspan
         id="tspan1007"
         y="2399.2732"
         x="1865.2649"
         sodipodi:role="line"
         style="font-size:45px">tan singular!</tspan></text>
  </g>
</svg>
