<?xml version="1.0" encoding="UTF-8" standalone="no"?>
<!-- Created with Inkscape (http://www.inkscape.org/) -->

<svg
   xmlns:dc="http://purl.org/dc/elements/1.1/"
   xmlns:cc="http://creativecommons.org/ns#"
   xmlns:rdf="http://www.w3.org/1999/02/22-rdf-syntax-ns#"
   xmlns:svg="http://www.w3.org/2000/svg"
   xmlns="http://www.w3.org/2000/svg"
   xmlns:xlink="http://www.w3.org/1999/xlink"
   xmlns:sodipodi="http://sodipodi.sourceforge.net/DTD/sodipodi-0.dtd"
   xmlns:inkscape="http://www.inkscape.org/namespaces/inkscape"
   id="svg2"
   version="1.1"
   inkscape:version="0.48.5 r10040"
   width="2481"
   height="3503"
   sodipodi:docname="E26P02.svg">
  <metadata
     id="metadata8">
    <rdf:RDF>
      <cc:Work
         rdf:about="">
        <dc:format>image/svg+xml</dc:format>
        <dc:type
           rdf:resource="http://purl.org/dc/dcmitype/StillImage" />
        <dc:title />
      </cc:Work>
    </rdf:RDF>
  </metadata>
  <defs
     id="defs6">
    <filter
       style="color-interpolation-filters:sRGB"
       id="filter4375-4-1-1-15-1-3"
       inkscape:label="deevad outline effect">
      <feFlood
         id="feFlood4377-7-9-0-4-4-4"
         flood-opacity="1"
         flood-color="rgb(0,0,0)"
         result="flood" />
      <feComposite
         id="feComposite4379-3-8-8-6-0-7"
         in2="SourceGraphic"
         in="flood"
         operator="in"
         result="composite1" />
      <feMorphology
         id="feMorphology4393-1-0-49-8-2-7"
         operator="dilate"
         radius="0.69999999999999996"
         result="result3" />
      <feComposite
         id="feComposite4385-9-5-7-2-1-2"
         in2="result3"
         in="SourceGraphic"
         operator="over"
         result="composite2" />
    </filter>
    <filter
       style="color-interpolation-filters:sRGB"
       id="filter4375-4-1-1-15-1-3-0"
       inkscape:label="deevad outline effect">
      <feFlood
         id="feFlood4377-7-9-0-4-4-4-0"
         flood-opacity="1"
         flood-color="rgb(0,0,0)"
         result="flood" />
      <feComposite
         id="feComposite4379-3-8-8-6-0-7-3"
         in2="SourceGraphic"
         in="flood"
         operator="in"
         result="composite1" />
      <feMorphology
         id="feMorphology4393-1-0-49-8-2-7-4"
         operator="dilate"
         radius="0.90000000000000002"
         result="result3" />
      <feComposite
         id="feComposite4385-9-5-7-2-1-2-6"
         in2="result3"
         in="SourceGraphic"
         operator="over"
         result="composite2" />
    </filter>
  </defs>
  <sodipodi:namedview
     pagecolor="#ffffff"
     bordercolor="#666666"
     borderopacity="1"
     objecttolerance="10"
     gridtolerance="10"
     guidetolerance="10"
     inkscape:pageopacity="0"
     inkscape:pageshadow="2"
     inkscape:window-width="1292"
     inkscape:window-height="745"
     id="namedview4"
     showgrid="false"
     inkscape:zoom="0.43852551"
     inkscape:cx="1520.4324"
     inkscape:cy="745.12863"
     inkscape:window-x="66"
     inkscape:window-y="-8"
     inkscape:window-maximized="1"
     inkscape:current-layer="layer3"
     inkscape:snap-global="false" />
  <g
     inkscape:groupmode="layer"
     id="layer2"
     inkscape:label="artwork"
     sodipodi:insensitive="true">
    <image
       sodipodi:absref="C:\Users\Gwen\Documents\Academie_du_Gallo\Traduction_BD\peppercarrot_ep26_Books-Are-Great_lang-pack\lang\go\../gfx_Pepper-and-Carrot_by-David-Revoy_E26P02.png"
       xlink:href="../gfx_Pepper-and-Carrot_by-David-Revoy_E26P02.png"
       width="2481"
       height="3503"
       id="image10"
       x="0"
       y="0" />
  </g>
  <g
     inkscape:groupmode="layer"
     id="layer3"
     inkscape:label="speechbubbles">
    <path
       style="color:#000000;display:inline;overflow:visible;visibility:visible;fill:#ffffff;fill-opacity:1;fill-rule:nonzero;stroke:none;stroke-width:1.38120043px;marker:none;enable-background:accumulate"
       d="m 76.637746,661.00169 c -6.650401,-23.02207 4.173611,-127.41686 158.202194,-136.68431 154.02869,-9.26747 199.63198,74.87042 203.95339,106.31448 4.32143,31.44388 -3.95033,66.53509 -38.57494,91.14313 -30.83303,22.1727 -64.51768,22.6164 -117.22953,29.5048 -60.8108,8.8109 -156.08633,-5.0701 -183.406892,-29.5142 -27.320434,-24.44404 -12.736636,-19.55635 -22.944222,-60.7639 z"
       id="path3365-3"
       inkscape:connector-curvature="0"
       sodipodi:nodetypes="cssccsc" />
    <path
       style="color:#000000;fill:#ffffff;fill-opacity:1;fill-rule:nonzero;stroke:none;stroke-width:1.63566649px;marker:none;visibility:visible;display:inline;overflow:visible;enable-background:accumulate"
       d="m 181.80721,299.85613 c 12.78424,237.0465 54.14024,486.07479 196.83939,537.95645 -101.98827,-51.5144 -159.15651,-293.23681 -160.16302,-521.25539 -0.21343,-48.35172 -18.75685,-19.9626 -18.75685,-19.9626 z"
       id="path4440"
       inkscape:connector-curvature="0"
       sodipodi:nodetypes="ccscc" />
    <path
       style="fill:#ffffff;stroke:none"
       d="m 1120.891,89.996871 c 34.5123,-1.638879 201.2968,-9.405348 198.7027,148.654209 -3.2503,198.05326 -4.8879,288.5571 -183.4904,285.51445 C 944.2743,520.89755 982.88297,401.44795 981.38091,251.76976 980.05115,119.25848 1028.2815,94.787021 1120.891,89.996871 z"
       id="path3280-8"
       inkscape:connector-curvature="0"
       sodipodi:nodetypes="csssc" />
    <path
       style="color:#000000;display:inline;overflow:visible;visibility:visible;fill:#ffffff;fill-opacity:1;fill-rule:nonzero;stroke:none;stroke-width:1.45930743px;marker:none;enable-background:accumulate"
       d="m 1260.9254,841.10918 c -46.5522,5.25512 -90.1219,-52.2826 -82.2673,-117.43179 7.8551,-73.36812 7.6985,-80.57712 7.6985,-80.57712 l -55.1615,2.38205 c 0,0 13.3049,221.04208 129.7303,195.62686 z"
       id="path3072"
       inkscape:connector-curvature="0"
       inkscape:transform-center-x="-3.4248275"
       inkscape:transform-center-y="27.464172"
       sodipodi:nodetypes="ccccc" />
    <path
       style="fill:#ffffff;fill-rule:evenodd;stroke:none"
       d="m 978.16291,604.69543 c 39.03039,5.11161 77.87279,-2.70455 46.31819,-79.66335 30.6238,27.26336 81.0139,55.91826 116.7273,-9.70056 10.2287,83.15792 75.6309,35.64214 107.9665,-0.80479 -48.2308,86.57438 59.1424,48.56216 112.0668,17.33111 -59.596,108.58619 41.2842,49.33182 78.4847,51.58664 -78.6937,86.8271 -78.9873,149.70548 -47.979,182.40836 -77.3373,-24.1954 -58.6331,24.82907 -67.8704,52.55134 -84.0398,-79.98836 -128.7749,-61.67164 -152.7082,10.51032 -19.9357,-31.76746 -26.1931,-97.42532 -99.6845,3.50336 27.0246,-87.13058 -8.3985,-77.98501 -65.7491,-35.03404 8.9881,-29.67789 62.4084,-74.80735 -27.57229,-70.06867 56.20359,-28.21322 67.98989,-66.43179 0,-122.61972 z"
       id="path4584"
       inkscape:connector-curvature="0"
       sodipodi:nodetypes="ccccccccccccc" />
    <path
       style="fill:#ffffff;fill-opacity:1;stroke:none;stroke-width:2.08585453"
       d="m 1964.5313,211.16709 c -5.2558,-61.58545 42.4044,-90.79906 74.1445,-105.31155 40.226,-18.39252 343.4362,-37.469254 378.4534,14.08183 32.2497,47.47693 33.605,137.60772 -62.6927,180.72504 -96.2978,43.11715 -312.4794,15.23315 -339.8367,7.39378 -27.3574,-7.83954 -44.5973,-30.25351 -50.0685,-96.8891 z"
       id="path3659-8"
       inkscape:connector-curvature="0"
       sodipodi:nodetypes="cssssc" />
    <path
       style="fill:#ffffff;stroke:none;stroke-width:1.12429571"
       d="m 2187.8594,352.9469 c -0.8756,-41.87209 25.2691,-51.27448 51.8008,-57.16805 26.5317,-5.89345 108.9888,0.63901 102.9316,51.8773 -6.0571,51.23841 -45.9531,58.33952 -78.9162,56.07445 -32.9632,-2.2652 -71.0332,-11.10871 -75.8162,-50.7837 z"
       id="path3938"
       inkscape:connector-curvature="0"
       sodipodi:nodetypes="csssc" />
    <path
       style="color:#000000;display:inline;overflow:visible;visibility:visible;fill:#ffffff;fill-opacity:1;fill-rule:nonzero;stroke:none;stroke-width:1px;marker:none;enable-background:accumulate"
       d="m 2155.8807,413.81052 c 41.2209,-1.94348 55.6641,-5.00539 71.331,-50.72285 15.6671,-45.71761 32.4158,-38.48457 32.4158,-38.48457 l 7.7097,32.88324 c 0,0 -40.1576,94.75832 -111.4565,56.32418 z"
       id="path3072-5"
       inkscape:connector-curvature="0" />
    <path
       style="color:#000000;fill:#ffffff;fill-opacity:1;fill-rule:nonzero;stroke:none;stroke-width:1.19104683px;marker:none;visibility:visible;display:inline;overflow:visible;enable-background:accumulate"
       d="m 1899.4896,993.99779 c 0.3219,-57.25218 44.2509,-127.26315 245.1793,-134.5503 392.0462,-14.21852 265.6781,133.44793 264.0388,170.35731 -1.6391,36.9091 -11.3656,101.9217 -40.8704,111.149 -29.5047,9.2274 -136.395,14.3058 -201.9874,15.4577 -56.6368,1.1514 -147.9619,5.4488 -226.4258,-47.3735 -55.8672,-49.5548 -41.4563,-83.6449 -39.9345,-115.04021 z"
       id="path3365-5"
       inkscape:connector-curvature="0"
       sodipodi:nodetypes="csccccc" />
    <path
       style="fill:#ffffff;stroke:none;stroke-width:1"
       d="m 2198.814,1073.9531 c -28.3487,40.1842 -21.9808,80.5701 -11.3851,96.8521 10.5958,16.2818 -14.1224,62.2852 -32.5966,66.3613 42.1318,-2.545 63.2033,-58.0225 57.8284,-106.2564 -1.5781,-14.1607 13.8192,-31.6694 32.5349,-30.4271 17.298,1.1482 33.3984,-19.3288 33.3984,-19.3288 z"
       id="path3276"
       inkscape:connector-curvature="0"
       sodipodi:nodetypes="cscsscc" />
    <path
       style="fill:#ffffff;stroke:none;stroke-width:1.14297438"
       d="m 61.738052,2231.8244 c -1.330325,-115.6716 19.736254,-159.2399 302.684928,-172.5534 391.60064,-18.426 424.24866,78.9421 424.01359,214.6852 -0.25362,146.4577 -231.38217,154.1391 -420.57519,155.5662 -326.484015,2.4628 -296.875688,-79.2482 -306.123328,-197.698 z"
       id="path3280-8-0"
       inkscape:connector-curvature="0"
       sodipodi:nodetypes="csssc" />
    <path
       style="fill:#ffffff;stroke:none;stroke-width:1.02124143"
       d="m 753.98538,2552.522 c 3.10909,90.2631 -10.41774,124.2924 -202.98784,135.0917 -266.51675,14.9461 -290.61968,-60.9883 -293.04418,-166.9165 -2.61585,-114.2894 124.87244,-104.2221 248.83427,-117.2657 220.78212,-23.2316 238.64028,56.6711 247.19775,149.0905 z"
       id="path3280-8-0-3"
       inkscape:connector-curvature="0"
       sodipodi:nodetypes="csssc" />
    <path
       style="color:#000000;fill:#ffffff;fill-opacity:1;fill-rule:nonzero;stroke:none;stroke-width:1.01475489px;marker:none;visibility:visible;display:inline;overflow:visible;enable-background:accumulate"
       d="m 1695.0129,2882.2811 c -20.8335,-35.5133 -29.041,-128.6457 153.2755,-116.517 141.751,7.4146 171.1074,17.9823 181.709,50.3202 8.6264,32.338 25.0819,107.8528 -88.4293,113.9927 -103.9263,3.1567 -211.9817,0.9294 -246.5552,-47.7959 z"
       id="path3525"
       inkscape:connector-curvature="0"
       sodipodi:nodetypes="ccccc" />
    <path
       style="color:#000000;display:inline;overflow:visible;visibility:visible;fill:#ffffff;fill-opacity:1;fill-rule:nonzero;stroke:none;stroke-width:1px;marker:none;enable-background:accumulate"
       d="m 792.35455,2651.1806 c -39.68166,14.7644 -54.70734,17.7108 -90.98256,-18.7444 -36.27518,-36.4553 -48.61836,-22.9531 -48.61836,-22.9531 l 8.24342,33.8557 c 0,0 82.41413,72.4693 131.3575,7.8418 z"
       id="path3072-6"
       inkscape:connector-curvature="0" />
    <path
       style="color:#000000;display:inline;overflow:visible;visibility:visible;fill:#ffffff;fill-opacity:1;fill-rule:nonzero;stroke:none;stroke-width:1px;marker:none;enable-background:accumulate"
       d="m 1906.8058,2855.5525 c -11.668,-40.4939 -52.7016,-101.4293 -82.6596,-133.4811 -38.3689,-41.0507 -76.6896,-47.66 -96.3769,-53.0051 -19.6875,-5.3452 -31.2982,12.7891 -48.9592,14.1277 -15.1734,1.1505 -26.1286,-4.806 -34.0232,-15.7096 11.8944,27.0342 36.3658,29.4886 46.823,26.0434 10.4575,-3.4453 25.7657,-14.6687 44.6745,-6.0161 25.1659,11.5161 49.7608,25.4196 81.7002,66.2837 28.865,36.9308 50.1191,73.1577 48.6688,87.618 -1.4504,14.4605 40.1524,14.1391 40.1524,14.1391 z"
       id="path4562"
       inkscape:connector-curvature="0"
       sodipodi:nodetypes="cssscssssc" />
  </g>
  <g
     inkscape:groupmode="layer"
     id="layer1"
     inkscape:label="txt">
    <path
       style="color:#000000;fill:#ffffff;fill-opacity:1;fill-rule:nonzero;stroke:none;stroke-width:1.46711695px;marker:none;visibility:visible;display:inline;overflow:visible;enable-background:accumulate"
       d="m 41.428198,193.17598 c -3.02666,-17.86536 26.303291,-70.89897 211.829972,-71.58653 243.58876,-0.90273 229.37273,89.12572 215.76729,115.57395 -11.62761,22.60353 -37.29932,35.13432 -76.65032,52.0846 -39.35099,16.95028 -150.95081,18.99654 -196.35127,14.23261 C 150.62373,298.71643 94.395245,297.77701 57.454268,266.85216 31.217583,244.88833 44.454871,197.94003 41.428198,193.17598 z"
       id="path3365"
       inkscape:connector-curvature="0"
       sodipodi:nodetypes="csszcsc" />
    <text
       xml:space="preserve"
       style="font-style:normal;font-variant:normal;font-weight:normal;font-stretch:normal;text-align:center;line-height:0%;letter-spacing:0px;word-spacing:0px;text-anchor:middle;fill:#000000;fill-opacity:1;stroke:none;font-family:Lavi;-inkscape-font-specification:Lavi"
       x="274.7869"
       y="193.31723"
       id="text4246"
       sodipodi:linespacing="0%"><tspan
         sodipodi:role="line"
         style="font-size:45px;line-height:1.25"
         x="282.69705"
         y="193.31723"
         id="tspan105">… e q’en </tspan><tspan
         sodipodi:role="line"
         style="font-size:45px;line-height:1.25"
         x="274.7869"
         y="249.56723"
         id="tspan5796">chapette l’uelh…</tspan></text>
    <text
       xml:space="preserve"
       style="font-style:normal;font-variant:normal;font-weight:normal;font-stretch:normal;text-align:center;line-height:0%;letter-spacing:0px;word-spacing:0px;text-anchor:middle;fill:#000000;fill-opacity:1;stroke:none;font-family:Lavi;-inkscape-font-specification:Lavi"
       x="260.44312"
       y="597.30139"
       id="text4246-3"
       sodipodi:linespacing="0%"><tspan
         sodipodi:role="line"
         style="font-size:45px;line-height:1.25"
         x="268.35327"
         y="597.30139"
         id="tspan118">… la porte </tspan><tspan
         sodipodi:role="line"
         style="font-size:45px;line-height:1.25"
         x="268.35327"
         y="653.55139"
         id="tspan5803">devraet s’ovrir </tspan><tspan
         sodipodi:role="line"
         style="font-size:45px;line-height:1.25"
         x="260.44312"
         y="709.80139"
         id="tspan5805">toute soule !</tspan></text>
    <text
       xml:space="preserve"
       style="font-size:12.18017006px;font-style:normal;font-variant:normal;font-weight:normal;font-stretch:normal;text-align:center;line-height:0%;letter-spacing:0px;word-spacing:0px;text-anchor:middle;fill:#000000;fill-opacity:1;stroke:none;font-family:Lavi;-inkscape-font-specification:Lavi"
       x="1128.2716"
       y="192.50969"
       id="text4246-5"
       transform="scale(1.0150142,0.98520791)"
       sodipodi:linespacing="0%"><tspan
         sodipodi:role="line"
         style="font-size:45px;font-style:normal;font-variant:normal;font-weight:normal;font-stretch:normal;text-align:center;line-height:1.25;writing-mode:lr-tb;text-anchor:middle;font-family:Lavi;-inkscape-font-specification:'Lavi, Normal'"
         x="1136.1818"
         y="192.50969"
         id="tspan159">Il consaelhent </tspan><tspan
         sodipodi:role="line"
         style="font-size:45px;font-style:normal;font-variant:normal;font-weight:normal;font-stretch:normal;text-align:center;line-height:1.25;writing-mode:lr-tb;text-anchor:middle;font-family:Lavi;-inkscape-font-specification:'Lavi, Normal'"
         x="1136.1818"
         y="248.75969"
         id="tspan5834">memme de </tspan><tspan
         sodipodi:role="line"
         style="font-size:45px;font-style:normal;font-variant:normal;font-weight:normal;font-stretch:normal;text-align:center;line-height:1.25;writing-mode:lr-tb;text-anchor:middle;font-family:Lavi;-inkscape-font-specification:'Lavi, Normal'"
         x="1136.1818"
         y="305.0097"
         id="tspan5838">laesser son </tspan><tspan
         sodipodi:role="line"
         style="font-size:45px;font-style:normal;font-variant:normal;font-weight:normal;font-stretch:normal;text-align:center;line-height:1.25;writing-mode:lr-tb;text-anchor:middle;font-family:Lavi;-inkscape-font-specification:'Lavi, Normal'"
         x="1136.1818"
         y="361.2597"
         id="tspan5840">chapèo pour </tspan><tspan
         sodipodi:role="line"
         style="font-size:45px;font-style:normal;font-variant:normal;font-weight:normal;font-stretch:normal;text-align:center;line-height:1.25;writing-mode:lr-tb;text-anchor:middle;font-family:Lavi;-inkscape-font-specification:'Lavi, Normal'"
         x="1136.1818"
         y="417.5097"
         id="tspan5842">s’ensaover </tspan><tspan
         sodipodi:role="line"
         style="font-size:45px;font-style:normal;font-variant:normal;font-weight:normal;font-stretch:normal;text-align:center;line-height:1.25;writing-mode:lr-tb;text-anchor:middle;font-family:Lavi;-inkscape-font-specification:'Lavi, Normal'"
         x="1128.2716"
         y="473.7597"
         id="tspan5836">a son aeze !</tspan></text>
    <text
       xml:space="preserve"
       style="font-style:normal;font-variant:normal;font-weight:normal;font-stretch:normal;text-align:center;line-height:0%;letter-spacing:0px;word-spacing:0px;text-anchor:middle;fill:#000000;fill-opacity:1;stroke:none;font-family:Lavi;-inkscape-font-specification:Lavi"
       x="1200.27"
       y="616.10974"
       id="text4246-1"
       sodipodi:linespacing="0%"><tspan
         sodipodi:role="line"
         style="font-size:45px;font-style:normal;font-variant:normal;font-weight:bold;font-stretch:normal;line-height:1.25;font-family:Lavi;-inkscape-font-specification:Lavi Bold"
         x="1208.1802"
         y="616.10974"
         id="tspan167">Lez livrs, </tspan><tspan
         sodipodi:role="line"
         style="font-size:45px;font-style:normal;font-variant:normal;font-weight:bold;font-stretch:normal;line-height:1.25;font-family:Lavi;-inkscape-font-specification:Lavi Bold"
         x="1208.1802"
         y="672.35974"
         id="tspan5849">ça n’n ét-ti </tspan><tspan
         sodipodi:role="line"
         style="font-size:45px;font-style:normal;font-variant:normal;font-weight:bold;font-stretch:normal;line-height:1.25;font-family:Lavi;-inkscape-font-specification:Lavi Bold"
         x="1200.27"
         y="728.60974"
         id="tspan5851">d’ûne belle hate !</tspan></text>
    <text
       xml:space="preserve"
       style="font-style:normal;font-variant:normal;font-weight:normal;font-stretch:normal;text-align:center;line-height:0%;letter-spacing:0px;word-spacing:0px;text-anchor:middle;fill:#000000;fill-opacity:1;stroke:none;font-family:Lavi;-inkscape-font-specification:Lavi"
       x="2369.262"
       y="164.03572"
       id="text4246-5-5"
       sodipodi:linespacing="0%"><tspan
         sodipodi:role="line"
         style="font-size:45px;font-style:italic;font-variant:normal;font-weight:normal;font-stretch:normal;text-align:end;line-height:1.25;text-anchor:end;font-family:Lavi;-inkscape-font-specification:Lavi Italic"
         x="2381.7424"
         y="164.03572"
         id="tspan182">Saotez taloure </tspan><tspan
         sodipodi:role="line"
         style="font-size:45px;font-style:italic;font-variant:normal;font-weight:normal;font-stretch:normal;text-align:end;line-height:1.25;text-anchor:end;font-family:Lavi;-inkscape-font-specification:Lavi Italic"
         x="2381.7424"
         y="220.28572"
         id="tspan5867">par sus le permier </tspan><tspan
         sodipodi:role="line"
         style="font-size:45px;font-style:italic;font-variant:normal;font-weight:normal;font-stretch:normal;text-align:end;line-height:1.25;text-anchor:end;font-family:Lavi;-inkscape-font-specification:Lavi Italic"
         x="2381.7424"
         y="276.53571"
         id="tspan5869">muzoer. </tspan></text>
    <text
       xml:space="preserve"
       style="font-style:normal;font-variant:normal;font-weight:normal;font-stretch:normal;text-align:center;line-height:0%;letter-spacing:0px;word-spacing:0px;text-anchor:middle;fill:#000000;fill-opacity:1;stroke:none;font-family:Lavi;-inkscape-font-specification:Lavi"
       x="2266.8933"
       y="365.76685"
       id="text4246-1-3"
       sodipodi:linespacing="0%"><tspan
         sodipodi:role="line"
         style="font-size:45px;font-style:normal;font-variant:normal;font-weight:bold;font-stretch:normal;line-height:1.25;font-family:Lavi;-inkscape-font-specification:Lavi Bold"
         x="2266.8933"
         y="365.76685"
         id="tspan1013-7">Yan !</tspan></text>
    <text
       xml:space="preserve"
       style="color:#000000;font-style:normal;font-variant:normal;font-weight:normal;font-stretch:normal;font-size:12.00003719px;line-height:0.01%;font-family:Lavi;-inkscape-font-specification:'Lavi, Normal';font-variant-ligatures:normal;font-variant-caps:normal;font-variant-numeric:normal;font-feature-settings:normal;text-align:start;letter-spacing:0.00204969px;word-spacing:0px;writing-mode:lr-tb;text-anchor:start;display:inline;overflow:visible;visibility:visible;fill:#ffffff;fill-opacity:1;fill-rule:nonzero;stroke:#ffffff;stroke-width:0.0836072;stroke-linecap:butt;stroke-linejoin:miter;stroke-miterlimit:4;stroke-dasharray:none;stroke-dashoffset:0;stroke-opacity:1;marker:none;filter:url(#filter4375-4-1-1-15-1-3);enable-background:accumulate"
       x="1125.3203"
       y="1091.2349"
       id="text1702"
       transform="matrix(5.7002708,-3.8236609,4.4936667,6.6234627,-10758.403,-1062.624)"><tspan
         sodipodi:role="line"
         id="tspan1032"
         x="1125.3203"
         y="1091.2349"
         style="font-style:normal;font-variant:normal;font-weight:bold;font-stretch:normal;font-family:Lavi;-inkscape-font-specification:'Lavi Bold'">BOING</tspan></text>
    <text
       xml:space="preserve"
       style="color:#000000;font-style:normal;font-variant:normal;font-weight:normal;font-stretch:normal;font-size:12.00003719px;line-height:0.01%;font-family:Lavi;-inkscape-font-specification:'Lavi, Normal';font-variant-ligatures:normal;font-variant-caps:normal;font-variant-numeric:normal;font-feature-settings:normal;text-align:start;letter-spacing:0.00204969px;word-spacing:0px;writing-mode:lr-tb;text-anchor:start;display:inline;overflow:visible;visibility:visible;fill:#ffffff;fill-opacity:1;fill-rule:nonzero;stroke:#ffffff;stroke-width:0.12600572;stroke-linecap:butt;stroke-linejoin:miter;stroke-miterlimit:4;stroke-dasharray:none;stroke-dashoffset:0;stroke-opacity:1;marker:none;filter:url(#filter4375-4-1-1-15-1-3-0);enable-background:accumulate"
       x="1125.3203"
       y="1091.2349"
       id="text1702-6"
       transform="matrix(3.1869294,3.2574207,-3.7023322,3.8125721,2178.3718,-6093.6173)"><tspan
         sodipodi:role="line"
         id="tspan1032-0"
         x="1125.3203"
         y="1091.2349"
         style="font-style:normal;font-variant:normal;font-weight:bold;font-stretch:normal;font-family:Lavi;-inkscape-font-specification:'Lavi Bold';stroke-width:0.12600572;stroke-miterlimit:4;stroke-dasharray:none">BOING</tspan></text>
    <text
       xml:space="preserve"
       style="font-style:normal;font-variant:normal;font-weight:normal;font-stretch:normal;text-align:center;line-height:0%;letter-spacing:0px;word-spacing:0px;text-anchor:middle;fill:#000000;fill-opacity:1;stroke:none;font-family:Lavi;-inkscape-font-specification:Lavi"
       x="2347.1755"
       y="944.49329"
       id="text4246-5-5-2"
       sodipodi:linespacing="0%"><tspan
         sodipodi:role="line"
         style="font-size:45px;font-style:italic;font-variant:normal;font-weight:normal;font-stretch:normal;text-align:end;line-height:1.25;text-anchor:end;font-family:Lavi;-inkscape-font-specification:Lavi Italic"
         x="2359.656"
         y="944.49329"
         id="tspan211">« Vouz vouz sentirez </tspan><tspan
         sodipodi:role="line"
         style="font-size:45px;font-style:italic;font-variant:normal;font-weight:normal;font-stretch:normal;text-align:end;line-height:1.25;text-anchor:end;font-family:Lavi;-inkscape-font-specification:Lavi Italic"
         x="2359.656"
         y="1000.7433"
         id="tspan5880">come a chair. </tspan><tspan
         sodipodi:role="line"
         style="font-size:45px;font-style:italic;font-variant:normal;font-weight:normal;font-stretch:normal;text-align:end;line-height:1.25;text-anchor:end;font-family:Lavi;-inkscape-font-specification:Lavi Italic"
         x="2359.656"
         y="1056.9933"
         id="tspan5882">Pas de terbut. </tspan><tspan
         sodipodi:role="line"
         style="font-size:45px;font-style:italic;font-variant:normal;font-weight:normal;font-stretch:normal;text-align:end;line-height:1.25;text-anchor:end;font-family:Lavi;-inkscape-font-specification:Lavi Italic"
         x="2347.1755"
         y="1113.2433"
         id="tspan5884">‘ét ûne adercey. »</tspan></text>
    <text
       xml:space="preserve"
       style="font-style:normal;font-variant:normal;font-weight:normal;font-stretch:normal;text-align:center;line-height:0%;letter-spacing:0px;word-spacing:0px;text-anchor:middle;fill:#000000;fill-opacity:1;stroke:none;font-family:Lavi;-inkscape-font-specification:Lavi"
       x="423.50989"
       y="2145.9119"
       id="text4246-5-5-2-0"
       sodipodi:linespacing="0%"><tspan
         sodipodi:role="line"
         style="font-size:45px;font-style:italic;font-variant:normal;font-weight:normal;font-stretch:normal;text-align:center;line-height:1.25;text-anchor:middle;font-family:Lavi;-inkscape-font-specification:Lavi Italic"
         x="429.75012"
         y="2145.9119"
         id="tspan261">« Gaegnez d’étr a votr aeze </tspan><tspan
         sodipodi:role="line"
         style="font-size:45px;font-style:italic;font-variant:normal;font-weight:normal;font-stretch:normal;text-align:center;line-height:1.25;text-anchor:middle;font-family:Lavi;-inkscape-font-specification:Lavi Italic"
         x="429.75012"
         y="2202.1619"
         id="tspan5902">den la taile berzilhante san danjer : </tspan><tspan
         sodipodi:role="line"
         style="font-size:45px;font-style:italic;font-variant:normal;font-weight:normal;font-stretch:normal;text-align:center;line-height:1.25;text-anchor:middle;font-family:Lavi;-inkscape-font-specification:Lavi Italic"
         x="429.75012"
         y="2258.4119"
         id="tspan5900">lez iraegnes foto-sintétiqe se </tspan><tspan
         sodipodi:role="line"
         style="font-size:45px;font-style:italic;font-variant:normal;font-weight:normal;font-stretch:normal;text-align:center;line-height:1.25;text-anchor:middle;font-family:Lavi;-inkscape-font-specification:Lavi Italic"
         x="429.75012"
         y="2314.6619"
         id="tspan5904">nourissent ren qe de </tspan><tspan
         sodipodi:role="line"
         style="font-size:45px;font-style:italic;font-variant:normal;font-weight:normal;font-stretch:normal;text-align:center;line-height:1.25;text-anchor:middle;font-family:Lavi;-inkscape-font-specification:Lavi Italic"
         x="423.50989"
         y="2370.9119"
         id="tspan5906">la lumiere q’ol berluye. »</tspan></text>
    <flowRoot
       xml:space="preserve"
       id="flowRoot1141"
       style="fill:black;stroke:none;stroke-opacity:1;stroke-width:1px;stroke-linejoin:miter;stroke-linecap:butt;fill-opacity:1;font-family:Lavi;font-style:normal;font-weight:normal;font-size:0.66666667px;line-height:0%;letter-spacing:0px;word-spacing:0px;-inkscape-font-specification:Lavi;font-stretch:normal;font-variant:normal;text-anchor:middle;text-align:center;writing-mode:lr"><flowRegion
         id="flowRegion1143"><rect
           id="rect1145"
           width="37.375"
           height="11.5"
           x="1802.6249"
           y="2272.5" /></flowRegion><flowPara
         id="flowPara1147" /></flowRoot>    <text
       xml:space="preserve"
       style="font-style:normal;font-variant:normal;font-weight:normal;font-stretch:normal;text-align:center;line-height:0%;letter-spacing:0px;word-spacing:0px;text-anchor:middle;fill:#000000;fill-opacity:1;stroke:none;font-family:Lavi;-inkscape-font-specification:Lavi"
       x="500.13147"
       y="2466.5291"
       id="text4246-5-5-2-0-7"
       sodipodi:linespacing="0%"><tspan
         sodipodi:role="line"
         style="font-size:45px;font-style:italic;font-variant:normal;font-weight:normal;font-stretch:normal;text-align:center;line-height:1.25;text-anchor:middle;font-family:Lavi;-inkscape-font-specification:Lavi Italic"
         x="506.3717"
         y="2466.5291"
         id="tspan300">« Je recomande </tspan><tspan
         sodipodi:role="line"
         style="font-size:45px;font-style:italic;font-variant:normal;font-weight:normal;font-stretch:normal;text-align:center;line-height:1.25;text-anchor:middle;font-family:Lavi;-inkscape-font-specification:Lavi Italic"
         x="506.3717"
         y="2522.7791"
         id="tspan5917">de rester a choper </tspan><tspan
         sodipodi:role="line"
         style="font-size:45px;font-style:italic;font-variant:normal;font-weight:normal;font-stretch:normal;text-align:center;line-height:1.25;text-anchor:middle;font-family:Lavi;-inkscape-font-specification:Lavi Italic"
         x="506.3717"
         y="2579.0291"
         id="tspan5919">un petit pour vouz </tspan><tspan
         sodipodi:role="line"
         style="font-size:45px;font-style:italic;font-variant:normal;font-weight:normal;font-stretch:normal;text-align:center;line-height:1.25;text-anchor:middle;font-family:Lavi;-inkscape-font-specification:Lavi Italic"
         x="500.13147"
         y="2635.2791"
         id="tspan5921">redoner du vedion. »</tspan></text>
    <text
       xml:space="preserve"
       style="font-size:14.09488487px;font-style:normal;font-variant:normal;font-weight:normal;font-stretch:normal;text-align:center;line-height:0%;letter-spacing:0px;word-spacing:0px;text-anchor:middle;fill:#000000;fill-opacity:1;stroke:none;font-family:Lavi;-inkscape-font-specification:Lavi"
       x="1838.6526"
       y="2865.4419"
       id="text4246-1-8"
       transform="scale(1.0104523,0.98965582)"
       sodipodi:linespacing="0%"><tspan
         sodipodi:role="line"
         style="font-size:52.8558197px;font-style:normal;font-variant:normal;font-weight:bold;font-stretch:normal;line-height:1.25;font-family:Lavi;-inkscape-font-specification:Lavi Bold"
         x="1847.9436"
         y="2865.4419"
         id="tspan5925">Je sei en diot </tspan><tspan
         sodipodi:role="line"
         style="font-size:52.8558197px;font-style:normal;font-variant:normal;font-weight:bold;font-stretch:normal;line-height:1.25;font-family:Lavi;-inkscape-font-specification:Lavi Bold"
         x="1838.6526"
         y="2931.5117"
         id="tspan5929">dez livrs !</tspan></text>
    <text
       xml:space="preserve"
       style="color:#000000;font-style:normal;font-variant:normal;font-weight:normal;font-stretch:normal;font-size:11.10639572px;line-height:0.01%;font-family:Arial;-inkscape-font-specification:Arial;letter-spacing:0.89570737px;word-spacing:0px;display:inline;overflow:visible;visibility:visible;fill:#e69d76;fill-opacity:1;fill-rule:nonzero;stroke:#e99f77;stroke-width:4.05566978;stroke-opacity:1;marker:none;enable-background:accumulate"
       x="617.72089"
       y="603.46979"
       id="text1711"
       transform="matrix(0.78576578,-0.49307246,0.54549744,0.93034115,0,0)"><tspan
         sodipodi:role="line"
         x="618.16876"
         y="603.46979"
         id="tspan1709"
         style="letter-spacing:0.89570737px;word-spacing:0px;fill:#ffffff;fill-opacity:1;stroke:#ffffff;stroke-width:4.05566978;stroke-opacity:1"><tspan
           x="617.72089"
           y="603.46979"
           style="color:#000000;font-style:normal;font-variant:normal;font-weight:normal;font-stretch:normal;font-size:59.2341156px;line-height:1.25;font-family:Lavi;-inkscape-font-specification:Lavi;text-align:center;letter-spacing:0.89570737px;word-spacing:0px;text-anchor:middle;display:inline;overflow:visible;visibility:visible;fill:#ffffff;fill-opacity:1;fill-rule:nonzero;stroke:#ffffff;stroke-width:3.1970036;stroke-miterlimit:4;stroke-dasharray:none;stroke-opacity:1;marker:none;enable-background:accumulate"
           id="tspan1707">Pouf !</tspan></tspan></text>
  </g>
</svg>
