<?xml version="1.0" encoding="UTF-8" standalone="no"?>
<!-- Created with Inkscape (http://www.inkscape.org/) -->

<svg
   xmlns:dc="http://purl.org/dc/elements/1.1/"
   xmlns:cc="http://creativecommons.org/ns#"
   xmlns:rdf="http://www.w3.org/1999/02/22-rdf-syntax-ns#"
   xmlns:svg="http://www.w3.org/2000/svg"
   xmlns="http://www.w3.org/2000/svg"
   xmlns:xlink="http://www.w3.org/1999/xlink"
   xmlns:sodipodi="http://sodipodi.sourceforge.net/DTD/sodipodi-0.dtd"
   xmlns:inkscape="http://www.inkscape.org/namespaces/inkscape"
   id="svg2"
   version="1.1"
   inkscape:version="0.48.5 r10040"
   width="2481"
   height="3503"
   sodipodi:docname="E26P04.svg">
  <metadata
     id="metadata8">
    <rdf:RDF>
      <cc:Work
         rdf:about="">
        <dc:format>image/svg+xml</dc:format>
        <dc:type
           rdf:resource="http://purl.org/dc/dcmitype/StillImage" />
        <dc:title />
      </cc:Work>
    </rdf:RDF>
  </metadata>
  <defs
     id="defs6" />
  <sodipodi:namedview
     pagecolor="#ffffff"
     bordercolor="#666666"
     borderopacity="1"
     objecttolerance="10"
     gridtolerance="10"
     guidetolerance="10"
     inkscape:pageopacity="0"
     inkscape:pageshadow="2"
     inkscape:window-width="1292"
     inkscape:window-height="745"
     id="namedview4"
     showgrid="false"
     inkscape:zoom="0.36"
     inkscape:cx="1296.2401"
     inkscape:cy="236.35691"
     inkscape:window-x="66"
     inkscape:window-y="-8"
     inkscape:window-maximized="1"
     inkscape:current-layer="layer1" />
  <g
     inkscape:groupmode="layer"
     id="layer2"
     inkscape:label="artwork"
     sodipodi:insensitive="true">
    <image
       sodipodi:absref="C:\Users\Gwen\Documents\Academie_du_Gallo\Traduction_BD\peppercarrot_ep26_Books-Are-Great_lang-pack\lang\go\../gfx_Pepper-and-Carrot_by-David-Revoy_E26P04.png"
       xlink:href="../gfx_Pepper-and-Carrot_by-David-Revoy_E26P04.png"
       y="0"
       x="0"
       id="image10"
       height="3503"
       width="2481" />
  </g>
  <g
     inkscape:groupmode="layer"
     id="layer3"
     inkscape:label="speechbubbles">
    <path
       style="color:#000000;display:inline;overflow:visible;visibility:visible;fill:#ffffff;fill-opacity:1;fill-rule:nonzero;stroke:none;stroke-width:2.01815724px;marker:none;enable-background:accumulate"
       d="m 77.943705,1506.9232 c -5.579244,-67.4656 -3.843572,-126.5765 5.445328,-182.4591 5.768743,-34.7051 187.080827,-42.9783 249.671647,-36.6628 53.41912,5.3902 174.53013,20.0737 200.57964,68.4983 26.04964,48.4244 29.99775,123.5623 25.1076,170.8309 -4.89002,47.2686 -10.8308,57.3541 -59.6272,97.2147 -24.93815,20.3713 -170.0435,32.6947 -228.42606,35.7285 -60.19787,3.132 -144.04112,0.576 -173.717231,-31.0665 -30.085791,-32.079 -13.454635,-54.6183 -19.033724,-122.084 z"
       id="path3373"
       inkscape:connector-curvature="0"
       sodipodi:nodetypes="zsssssssz" />
    <path
       style="color:#000000;display:inline;overflow:visible;visibility:visible;fill:#ffffff;fill-opacity:1;fill-rule:nonzero;stroke:none;stroke-width:0.95470774;marker:none;enable-background:accumulate"
       d="M 369.79142,809.84364 C 305.75829,762.35821 198.20492,558.84155 249.43665,362.79562 266.81502,310.92732 307.36394,84.8784 238.16093,303.5743 c -69.203,218.6959 9.34385,417.00687 131.63049,506.26934 z"
       id="path3010"
       inkscape:connector-curvature="0"
       sodipodi:nodetypes="cczc" />
    <path
       style="color:#000000;display:inline;overflow:visible;visibility:visible;fill:#ffffff;fill-opacity:1;fill-rule:nonzero;stroke:none;stroke-width:0.92846394px;marker:none;enable-background:accumulate"
       d="m 760.75243,1017.8265 c -22.47857,-11.219 -27.79905,-26.61133 -25.55111,-33.02225 2.24784,-6.41084 22.47847,-39.26666 47.20477,-43.27347 24.72641,-4.00682 88.79012,-8.81495 103.40117,-4.80813 14.6111,4.00673 56.19637,30.45171 56.19637,44.07478 0,13.62316 -7.86752,40.06807 -30.34602,48.08167 -22.47851,8.0136 -123.93104,0.7406 -150.90518,-11.0526 z"
       id="path3349"
       inkscape:connector-curvature="0"
       sodipodi:nodetypes="ccscssc" />
    <path
       style="color:#000000;fill:#ffffff;fill-opacity:1;fill-rule:nonzero;stroke:none;stroke-width:0.62015647px;marker:none;visibility:visible;display:inline;overflow:visible;enable-background:accumulate"
       d="m 792.22396,1037.9825 c 16.48995,-19.5487 155.68386,-40.76767 204.60552,-0.4818 48.92172,40.2859 16.80422,97.3247 -11.26573,112.7065 -28.06977,15.3818 -106.66824,19.2165 -145.92511,10.3485 -52.07334,-11.7632 -67.05478,-32.8926 -68.97152,-73.2471 -0.78228,-16.4701 5.06684,-29.7772 21.55684,-49.3261 z"
       id="path4040"
       inkscape:connector-curvature="0"
       sodipodi:nodetypes="zssssz" />
    <path
       style="color:#000000;fill:#ffffff;fill-opacity:1;fill-rule:nonzero;stroke:none;stroke-width:0.79267502px;marker:none;visibility:visible;display:inline;overflow:visible;enable-background:accumulate"
       d="m 1556.7739,1167.9666 c -5.3613,-20.5323 8.9352,-75.0712 118.8403,-70.5797 109.9051,4.4913 127.7759,30.1566 130.4564,37.8563 2.6807,7.6996 25.9126,51.3308 -59.8669,62.8803 -85.7797,11.5494 -162.6237,-0.6418 -189.4298,-30.1569 z"
       id="path3525"
       inkscape:connector-curvature="0" />
    <path
       style="color:#000000;display:inline;overflow:visible;visibility:visible;fill:#ffffff;fill-opacity:1;fill-rule:nonzero;stroke:none;stroke-width:1px;marker:none;enable-background:accumulate"
       d="m 938.35118,1086.2126 c 69.98612,31.0197 98.42482,29.5718 151.73632,-4.4587 -31.1182,24.6589 -43.6342,55.9553 -145.08715,33.1222 -40.4073,-9.0941 -6.64917,-28.6635 -6.64917,-28.6635 z"
       id="path4480"
       inkscape:connector-curvature="0"
       sodipodi:nodetypes="ccsc" />
    <path
       style="color:#000000;display:inline;overflow:visible;visibility:visible;fill:#ffffff;fill-opacity:1;fill-rule:nonzero;stroke:none;stroke-width:1px;marker:none;enable-background:accumulate"
       d="m 1496.1025,1128.3709 c 34.6297,22.4436 48.151,28.3727 87.526,0.3521 39.375,-28.0207 48.7701,-12.382 48.7701,-12.382 l -12.8989,31.2148 c 0,0 -87.8568,53.5997 -123.3972,-19.1849 z"
       id="path3072"
       inkscape:connector-curvature="0" />
    <path
       style="color:#000000;display:inline;overflow:visible;visibility:visible;fill:#ffffff;fill-opacity:1;fill-rule:nonzero;stroke:none;stroke-width:0.74193799px;marker:none;enable-background:accumulate"
       d="m 1899.7541,176.9738 c -0.7336,-19.20925 5.8514,-26.39203 36.6602,-38.93681 30.809,-12.54478 60.0351,-6.41212 87.8924,-3.85385 32.0305,2.94151 66.1693,7.50842 77.1725,21.62136 11.0032,14.11286 19.8057,19.60121 16.1379,32.93007 -3.6677,13.32878 -7.3354,27.44172 -20.5392,32.14599 -13.2039,4.70434 -107.0977,10.97669 -122.5021,7.84051 -15.4046,-3.13617 -40.3451,-3.92026 -53.5488,-13.32886 -13.3861,-9.53839 -20.5394,-19.20917 -21.2729,-38.41841 z"
       id="path3373-0"
       inkscape:connector-curvature="0"
       sodipodi:nodetypes="zsssssssz" />
    <path
       style="color:#000000;display:inline;overflow:visible;visibility:visible;fill:#ffffff;fill-opacity:1;fill-rule:nonzero;stroke:none;stroke-width:0.9497878px;marker:none;enable-background:accumulate"
       d="m 1916.5816,275.99898 c 2.1861,-45.42743 29.8757,-55.43685 59.0227,-57.74673 29.1471,-2.30988 40.8059,4.61975 48.8213,6.1596 8.0155,1.53995 83.0691,-4.61974 93.2705,-3.07979 10.2015,1.53994 58.2942,22.32874 56.1081,58.51664 -2.186,36.18791 -34.9765,51.58702 -68.4956,53.89689 -33.5191,2.30988 -102.0145,0 -118.774,4.61975 -16.7597,4.61975 -64.8523,-3.0798 -69.953,-62.36645 z"
       id="path5034"
       inkscape:connector-curvature="0" />
    <path
       style="color:#000000;display:inline;overflow:visible;visibility:visible;fill:#ffffff;fill-opacity:1;fill-rule:nonzero;stroke:none;stroke-width:1px;marker:none;enable-background:accumulate"
       d="m 2014.1421,464.34286 c -57.0243,-41.23372 -60.4397,-86.77108 -49.5441,-144.9504 10.8956,-58.17932 39.6811,-24.31559 39.6811,-24.31559 0,0 -65.1914,100.00192 9.863,169.26599 z"
       id="path5002"
       inkscape:connector-curvature="0"
       sodipodi:nodetypes="cscc" />
    <path
       style="color:#000000;display:inline;overflow:visible;visibility:visible;fill:#ffffff;fill-opacity:1;fill-rule:nonzero;stroke:none;stroke-width:0.77728993px;marker:none;enable-background:accumulate"
       d="m 1700.4279,2232.4771 c 1.9548,12.6252 -20.2332,66.0408 -111.3756,61.8839 -91.1424,-4.157 -112.9427,-36.8339 -112.8192,-53.7968 0.1234,-16.963 21.4964,-44.2602 34.7426,-49.1276 13.2461,-4.8673 52.126,-15.6749 87.6192,-10.6767 39.5028,5.5627 74.284,12.3263 88.2445,26.9259 13.9604,14.5994 11.9752,21.4764 13.5885,24.7913 z"
       id="path3365"
       inkscape:connector-curvature="0"
       sodipodi:nodetypes="ccccscc" />
    <path
       style="color:#000000;display:inline;overflow:visible;visibility:visible;fill:#ffffff;fill-opacity:1;fill-rule:nonzero;stroke:none;stroke-width:1.45859873px;marker:none;enable-background:accumulate"
       d="m 1469.446,2316.0907 c 35.4382,-61.0189 229.7192,-61.2478 289.4258,-34.1832 59.7063,27.0642 68.3393,60.1854 70.6337,76.4386 2.2943,16.2532 -7.1694,111.2312 -38.6291,125.7263 -31.4597,14.4948 -120.4264,21.1293 -151.4111,20.8701 -30.9849,-0.2593 -129.593,-10.4781 -153.927,-32.2803 -23.2781,-20.8564 -51.5305,-95.5527 -16.0923,-156.5715 z"
       id="path3330"
       inkscape:connector-curvature="0"
       sodipodi:nodetypes="zsssssz" />
    <path
       style="color:#000000;display:inline;overflow:visible;visibility:visible;fill:#ffffff;fill-opacity:1;fill-rule:nonzero;stroke:none;stroke-width:1.07720649px;marker:none;enable-background:accumulate"
       d="m 1664.135,2448.2545 c -69.9893,51.1328 8.9085,162.5856 132.4832,191.8362 -158.9941,-19.5502 -214.8639,-129.8242 -184.2863,-182.6082 -12.1609,-26.4834 51.8031,-9.228 51.8031,-9.228 z"
       id="path4008"
       inkscape:connector-curvature="0"
       sodipodi:nodetypes="cccc" />
    <path
       style="color:#000000;display:inline;overflow:visible;visibility:visible;fill:#ffffff;fill-opacity:1;fill-rule:nonzero;stroke:none;stroke-width:0.92337912px;marker:none;enable-background:accumulate"
       d="M 91.805509,69.839589 C 118.1593,44.819976 351.91785,57.851953 407.96113,125.92711 464.00427,194.00223 406.70535,286.4242 365.87638,303.1038 325.04754,319.78343 170.58392,330.08958 120.32725,309.42951 53.662925,282.02438 38.98534,238.1613 45.525484,179.35037 48.194771,155.34755 65.45156,94.859486 91.805509,69.839589 Z"
       id="path4040-0"
       inkscape:connector-curvature="0"
       sodipodi:nodetypes="zssssz" />
    <path
       style="color:#000000;fill:#ffffff;fill-opacity:1;fill-rule:nonzero;stroke:none;stroke-width:1.31624353px;marker:none;visibility:visible;display:inline;overflow:visible;enable-background:accumulate"
       d="M 492.60486,456.74982 C 497.26899,476.27801 461.32333,560.69146 294.3533,559.58647 127.38327,558.48132 84.708705,508.92285 83.469021,482.52344 82.229147,456.1239 108.20046,404.29619 131.99437,395.94377 c 23.79376,-8.35228 104.67456,-19.356 169.98894,-13.66778 72.69281,6.33061 136.85815,14.80747 163.63964,36.7012 26.78127,21.89344 23.74636,32.70998 26.98191,37.77263 z"
       id="path3365-6"
       inkscape:connector-curvature="0"
       sodipodi:nodetypes="ccccscc" />
    <path
       style="color:#000000;display:inline;overflow:visible;visibility:visible;fill:#ffffff;fill-opacity:1;fill-rule:nonzero;stroke:none;stroke-width:1.17923069px;marker:none;enable-background:accumulate"
       d="m 421.00062,1204.9587 c -82.04637,41.839 -98.69807,91.9551 -101.02486,156.986 -2.32681,65.0308 42.64616,29.4851 42.64616,29.4851 0,0 -53.69551,-114.8291 58.3787,-186.4711 z"
       id="path5002-1"
       inkscape:connector-curvature="0"
       sodipodi:nodetypes="cscc" />
  </g>
  <g
     inkscape:groupmode="layer"
     id="layer1"
     inkscape:label="txt">
    <text
       xml:space="preserve"
       style="font-style:normal;font-variant:normal;font-weight:normal;font-stretch:normal;text-align:center;line-height:0%;letter-spacing:0px;word-spacing:0px;text-anchor:middle;fill:#000000;fill-opacity:1;stroke:none;font-family:Lavi;-inkscape-font-specification:Lavi"
       x="110.22185"
       y="1365.2563"
       id="text4246-5-5"
       sodipodi:linespacing="0%"><tspan
         sodipodi:role="line"
         style="font-size:45px;font-style:italic;font-variant:normal;font-weight:normal;font-stretch:normal;text-align:start;line-height:1.25;text-anchor:start;font-family:Lavi;-inkscape-font-specification:Lavi Italic"
         x="110.22185"
         y="1365.2563"
         id="tspan153">« Coume vouz ez </tspan><tspan
         sodipodi:role="line"
         style="font-size:45px;font-style:italic;font-variant:normal;font-weight:normal;font-stretch:normal;text-align:start;line-height:1.25;text-anchor:start;font-family:Lavi;-inkscape-font-specification:Lavi Italic"
         x="110.22185"
         y="1421.5063"
         id="tspan6229">prinz par lez adreces, </tspan><tspan
         sodipodi:role="line"
         style="font-size:45px;font-style:italic;font-variant:normal;font-weight:normal;font-stretch:normal;text-align:start;line-height:1.25;text-anchor:start;font-family:Lavi;-inkscape-font-specification:Lavi Italic"
         x="110.22185"
         y="1477.7563"
         id="tspan6231">vouz devriez d-étr a </tspan><tspan
         sodipodi:role="line"
         style="font-size:45px;font-style:italic;font-variant:normal;font-weight:normal;font-stretch:normal;text-align:start;line-height:1.25;text-anchor:start;font-family:Lavi;-inkscape-font-specification:Lavi Italic"
         x="110.22185"
         y="1534.0063"
         id="tspan6233">la chambr du </tspan><tspan
         sodipodi:role="line"
         style="font-size:45px;font-style:italic;font-variant:normal;font-weight:normal;font-stretch:normal;text-align:start;line-height:1.25;text-anchor:start;font-family:Lavi;-inkscape-font-specification:Lavi Italic"
         x="110.22185"
         y="1590.2563"
         id="tspan6235">Gardouz. »</tspan><tspan
         sodipodi:role="line"
         style="font-size:45px;font-style:italic;font-variant:normal;font-weight:normal;font-stretch:normal;text-align:start;line-height:1.25;text-anchor:start;font-family:Lavi;-inkscape-font-specification:Lavi Italic"
         x="110.22185"
         y="1646.5063"
         id="tspan105" /><tspan
         sodipodi:role="line"
         style="font-size:45px;font-style:italic;font-variant:normal;font-weight:normal;font-stretch:normal;text-align:start;line-height:1.25;text-anchor:start;font-family:Lavi;-inkscape-font-specification:Lavi Italic"
         x="110.22185"
         y="1702.7563"
         id="tspan107" /></text>
    <text
       xml:space="preserve"
       style="font-style:normal;font-variant:normal;font-weight:normal;font-stretch:normal;line-height:0%;font-family:Lavi;-inkscape-font-specification:Lavi;text-align:center;letter-spacing:0px;word-spacing:0px;text-anchor:middle;fill:#000000;fill-opacity:1;stroke:none"
       x="835.59772"
       y="995.02594"
       id="text4246-5"><tspan
         sodipodi:role="line"
         style="font-size:45px;line-height:1.25"
         x="835.59772"
         y="995.02594"
         id="tspan859">Hmm…</tspan></text>
    <text
       xml:space="preserve"
       style="font-style:normal;font-variant:normal;font-weight:normal;font-stretch:normal;text-align:center;line-height:0%;letter-spacing:0px;word-spacing:0px;text-anchor:middle;fill:#000000;fill-opacity:1;stroke:none;font-family:Lavi;-inkscape-font-specification:Lavi"
       x="895.8299"
       y="1016.6896"
       id="text4246-5-3"
       sodipodi:linespacing="0%"><tspan
         sodipodi:role="line"
         style="font-size:45px;line-height:1.25"
         x="895.8299"
         y="1016.6896"
         id="tspan890" /><tspan
         sodipodi:role="line"
         style="font-size:45px;line-height:1.25"
         x="903.74005"
         y="1072.9397"
         id="tspan5647">Le cheu </tspan><tspan
         sodipodi:role="line"
         style="font-size:45px;line-height:1.25"
         x="895.8299"
         y="1129.1897"
         id="tspan6239">de la fin ?!</tspan><tspan
         sodipodi:role="line"
         style="font-size:45px;line-height:1.25"
         x="895.8299"
         y="1185.4397"
         id="tspan917" /></text>
    <text
       xml:space="preserve"
       style="font-style:normal;font-variant:normal;font-weight:normal;font-stretch:normal;text-align:center;line-height:0%;letter-spacing:0px;word-spacing:0px;text-anchor:middle;fill:#000000;fill-opacity:1;stroke:none;font-family:Lavi;-inkscape-font-specification:Lavi"
       x="1679.9434"
       y="1164.4458"
       id="text4246-5-3-7"
       sodipodi:linespacing="0%"><tspan
         sodipodi:role="line"
         style="font-size:45px;line-height:1.25"
         x="1679.9434"
         y="1164.4458"
         id="tspan168">Eyou don ?</tspan></text>
    <text
       xml:space="preserve"
       style="font-style:normal;font-variant:normal;font-weight:normal;font-stretch:normal;line-height:0%;font-family:Lavi;-inkscape-font-specification:Lavi;text-align:center;letter-spacing:0px;word-spacing:0px;text-anchor:middle;fill:#000000;fill-opacity:1;stroke:none"
       x="2004.0487"
       y="192.06696"
       id="text4246-5-3-7-2"><tspan
         sodipodi:role="line"
         style="font-size:45px;line-height:1.25"
         x="2004.0487"
         y="192.06696"
         id="tspan917-6-7">AH-HA !</tspan></text>
    <text
       xml:space="preserve"
       style="font-style:normal;font-variant:normal;font-weight:normal;font-stretch:normal;text-align:center;line-height:0%;letter-spacing:0px;word-spacing:0px;text-anchor:middle;fill:#000000;fill-opacity:1;stroke:none;font-family:Lavi;-inkscape-font-specification:Lavi"
       x="2038.343"
       y="296.80627"
       id="text4246-5-3-7-2-0"
       sodipodi:linespacing="0%"><tspan
         sodipodi:role="line"
         style="font-size:53.33333206px;font-style:normal;font-variant:normal;font-weight:bold;font-stretch:normal;line-height:1.25;font-family:Lavi;-inkscape-font-specification:Lavi Bold"
         x="2038.343"
         y="296.80627"
         id="tspan917-6-7-6">Terouae !</tspan></text>
    <text
       xml:space="preserve"
       style="font-style:normal;font-variant:normal;font-weight:normal;font-stretch:normal;line-height:0%;font-family:Lavi;-inkscape-font-specification:Lavi;text-align:center;letter-spacing:0px;word-spacing:0px;text-anchor:middle;fill:#000000;fill-opacity:1;stroke:none"
       x="1585.4655"
       y="2244.7827"
       id="text4246-5-3-7-6"><tspan
         sodipodi:role="line"
         style="font-style:italic;font-variant:normal;font-weight:normal;font-stretch:normal;font-size:45px;line-height:1.25;font-family:Lavi;-inkscape-font-specification:'Lavi Italic'"
         x="1585.4655"
         y="2244.7827"
         id="tspan917-6-8">Pffff... !</tspan></text>
    <text
       xml:space="preserve"
       style="font-style:normal;font-variant:normal;font-weight:normal;font-stretch:normal;text-align:center;line-height:0%;letter-spacing:0px;word-spacing:0px;text-anchor:middle;fill:#000000;fill-opacity:1;stroke:none;font-family:Lavi;-inkscape-font-specification:Lavi"
       x="1640.2002"
       y="2342.6677"
       id="text4246-5-3-79"
       sodipodi:linespacing="0%"><tspan
         sodipodi:role="line"
         style="font-size:45px;line-height:1.25"
         x="1648.1104"
         y="2342.6677"
         id="tspan199">Net aezae </tspan><tspan
         sodipodi:role="line"
         style="font-size:45px;line-height:1.25"
         x="1648.1104"
         y="2398.9177"
         id="tspan6250">cant en conaet </tspan><tspan
         sodipodi:role="line"
         style="font-size:45px;line-height:1.25"
         x="1640.2002"
         y="2455.1677"
         id="tspan6252">le febllon !</tspan></text>
    <text
       xml:space="preserve"
       style="font-style:normal;font-variant:normal;font-weight:normal;font-stretch:normal;text-align:center;line-height:0%;letter-spacing:0px;word-spacing:0px;text-anchor:middle;fill:#000000;fill-opacity:1;stroke:none;font-family:Lavi;-inkscape-font-specification:Lavi"
       x="124.21524"
       y="161.71936"
       id="text4246-5-5-3"
       sodipodi:linespacing="0%"><tspan
         sodipodi:role="line"
         style="font-size:45px;font-style:italic;font-variant:normal;font-weight:normal;font-stretch:normal;text-align:start;line-height:1.25;text-anchor:start;font-family:Lavi;-inkscape-font-specification:Lavi Italic"
         x="124.21524"
         y="161.71936"
         id="tspan80">« Ramassez </tspan><tspan
         sodipodi:role="line"
         style="font-size:45px;font-style:italic;font-variant:normal;font-weight:normal;font-stretch:normal;text-align:start;line-height:1.25;text-anchor:start;font-family:Lavi;-inkscape-font-specification:Lavi Italic"
         x="124.21524"
         y="217.96936"
         id="tspan6200">ûne pllûme </tspan><tspan
         sodipodi:role="line"
         style="font-size:45px;font-style:italic;font-variant:normal;font-weight:normal;font-stretch:normal;text-align:start;line-height:1.25;text-anchor:start;font-family:Lavi;-inkscape-font-specification:Lavi Italic"
         x="124.21524"
         y="274.21936"
         id="tspan6202">en passant. »</tspan></text>
    <text
       xml:space="preserve"
       style="font-size:11.12393284px;font-style:normal;font-variant:normal;font-weight:normal;font-stretch:normal;text-align:center;line-height:0%;letter-spacing:0px;word-spacing:0px;text-anchor:middle;fill:#000000;fill-opacity:1;stroke:none;font-family:Lavi;-inkscape-font-specification:Lavi"
       x="288.94266"
       y="453.25964"
       id="text4246-5-3-9"
       sodipodi:linespacing="0%"><tspan
         sodipodi:role="line"
         style="font-size:41.71474838px;line-height:1.25"
         x="296.27533"
         y="453.25964"
         id="tspan6209">ét pas lez pllûmes </tspan><tspan
         sodipodi:role="line"
         style="font-size:41.71474838px;line-height:1.25"
         x="288.94266"
         y="505.40308"
         id="tspan6213">qi manqent par ici !</tspan></text>
    <text
       xml:space="preserve"
       style="font-style:normal;font-variant:normal;font-weight:normal;font-stretch:normal;font-size:9.62365437px;line-height:0%;font-family:Lavi;-inkscape-font-specification:Lavi;text-align:center;letter-spacing:0px;word-spacing:0px;text-anchor:middle;fill:#000000;fill-opacity:1;stroke:none;stroke-width:0.80197126"
       x="13.33729"
       y="2107.6648"
       id="text4246-5-5-8"
       transform="matrix(0.90354167,-0.46833278,0.47503417,0.86053134,0,0)"><tspan
         sodipodi:role="line"
         style="font-style:italic;font-variant:normal;font-weight:normal;font-stretch:normal;font-size:36.08870697px;line-height:1.25;font-family:Lavi;-inkscape-font-specification:'Lavi Italic';text-align:start;text-anchor:start;fill:#ffffff;fill-opacity:1;stroke-width:0.80197126"
         x="13.33729"
         y="2107.6648"
         id="tspan478-2">guili</tspan></text>
    <text
       xml:space="preserve"
       style="font-style:normal;font-variant:normal;font-weight:normal;font-stretch:normal;font-size:9.62365437px;line-height:0%;font-family:Lavi;-inkscape-font-specification:Lavi;text-align:center;letter-spacing:0px;word-spacing:0px;text-anchor:middle;fill:#000000;fill-opacity:1;stroke:none;stroke-width:0.80197126"
       x="50.222191"
       y="2071.1909"
       id="text4246-5-5-8-3"
       transform="matrix(0.90354167,-0.46833278,0.47503417,0.86053134,0,0)"
       inkscape:transform-center-x="-64.107832"
       inkscape:transform-center-y="11.506534"><tspan
         sodipodi:role="line"
         style="font-style:italic;font-variant:normal;font-weight:normal;font-stretch:normal;font-size:36.08870697px;line-height:1.25;font-family:Lavi;-inkscape-font-specification:'Lavi Italic';text-align:start;text-anchor:start;fill:#ffffff;fill-opacity:1;stroke-width:0.80197126"
         x="50.222191"
         y="2071.1909"
         id="tspan478-2-7">guili</tspan></text>
  </g>
</svg>
