{
   "id": 32,
   "original-language": "en",
   "supporters": 1121,
   "published": "2020-03-31",
   "pluxmlID": 465,
   "background-color": "#FFFFFF",
   "credits": {
      "art":[
         "David Revoy <https://framagit.org/Deevad>"
      ],
      "scenario":[
         "David Revoy <https://framagit.org/Deevad>"
      ],
      "beta-readers":[
         "Craig Maloney <https://framagit.org/craigmaloney>",
         "Martin Disch <https://framagit.org/martindisch>",
         "Arlo James Barnes",
         "Nicolas Artance <https://framagit.org/Nartance>",
         "Parnikkapore",
         "Stephen Paul Weber",
         "Valvin <https://framagit.org/valvin>",
         "Vejvej"
      ]
   },
   "software":[
      {
         "name": "Krita",
         "version": "4.2.9-beta"
      },
      {
         "name": "Inkscape",
         "version": "0.92.3"
      },
      {
         "name": "Kubuntu",
         "version": "19.10"
      }
   ]
}
