<?xml version="1.0" encoding="UTF-8" standalone="no"?>
<svg
   xmlns:dc="http://purl.org/dc/elements/1.1/"
   xmlns:cc="http://creativecommons.org/ns#"
   xmlns:rdf="http://www.w3.org/1999/02/22-rdf-syntax-ns#"
   xmlns:svg="http://www.w3.org/2000/svg"
   xmlns="http://www.w3.org/2000/svg"
   xmlns:xlink="http://www.w3.org/1999/xlink"
   xmlns:sodipodi="http://sodipodi.sourceforge.net/DTD/sodipodi-0.dtd"
   xmlns:inkscape="http://www.inkscape.org/namespaces/inkscape"
   sodipodi:docname="E17P04.svg"
   height="3503"
   width="2481"
   inkscape:version="1.0 (4035a4fb49, 2020-05-01)"
   version="1.1"
   id="svg2">
  <sodipodi:namedview
     inkscape:document-rotation="0"
     inkscape:window-maximized="0"
     inkscape:window-y="0"
     inkscape:window-x="0"
     inkscape:current-layer="layer1"
     inkscape:cy="1568.6204"
     inkscape:cx="1284.4231"
     inkscape:zoom="0.4"
     showgrid="false"
     id="namedview70"
     inkscape:window-height="955"
     inkscape:window-width="1294"
     inkscape:pageshadow="2"
     inkscape:pageopacity="0"
     bordercolor="#666666"
     pagecolor="#ffffff" />
  <metadata
     id="metadata8">
    <rdf:RDF>
      <cc:Work
         rdf:about="">
        <dc:format>image/svg+xml</dc:format>
        <dc:type
           rdf:resource="http://purl.org/dc/dcmitype/StillImage" />
        <dc:title />
      </cc:Work>
    </rdf:RDF>
  </metadata>
  <defs
     id="defs6">
    <filter
       inkscape:label="deevad outline effect"
       id="filter4375-4-1-1-1-9-5"
       style="color-interpolation-filters:sRGB">
      <feFlood
         result="flood"
         flood-color="rgb(0,0,0)"
         flood-opacity="1"
         id="feFlood4377-7-9-0-8-1-7" />
      <feComposite
         result="composite1"
         operator="in"
         in="flood"
         in2="SourceGraphic"
         id="feComposite4379-3-8-8-2-77-4" />
      <feMorphology
         result="result3"
         radius="1.3999999999999999"
         operator="dilate"
         id="feMorphology4393-1-0-49-8-9-3" />
      <feComposite
         result="composite2"
         operator="over"
         in="SourceGraphic"
         in2="result3"
         id="feComposite4385-9-5-7-0-8-8" />
    </filter>
    <filter
       inkscape:label="deevad outline effect"
       id="filter4375-4-1-1-1-9-5-3"
       style="color-interpolation-filters:sRGB">
      <feFlood
         result="flood"
         flood-color="rgb(0,0,0)"
         flood-opacity="1"
         id="feFlood4377-7-9-0-8-1-7-7" />
      <feComposite
         result="composite1"
         operator="in"
         in="flood"
         in2="SourceGraphic"
         id="feComposite4379-3-8-8-2-77-4-5" />
      <feMorphology
         result="result3"
         radius="1.3999999999999999"
         operator="dilate"
         id="feMorphology4393-1-0-49-8-9-3-4" />
      <feComposite
         result="composite2"
         operator="over"
         in="SourceGraphic"
         in2="result3"
         id="feComposite4385-9-5-7-0-8-8-3" />
    </filter>
  </defs>
  <sodipodi:namedview
     inkscape:current-layer="layer3"
     inkscape:window-maximized="1"
     inkscape:window-y="26"
     inkscape:window-x="0"
     inkscape:cy="1112.2508"
     inkscape:cx="465.07669"
     inkscape:zoom="0.26152142"
     showgrid="false"
     id="namedview4"
     inkscape:window-height="1025"
     inkscape:window-width="1920"
     inkscape:pageshadow="2"
     inkscape:pageopacity="0"
     guidetolerance="10"
     gridtolerance="10"
     objecttolerance="10"
     borderopacity="1"
     bordercolor="#666666"
     pagecolor="#ffffff" />
  <g
     sodipodi:insensitive="true"
     inkscape:label="artwork"
     id="layer2"
     inkscape:groupmode="layer">
    <image
       sodipodi:absref="C:\Users\stero\Documents\Kernewek\Pepper and Carrot\webcomics\ep17_A-Fresh-Start\lang\gfx_Pepper-and-Carrot_by-David-Revoy_E17P04.png"
       xlink:href="../gfx_Pepper-and-Carrot_by-David-Revoy_E17P04.png"
       y="0"
       x="0"
       id="image10"
       height="3503"
       width="2481" />
  </g>
  <g
     inkscape:label="speechbubbles"
     id="layer3"
     inkscape:groupmode="layer">
    <path
       sodipodi:nodetypes="csssc"
       inkscape:connector-curvature="0"
       id="path5026"
       d="m 238.57957,280.30428 c -6.37052,-61.23323 8.71821,-135.84082 211.12889,-118.14638 192.98469,16.87042 180.93139,40.06221 182.97479,117.80517 2.15292,81.90953 -76.61221,121.57269 -214.88826,113.72068 -81.03253,-4.60142 -161.77968,-8.95737 -179.21542,-113.37947 z"
       style="color:#000000;display:inline;overflow:visible;visibility:visible;fill:#ffffff;fill-opacity:1;fill-rule:nonzero;stroke:none;stroke-width:1.01485503px;marker:none;enable-background:accumulate" />
    <path
       inkscape:connector-curvature="0"
       id="path5050"
       d="m 498.24491,364.30621 c 14.3116,13.119 28.6233,30.4122 29.8159,34.5864 1.1926,4.1742 -10.1374,27.4306 -5.9632,32.2012 4.1742,4.7705 19.6785,5.3668 21.4675,8.9448 1.7889,3.5779 -3.5779,22.0637 0,25.6416 3.5779,3.5779 28.6232,13.119 29.8159,16.1006 1.1926,2.9816 7.7521,19.0822 19.6784,31.6048 -11.33,-31.6048 -7.7521,-38.1643 -11.9263,-42.9348 -4.1742,-4.7706 -20.8711,-8.9448 -23.2564,-14.3117 -2.3853,-5.3668 2.3853,-23.2564 -2.3853,-28.0269 -4.7705,-4.7705 -16.1006,-6.5595 -16.1006,-6.5595 4.1743,-4.7706 22.0638,-32.7975 2.3853,-60.8244 -19.6785,-28.027 -43.5312,3.5779 -43.5312,3.5779 z"
       style="color:#000000;display:inline;overflow:visible;visibility:visible;fill:#ffffff;fill-opacity:1;fill-rule:nonzero;stroke:none;stroke-width:1px;marker:none;enable-background:accumulate" />
    <path
       sodipodi:nodetypes="zssssz"
       inkscape:connector-curvature="0"
       id="path4040"
       d="m 703.83409,2106.3432 c 40.97539,-29.8964 374.21971,-50.9948 448.67561,17.2861 104.5124,95.8446 31.3489,207.1246 -32.4073,239.2778 -63.756,32.1533 -290.78975,30.776 -371.97215,-3.8818 -81.18256,-34.6578 -117.53033,-52.1748 -116.46019,-145.2133 0.43679,-37.9728 31.18865,-77.5723 72.16403,-107.4688 z"
       style="color:#000000;display:inline;overflow:visible;visibility:visible;fill:#ffffff;fill-opacity:1;fill-rule:nonzero;stroke:none;stroke-width:1px;marker:none;enable-background:accumulate" />
    <path
       sodipodi:nodetypes="cssccccccsscssccc"
       inkscape:connector-curvature="0"
       id="path3153"
       d="m 1053.1541,2323.4353 c 56.6486,-8.1196 74.6866,77.8109 99.1468,95.2238 8.2079,5.8432 26.3946,16.6907 37.466,15.0181 18.68,-2.8221 30.511,-28.0837 88.2313,61.3955 12.1513,20.9889 54.2429,10.0247 75.1617,-17.5452 9.8232,-8.9416 34.65,-14.7872 65.2392,49.6966 11.5865,16.2103 37.8936,21.2691 53.138,9.79 7.7025,-6.4241 31.2324,-11.9054 45.5039,6.5655 -23.9511,-28.7726 -59.535,-12.507 -70.7254,-14.0184 -13.6375,-2.8761 -32.9536,-39.7043 -47.5075,-60.5647 -14.5541,-20.8605 -51.3302,-7.2812 -62.7782,-1.859 -11.4479,5.422 -23.4195,20.8102 -36.2788,14.2861 -12.86,-6.5247 -37.4015,-56.5686 -59.6585,-71.0054 -22.2565,-14.4362 -45.5345,4.011 -65.3887,-10.5542 -19.8544,-14.5653 -39.7544,-72.5593 -53.4356,-96.9436 -13.3003,-27.1332 -46.2655,-21.6029 -46.2655,-21.6029 z"
       style="color:#000000;display:inline;overflow:visible;visibility:visible;fill:#ffffff;fill-opacity:1;fill-rule:nonzero;stroke:none;stroke-width:1px;marker:none;enable-background:accumulate" />
    <path
       inkscape:connector-curvature="0"
       id="path3525"
       d="m 1898.9197,2910.9757 c -7.6911,-47.377 12.8186,-173.222 170.489,-162.8582 157.67,10.3635 183.3077,69.5847 187.1532,87.3511 3.8456,17.7663 37.1743,118.4424 -85.8854,145.0921 -123.0598,26.6494 -233.3005,-1.4807 -271.7568,-69.585 z"
       style="color:#000000;display:inline;overflow:visible;visibility:visible;fill:#ffffff;fill-opacity:1;fill-rule:nonzero;stroke:none;stroke-width:1px;marker:none;enable-background:accumulate" />
    <path
       sodipodi:nodetypes="zsssssz"
       inkscape:connector-curvature="0"
       id="path3330"
       d="m 2051.5374,2960.6549 c 43.3272,-28.7717 198.3469,-22.0189 258.4283,0.5469 60.0809,22.5655 48.7355,49.8303 50.184,62.0292 1.4484,12.1989 -12.5695,67.8216 -45.8531,77.3507 -33.2831,9.5287 -125.4639,10.8849 -157.4228,9.443 -31.9593,-1.4419 -114.0944,-15.7269 -135.9881,-33.8298 -50.6625,-41.8905 -12.6755,-86.7681 30.6517,-115.54 z"
       style="color:#000000;display:inline;overflow:visible;visibility:visible;fill:#ffffff;fill-opacity:1;fill-rule:nonzero;stroke:none;stroke-width:0.91383535px;marker:none;enable-background:accumulate" />
    <path
       sodipodi:nodetypes="cscssccssc"
       inkscape:connector-curvature="0"
       id="path3137"
       d="m 1874.7064,2699.416 c 2.7209,24.7705 5.5497,40.8568 15.3787,48.006 9.8287,7.1491 13.5006,12.076 26.2212,10.6235 12.7206,-1.4527 17.2198,-9.4615 31.2881,-6.5634 8.0133,1.6508 32.2563,53.4614 28.2024,73.002 -4.054,19.5407 36.5944,3.8257 36.5944,3.8257 0,0 -3.6849,-37.6012 -6.4866,-44.0851 -2.8019,-6.484 -12.5588,-50.5187 -43.0632,-56.9076 -30.5045,-6.3888 -45.8465,20.9009 -59.252,14.5604 -13.4053,-6.3403 -28.036,-24.1475 -28.883,-42.4615 z"
       style="fill:#ffffff;stroke:none" />
    <text
       inkscape:transform-center-y="17.127952"
       inkscape:transform-center-x="-16.219953"
       transform="matrix(0.2990777,-0.24739358,0.06701223,0.4604507,203.67479,2312.8617)"
       id="text4580-6"
       y="1584.5073"
       x="787.65729"
       style="font-style:normal;font-variant:normal;font-weight:normal;font-stretch:normal;line-height:0%;font-family:Lavi;-inkscape-font-specification:Lavi;letter-spacing:0px;word-spacing:0px;opacity:0.75;fill:#000000;fill-opacity:1;stroke:#000000;stroke-width:0.9934;stroke-miterlimit:4;stroke-dasharray:none;stroke-opacity:1;filter:url(#filter4375-4-1-1-1-9-5)"
       xml:space="preserve"><tspan
         style="font-size:70px;line-height:1.25;fill:#000000;stroke:#000000;stroke-width:0.9934;stroke-miterlimit:4;stroke-dasharray:none"
         y="1584.5073"
         x="787.65729"
         id="tspan4582-1"
         sodipodi:role="line"><tspan
           id="tspan4315"
           style="font-size:93.1495px;fill:#000000;stroke:#000000;stroke-width:0.9934;stroke-miterlimit:4;stroke-dasharray:none">Aah!</tspan><tspan
           id="tspan4313"
           style="font-size:114.732px;fill:#000000;stroke:#000000;stroke-width:0.9934;stroke-miterlimit:4;stroke-dasharray:none">!</tspan></tspan></text>
    <text
       transform="matrix(0.23908707,-0.30307499,0.17626921,0.41105241,41.200019,2415.101)"
       id="text4580-6-8"
       y="1584.5073"
       x="787.65729"
       style="font-style:normal;font-variant:normal;font-weight:normal;font-stretch:normal;line-height:0%;font-family:Lavi;-inkscape-font-specification:Lavi;letter-spacing:0px;word-spacing:0px;opacity:0.75;fill:#000000;fill-opacity:1;stroke:#000000;stroke-width:0.992362;stroke-miterlimit:4;stroke-dasharray:none;stroke-opacity:1;filter:url(#filter4375-4-1-1-1-9-5-3)"
       xml:space="preserve"><tspan
         style="font-size:70px;line-height:1.25;fill:#000000"
         y="1584.5073"
         x="787.65729"
         id="tspan4582-1-6"
         sodipodi:role="line"><tspan
           id="tspan4315-2"
           style="font-size:93.1495px">Wah!</tspan><tspan
           id="tspan4313-2"
           style="font-size:114.732px">!</tspan></tspan></text>
    <path
       sodipodi:nodetypes="csssssssc"
       inkscape:connector-curvature="0"
       id="path3278"
       d="m 429.77059,1141.0136 c -17.34473,-110.6201 78.84832,-131.6689 118.20524,-134.0803 30.52239,-1.87 117.01792,1.865 200.19785,1.865 83.18023,0 289.74732,6.6053 324.67022,7.7292 115.3218,3.7111 131.4782,54.1029 134.1613,100.4771 2.6833,46.3741 -12.5867,82.9637 -60.8847,111.3034 -48.2981,28.3399 -349.64876,35.5478 -368.43137,32.9714 -18.78241,-2.5764 -268.32236,-20.6105 -284.42162,-28.3397 -16.09934,-7.729 -60.81367,-35.2467 -63.49692,-91.9261 z"
       style="fill:#ffffff;stroke:none" />
    <path
       sodipodi:nodetypes="cccccccccccc"
       inkscape:connector-curvature="0"
       id="path4032"
       d="m 1213.73,1364.8622 c -32.1706,-31.7914 -89.2723,-67.9667 -115.2651,-105.1095 l -7.2388,31.2558 c -16.3886,-8.2235 -26.7524,-22.755 -38.6224,-36.7639 l 0.3254,26.0613 c -38.4338,-19.8866 -64.08508,-37.8556 -95.07008,-63.9296 l -53.24144,31.1951 c 73.2942,6.0218 128.19492,51.6307 166.04482,79.2925 l 4.6482,-24.4623 c 12.0642,8.612 23.7954,17.7246 34.0403,29.0731 l 3.0485,-31.2067 z"
       style="color:#000000;display:inline;overflow:visible;visibility:visible;fill:#ffffff;fill-opacity:1;fill-rule:nonzero;stroke:none;stroke-width:1px;marker:none;enable-background:accumulate" />
  </g>
  <g
     inkscape:label="txt"
     id="layer1"
     inkscape:groupmode="layer">
    <text
       id="text4246"
       y="233.23553"
       x="443.67896"
       style="font-style:normal;font-variant:normal;font-weight:normal;font-stretch:normal;line-height:0%;font-family:Lavi;-inkscape-font-specification:Lavi;text-align:center;letter-spacing:0px;word-spacing:0px;text-anchor:middle;fill:#000000;fill-opacity:1;stroke:none"
       xml:space="preserve"><tspan
         id="tspan4150"
         y="233.23553"
         x="450.71021"
         style="font-size:45px;line-height:1.25"
         sodipodi:role="line">Dres oll, </tspan><tspan
         id="tspan68"
         y="289.48553"
         x="450.71021"
         style="font-size:45px;line-height:1.25"
         sodipodi:role="line">na borth skruth, </tspan><tspan
         id="tspan70"
         y="345.73553"
         x="443.67896"
         style="font-size:45px;line-height:1.25"
         sodipodi:role="line">Carrot...</tspan></text>
    <text
       transform="scale(1.00269,0.99731722)"
       id="text4246-1"
       y="1070.1432"
       x="762.31848"
       style="font-style:normal;font-variant:normal;font-weight:normal;font-stretch:normal;line-height:0%;font-family:Lavi;-inkscape-font-specification:Lavi;text-align:center;letter-spacing:0px;word-spacing:0px;text-anchor:middle;fill:#000000;fill-opacity:1;stroke:none"
       xml:space="preserve"><tspan
         id="tspan74"
         y="1070.1432"
         x="762.31848"
         style="font-style:italic;font-variant:normal;font-weight:normal;font-stretch:normal;font-size:45.121px;line-height:1.25;font-family:Lavi;-inkscape-font-specification:'Lavi Italic'"
         sodipodi:role="line">&quot;Tremmyn tewl settys a dal</tspan><tspan
         id="tspan63"
         y="1126.5444"
         x="762.31848"
         style="font-style:italic;font-variant:normal;font-weight:normal;font-stretch:normal;font-size:45.121px;line-height:1.25;font-family:Lavi;-inkscape-font-specification:'Lavi Italic'"
         sodipodi:role="line">dewdhek molleth euver!...</tspan></text>
    <text
       id="text4246-6"
       y="2155.3088"
       x="926.40234"
       style="font-style:normal;font-variant:normal;font-weight:normal;font-stretch:normal;line-height:0%;font-family:Lavi;-inkscape-font-specification:Lavi;text-align:center;letter-spacing:0px;word-spacing:0px;text-anchor:middle;fill:#000000;fill-opacity:1;stroke:none"
       xml:space="preserve"><tspan
         id="tspan3427"
         y="2155.3088"
         x="933.43359"
         style="font-size:45px;line-height:1.25"
         sodipodi:role="line">Ragov ow honan, </tspan><tspan
         id="tspan87"
         y="2211.5588"
         x="926.40234"
         style="font-size:45px;line-height:1.25"
         sodipodi:role="line">gwell via genev dyski</tspan><tspan
         id="tspan85"
         y="2267.8088"
         x="933.43359"
         style="font-size:45px;line-height:1.25"
         sodipodi:role="line">nebes husow-omsettya; </tspan><tspan
         id="tspan89"
         y="2324.0588"
         x="926.40234"
         style="font-size:45px;line-height:1.25"
         sodipodi:role="line">mes yn neb kas...</tspan></text>
    <text
       id="text4246-6-2"
       y="2821.0134"
       x="2084.9072"
       style="font-style:normal;font-variant:normal;font-weight:normal;font-stretch:normal;line-height:0%;font-family:Lavi;-inkscape-font-specification:Lavi;text-align:center;letter-spacing:0px;word-spacing:0px;text-anchor:middle;fill:#000000;fill-opacity:1;stroke:none"
       xml:space="preserve"><tspan
         id="tspan4321"
         y="2821.0134"
         x="2091.9385"
         style="font-size:45px;line-height:1.25"
         sodipodi:role="line">Dar... </tspan><tspan
         id="tspan100"
         y="2877.2634"
         x="2091.9385"
         style="font-size:45px;line-height:1.25"
         sodipodi:role="line">Heb na skubell </tspan><tspan
         id="tspan102"
         y="2933.5134"
         x="2084.9072"
         style="font-size:45px;line-height:1.25"
         sodipodi:role="line">na daffar,</tspan></text>
    <text
       id="text4246-6-2-4"
       y="3023.6958"
       x="2190.5249"
       style="font-style:normal;font-variant:normal;font-weight:normal;font-stretch:normal;line-height:0%;font-family:Lavi;-inkscape-font-specification:Lavi;text-align:center;letter-spacing:0px;word-spacing:0px;text-anchor:middle;fill:#000000;fill-opacity:1;stroke:none"
       xml:space="preserve"><tspan
         id="tspan111"
         y="3023.6958"
         x="2190.5249"
         style="font-size:45px;line-height:1.25"
         sodipodi:role="line">hemma a vydh</tspan><tspan
         id="tspan109"
         y="3079.9458"
         x="2190.5249"
         style="font-size:45px;line-height:1.25"
         sodipodi:role="line">viaj hir...</tspan></text>
    <text
       transform="scale(1.00269,0.99731722)"
       id="text4246-1-5"
       y="1181.7107"
       x="746.70569"
       style="font-style:normal;font-variant:normal;font-weight:normal;font-stretch:normal;line-height:0%;font-family:Lavi;-inkscape-font-specification:Lavi;text-align:center;letter-spacing:0px;word-spacing:0px;text-anchor:middle;fill:#000000;fill-opacity:1;stroke:#000000;stroke-width:0.9;stroke-miterlimit:4;stroke-dasharray:none;stroke-opacity:1"
       xml:space="preserve"><tspan
         id="tspan3406"
         y="1181.7107"
         x="746.70569"
         style="font-style:italic;font-variant:normal;font-weight:normal;font-stretch:normal;font-size:45.121px;line-height:1.25;font-family:Lavi;-inkscape-font-specification:'Lavi Italic';stroke:#000000;stroke-width:0.9;stroke-miterlimit:4;stroke-dasharray:none;stroke-opacity:1"
         sodipodi:role="line">...Gwra lagatta orta.</tspan></text>
    <text
       xml:space="preserve"
       style="font-style:normal;font-variant:normal;font-weight:normal;font-stretch:normal;line-height:0%;font-family:Lavi;-inkscape-font-specification:Lavi;text-align:center;letter-spacing:0px;word-spacing:0px;text-anchor:middle;fill:#000000;fill-opacity:1;stroke:#000000;stroke-width:0.9;stroke-miterlimit:4;stroke-dasharray:none;stroke-opacity:1"
       x="769.45703"
       y="1240.1174"
       id="text4188"
       transform="scale(1.00269,0.99731722)"><tspan
         sodipodi:role="line"
         style="font-style:italic;font-variant:normal;font-weight:normal;font-stretch:normal;font-size:45.121px;line-height:1.25;font-family:Lavi;-inkscape-font-specification:'Lavi Italic';stroke:#000000;stroke-width:0.9;stroke-miterlimit:4;stroke-dasharray:none;stroke-opacity:1"
         x="769.45703"
         y="1240.1174"
         id="tspan4190">Gwarthev warnedha! &quot;</tspan></text>
  </g>
</svg>
