<?xml version="1.0" encoding="UTF-8" standalone="no"?>
<!-- Created with Inkscape (http://www.inkscape.org/) -->

<svg
   id="svg2"
   version="1.1"
   inkscape:version="1.1.1 (3bf5ae0d25, 2021-09-20)"
   width="2481"
   height="3503"
   sodipodi:docname="E36P10.svg"
   xmlns:inkscape="http://www.inkscape.org/namespaces/inkscape"
   xmlns:sodipodi="http://sodipodi.sourceforge.net/DTD/sodipodi-0.dtd"
   xmlns:xlink="http://www.w3.org/1999/xlink"
   xmlns="http://www.w3.org/2000/svg"
   xmlns:svg="http://www.w3.org/2000/svg"
   xmlns:rdf="http://www.w3.org/1999/02/22-rdf-syntax-ns#"
   xmlns:cc="http://creativecommons.org/ns#"
   xmlns:dc="http://purl.org/dc/elements/1.1/">
  <metadata
     id="metadata8">
    <rdf:RDF>
      <cc:Work
         rdf:about="">
        <dc:format>image/svg+xml</dc:format>
        <dc:type
           rdf:resource="http://purl.org/dc/dcmitype/StillImage" />
        <dc:title />
      </cc:Work>
    </rdf:RDF>
  </metadata>
  <defs
     id="defs6">
    <filter
       style="color-interpolation-filters:sRGB"
       id="filter4375-4-1-1-1-9-6-9-2-1-5-4"
       inkscape:label="deevad outline effect"
       x="-0.007108724"
       y="-0.012620398"
       width="1.0142174"
       height="1.0252408">
      <feFlood
         id="feFlood4377-7-9-0-8-1-0-2-2-06-5-3"
         flood-opacity="1"
         flood-color="rgb(0,0,0)"
         result="flood" />
      <feComposite
         id="feComposite4379-3-8-8-2-77-6-0-8-3-8-64"
         in2="SourceGraphic"
         in="flood"
         operator="in"
         result="composite1" />
      <feMorphology
         id="feMorphology4393-1-0-49-8-9-2-2-9-2-7-3"
         operator="dilate"
         radius="4"
         result="result3" />
      <feComposite
         id="feComposite4385-9-5-7-0-8-6-3-7-0-1-1"
         in2="result3"
         in="SourceGraphic"
         operator="over"
         result="composite2" />
    </filter>
  </defs>
  <sodipodi:namedview
     pagecolor="#1e1e1e"
     bordercolor="#111111"
     borderopacity="1"
     objecttolerance="10"
     gridtolerance="10"
     guidetolerance="10"
     inkscape:pageopacity="0"
     inkscape:pageshadow="2"
     inkscape:window-width="1852"
     inkscape:window-height="1016"
     id="namedview4"
     showgrid="false"
     inkscape:zoom="0.532004"
     inkscape:cx="1209.5774"
     inkscape:cy="2856.1815"
     inkscape:window-x="0"
     inkscape:window-y="0"
     inkscape:window-maximized="1"
     inkscape:current-layer="layer4"
     inkscape:pagecheckerboard="0"
     inkscape:snap-global="false" />
  <g
     inkscape:groupmode="layer"
     id="layer2"
     inkscape:label="artwork"
     sodipodi:insensitive="true">
    <image
       xlink:href="../gfx_Pepper-and-Carrot_by-David-Revoy_E36P10.png"
       y="0"
       x="0"
       id="image10"
       height="3503"
       width="2481" />
  </g>
  <g
     inkscape:groupmode="layer"
     id="layer4"
     inkscape:label="speechbubbles-thoughts"
     style="display:inline;opacity:0.62085609;mix-blend-mode:multiply">
    <rect
       style="color:#000000;clip-rule:nonzero;display:inline;overflow:visible;visibility:visible;isolation:auto;mix-blend-mode:normal;color-interpolation:sRGB;color-interpolation-filters:linearRGB;solid-color:#000000;solid-opacity:1;fill:#2c0000;fill-opacity:1;fill-rule:nonzero;stroke:none;stroke-width:1.71031;stroke-linecap:butt;stroke-linejoin:miter;stroke-miterlimit:4;stroke-dasharray:none;stroke-dashoffset:0;stroke-opacity:1;marker:none;color-rendering:auto;image-rendering:auto;shape-rendering:auto;text-rendering:auto;enable-background:accumulate"
       id="rect4632-8-6-1-3-6-7-1-2"
       width="394.00537"
       height="130.10451"
       x="130.88094"
       y="2571.7817"
       ry="40"
       rx="40" />
    <rect
       style="color:#000000;clip-rule:nonzero;display:inline;overflow:visible;visibility:visible;opacity:1;isolation:auto;mix-blend-mode:normal;color-interpolation:sRGB;color-interpolation-filters:linearRGB;solid-color:#000000;solid-opacity:1;fill:#2c0000;fill-opacity:1;fill-rule:nonzero;stroke:none;stroke-width:2.22519;stroke-linecap:butt;stroke-linejoin:miter;stroke-miterlimit:4;stroke-dasharray:none;stroke-dashoffset:0;stroke-opacity:1;marker:none;color-rendering:auto;image-rendering:auto;shape-rendering:auto;text-rendering:auto;enable-background:accumulate"
       id="rect4632-8-6-1-3-6-7-1-2-2"
       width="560.83801"
       height="154.72061"
       x="243.58948"
       y="2686.9768"
       ry="39.999996"
       rx="31.879982" />
    <rect
       style="color:#000000;clip-rule:nonzero;display:inline;overflow:visible;visibility:visible;opacity:1;isolation:auto;mix-blend-mode:normal;color-interpolation:sRGB;color-interpolation-filters:linearRGB;solid-color:#000000;solid-opacity:1;fill:#2c0000;fill-opacity:1;fill-rule:nonzero;stroke:none;stroke-width:2.22976;stroke-linecap:butt;stroke-linejoin:miter;stroke-miterlimit:4;stroke-dasharray:none;stroke-dashoffset:0;stroke-opacity:1;marker:none;color-rendering:auto;image-rendering:auto;shape-rendering:auto;text-rendering:auto;enable-background:accumulate"
       id="rect4632-8-6-1-3-6-7-1-2-2-8"
       width="504.97418"
       height="172.5426"
       x="442.28049"
       y="2965.4512"
       ry="39.999996"
       rx="31.892597" />
    <rect
       style="color:#000000;clip-rule:nonzero;display:inline;overflow:visible;visibility:visible;opacity:1;isolation:auto;mix-blend-mode:normal;color-interpolation:sRGB;color-interpolation-filters:linearRGB;solid-color:#000000;solid-opacity:1;fill:#2c0000;fill-opacity:1;fill-rule:nonzero;stroke:none;stroke-width:2.04486;stroke-linecap:butt;stroke-linejoin:miter;stroke-miterlimit:4;stroke-dasharray:none;stroke-dashoffset:0;stroke-opacity:1;marker:none;color-rendering:auto;image-rendering:auto;shape-rendering:auto;text-rendering:auto;enable-background:accumulate"
       id="rect4632-8-6-1-3-6-7-1-2-2-8-9"
       width="454.591"
       height="161.19519"
       x="772.2312"
       y="3210.2864"
       ry="39.999996"
       rx="40" />
    <rect
       style="color:#000000;clip-rule:nonzero;display:inline;overflow:visible;visibility:visible;isolation:auto;mix-blend-mode:normal;color-interpolation:sRGB;color-interpolation-filters:linearRGB;solid-color:#000000;solid-opacity:1;fill:#2c0000;fill-opacity:1;fill-rule:nonzero;stroke:none;stroke-width:1.96413;stroke-linecap:butt;stroke-linejoin:miter;stroke-miterlimit:4;stroke-dasharray:none;stroke-dashoffset:0;stroke-opacity:1;marker:none;color-rendering:auto;image-rendering:auto;shape-rendering:auto;text-rendering:auto;enable-background:accumulate"
       id="rect4632-8-6-1-3-6-7-1-2-2-8-9-9"
       width="419.40372"
       height="161.19519"
       x="423.42978"
       y="3114.0154"
       ry="39.999996"
       rx="40" />
    <rect
       style="color:#000000;clip-rule:nonzero;display:inline;overflow:visible;visibility:visible;opacity:1;isolation:auto;mix-blend-mode:normal;color-interpolation:sRGB;color-interpolation-filters:linearRGB;solid-color:#000000;solid-opacity:1;fill:#2c0000;fill-opacity:1;fill-rule:nonzero;stroke:none;stroke-width:1.35263;stroke-linecap:butt;stroke-linejoin:miter;stroke-miterlimit:4;stroke-dasharray:none;stroke-dashoffset:0;stroke-opacity:1;marker:none;color-rendering:auto;image-rendering:auto;shape-rendering:auto;text-rendering:auto;enable-background:accumulate"
       id="rect4632-8-6-1-3-6-7-1-2-2-8-9-7"
       width="266.16364"
       height="120.46292"
       x="2032.3776"
       y="2554.6343"
       ry="39.999996"
       rx="40" />
    <rect
       style="color:#000000;clip-rule:nonzero;display:inline;overflow:visible;visibility:visible;isolation:auto;mix-blend-mode:normal;color-interpolation:sRGB;color-interpolation-filters:linearRGB;solid-color:#000000;solid-opacity:1;fill:#2c0000;fill-opacity:1;fill-rule:nonzero;stroke:none;stroke-width:2.98407;stroke-linecap:butt;stroke-linejoin:miter;stroke-miterlimit:4;stroke-dasharray:none;stroke-dashoffset:0;stroke-opacity:1;marker:none;color-rendering:auto;image-rendering:auto;shape-rendering:auto;text-rendering:auto;enable-background:accumulate"
       id="rect4632-8-6-1-3-6-7-1-2-2-5"
       width="961.48022"
       height="162.30347"
       x="100.65268"
       y="2823.7839"
       ry="39.999996"
       rx="49.883156" />
  </g>
  <g
     inkscape:groupmode="layer"
     id="layer3"
     inkscape:label="speechbubbles"
     style="display:inline">
    <path
       style="display:inline;fill:#ffffff;stroke:none;stroke-width:1.13918"
       d="m 645.03108,305.11637 c -37.78185,1.40888 -75.65165,7.30359 -111.72585,20.43048 -16.07661,7.14374 -30.93356,19.72304 -38.96991,37.41498 -7.95785,17.45127 -9.44366,37.54626 -9.25684,56.8888 0.0854,18.20809 3.39528,37.17093 13.12395,52.04588 10.84882,16.85861 26.5381,28.54016 42.35867,38.60918 38.38376,23.65456 82.4712,33.14784 125.84534,33.22698 36.49145,0.11757 72.87514,-4.70127 108.76017,-11.96375 24.25789,-5.40224 48.48909,-13.62171 69.49809,-28.803 13.65134,-10.58899 23.73384,-27.13647 27.06788,-45.59629 4.04211,-18.98773 4.23031,-38.72458 3.30107,-58.13092 -1.49945,-16.02614 -6.94347,-32.30199 -17.83303,-43.11262 -13.29202,-14.38745 -30.51894,-22.69315 -47.53809,-29.71871 -27.85555,-10.48559 -57.31926,-12.79981 -86.28923,-16.49724 -26.02727,-2.98815 -52.17227,-4.93304 -78.34222,-4.79377 z"
       id="path3280-8-3"
       inkscape:connector-curvature="0"
       sodipodi:nodetypes="csssc" />
    <path
       style="display:inline;fill:#ffffff;fill-rule:evenodd;stroke:none;stroke-width:0.849084px;stroke-linecap:butt;stroke-linejoin:miter;stroke-opacity:1"
       d="m 533.14448,239.2656 c 23.09507,16.65285 21.78859,25.91315 -4.96235,27.46563 24.66928,9.2378 18.14836,13.63064 4.35256,16.89258 32.78146,18.71989 27.07979,23.26373 1.61512,26.24037 43.71975,10.54786 31.97316,38.52399 19.4384,52.30628 22.60873,-18.53919 13.84656,-9.08092 10.64028,22.06462 15.21865,-35.63303 39.30419,-1.21793 37.27461,26.67671 12.20207,-22.32392 23.8994,-30.29717 35.01618,-21.77594 27.96786,-19.38852 31.13577,10.72065 42.3193,24.83148 10.57557,-23.53224 21.57311,-23.32949 32.70464,-15.55841 8.09485,-9.64617 15.75338,-24.03098 26.86216,-0.93025 7.90402,-19.49934 12.82859,-4.80312 18.66895,-0.61536 -5.6443,-11.91082 9.05531,-13.89679 47.15618,-4.4685 -13.97385,-7.16207 -11.10084,-14.8075 11.65579,-23.02339 -28.56095,-22.92527 -15.55864,-55.42326 9.5561,-54.34861 -43.76563,-8.63761 -12.16586,-23.94864 13.70832,-38.9944 -39.77716,6.33293 -49.7708,4.85278 -48.22965,-24.50192 -45.33063,19.19361 -31.86011,5.69974 -30.33461,-3.12486 -33.63735,19.70176 -46.10236,0.49845 -44.61751,-14.78882 -35.77681,32.1157 -50.26507,0.68221 -60.3733,-18.87098 -14.34469,38.73602 -25.45614,22.48226 -36.55442,6.00173 -6.82443,33.16555 -13.446,22.84752 -20.07192,13.43902 -4.27666,14.20432 -13.71486,17.70549 -30.11198,6.77524 10.61143,12.74385 2.00005,14.12635 -35.71285,-1.69222 z"
       id="path4289-9"
       inkscape:connector-curvature="0"
       sodipodi:nodetypes="cccccccccccccccccccccccc" />
    <path
       style="color:#000000;display:inline;overflow:visible;visibility:visible;fill:#ffffff;fill-opacity:1;fill-rule:nonzero;stroke:none;stroke-width:1px;marker:none;enable-background:accumulate"
       d="m 444.5515,553.88809 c 49.22188,-23.08946 94.45166,-50.05947 99.80873,-89.83498 7.57243,-56.22565 0.63966,-31.22207 0.63966,-31.22207 l 27.96352,47.69077 c 4.62884,0.12169 -9.29495,48.77421 -128.41191,73.36628 z"
       id="path3072-12"
       inkscape:connector-curvature="0"
       sodipodi:nodetypes="csccc" />
    <path
       style="color:#000000;display:inline;overflow:visible;visibility:visible;fill:#ffffff;fill-opacity:1;fill-rule:nonzero;stroke:none;stroke-width:1.16983px;marker:none;enable-background:accumulate"
       d="m 1364.0261,2075.1169 c 26.5259,-16.6955 215.7277,-32.6848 269.4317,10.2379 44.8259,35.8268 41.9497,106.0138 0.8955,132.3934 -41.8251,26.8736 -201.2144,17.3819 -262.819,4.5124 -58.0121,-12.1186 -56.9624,-41.4115 -55.3801,-92.4708 0.6459,-20.8383 21.3461,-37.9785 47.8719,-54.6729 z"
       id="path4040-4-5-3-6"
       inkscape:connector-curvature="0"
       sodipodi:nodetypes="zssssz" />
    <path
       style="color:#000000;display:inline;overflow:visible;visibility:visible;fill:#ffffff;fill-opacity:1;fill-rule:nonzero;stroke:none;stroke-width:1.59557px;marker:none;enable-background:accumulate"
       d="m 188.05045,1952.3518 c 38.2099,-21.5615 310.75046,-42.2109 388.10974,13.2218 64.57065,46.2686 60.42763,136.9119 1.29004,170.9799 -60.24808,34.7061 -289.84457,22.448 -378.58448,5.8276 -83.56497,-15.6506 -82.05291,-53.481 -79.77368,-119.4218 0.93034,-26.9117 30.7485,-49.0475 68.95838,-70.6075 z"
       id="path4040-4-5-3-6-3"
       inkscape:connector-curvature="0"
       sodipodi:nodetypes="zssssz" />
    <path
       style="color:#000000;display:inline;overflow:visible;visibility:visible;fill:#ffffff;fill-opacity:1;fill-rule:nonzero;stroke:none;stroke-width:1.07939px;marker:none;enable-background:accumulate"
       d="m 313.20445,2114.9387 c 29.43281,-12.8099 239.36882,-25.078 298.9581,7.8553 49.73832,27.4888 46.54694,81.3412 0.99371,101.5814 -46.40865,20.6194 -223.26516,13.3367 -291.62086,3.4623 -64.36949,-9.2983 -63.20476,-31.7738 -61.44909,-70.9501 0.71664,-15.9886 23.68535,-29.1398 53.11814,-41.9489 z"
       id="path4040-4-5-3-6-3-6"
       inkscape:connector-curvature="0"
       sodipodi:nodetypes="zssssz" />
    <path
       style="color:#000000;display:inline;overflow:visible;visibility:visible;fill:#ffffff;fill-opacity:1;fill-rule:nonzero;stroke:none;stroke-width:0.922522px;marker:none;enable-background:accumulate"
       d="m 552.44975,2196.6257 c -32.75507,0.8502 -66.00138,1.3809 -97.77119,9.8543 -16.34197,4.4539 -30.51097,13.7633 -44.37013,22.7845 -6.60883,4.8776 -11.10632,12.4008 -11.4719,20.3992 -1.91966,12.5873 -0.135,26.3662 8.2124,36.7075 8.63391,11.0769 22.08732,17.6321 35.55929,21.9559 19.78535,6.0713 40.73815,7.1771 61.36592,8.0595 22.26797,0.7145 44.54821,1.0564 66.81525,1.7895 34.51968,0.4193 69.367,-0.3957 103.22748,-7.3574 14.57336,-3.718 28.4977,-12.329 35.26279,-25.475 9.97194,-18.2114 6.59992,-42.0835 -8.10665,-57.1466 -11.95476,-13.4318 -29.71085,-21.1585 -47.7424,-24.009 -33.10474,-6.9703 -67.21672,-7.6152 -100.98086,-7.5624 z"
       id="path4040-4-5-3-6-3-6-1"
       inkscape:connector-curvature="0"
       sodipodi:nodetypes="zssssz" />
    <path
       style="fill:#ffffff;fill-rule:evenodd;stroke:none;stroke-width:1.34859px;stroke-linecap:butt;stroke-linejoin:miter;stroke-opacity:1"
       d="m 637.21452,2229.0642 c 34.11827,11.889 72.58957,13.9378 105.788,-2.5666 7.655,-4.1018 15.48881,-8.5488 21.63429,-15.1383 10.57644,-14.2244 9.19139,-34.605 3.99627,-51.0044 -2.73889,-10.5837 -9.11471,-19.1741 -15.97638,-26.852 -6.12417,-6.8247 -10.52718,-15.7074 -10.68522,-25.5094 -2.79296,-29.6061 18.0883,-56.3308 40.77716,-70.7847 16.44911,-10.0675 31.50821,-13.6599 50.12207,-14.5724 21.59629,-0.8735 42.50941,0.4191 63.44315,6.0528 -32.94366,-3.5481 -67.79702,-2.6885 -98.12715,13.6777 -16.94107,9.2423 -32.86151,23.8274 -38.9949,44.3145 -3.00365,9.9351 -3.44688,22.1294 2.37423,30.8793 10.68947,13.1182 22.99492,26.4009 26.36466,44.4109 8.27203,28.4165 -1.66375,63.2752 -25.58034,78.2767 -29.23039,20.5696 -63.85945,28.2868 -97.64193,33.545 -20.21033,2.5172 -40.65928,2.7639 -60.90257,0.5566 -2.18546,-11.0159 -8.96934,-21.1319 -7.81103,-32.7854 1.84141,-8.4338 10.81646,-6.5025 16.57658,-7.7613 8.21437,-1.5797 16.42875,-3.1592 24.64311,-4.739 z"
       id="path895"
       inkscape:connector-curvature="0"
       sodipodi:nodetypes="csscccccccccccccccc" />
    <path
       style="fill:#ffffff;fill-rule:evenodd;stroke:none;stroke-width:1px;stroke-linecap:butt;stroke-linejoin:miter;stroke-opacity:1"
       d="m 1355.1074,2023.6623 c 57.2014,6.1035 72.5186,15.7188 59.4739,86.4698 -12.28,66.6033 42.1191,12.5346 42.1191,12.5346 0,0 10.9032,-118.6048 -101.593,-99.0044 z"
       id="path914"
       inkscape:connector-curvature="0"
       sodipodi:nodetypes="cscc" />
  </g>
  <g
     inkscape:groupmode="layer"
     id="layer1"
     inkscape:label="txt">
    <text
       id="text4246-4-2-7"
       y="313.38678"
       x="679.9425"
       style="font-style:normal;font-variant:normal;font-weight:normal;font-stretch:normal;line-height:0%;font-family:Lavi;-inkscape-font-specification:Lavi;text-align:center;letter-spacing:0px;word-spacing:0px;text-anchor:middle;fill:#000000;fill-opacity:1;stroke:none"
       xml:space="preserve"><tspan
         y="313.38678"
         x="679.9425"
         style="font-style:normal;font-variant:normal;font-weight:bold;font-stretch:normal;font-size:45px;line-height:1.25;font-family:Lavi;-inkscape-font-specification:'Lavi Bold';fill:#000000"
         sodipodi:role="line"
         id="tspan6753">Shichimi!</tspan></text>
    <text
       id="text4246-4-2-7-3"
       y="337.50583"
       x="684.17676"
       style="font-style:normal;font-variant:normal;font-weight:normal;font-stretch:normal;line-height:0%;font-family:Lavi;-inkscape-font-specification:Lavi;text-align:center;letter-spacing:0px;word-spacing:0px;text-anchor:middle;fill:#000000;fill-opacity:1;stroke:none"
       xml:space="preserve"><tspan
         y="337.50583"
         x="684.17676"
         style="font-size:45px;line-height:1.25;fill:#000000"
         sodipodi:role="line"
         id="tspan6753-6"> </tspan><tspan
         y="393.75583"
         x="684.17676"
         style="font-size:45px;line-height:1.25;fill:#000000"
         sodipodi:role="line"
         id="tspan18996">Ånderne være</tspan><tspan
         y="450.00583"
         x="684.17676"
         style="font-size:45px;line-height:1.25;fill:#000000"
         sodipodi:role="line"
         id="tspan18998">lovet! Du er i</tspan><tspan
         y="506.25583"
         x="684.17676"
         style="font-size:45px;line-height:1.25;fill:#000000"
         sodipodi:role="line"
         id="tspan17220">god behold.</tspan></text>
    <text
       xml:space="preserve"
       style="font-style:normal;font-variant:normal;font-weight:normal;font-stretch:normal;line-height:0%;font-family:Lavi;-inkscape-font-specification:Lavi;letter-spacing:0px;word-spacing:0px;display:inline;opacity:0.806184;fill:#ffffff;fill-opacity:1;stroke:#ffffff;stroke-width:1.6559;stroke-miterlimit:4;stroke-dasharray:none;stroke-opacity:1;filter:url(#filter4375-4-1-1-1-9-6-9-2-1-5-4)"
       x="787.65729"
       y="1584.5073"
       id="text4580-1-7-3-6-91"
       transform="matrix(0.5650454,-0.2560003,-0.10431571,0.88459901,1996.2214,-208.78698)"><tspan
         sodipodi:role="line"
         id="tspan4582-8-5-6-1-0"
         x="787.65729"
         y="1584.5073"
         style="font-size:70px;line-height:1.25;letter-spacing:2.96623px;fill:#ffffff;stroke:#ffffff;stroke-width:1.6559;stroke-miterlimit:4;stroke-dasharray:none;stroke-opacity:1">Tap</tspan></text>
    <text
       id="text4246-4-2-7-3-7"
       y="2005.8905"
       x="375.56256"
       style="font-style:normal;font-variant:normal;font-weight:normal;font-stretch:normal;font-size:42px;line-height:0%;font-family:Lavi;-inkscape-font-specification:Lavi;text-align:center;letter-spacing:0px;word-spacing:0px;text-anchor:middle;fill:#000000;fill-opacity:1;stroke:none"
       xml:space="preserve"><tspan
         y="2005.8905"
         x="375.56256"
         style="font-size:42px;line-height:1.25;fill:#000000"
         sodipodi:role="line"
         id="tspan18998-6">Jeg blev så bekymret, </tspan><tspan
         y="2058.3906"
         x="375.56256"
         style="font-size:42px;line-height:1.25;fill:#000000"
         sodipodi:role="line"
         id="tspan24646">da jeg fik at vide at</tspan><tspan
         y="2110.8906"
         x="375.56256"
         style="font-size:42px;line-height:1.25;fill:#000000"
         sodipodi:role="line"
         id="tspan29304">de tog dig til fange!</tspan></text>
    <text
       id="text4246-4-2-7-3-7-2"
       y="2185.4529"
       x="453.28833"
       style="font-style:normal;font-variant:normal;font-weight:normal;font-stretch:normal;font-size:42px;line-height:0%;font-family:Lavi;-inkscape-font-specification:Lavi;text-align:center;letter-spacing:0px;word-spacing:0px;text-anchor:middle;fill:#000000;fill-opacity:1;stroke:none"
       xml:space="preserve"><tspan
         y="2185.4529"
         x="453.28833"
         style="font-size:42px;line-height:1.25;fill:#000000"
         sodipodi:role="line"
         id="tspan33034">Og denne kamp!</tspan></text>
    <text
       id="text4246-4-2-7-3-7-2-7"
       y="2274.928"
       x="556.91663"
       style="font-style:normal;font-variant:normal;font-weight:normal;font-stretch:normal;font-size:42px;line-height:0%;font-family:Lavi;-inkscape-font-specification:Lavi;text-align:center;letter-spacing:0px;word-spacing:0px;text-anchor:middle;fill:#000000;fill-opacity:1;stroke:none"
       xml:space="preserve"><tspan
         y="2274.928"
         x="556.91663"
         style="font-size:42px;line-height:1.25;fill:#000000"
         sodipodi:role="line"
         id="tspan33034-0">Sikke et kaos!</tspan></text>
    <text
       id="text4246-4-2-7-3-7-2-7-9"
       y="2134.3457"
       x="1491.4303"
       style="font-style:normal;font-variant:normal;font-weight:normal;font-stretch:normal;font-size:42px;line-height:0%;font-family:Lavi;-inkscape-font-specification:Lavi;text-align:center;letter-spacing:0px;word-spacing:0px;text-anchor:middle;fill:#000000;fill-opacity:1;stroke:none"
       xml:space="preserve"><tspan
         y="2134.3457"
         x="1491.4303"
         style="font-size:42px;line-height:1.25;fill:#000000"
         sodipodi:role="line"
         id="tspan44806">Torreya, det er</tspan><tspan
         y="2186.8457"
         x="1491.4303"
         style="font-size:42px;line-height:1.25;fill:#000000"
         sodipodi:role="line"
         id="tspan44538">så godt at se dig.</tspan></text>
    <text
       id="text4246-4-2-7-3-7-2-7-9-6"
       y="2649.4597"
       x="327.32635"
       style="font-style:normal;font-variant:normal;font-weight:normal;font-stretch:normal;font-size:45px;line-height:0%;font-family:Lavi;-inkscape-font-specification:Lavi;text-align:center;letter-spacing:0px;word-spacing:0px;text-anchor:middle;fill:#ffffff;fill-opacity:1;stroke:none"
       xml:space="preserve"><tspan
         y="2649.4597"
         x="327.32635"
         style="font-size:45px;line-height:1.25;fill:#ffffff"
         sodipodi:role="line"
         id="tspan44806-6">Utroligt...</tspan></text>
    <text
       id="text4246-4-2-7-3-7-2-7-9-6-2"
       y="2749.0349"
       x="518.03851"
       style="font-style:normal;font-variant:normal;font-weight:normal;font-stretch:normal;font-size:45px;line-height:0%;font-family:Lavi;-inkscape-font-specification:Lavi;text-align:center;letter-spacing:0px;word-spacing:0px;text-anchor:middle;fill:#ffffff;fill-opacity:1;stroke:none"
       xml:space="preserve"><tspan
         y="2749.0349"
         x="518.03851"
         style="font-size:45px;line-height:1.25;fill:#ffffff"
         sodipodi:role="line"
         id="tspan44806-6-6">Så denne drage-pilot er</tspan><tspan
         y="2805.2849"
         x="525.06976"
         style="font-size:45px;line-height:1.25;fill:#ffffff"
         sodipodi:role="line"
         id="tspan56440">Shichimis kæreste... </tspan></text>
    <text
       id="text4246-4-2-7-3-7-2-7-9-6-2-3"
       y="2888.5039"
       x="596.40289"
       style="font-style:normal;font-variant:normal;font-weight:normal;font-stretch:normal;font-size:45px;line-height:0%;font-family:Lavi;-inkscape-font-specification:Lavi;text-align:center;letter-spacing:0px;word-spacing:0px;text-anchor:middle;fill:#ffffff;fill-opacity:1;stroke:none"
       xml:space="preserve"><tspan
         y="2888.5039"
         x="596.40289"
         style="font-size:45px;line-height:1.25;fill:#ffffff"
         sodipodi:role="line"
         id="tspan12230">Jeg kan ikke forestille mig, hvad der ville være </tspan><tspan
         y="2944.7539"
         x="596.40289"
         style="font-size:45px;line-height:1.25;fill:#ffffff"
         sodipodi:role="line"
         id="tspan4086">sket hvis jeg havde gjort det af med hende.</tspan></text>
    <text
       id="text4246-4-2-7-3-7-2-7-9-6-2-1"
       y="3028.5688"
       x="689.88873"
       style="font-style:normal;font-variant:normal;font-weight:normal;font-stretch:normal;font-size:45px;line-height:0%;font-family:Lavi;-inkscape-font-specification:Lavi;text-align:center;letter-spacing:0px;word-spacing:0px;text-anchor:middle;fill:#ffffff;fill-opacity:1;stroke:none"
       xml:space="preserve"><tspan
         y="3028.5688"
         x="689.88873"
         style="font-size:45px;line-height:1.25;fill:#ffffff"
         sodipodi:role="line"
         id="tspan59603">Og hærene må</tspan><tspan
         y="3084.8188"
         x="689.88873"
         style="font-size:45px;line-height:1.25;fill:#ffffff"
         sodipodi:role="line"
         id="tspan12284">have fulgt efter mig.</tspan></text>
    <text
       id="text4246-4-2-7-3-7-2-7-9-6-2-1-3"
       y="3174.5261"
       x="635.85541"
       style="font-style:normal;font-variant:normal;font-weight:normal;font-stretch:normal;font-size:45px;line-height:0%;font-family:Lavi;-inkscape-font-specification:Lavi;text-align:center;letter-spacing:0px;word-spacing:0px;text-anchor:middle;fill:#ffffff;fill-opacity:1;stroke:none"
       xml:space="preserve"><tspan
         y="3174.5261"
         x="635.85541"
         style="font-size:45px;line-height:1.25;fill:#ffffff"
         sodipodi:role="line"
         id="tspan21472">Uden dem ville vi</tspan><tspan
         y="3230.7761"
         x="635.85541"
         style="font-size:45px;line-height:1.25;fill:#ffffff"
         sodipodi:role="line"
         id="tspan84000">ikke være befriet.</tspan></text>
    <text
       id="text4246-4-2-7-3-7-2-7-9-6-2-1-0"
       y="3279.803"
       x="1000.6148"
       style="font-style:normal;font-variant:normal;font-weight:normal;font-stretch:normal;font-size:45px;line-height:0%;font-family:Lavi;-inkscape-font-specification:Lavi;text-align:center;letter-spacing:0px;word-spacing:0px;text-anchor:middle;fill:#ffffff;fill-opacity:1;stroke:none"
       xml:space="preserve"><tspan
         y="3279.803"
         x="1000.6148"
         style="font-size:45px;line-height:1.25;fill:#ffffff"
         sodipodi:role="line"
         id="tspan59603-7">Det hele føles så</tspan><tspan
         y="3336.053"
         x="1000.6148"
         style="font-size:45px;line-height:1.25;fill:#ffffff"
         sodipodi:role="line"
         id="tspan62935"><tspan
   style="font-weight:bold"
   id="tspan28534">forbundet</tspan>...</tspan></text>
    <text
       id="text4246-4-2-7-3-7-2-7-9-6-2-1-0-5"
       y="2484.1968"
       x="2726.3804"
       style="font-style:normal;font-variant:normal;font-weight:normal;font-stretch:normal;font-size:59.7016px;line-height:0%;font-family:Lavi;-inkscape-font-specification:Lavi;text-align:center;letter-spacing:0px;word-spacing:0px;text-anchor:middle;fill:#ffffff;fill-opacity:1;stroke:none;stroke-width:1.3267"
       xml:space="preserve"
       transform="matrix(0.94173851,0,-0.16320243,1.0618659,0,0)"
       inkscape:transform-center-x="-14.71405"
       inkscape:transform-center-y="32.044829"><tspan
         y="2484.1968"
         x="2726.3804"
         style="font-style:normal;font-variant:normal;font-weight:bold;font-stretch:normal;font-size:59.7016px;line-height:1.25;font-family:Lavi;-inkscape-font-specification:'Lavi Bold';fill:#ffffff;stroke-width:1.3267"
         sodipodi:role="line"
         id="tspan62935-2">...ÅH!</tspan></text>
  </g>
</svg>
