<?xml version="1.0" encoding="UTF-8" standalone="no"?>
<svg
   sodipodi:docname="E08P05.svg"
   height="3503"
   width="2481"
   inkscape:version="1.2.1 (9c6d41e410, 2022-07-14)"
   version="1.1"
   id="svg2"
   xmlns:inkscape="http://www.inkscape.org/namespaces/inkscape"
   xmlns:sodipodi="http://sodipodi.sourceforge.net/DTD/sodipodi-0.dtd"
   xmlns:xlink="http://www.w3.org/1999/xlink"
   xmlns="http://www.w3.org/2000/svg"
   xmlns:svg="http://www.w3.org/2000/svg"
   xmlns:rdf="http://www.w3.org/1999/02/22-rdf-syntax-ns#"
   xmlns:cc="http://creativecommons.org/ns#"
   xmlns:dc="http://purl.org/dc/elements/1.1/">
  <metadata
     id="metadata8">
    <rdf:RDF>
      <cc:Work
         rdf:about="">
        <dc:format>image/svg+xml</dc:format>
        <dc:type
           rdf:resource="http://purl.org/dc/dcmitype/StillImage" />
        <dc:title />
      </cc:Work>
    </rdf:RDF>
  </metadata>
  <defs
     id="defs6">
    <filter
       inkscape:label="deevad outline effect"
       id="filter4375-4-1-1-15-1-3"
       color-interpolation-filters="sRGB"
       x="-0.00064854906"
       y="-0.0026715189"
       width="1.0012971"
       height="1.005343">
      <feFlood
         result="flood"
         flood-color="rgb(250,62,62)"
         flood-opacity="0.90476190476190477"
         id="feFlood4377-7-9-0-4-4-4" />
      <feComposite
         result="composite1"
         operator="in"
         in="flood"
         in2="SourceGraphic"
         id="feComposite4379-3-8-8-6-0-7" />
      <feMorphology
         result="result3"
         radius="0.59999999999999998"
         operator="dilate"
         id="feMorphology4393-1-0-49-8-2-7" />
      <feComposite
         result="composite2"
         operator="over"
         in="SourceGraphic"
         in2="result3"
         id="feComposite4385-9-5-7-2-1-2" />
    </filter>
    <filter
       inkscape:label="deevad outline effect"
       id="filter4005"
       color-interpolation-filters="sRGB">
      <feFlood
         result="flood"
         flood-color="rgb(0,0,0)"
         flood-opacity="1"
         id="feFlood4007" />
      <feComposite
         result="composite1"
         operator="in"
         in="flood"
         in2="SourceGraphic"
         id="feComposite4009" />
      <feMorphology
         result="result3"
         radius="0.59999999999999998"
         operator="dilate"
         id="feMorphology4011" />
      <feComposite
         result="composite2"
         operator="over"
         in="SourceGraphic"
         in2="result3"
         id="feComposite4013" />
    </filter>
    <filter
       inkscape:label="deevad outline effect"
       id="filter4015"
       color-interpolation-filters="sRGB">
      <feFlood
         result="flood"
         flood-color="rgb(0,0,0)"
         flood-opacity="1"
         id="feFlood4017" />
      <feComposite
         result="composite1"
         operator="in"
         in="flood"
         in2="SourceGraphic"
         id="feComposite4019" />
      <feMorphology
         result="result3"
         radius="0.59999999999999998"
         operator="dilate"
         id="feMorphology4021" />
      <feComposite
         result="composite2"
         operator="over"
         in="SourceGraphic"
         in2="result3"
         id="feComposite4023" />
    </filter>
    <filter
       inkscape:label="deevad outline effect"
       id="filter4025"
       color-interpolation-filters="sRGB">
      <feFlood
         result="flood"
         flood-color="rgb(0,0,0)"
         flood-opacity="1"
         id="feFlood4027" />
      <feComposite
         result="composite1"
         operator="in"
         in="flood"
         in2="SourceGraphic"
         id="feComposite4029" />
      <feMorphology
         result="result3"
         radius="0.59999999999999998"
         operator="dilate"
         id="feMorphology4031" />
      <feComposite
         result="composite2"
         operator="over"
         in="SourceGraphic"
         in2="result3"
         id="feComposite4033" />
    </filter>
    <filter
       inkscape:label="deevad outline effect"
       id="filter4035"
       color-interpolation-filters="sRGB">
      <feFlood
         result="flood"
         flood-color="rgb(0,0,0)"
         flood-opacity="1"
         id="feFlood4037" />
      <feComposite
         result="composite1"
         operator="in"
         in="flood"
         in2="SourceGraphic"
         id="feComposite4039" />
      <feMorphology
         result="result3"
         radius="0.59999999999999998"
         operator="dilate"
         id="feMorphology4041" />
      <feComposite
         result="composite2"
         operator="over"
         in="SourceGraphic"
         in2="result3"
         id="feComposite4043" />
    </filter>
    <filter
       inkscape:label="deevad outline effect"
       id="filter4045"
       color-interpolation-filters="sRGB">
      <feFlood
         result="flood"
         flood-color="rgb(0,0,0)"
         flood-opacity="1"
         id="feFlood4047" />
      <feComposite
         result="composite1"
         operator="in"
         in="flood"
         in2="SourceGraphic"
         id="feComposite4049" />
      <feMorphology
         result="result3"
         radius="0.59999999999999998"
         operator="dilate"
         id="feMorphology4051" />
      <feComposite
         result="composite2"
         operator="over"
         in="SourceGraphic"
         in2="result3"
         id="feComposite4053" />
    </filter>
    <filter
       inkscape:label="deevad outline effect"
       id="filter4055"
       color-interpolation-filters="sRGB">
      <feFlood
         result="flood"
         flood-color="rgb(0,0,0)"
         flood-opacity="1"
         id="feFlood4057" />
      <feComposite
         result="composite1"
         operator="in"
         in="flood"
         in2="SourceGraphic"
         id="feComposite4059" />
      <feMorphology
         result="result3"
         radius="0.59999999999999998"
         operator="dilate"
         id="feMorphology4061" />
      <feComposite
         result="composite2"
         operator="over"
         in="SourceGraphic"
         in2="result3"
         id="feComposite4063" />
    </filter>
    <filter
       inkscape:label="deevad outline effect"
       id="filter4065"
       color-interpolation-filters="sRGB">
      <feFlood
         result="flood"
         flood-color="rgb(0,0,0)"
         flood-opacity="1"
         id="feFlood4067" />
      <feComposite
         result="composite1"
         operator="in"
         in="flood"
         in2="SourceGraphic"
         id="feComposite4069" />
      <feMorphology
         result="result3"
         radius="0.59999999999999998"
         operator="dilate"
         id="feMorphology4071" />
      <feComposite
         result="composite2"
         operator="over"
         in="SourceGraphic"
         in2="result3"
         id="feComposite4073" />
    </filter>
    <filter
       color-interpolation-filters="sRGB"
       inkscape:menu-tooltip="Basic diffuse bevel to use for building textures"
       inkscape:menu="ABCs"
       inkscape:label="Diffuse light"
       id="filter3068"
       x="-0.059365187"
       y="-0.072270463"
       width="1.1187304"
       height="1.1445409">
      <feGaussianBlur
         result="result0"
         in="SourceGraphic"
         stdDeviation="6"
         id="feGaussianBlur3070" />
      <feDiffuseLighting
         result="result5"
         surfaceScale="10"
         diffuseConstant="1"
         id="feDiffuseLighting3072">
        <feDistantLight
           azimuth="235"
           elevation="25"
           id="feDistantLight3074" />
      </feDiffuseLighting>
      <feComposite
         k3="0.6"
         k2="0"
         operator="arithmetic"
         result="result4"
         in="result5"
         k1="1"
         in2="SourceGraphic"
         id="feComposite3076"
         k4="0" />
    </filter>
  </defs>
  <sodipodi:namedview
     inkscape:document-rotation="0"
     inkscape:guide-bbox="true"
     showguides="true"
     inkscape:current-layer="layer3"
     inkscape:window-maximized="1"
     inkscape:window-y="92"
     inkscape:window-x="0"
     inkscape:cy="615.95436"
     inkscape:cx="707.20686"
     inkscape:zoom="0.526013"
     showgrid="false"
     id="namedview4"
     inkscape:window-height="947"
     inkscape:window-width="1920"
     inkscape:pageshadow="2"
     inkscape:pageopacity="0"
     guidetolerance="10"
     gridtolerance="10"
     objecttolerance="10"
     borderopacity="1"
     bordercolor="#666666"
     pagecolor="#ffffff"
     inkscape:showpageshadow="2"
     inkscape:pagecheckerboard="0"
     inkscape:deskcolor="#d1d1d1">
    <sodipodi:guide
       inkscape:locked="false"
       id="guide3066"
       position="102.49375,3567.4437"
       orientation="1,0" />
    <sodipodi:guide
       inkscape:locked="false"
       id="guide3068"
       position="1591.2154,3439.0785"
       orientation="0,1" />
  </sodipodi:namedview>
  <g
     sodipodi:insensitive="true"
     inkscape:label="artwork"
     id="layer2"
     inkscape:groupmode="layer">
    <image
       xlink:href="../gfx_Pepper-and-Carrot_by-David-Revoy_E08P05.png"
       y="0"
       x="0"
       id="image10"
       height="3503"
       width="2481" />
  </g>
  <g
     inkscape:label="speechbubbles"
     id="layer3"
     inkscape:groupmode="layer">
    <path
       sodipodi:nodetypes="ccccccccsc"
       inkscape:connector-curvature="0"
       id="path5901"
       d="m 1889.0397,1689.3949 c -18.4523,28.3798 -51.1226,88.4968 -53.6964,103.6923 24.9455,9.8716 63.3606,38.7994 61.4454,43.4826 -1.9154,4.6832 -64.3114,57.1793 -62.1183,64.6368 2.1932,7.4574 17.4097,29.1871 26.1857,34.615 -23.9099,-18.6352 -40.7903,-34.5159 -40.9424,-46.0736 -0.5159,-7.819 48.671,-48.3166 52.2072,-50.9091 -18.4319,-14.9363 -59.2654,-41.5126 -63.9461,-49.6536 1.5251,-11.9193 7.4437,-57.7273 34.6061,-108.1162 27.1625,-50.3889 46.2588,8.3258 46.2588,8.3258 z"
       style="color:#000000;fill:#ffffff;fill-opacity:1;fill-rule:nonzero;stroke:none;stroke-width:1px;marker:none;visibility:visible;display:inline;overflow:visible;enable-background:accumulate" />
    <path
       sodipodi:nodetypes="cccccccccccc"
       inkscape:connector-curvature="0"
       id="path4032"
       d="M 750.05428,530.36217 C 700.59655,469.80917 642.22347,418.26218 603.12416,347.24545 l -2.35887,68.85263 c -23.8951,-45.67033 -14.97277,-22.74002 -32.13583,-60.6902 l -20.2888,59.56502 C 532.31217,313.18701 518.95517,255.35532 511.7478,185.45489 L 393.99614,336.25283 c 53.91831,42.85658 113.68895,74.20676 161.02432,130.00583 l 18.17046,-37.70422 c 18.79567,16.32487 28.17649,24.0466 43.83446,45.69113 l 10.41812,-50.72454 z"
       style="color:#000000;fill:#ffffff;fill-opacity:1;fill-rule:nonzero;stroke:none;stroke-width:1px;marker:none;visibility:visible;display:inline;overflow:visible;enable-background:accumulate" />
    <path
       id="path4024"
       style="color:#000000;fill:#ffffff;fill-opacity:1;fill-rule:nonzero;stroke:none;stroke-width:1px;marker:none;visibility:visible;display:inline;overflow:visible;enable-background:accumulate"
       d="M 373.65625 -32.197266 C 354.19881 11.099542 329.48944 50.264885 296.62305 83.013672 L 286.16211 66.4375 L 273.11719 81.765625 L 259.94141 61.951172 L 240.10352 85.628906 C 224.41614 67.590892 215.28005 56.539959 209.12695 38.501953 C 212.16149 55.407334 214.36773 66.763751 209.94141 85.380859 C 152.03123 56.877573 153.76583 54.33581 132.09375 38.501953 C 126.15523 58.853687 120.23709 65.630016 116.87695 81.269531 L 100.70898 78.650391 L 104.51172 103.08984 C 78.929631 104.41593 65.602521 96.744777 47.451172 92.615234 L 75.980469 124.03711 L 71.226562 132.76367 C 75.858702 137.86703 82.84811 141.34813 84.541016 148.47461 C 71.617874 152.9156 62.326111 152.9139 51.638672 154.61914 C 61.69483 160.52111 70.066208 167.34864 75.980469 175.53125 L 41.744141 189.49609 L 73.126953 201.71484 C 49.522322 221.80491 19.852516 234.47487 -7.7109375 249.7207 L 90.246094 242.73828 L 75.03125 258.44922 C 84.821958 266.62611 83.956679 262.57834 88.345703 264.55859 C 90.483088 270.44314 54.670536 294.91018 57.912109 292.48828 C 61.71632 291.61542 94.050781 288.125 94.050781 288.125 C 94.050781 288.125 65.520011 312.5625 69.324219 312.5625 C 73.128285 312.5625 104.51172 306.45312 104.51172 306.45312 L 94.050781 330.01953 L 73.601562 339.63477 L 45.494141 366.21289 C 56.133874 364.48909 61.167461 367.52028 57.384766 377.70898 C 31.785171 413.98827 66.71487 445.59796 72.994141 457.94922 C 133.43223 390.12119 133.663 384.57751 154.99219 369.60156 C 175.09549 384.76372 175.85049 383.77704 190.10547 407.69922 C 200.39653 392.20403 212.28131 385.99487 228.14844 377.15039 C 233.10072 386.29449 233.13282 388.41317 234.80469 398.09766 C 239.97871 390.80354 242.27339 384.46232 263.33594 371.91406 C 264.07556 383.37106 263.98706 382.96174 263.33594 398.9707 C 284.90987 379.58931 284.61916 379.6631 300.42773 367.55078 C 304.5843 417.37772 307.67564 436.11476 308.71484 480.75195 C 326.94699 450.70269 338.07845 427.39133 365.09766 383.25977 C 370.51974 398.35414 371.04545 401.79462 368.81445 420.12695 C 377.1776 405.22982 377.73684 400.90747 386.97266 385.87891 C 393.16978 394.14795 392.81888 403.71579 389.82422 413.80859 C 395.66021 400.79571 399.97418 387.53051 416.45312 376.27734 C 433.22455 385.11534 433.85615 397.9581 436.42578 410.31836 C 435.61277 394.52238 441.49372 383.70549 455.44727 378.89648 C 487.14151 403.80506 528.55148 405.44313 544.03516 438.13086 C 538.02951 403.7439 509.57857 399.15955 521.06836 368.42188 C 531.84678 365.65441 542.62587 371.19064 553.4043 378.89648 L 552.62891 343.82422 L 592.57227 358.71289 L 569.57227 334.38281 C 586.16949 331.78824 610.86393 339.2617 632.33984 343.11133 L 620.92773 319.54492 C 630.61041 320.42574 647.11208 329.66593 662.77344 337.875 C 643.52939 315.33246 627.34255 300.43723 628.53711 279.39648 L 672.2832 283.75977 C 655.13993 268.0711 633.60127 256.41629 621.60742 236.00195 L 659.91992 234.00977 L 623.78125 207.82617 L 652.3125 192.98828 L 629.48633 189.49609 L 667.5293 158.07617 L 617.12305 155.45703 L 677.99023 98.724609 L 612.47656 94.191406 L 613.32031 69.921875 L 574.32617 99.597656 L 613.32031 -3.3945312 C 581.81644 33.444487 557.54041 62.947059 514.82227 89.494141 L 501.08984 79.150391 L 485.88086 84.507812 L 489.68359 55.083984 L 433.57227 90.869141 L 439.2793 74.287109 L 422.16016 89.996094 L 425.96484 68.175781 L 396.48242 94.361328 L 399.19727 71.546875 L 385.07031 86.505859 L 380.71875 72.169922 L 364.14648 81.269531 C 359.15988 43.44795 367.72772 5.6243139 373.65625 -32.197266 z " />
    <flowRoot
       transform="translate(-58.402292,-119.60867)"
       style="font-style:normal;font-variant:normal;font-weight:normal;font-stretch:normal;line-height:0.01%;font-family:Lavi;-inkscape-font-specification:Lavi;text-align:center;letter-spacing:0px;word-spacing:0px;text-anchor:middle;fill:#000000;fill-opacity:1;stroke:none"
       id="flowRoot2987-4-9-3"
       xml:space="preserve"><flowRegion
         id="flowRegion2989-5-4-5"><rect
           style="font-style:normal;font-variant:normal;font-weight:normal;font-stretch:normal;font-family:Lavi;-inkscape-font-specification:Lavi;text-align:center;text-anchor:middle"
           y="265.53046"
           x="120.55251"
           height="310.73996"
           width="602.40173"
           id="rect2991-7-9-6" /></flowRegion><flowPara
         id="flowPara3011"
         style="font-size:48px;line-height:1.25;text-align:center;text-anchor:middle">Korleis kan dei gjera </flowPara><flowPara
         id="flowPara6448"
         style="font-size:48px;line-height:1.25;text-align:center;text-anchor:middle">dette mot meg?!</flowPara><flowPara
         id="flowPara6446"
         style="font-size:48px;line-height:1.25;text-align:center;text-anchor:middle">Mot            </flowPara></flowRoot>
    <flowRoot
       transform="matrix(1.2147869,0,0,1.2147869,-116.66704,-65.801588)"
       style="font-style:normal;font-variant:normal;font-weight:normal;font-stretch:normal;line-height:0.01%;font-family:Lavi;-inkscape-font-specification:Lavi;text-align:center;letter-spacing:0px;word-spacing:0px;text-anchor:middle;fill:#000000;fill-opacity:1;stroke:none"
       id="flowRoot2987-4-9-3-0"
       xml:space="preserve"><flowRegion
         id="flowRegion2989-5-4-5-1"><rect
           style="font-style:normal;font-variant:normal;font-weight:normal;font-stretch:normal;font-family:Lavi;-inkscape-font-specification:Lavi;text-align:center;text-anchor:middle"
           y="265.53046"
           x="120.55251"
           height="310.73996"
           width="602.40173"
           id="rect2991-7-9-6-4" /></flowRegion><flowPara
         id="flowPara3030-8-7"
         style="font-style:italic;font-weight:bold;font-size:48px;line-height:1.25;-inkscape-font-specification:'Lavi Bold Italic';text-align:center;letter-spacing:1.5px;text-anchor:middle;stroke:#000000;stroke-width:3.15776;stroke-miterlimit:4;stroke-dasharray:none;stroke-opacity:1">meg</flowPara></flowRoot>
    <flowRoot
       style="font-style:normal;font-variant:normal;font-weight:normal;font-stretch:normal;line-height:0.01%;font-family:Arial;-inkscape-font-specification:Arial;letter-spacing:0px;word-spacing:0px;fill:#000000;fill-opacity:1;stroke:none"
       id="flowRoot3805"
       xml:space="preserve"><flowRegion
         id="flowRegion3807"><rect
           y="587.78271"
           x="1565.2173"
           height="402.17389"
           width="371.73911"
           id="rect3809" /></flowRegion><flowPara
         style="font-size:12px;line-height:1.25"
         id="flowPara3811"> </flowPara></flowRoot>
    <flowRoot
       transform="matrix(0.76243122,-0.21499102,0.23823243,0.79946175,1453.5389,36.140636)"
       style="font-style:normal;font-variant:normal;font-weight:normal;font-stretch:normal;line-height:0.01%;font-family:Lavi;-inkscape-font-specification:Lavi;text-align:center;letter-spacing:0px;word-spacing:0px;text-anchor:middle;opacity:0.646512;fill:#bf987f;fill-opacity:1;stroke:none;filter:url(#filter3068)"
       id="flowRoot2987-4-9-3-8"
       xml:space="preserve"><flowRegion
         id="flowRegion2989-5-4-5-4"><rect
           style="font-style:normal;font-variant:normal;font-weight:normal;font-stretch:normal;font-family:Lavi;-inkscape-font-specification:Lavi;text-align:center;text-anchor:middle;fill:#bf987f;fill-opacity:1"
           y="265.53046"
           x="120.55251"
           height="310.73996"
           width="602.40173"
           id="rect2991-7-9-6-3" /></flowRegion><flowPara
         id="flowPara3830"
         style="font-style:normal;font-variant:normal;font-weight:normal;font-stretch:normal;font-size:48px;line-height:1.1;font-family:Fondamento;-inkscape-font-specification:Fondamento;text-align:center;text-anchor:middle;fill:#bf987f;fill-opacity:1">Påkalling av </flowPara><flowPara
         id="flowPara6461"
         style="font-style:normal;font-variant:normal;font-weight:normal;font-stretch:normal;font-size:48px;line-height:1.1;font-family:Fondamento;-inkscape-font-specification:Fondamento;text-align:center;text-anchor:middle;fill:#bf987f;fill-opacity:1">KAOSAH-</flowPara><flowPara
         id="flowPara6463"
         style="font-style:normal;font-variant:normal;font-weight:normal;font-stretch:normal;font-size:48px;line-height:1.1;font-family:Fondamento;-inkscape-font-specification:Fondamento;text-align:center;text-anchor:middle;fill:#bf987f;fill-opacity:1">demonar </flowPara><flowPara
         id="flowPara6465"
         style="font-style:normal;font-variant:normal;font-weight:normal;font-stretch:normal;font-size:48px;line-height:1.1;font-family:Fondamento;-inkscape-font-specification:Fondamento;text-align:center;text-anchor:middle;fill:#bf987f;fill-opacity:1">Bind 1</flowPara><flowPara
         id="flowPara6467"
         style="font-style:normal;font-variant:normal;font-weight:normal;font-stretch:normal;font-size:48px;line-height:1.1;font-family:Fondamento;-inkscape-font-specification:Fondamento;text-align:center;text-anchor:middle;fill:#bf987f;fill-opacity:1" /></flowRoot>
    <path
       sodipodi:nodetypes="ccccccscccscccccscscsccccscccccccsscscccccccccccccccccccccccccsccccc"
       inkscape:connector-curvature="0"
       id="path5888"
       d="m 1565.4375,1603.9485 c 28.2866,6.4777 39.1658,12.4927 34.0887,16.1943 11.6047,1.8508 15.9565,49.971 5.0771,58.7621 -0.7253,0.9256 -5.8024,3.7017 -3.6265,4.1644 2.1758,0.4626 15.2312,-0.9253 17.4071,0.9254 2.1758,1.8508 -19.583,28.2244 -16.6818,29.1497 2.9012,0.9254 69.6281,-16.657 79.0568,-12.4927 9.429,4.1643 4.3519,14.8062 7.253,15.269 2.9011,0.4626 29.7371,-2.3135 33.3637,-1.8509 3.6262,0.4628 12.998,11.0929 13.7802,14.8062 3.1915,-2.5174 20.3083,-6.0149 23.2095,-5.5522 2.9012,0.4627 4.9041,9.7952 5.077,12.4926 2.814,-2.5847 19.5829,-9.7164 21.7589,-9.2539 2.1757,0.4628 11.5762,18.9249 13.7804,24.9855 3.4235,-3.894 26.8358,-25.448 29.0118,-25.9108 2.1759,-0.4627 15.9563,31.4632 18.8577,31.926 2.9011,0.4627 17.4069,-21.7468 19.5828,-21.2841 2.1759,0.4627 15.9565,13.4183 18.8575,14.3436 2.9013,0.9253 21.759,-28.687 24.6599,-28.687 2.9014,0 27.5613,12.4927 29.7373,14.8061 2.1759,2.3135 4.3515,-12.0301 7.2528,-12.0301 2.9012,0 36.2646,8.3286 36.9899,7.8659 0.7252,-0.4627 -5.077,-9.2538 -2.9011,-9.2538 36.814,5.1423 82.5278,12.31 116.772,18.9704 -14.1919,-11.6279 -32.6381,-37.9409 -29.0119,-40.717 3.6266,-2.7763 16.682,0.4626 17.4074,-0.9255 0.7252,-1.388 -7.9783,-7.403 -5.8026,-9.2539 2.176,-1.8507 29.0118,-11.5673 29.0118,-11.5673 0,0 -10.8793,-8.3286 -7.9783,-9.7167 2.9013,-1.3881 30.9058,-11.1331 46.419,-12.4927 -5.9966,-2.075 -21.7588,-13.418 -18.8578,-16.657 2.9013,-3.2388 4.3818,-4.15 10.1541,-6.9404 -2.7419,-1.3597 -14.5059,-5.0896 -13.7805,-7.4031 0.7254,-2.3135 7.9782,-13.8809 10.1541,-15.7316 2.1759,-1.8508 -15.2312,-0.9254 -15.2312,-2.7762 0,-1.8508 -3.2509,-17.5936 57.843,-45.9453 -81.4027,14.5795 -109.336,3.2987 -133.2704,-0.4028 -23.935,-3.7016 -9.7914,-14.7601 -3.6293,-26.2949 -13.9675,6.6425 -31.2333,9.6238 -34.089,4.6269 -3.6263,-3.2388 -3.8032,-2.0196 -7.9782,-9.2539 -14.5945,9.8474 -19.583,12.9554 -23.2092,12.4928 -3.6266,-0.4627 -31.5312,-7.3837 -42.7924,-21.284 -14.3531,9.6841 -24.6599,7.8659 -29.0118,8.3285 -4.3518,0.4627 -6.9475,-3.426 -11.6046,-10.1792 -3.6266,0.9253 -26.8358,9.2539 -30.4622,8.3284 -3.6265,-0.9253 -3.4356,0.8579 -9.429,-3.7014 -2.901,0.9253 -15.9563,4.6269 -15.9563,4.6269 0,0 -8.2598,1.993 -13.7806,-2.7762 -12.1451,10.7828 -30.3867,14.0247 -37.7151,16.1943 -6.7439,-3.0146 -34.814,-35.1648 -32.6381,-37.941 2.1759,-2.7762 -32.6384,38.4037 -37.7153,39.7918 -5.0771,1.388 -15.1549,1.6116 -21.7588,-1.3881 -1.4508,1.3881 -5.8024,8.7911 -10.1542,9.2539 -4.3517,0.4626 -14.5058,2.3133 -14.5058,2.3133 l 1.4505,2.7763 c 0,0 -30.4622,-7.4031 -34.0888,-10.1793 -3.6264,-2.7761 2.176,12.03 4.3519,15.7316 -13.0551,-3.7016 -51.4958,-11.5674 -54.3967,-13.8809 -2.9014,-2.3134 5.0767,8.3286 9.4285,11.5674 -5.8022,-1.3881 -10.8794,-1.8507 -10.8794,-1.8507 l 16.6818,11.1046 -5.077,0.9255 c 0,0 10.8793,5.0896 10.8793,7.4031 0,2.3135 -28.2864,5.0896 -28.2864,5.0896 0,0 11.6048,4.1642 8.7036,6.4777 -2.9013,2.3135 -10.1541,3.7015 -10.1541,3.7015 l -1.4506,6.0151 z"
       style="fill:#ffffff;fill-opacity:1;stroke:none" />
    <flowRoot
       transform="translate(1438.7362,1306.9683)"
       style="font-style:normal;font-variant:normal;font-weight:normal;font-stretch:normal;line-height:0.01%;font-family:Lavi;-inkscape-font-specification:Lavi;text-align:center;letter-spacing:0px;word-spacing:0px;text-anchor:middle;fill:#000000;fill-opacity:1;stroke:none"
       id="flowRoot2987-4-9-3-7"
       xml:space="preserve"><flowRegion
         id="flowRegion2989-5-4-5-6"><rect
           style="font-style:normal;font-variant:normal;font-weight:normal;font-stretch:normal;font-family:Lavi;-inkscape-font-specification:Lavi;text-align:center;text-anchor:middle"
           y="265.53046"
           x="120.55251"
           height="310.73996"
           width="602.40173"
           id="rect2991-7-9-6-7" /></flowRegion><flowPara
         id="flowPara4238"
         style="font-size:48px;line-height:1.25;text-align:center;text-anchor:middle">... sidan dei ikkje </flowPara><flowPara
         id="flowPara6496"
         style="font-size:48px;line-height:1.25;text-align:center;text-anchor:middle">er til å stola på ...</flowPara></flowRoot>
    <flowRoot
       transform="matrix(10.283923,-1.1779802,-12.443827,20.606946,2168.326,-18000.295)"
       style="color:#000000;font-style:normal;font-variant:normal;font-weight:normal;font-stretch:normal;line-height:0.01%;font-family:Arial;-inkscape-font-specification:Arial;letter-spacing:0.00204969px;word-spacing:0px;display:inline;overflow:visible;visibility:visible;fill:#ffffff;fill-opacity:1;fill-rule:nonzero;stroke:#ffffff;stroke-width:0.0836072;stroke-linecap:butt;stroke-linejoin:miter;stroke-miterlimit:4;stroke-dasharray:none;stroke-dashoffset:0;stroke-opacity:1;marker:none;filter:url(#filter4375-4-1-1-15-1-3);enable-background:accumulate"
       id="flowRoot4133-6-9-4-8-5"
       xml:space="preserve"><flowRegion
         style="stroke-width:0.866467"
         id="flowRegion4135-2-9-3-5-2"><rect
           style="color:#000000;letter-spacing:0.00204969px;display:inline;overflow:visible;visibility:visible;fill:#ffffff;fill-opacity:1;fill-rule:nonzero;stroke:#ffffff;stroke-width:0.0836072;stroke-linecap:butt;stroke-linejoin:miter;stroke-miterlimit:4;stroke-dasharray:none;stroke-dashoffset:0;stroke-opacity:1;marker:none;enable-background:accumulate"
           y="1078.5308"
           x="1125.3193"
           height="30.687002"
           width="92.489304"
           id="rect4137-1-7-1-2-1" /></flowRegion><flowPara
         style="color:#000000;font-style:normal;font-variant:normal;font-weight:normal;font-stretch:normal;font-size:12px;line-height:125%;font-family:Lavi;-inkscape-font-specification:Lavi;letter-spacing:0.00204969px;word-spacing:0.00204969px;display:inline;overflow:visible;visibility:visible;fill:#ffffff;fill-opacity:1;fill-rule:nonzero;stroke:#ffffff;stroke-width:0.0836072;stroke-linecap:butt;stroke-linejoin:miter;stroke-miterlimit:4;stroke-dasharray:none;stroke-dashoffset:0;stroke-opacity:1;marker:none;enable-background:accumulate"
         id="flowPara4139-2-8-6-8-6"><flowSpan
   style="color:#000000;font-size:7.13246px;display:inline;overflow:visible;visibility:visible;fill:#ffffff;fill-opacity:1;fill-rule:nonzero;stroke:#ffffff;stroke-width:0.0836072;stroke-linecap:butt;stroke-linejoin:miter;stroke-miterlimit:4;stroke-dasharray:none;stroke-dashoffset:0;stroke-opacity:1;marker:none;enable-background:accumulate"
   id="flowSpan4821">D</flowSpan><flowSpan
   style="color:#000000;font-size:8.55646px;display:inline;overflow:visible;visibility:visible;fill:#ffffff;fill-opacity:1;fill-rule:nonzero;stroke:#ffffff;stroke-width:0.0836072;stroke-linecap:butt;stroke-linejoin:miter;stroke-miterlimit:4;stroke-dasharray:none;stroke-dashoffset:0;stroke-opacity:1;marker:none;enable-background:accumulate"
   id="flowSpan4823">Z</flowSpan><flowSpan
   id="flowSpan4271-5"
   style="color:#000000;font-size:9.90925px;display:inline;overflow:visible;visibility:visible;fill:#ffffff;fill-opacity:1;fill-rule:nonzero;stroke:#ffffff;stroke-width:0.0836072;stroke-linecap:butt;stroke-linejoin:miter;stroke-miterlimit:4;stroke-dasharray:none;stroke-dashoffset:0;stroke-opacity:1;marker:none;enable-background:accumulate">Z</flowSpan>ZO<flowSpan
   style="color:#000000;font-size:17.8541px;display:inline;overflow:visible;visibility:visible;fill:#ffffff;fill-opacity:1;fill-rule:nonzero;stroke:#ffffff;stroke-width:0.0836072;stroke-linecap:butt;stroke-linejoin:miter;stroke-miterlimit:4;stroke-dasharray:none;stroke-dashoffset:0;stroke-opacity:1;marker:none;enable-background:accumulate"
   id="flowSpan4277-2">O<flowSpan
   id="flowSpan4005"
   style="font-size:20.7021px">O</flowSpan></flowSpan></flowPara></flowRoot>
    <text
       id="text3358"
       y="266.25055"
       x="472.33951"
       style="font-style:normal;font-weight:normal;line-height:0%;font-family:sans-serif;letter-spacing:0px;word-spacing:0px;fill:#000000;fill-opacity:1;stroke:none"
       xml:space="preserve"><tspan
         style="font-size:40px;line-height:1.25;font-family:sans-serif"
         y="266.25055"
         x="472.33951"
         id="tspan3360"
         sodipodi:role="line"> </tspan></text>
    <flowRoot
       xml:space="preserve"
       id="flowRoot109"
       style="font-style:normal;font-variant:normal;font-weight:normal;font-stretch:normal;line-height:0.01%;font-family:Lavi;-inkscape-font-specification:Lavi;text-align:center;letter-spacing:0px;word-spacing:0px;text-anchor:middle;fill:#000000;fill-opacity:1;stroke:none"
       transform="translate(57.124666,0.3839455)"><flowRegion
         id="flowRegion101"><rect
           id="rect99"
           width="602.40173"
           height="310.73996"
           x="120.55251"
           y="265.53046"
           style="font-style:normal;font-variant:normal;font-weight:normal;font-stretch:normal;font-family:Lavi;-inkscape-font-specification:Lavi;text-align:center;text-anchor:middle" /></flowRegion><flowPara
         style="font-size:48px;line-height:1.25;text-align:center;text-anchor:middle"
         id="flowPara103" /><flowPara
         style="font-size:48px;line-height:1.25;text-align:center;text-anchor:middle"
         id="flowPara105" /><flowPara
         style="font-size:48px;line-height:1.25;text-align:center;text-anchor:middle"
         id="flowPara107">!!!</flowPara></flowRoot>
  </g>
  <g
     inkscape:label="txt"
     id="layer1"
     inkscape:groupmode="layer" />
</svg>
