<?xml version="1.0" encoding="UTF-8" standalone="no"?>
<svg
   xmlns:dc="http://purl.org/dc/elements/1.1/"
   xmlns:cc="http://creativecommons.org/ns#"
   xmlns:rdf="http://www.w3.org/1999/02/22-rdf-syntax-ns#"
   xmlns:svg="http://www.w3.org/2000/svg"
   xmlns="http://www.w3.org/2000/svg"
   xmlns:xlink="http://www.w3.org/1999/xlink"
   xmlns:sodipodi="http://sodipodi.sourceforge.net/DTD/sodipodi-0.dtd"
   xmlns:inkscape="http://www.inkscape.org/namespaces/inkscape"
   sodipodi:docname="E26P01.svg"
   height="3503"
   width="2481"
   inkscape:version="1.0 (4035a4fb49, 2020-05-01)"
   version="1.1"
   id="svg2">
  <metadata
     id="metadata8">
    <rdf:RDF>
      <cc:Work
         rdf:about="">
        <dc:format>image/svg+xml</dc:format>
        <dc:type
           rdf:resource="http://purl.org/dc/dcmitype/StillImage" />
        <dc:title />
      </cc:Work>
    </rdf:RDF>
  </metadata>
  <defs
     id="defs6" />
  <sodipodi:namedview
     inkscape:document-rotation="0"
     inkscape:snap-global="false"
     inkscape:current-layer="layer1"
     inkscape:window-maximized="1"
     inkscape:window-y="0"
     inkscape:window-x="0"
     inkscape:cy="3290.2808"
     inkscape:cx="1277.4559"
     inkscape:zoom="0.5"
     showgrid="false"
     id="namedview4"
     inkscape:window-height="776"
     inkscape:window-width="1280"
     inkscape:pageshadow="2"
     inkscape:pageopacity="0"
     guidetolerance="10"
     gridtolerance="10"
     objecttolerance="10"
     borderopacity="1"
     bordercolor="#666666"
     pagecolor="#ffffff" />
  <g
     sodipodi:insensitive="true"
     inkscape:label="artwork"
     id="layer2"
     inkscape:groupmode="layer">
    <image
       sodipodi:absref="/home/peppercarrot/webcomics/"
       xlink:href="../gfx_Pepper-and-Carrot_by-David-Revoy_E26P01.png"
       y="0"
       x="0"
       id="image10"
       height="3503"
       width="2481" />
  </g>
  <g
     style="display:inline;opacity:1"
     inkscape:label="speechbubbles"
     id="layer3"
     inkscape:groupmode="layer">
    <path
       sodipodi:nodetypes="cssssc"
       inkscape:connector-curvature="0"
       id="path3659-8"
       d="m 248.02539,1886.1776 c -87.28805,0.4163 -128.33259,-10.1327 -148.850334,-19.4702 -34.044749,-15.4936 -40.702997,-108.6848 27.896464,-127.2534 68.96049,-18.6663 203.44291,-14.5153 258.6372,21.3805 55.19408,35.8958 15.82953,83.1585 3.13862,92.8715 -12.69113,9.7129 -46.38886,32.099 -140.82195,32.4716 z"
       style="fill:#ffffff;fill-opacity:1;stroke:none;stroke-width:1.33979297" />
    <path
       sodipodi:nodetypes="cccccccc"
       inkscape:connector-curvature="0"
       id="path5066"
       d="m 274.67689,1855.3732 c 11.17842,15.8247 25.32183,43.4204 25.79652,49.4209 -6.73911,-0.5556 -13.09406,0.387 -18.03883,1.0204 1.81058,10.7946 32.21158,51.6223 41.64451,56.3046 -23.83945,-10.0592 -58.27989,-45.5693 -59.88737,-63.8703 6.68489,-2.1454 10.75049,-2.4727 14.26692,-3.6967 -0.36416,-9.3034 -20.80365,-30.8908 -20.80365,-30.8908 z"
       style="color:#000000;display:inline;overflow:visible;visibility:visible;fill:#ffffff;fill-opacity:1;fill-rule:nonzero;stroke:none;stroke-width:0.77001458px;marker:none;enable-background:accumulate" />
    <path
       sodipodi:nodetypes="ccscccc"
       inkscape:connector-curvature="0"
       id="path3992"
       d="m 1769.4196,1946.3081 c -40.2549,-49.7059 -38.839,-154.5338 -27.3374,-176.9014 17.9863,-41.8224 61.0791,-49.2864 115.7109,-49.2864 54.6317,0 442.4098,-25.3961 498.4792,26.7951 56.0693,52.1912 38.4195,149.3892 -10.4615,210.2788 -48.8811,60.8897 -320.2658,48.4632 -320.2658,48.4632 0,0 -194.3052,4.0256 -256.1254,-59.3493 z"
       style="color:#000000;display:inline;overflow:visible;visibility:visible;fill:#ffffff;fill-opacity:1;fill-rule:nonzero;stroke:none;stroke-width:1.12914014px;marker:none;enable-background:accumulate" />
    <path
       sodipodi:nodetypes="csccc"
       inkscape:connector-curvature="0"
       id="path4000"
       d="m 1984.9695,2211.7966 c 97.5172,-13.4683 140.8945,-73.5032 173.5649,-113.8088 15.274,-18.8437 -32.2063,-50.3843 -32.2063,-50.3843 l -20.4844,64.3961 c 4.4776,5.3732 -31.2523,71.0033 -120.8742,99.797 z"
       style="color:#000000;display:inline;overflow:visible;visibility:visible;fill:#ffffff;fill-opacity:1;fill-rule:nonzero;stroke:none;stroke-width:1px;marker:none;enable-background:accumulate" />
    <path
       sodipodi:nodetypes="cssssc"
       inkscape:connector-curvature="0"
       id="path4546-6"
       d="m 1995.6512,2032.8023 c 15.0455,-23.0063 26.2176,-67.3113 137.0282,-51.7323 59.3561,8.3448 126.8406,7.6994 119.8425,88.2216 -6.9982,80.5222 -105.2583,70.1622 -125.3779,71.1095 -20.1195,0.9474 -115.0296,0.012 -132.4194,-28.3054 -10.8857,-17.7262 -14.0884,-57.9183 0.9266,-79.2934 z"
       style="color:#000000;display:inline;overflow:visible;visibility:visible;fill:#ffffff;fill-opacity:1;fill-rule:nonzero;stroke:none;stroke-width:0.83059144px;marker:none;enable-background:accumulate" />
    <path
       sodipodi:nodetypes="ccscscc"
       inkscape:connector-curvature="0"
       id="path3992-0"
       d="m 893.90692,2690.5487 c -40.89766,-50.7299 -36.51584,-149.6531 -24.8307,-172.4815 -6.85255,-34.1094 18.85242,-62.4869 83.25596,-57.0711 55.28612,4.6491 458.17962,-15.396 515.14422,37.8703 76.4104,71.45 48.9388,142.1194 -0.7226,204.2635 -49.6615,62.1442 -326.0004,44.4898 -326.0004,44.4898 -0.261,0.3529 -193.2974,20.1295 -246.84648,-57.071 z"
       style="color:#000000;display:inline;overflow:visible;visibility:visible;opacity:1;vector-effect:none;fill:#ffffff;fill-opacity:1;fill-rule:nonzero;stroke:none;stroke-width:1.09742534;stroke-linecap:butt;stroke-linejoin:miter;stroke-miterlimit:4;stroke-dasharray:none;stroke-dashoffset:0;stroke-opacity:1;marker:none;paint-order:stroke fill markers;enable-background:accumulate" />
    <path
       inkscape:connector-curvature="0"
       id="path4008"
       d="m 1107.7917,2663.674 c -41.0805,41.3971 -74.3212,126.4523 -32.6058,262.3106 -64.481,-107.4324 -40.7404,-218.5665 -31.5488,-251.0486 9.1915,-32.4819 64.1546,-11.262 64.1546,-11.262 z"
       style="color:#000000;display:inline;overflow:visible;visibility:visible;fill:#ffffff;fill-opacity:1;fill-rule:nonzero;stroke:none;stroke-width:1.1471467px;marker:none;enable-background:accumulate" />
    <path
       sodipodi:nodetypes="cccc"
       inkscape:connector-curvature="0"
       id="path4008-0"
       d="m 1891.9827,2656.832 c -40.4116,58.3597 -53.3089,167.7072 24.2468,263.2149 -108.4132,-99.3198 -82.2954,-214.0613 -72.6196,-244.9782 2.0322,-33.6961 48.3728,-18.2367 48.3728,-18.2367 z"
       style="color:#000000;display:inline;overflow:visible;visibility:visible;fill:#ffffff;fill-opacity:1;fill-rule:nonzero;stroke:none;stroke-width:1.1471467px;marker:none;enable-background:accumulate" />
    <path
       sodipodi:nodetypes="csccssc"
       inkscape:connector-curvature="0"
       id="path3970"
       d="m 1872.4009,2684.9977 c -103.9876,-9.5886 -121.3112,-16.629 -146.1133,-60.7483 -24.8023,-44.1194 21.6007,-167.7323 43.307,-177.7768 13.822,-3.8349 176.0934,-1.4065 266.0097,8.7345 89.9162,10.1412 195.6903,3.4752 225.2227,72.4975 25.5918,59.8123 24.7471,138.7496 -94.1578,152.7891 -118.9052,14.0396 -294.2683,4.504 -294.2683,4.504 z"
       style="color:#000000;display:inline;overflow:visible;visibility:visible;opacity:1;fill:#ffffff;fill-opacity:1;fill-rule:nonzero;stroke:none;stroke-width:1.3938657px;marker:none;enable-background:accumulate" />
  </g>
  <g
     inkscape:label="txt"
     id="layer1"
     inkscape:groupmode="layer">
    <text
       id="text4246"
       y="1793.5669"
       x="247.02435"
       style="font-style:normal;font-variant:normal;font-weight:normal;font-stretch:normal;line-height:0%;font-family:Lavi;-inkscape-font-specification:Lavi;text-align:center;letter-spacing:0px;word-spacing:0px;text-anchor:middle;fill:#000000;fill-opacity:1;stroke:none"
       xml:space="preserve"><tspan
         id="tspan825"
         y="1793.5669"
         x="247.02435"
         style="font-size:45px;line-height:1.25"
         sodipodi:role="line">¡Nada como</tspan><tspan
         id="tspan848"
         y="1849.8169"
         x="247.02435"
         style="font-size:45px;line-height:1.25"
         sodipodi:role="line">un buen libro!</tspan></text>
    <text
       id="text4246-3-5-9"
       y="2049.5022"
       x="2114.9941"
       style="font-style:normal;font-variant:normal;font-weight:normal;font-stretch:normal;line-height:0%;font-family:Lavi;-inkscape-font-specification:Lavi;text-align:center;letter-spacing:0px;word-spacing:0px;text-anchor:middle;fill:#000000;fill-opacity:1;stroke:none"
       xml:space="preserve"><tspan
         id="tspan958"
         y="2049.5022"
         x="2114.9941"
         style="font-size:45px;line-height:1.25"
         sodipodi:role="line">¡Esto es</tspan><tspan
         id="tspan864"
         y="2105.7522"
         x="2114.9941"
         style="font-size:45px;line-height:1.25"
         sodipodi:role="line">oro puro!</tspan></text>
    <text
       id="text4246-3-3"
       y="1790.9519"
       x="2064.4443"
       style="font-style:normal;font-variant:normal;font-weight:normal;font-stretch:normal;line-height:0%;font-family:Lavi;-inkscape-font-specification:Lavi;text-align:center;letter-spacing:0px;word-spacing:0px;text-anchor:middle;fill:#000000;fill-opacity:1;stroke:none"
       xml:space="preserve"><tspan
         id="tspan1093"
         y="1790.9519"
         x="2064.4443"
         style="font-size:45px;line-height:1.25"
         sodipodi:role="line">Este tomo es raro y contiene</tspan><tspan
         id="tspan1097"
         y="1847.2019"
         x="2064.4443"
         style="font-size:45px;line-height:1.25"
         sodipodi:role="line">notas de un aventurero audaz,</tspan><tspan
         id="tspan1107"
         y="1903.4519"
         x="2064.4443"
         style="font-size:45px;line-height:1.25"
         sodipodi:role="line">el cual describe todo acerca</tspan><tspan
         id="tspan860"
         y="1959.7019"
         x="2064.4443"
         style="font-size:45px;line-height:1.25"
         sodipodi:role="line">de este calabozo.</tspan></text>
    <text
       id="text4246-3-3-1"
       y="2539.8181"
       x="1183.6711"
       style="font-style:normal;font-variant:normal;font-weight:normal;font-stretch:normal;line-height:0%;font-family:Lavi;-inkscape-font-specification:Lavi;text-align:center;letter-spacing:0px;word-spacing:0px;text-anchor:middle;fill:#000000;fill-opacity:1;stroke:none"
       xml:space="preserve"><tspan
         id="tspan1149"
         y="2539.8181"
         x="1183.6711"
         style="font-size:45px;line-height:1.25"
         sodipodi:role="line">Por ejemplo: este ojo</tspan><tspan
         id="tspan866"
         y="2596.0681"
         x="1183.6711"
         style="font-size:45px;line-height:1.25"
         sodipodi:role="line">maligno en frente de la puerta</tspan><tspan
         id="tspan1244"
         y="2652.3181"
         x="1183.6711"
         style="font-size:45px;line-height:1.25"
         sodipodi:role="line">lanza bolas de fuego contra</tspan><tspan
         id="tspan876"
         y="2708.5681"
         x="1183.6711"
         style="font-size:45px;line-height:1.25"
         sodipodi:role="line">visitantes no invitados.</tspan></text>
    <text
       id="text4246-3-3-1-2"
       y="2531.9785"
       x="1998.189"
       style="font-style:normal;font-variant:normal;font-weight:normal;font-stretch:normal;line-height:0%;font-family:Lavi;-inkscape-font-specification:Lavi;text-align:center;letter-spacing:0px;word-spacing:0px;text-anchor:middle;fill:#000000;fill-opacity:1;stroke:none"
       xml:space="preserve"><tspan
         id="tspan880"
         y="2531.9785"
         x="1998.189"
         style="font-size:45px;line-height:1.25"
         sodipodi:role="line">Pero si uno se acerca</tspan><tspan
         id="tspan892"
         y="2588.2285"
         x="1998.189"
         style="font-size:45px;line-height:1.25"
         sodipodi:role="line">cuidadosamente desde</tspan><tspan
         id="tspan62"
         y="2644.4785"
         x="1998.189"
         style="font-size:45px;line-height:1.25"
         sodipodi:role="line">un lado, sin ser visto...</tspan><tspan
         id="tspan1230"
         y="2662.9856"
         x="1998.189"
         sodipodi:role="line" /></text>
  </g>
</svg>
