<?xml version="1.0" encoding="UTF-8" standalone="no"?>
<svg
   xmlns:dc="http://purl.org/dc/elements/1.1/"
   xmlns:cc="http://creativecommons.org/ns#"
   xmlns:rdf="http://www.w3.org/1999/02/22-rdf-syntax-ns#"
   xmlns:svg="http://www.w3.org/2000/svg"
   xmlns="http://www.w3.org/2000/svg"
   xmlns:xlink="http://www.w3.org/1999/xlink"
   xmlns:sodipodi="http://sodipodi.sourceforge.net/DTD/sodipodi-0.dtd"
   xmlns:inkscape="http://www.inkscape.org/namespaces/inkscape"
   sodipodi:docname="E26P04.svg"
   height="3503"
   width="2481"
   inkscape:version="1.0 (4035a4fb49, 2020-05-01)"
   version="1.1"
   id="svg2">
  <metadata
     id="metadata8">
    <rdf:RDF>
      <cc:Work
         rdf:about="">
        <dc:format>image/svg+xml</dc:format>
        <dc:type
           rdf:resource="http://purl.org/dc/dcmitype/StillImage" />
        <dc:title />
      </cc:Work>
    </rdf:RDF>
  </metadata>
  <defs
     id="defs6" />
  <sodipodi:namedview
     inkscape:document-rotation="0"
     inkscape:current-layer="layer1"
     inkscape:window-maximized="1"
     inkscape:window-y="0"
     inkscape:window-x="0"
     inkscape:cy="2552.4921"
     inkscape:cx="1349.3529"
     inkscape:zoom="0.3593185"
     showgrid="false"
     id="namedview4"
     inkscape:window-height="776"
     inkscape:window-width="1280"
     inkscape:pageshadow="2"
     inkscape:pageopacity="0"
     guidetolerance="10"
     gridtolerance="10"
     objecttolerance="10"
     borderopacity="1"
     bordercolor="#666666"
     pagecolor="#ffffff" />
  <g
     sodipodi:insensitive="true"
     inkscape:label="artwork"
     id="layer2"
     inkscape:groupmode="layer">
    <image
       sodipodi:absref="/home/peppercarrot/webcomics/"
       xlink:href="../gfx_Pepper-and-Carrot_by-David-Revoy_E26P04.png"
       y="0"
       x="0"
       id="image10"
       height="3503"
       width="2481" />
  </g>
  <g
     inkscape:label="speechbubbles"
     id="layer3"
     inkscape:groupmode="layer">
    <path
       sodipodi:nodetypes="zsssssssz"
       inkscape:connector-curvature="0"
       id="path3373"
       d="m 77.729558,1506.9232 c -5.203345,-67.4656 -4.657079,-119.0693 4.005985,-174.9519 5.380075,-34.7051 169.113997,-39.7609 227.487777,-33.4454 49.82002,5.3902 186.64799,-2.0261 210.94242,46.3985 24.29455,48.4244 16.60146,134.1792 12.04078,181.4478 -4.56055,47.2686 -16.16785,58.1124 -61.67662,97.973 -23.25795,20.3713 -158.58687,32.6947 -213.03592,35.7285 -56.14206,3.132 -134.3364,0.576 -162.01309,-31.0665 -28.05877,-32.079 -12.548133,-54.6183 -17.751332,-122.084 z"
       style="color:#000000;display:inline;overflow:visible;visibility:visible;fill:#ffffff;fill-opacity:1;fill-rule:nonzero;stroke:none;stroke-width:1.94898546px;marker:none;enable-background:accumulate" />
    <path
       sodipodi:nodetypes="cczc"
       inkscape:connector-curvature="0"
       id="path3010"
       d="M 369.79142,809.84364 C 305.75829,762.35821 198.20492,558.84155 249.43665,362.79562 266.81502,310.92732 307.36394,84.8784 238.16093,303.5743 c -69.203,218.6959 9.34385,417.00687 131.63049,506.26934 z"
       style="color:#000000;display:inline;overflow:visible;visibility:visible;fill:#ffffff;fill-opacity:1;fill-rule:nonzero;stroke:none;stroke-width:0.95470774;marker:none;enable-background:accumulate" />
    <path
       sodipodi:nodetypes="ccscssc"
       inkscape:connector-curvature="0"
       id="path3349"
       d="m 760.75243,1017.8265 c -22.47857,-11.219 -27.79905,-26.61133 -25.55111,-33.02225 2.24784,-6.41084 22.47847,-39.26666 47.20477,-43.27347 24.72641,-4.00682 88.79012,-8.81495 103.40117,-4.80813 14.6111,4.00673 56.19637,30.45171 56.19637,44.07478 0,13.62316 -7.86752,40.06807 -30.34602,48.08167 -22.47851,8.0136 -123.93104,0.7406 -150.90518,-11.0526 z"
       style="color:#000000;display:inline;overflow:visible;visibility:visible;fill:#ffffff;fill-opacity:1;fill-rule:nonzero;stroke:none;stroke-width:0.92846394px;marker:none;enable-background:accumulate" />
    <path
       sodipodi:nodetypes="zssssz"
       inkscape:connector-curvature="0"
       id="path4040"
       d="m 797.8434,1032.6202 c 15.09092,-19.5487 142.47558,-35.40537 187.2467,4.8805 44.7711,40.2859 15.3785,97.3247 -10.30993,112.7065 -25.68832,15.3818 -97.61848,19.2165 -133.54478,10.3485 -47.65542,-11.7632 -61.36583,-32.8926 -63.11995,-73.2471 -0.71591,-16.4701 4.63696,-35.1395 19.72796,-54.6884 z"
       style="color:#000000;display:inline;overflow:visible;visibility:visible;fill:#ffffff;fill-opacity:1;fill-rule:nonzero;stroke:none;stroke-width:0.62015653px;marker:none;enable-background:accumulate" />
    <path
       sodipodi:nodetypes="csccc"
       inkscape:connector-curvature="0"
       id="path3525"
       d="m 1545.559,1180.9413 c -1.5443,-51.4663 40.0051,-115.5883 113.5127,-115.5883 62.5131,0 110.1257,18.1663 124.6079,61.9973 2.5605,12.6095 24.7509,84.0643 -57.1831,102.9789 -81.934,18.9144 -177.1897,-3.8892 -180.9375,-49.3879 z"
       style="color:#000000;display:inline;overflow:visible;visibility:visible;fill:#ffffff;fill-opacity:1;fill-rule:nonzero;stroke:none;stroke-width:0.9220413px;marker:none;enable-background:accumulate" />
    <path
       sodipodi:nodetypes="ccsc"
       inkscape:connector-curvature="0"
       id="path4480"
       d="m 938.35118,1086.2126 c 69.98612,31.0197 98.42482,29.5718 151.73632,-4.4587 -31.1182,24.6589 -43.6342,55.9553 -145.08715,33.1222 -40.4073,-9.0941 -6.64917,-28.6635 -6.64917,-28.6635 z"
       style="color:#000000;display:inline;overflow:visible;visibility:visible;fill:#ffffff;fill-opacity:1;fill-rule:nonzero;stroke:none;stroke-width:1px;marker:none;enable-background:accumulate" />
    <path
       inkscape:connector-curvature="0"
       id="path3072"
       d="m 1496.1025,1128.3709 c 34.6297,22.4436 48.151,28.3727 87.526,0.3521 39.375,-28.0207 48.7701,-12.382 48.7701,-12.382 l -12.8989,31.2148 c 0,0 -87.8568,53.5997 -123.3972,-19.1849 z"
       style="color:#000000;display:inline;overflow:visible;visibility:visible;fill:#ffffff;fill-opacity:1;fill-rule:nonzero;stroke:none;stroke-width:1px;marker:none;enable-background:accumulate" />
    <path
       sodipodi:nodetypes="zsssssssz"
       inkscape:connector-curvature="0"
       id="path3373-0"
       d="m 1921.2747,183.12255 c -0.7336,-19.20925 5.8514,-26.39203 36.6602,-38.93681 30.809,-12.54478 60.0351,-6.41212 87.8924,-3.85385 32.0305,2.94151 66.1693,7.50842 77.1725,21.62136 11.0032,14.11286 19.8057,19.60121 16.1379,32.93007 -3.6677,13.32878 -7.3354,27.44172 -20.5392,32.14599 -13.2039,4.70434 -107.0977,10.97669 -122.5021,7.84051 -15.4046,-3.13617 -40.3451,-3.92026 -53.5488,-13.32886 -13.3861,-9.53839 -20.5394,-19.20917 -21.2729,-38.41841 z"
       style="color:#000000;display:inline;overflow:visible;visibility:visible;fill:#ffffff;fill-opacity:1;fill-rule:nonzero;stroke:none;stroke-width:0.74193799px;marker:none;enable-background:accumulate" />
    <path
       sodipodi:nodetypes="cscccsscc"
       inkscape:connector-curvature="0"
       id="path5034"
       d="m 1893.5238,275.99898 c 3.0712,-45.42743 41.9714,-55.43685 82.9192,-57.74673 40.9477,-2.30988 57.3269,4.61975 68.5876,6.1596 11.2606,1.53995 147.8026,-4.61974 162.1342,-3.07979 14.3318,1.53994 81.8957,22.32874 78.8245,58.51664 -3.071,36.18791 -49.1373,51.58702 -96.2273,53.89689 -47.0899,2.30988 -174.4186,0 -197.9635,4.61975 -23.545,4.61975 -91.1089,-3.0798 -98.2747,-62.36645 z"
       style="color:#000000;display:inline;overflow:visible;visibility:visible;fill:#ffffff;fill-opacity:1;fill-rule:nonzero;stroke:none;stroke-width:1.05252004px;marker:none;enable-background:accumulate" />
    <path
       sodipodi:nodetypes="cscc"
       inkscape:connector-curvature="0"
       id="path5002"
       d="m 2014.1421,464.34286 c -57.0243,-41.23372 -60.4397,-86.77108 -49.5441,-144.9504 10.8956,-58.17932 39.6811,-24.31559 39.6811,-24.31559 0,0 -65.1914,100.00192 9.863,169.26599 z"
       style="color:#000000;display:inline;overflow:visible;visibility:visible;fill:#ffffff;fill-opacity:1;fill-rule:nonzero;stroke:none;stroke-width:1px;marker:none;enable-background:accumulate" />
    <path
       sodipodi:nodetypes="ccccscc"
       inkscape:connector-curvature="0"
       id="path3365"
       d="m 1672.3608,2232.4771 c 2.095,12.6252 -21.6843,66.0408 -119.3632,61.8839 -97.6788,-4.157 -121.0426,-36.8339 -120.9102,-53.7968 0.1322,-16.963 23.038,-44.2602 37.2342,-49.1276 14.1961,-4.8673 55.8643,-15.6749 93.903,-10.6767 42.3358,5.5627 79.6115,12.3263 94.5732,26.9259 14.9616,14.5994 12.834,21.4764 14.563,24.7913 z"
       style="color:#000000;display:inline;overflow:visible;visibility:visible;fill:#ffffff;fill-opacity:1;fill-rule:nonzero;stroke:none;stroke-width:0.77728993px;marker:none;enable-background:accumulate" />
    <path
       sodipodi:nodetypes="zsssssz"
       inkscape:connector-curvature="0"
       id="path3330"
       d="m 1445.8658,2314.4551 c 36.3956,-71.1409 235.925,-71.4078 297.2445,-39.8536 61.3193,31.5537 70.1856,70.1691 72.542,89.1185 2.3562,18.9493 -7.3631,129.6825 -39.6727,146.5822 -32.3096,16.8992 -123.6797,24.6343 -155.5015,24.332 -31.8219,-0.3022 -133.0939,-12.2162 -158.0852,-37.635 -23.9069,-24.3161 -52.9226,-111.4033 -16.5271,-182.5441 z"
       style="color:#000000;display:inline;overflow:visible;visibility:visible;fill:#ffffff;fill-opacity:1;fill-rule:nonzero;stroke:none;stroke-width:1.50715446px;marker:none;enable-background:accumulate" />
    <path
       sodipodi:nodetypes="cccc"
       inkscape:connector-curvature="0"
       id="path4008"
       d="m 1664.135,2448.2545 c -69.9893,51.1328 8.9085,162.5856 132.4832,191.8362 -158.9941,-19.5502 -214.8639,-129.8242 -184.2863,-182.6082 -12.1609,-26.4834 51.8031,-9.228 51.8031,-9.228 z"
       style="color:#000000;display:inline;overflow:visible;visibility:visible;fill:#ffffff;fill-opacity:1;fill-rule:nonzero;stroke:none;stroke-width:1.07720649px;marker:none;enable-background:accumulate" />
    <path
       sodipodi:nodetypes="zssssz"
       inkscape:connector-curvature="0"
       id="path4040-0"
       d="M 91.805509,69.839589 C 118.1593,44.819976 351.91785,57.851953 407.96113,125.92711 464.00427,194.00223 433.2475,286.4242 392.41853,303.1038 351.58969,319.78343 170.58392,330.08958 120.32725,309.42951 53.662925,282.02438 38.98534,238.1613 45.525484,179.35037 48.194771,155.34755 65.45156,94.859486 91.805509,69.839589 Z"
       style="color:#000000;display:inline;overflow:visible;visibility:visible;fill:#ffffff;fill-opacity:1;fill-rule:nonzero;stroke:none;stroke-width:0.92337912px;marker:none;enable-background:accumulate" />
    <path
       sodipodi:nodetypes="ccccscc"
       inkscape:connector-curvature="0"
       id="path3365-6"
       d="m 439.87684,468.55748 c 4.06309,22.56052 -27.2505,120.08167 -172.70425,118.8051 -145.45375,-1.27676 -182.62914,-58.53066 -183.709075,-89.02936 -1.0801,-30.49886 30.901265,-81.01756 51.629025,-90.66695 20.72762,-9.64922 81.82907,-31.71839 138.72683,-25.1469 63.32539,7.31362 119.22219,17.10676 142.55253,42.40015 23.33015,25.29305 20.68633,37.78918 23.50494,43.63796 z"
       style="color:#000000;display:inline;overflow:visible;visibility:visible;fill:#ffffff;fill-opacity:1;fill-rule:nonzero;stroke:none;stroke-width:1.31624353px;marker:none;enable-background:accumulate" />
    <path
       sodipodi:nodetypes="cscc"
       inkscape:connector-curvature="0"
       id="path5002-1"
       d="m 421.00062,1204.9587 c -82.04637,41.839 -98.69807,91.9551 -101.02486,156.986 -2.32681,65.0308 42.64616,29.4851 42.64616,29.4851 0,0 -53.69551,-114.8291 58.3787,-186.4711 z"
       style="color:#000000;display:inline;overflow:visible;visibility:visible;fill:#ffffff;fill-opacity:1;fill-rule:nonzero;stroke:none;stroke-width:1.17923069px;marker:none;enable-background:accumulate" />
  </g>
  <g
     inkscape:label="txt"
     id="layer1"
     inkscape:groupmode="layer">
    <text
       id="text4246-5-5"
       y="1371.6912"
       x="123.2315"
       style="font-style:normal;font-variant:normal;font-weight:normal;font-stretch:normal;line-height:0%;font-family:Lavi;-inkscape-font-specification:Lavi;text-align:center;letter-spacing:0px;word-spacing:0px;text-anchor:middle;fill:#000000;fill-opacity:1;stroke:none"
       xml:space="preserve"><tspan
         id="tspan478"
         y="1371.6912"
         x="123.2315"
         style="font-style:italic;font-variant:normal;font-weight:normal;font-stretch:normal;font-size:45px;line-height:1.25;font-family:Lavi;-inkscape-font-specification:'Lavi Italic';text-align:start;text-anchor:start"
         sodipodi:role="line">“Ya que usaste el</tspan><tspan
         id="tspan912"
         y="1427.9412"
         x="123.2315"
         style="font-style:italic;font-variant:normal;font-weight:normal;font-stretch:normal;font-size:45px;line-height:1.25;font-family:Lavi;-inkscape-font-specification:'Lavi Italic';text-align:start;text-anchor:start"
         sodipodi:role="line">atajo, ahora debes</tspan><tspan
         id="tspan916"
         y="1484.1912"
         x="123.2315"
         style="font-style:italic;font-variant:normal;font-weight:normal;font-stretch:normal;font-size:45px;line-height:1.25;font-family:Lavi;-inkscape-font-specification:'Lavi Italic';text-align:start;text-anchor:start"
         sodipodi:role="line">prepararte para</tspan><tspan
         id="tspan918"
         y="1540.4412"
         x="123.2315"
         style="font-style:italic;font-variant:normal;font-weight:normal;font-stretch:normal;font-size:45px;line-height:1.25;font-family:Lavi;-inkscape-font-specification:'Lavi Italic';text-align:start;text-anchor:start"
         sodipodi:role="line">enfrentar el cuarto</tspan><tspan
         id="tspan920"
         y="1596.6912"
         x="123.2315"
         style="font-style:italic;font-variant:normal;font-weight:normal;font-stretch:normal;font-size:45px;line-height:1.25;font-family:Lavi;-inkscape-font-specification:'Lavi Italic';text-align:start;text-anchor:start"
         sodipodi:role="line">de <tspan
   id="tspan879"
   style="font-style:normal;font-variant:normal;font-weight:bold;font-stretch:normal;font-family:Lavi;-inkscape-font-specification:'Lavi Bold'">El guardián</tspan>.”</tspan></text>
    <text
       id="text4246-5"
       y="997.02594"
       x="843.59772"
       style="font-style:normal;font-variant:normal;font-weight:normal;font-stretch:normal;line-height:0%;font-family:Lavi;-inkscape-font-specification:Lavi;text-align:center;letter-spacing:0px;word-spacing:0px;text-anchor:middle;fill:#000000;fill-opacity:1;stroke:none"
       xml:space="preserve"><tspan
         id="tspan859"
         y="997.02594"
         x="843.59772"
         style="font-size:45px;line-height:1.25"
         sodipodi:role="line">Hmm...</tspan></text>
    <text
       id="text4246-5-3"
       y="1081.2249"
       x="891.2019"
       style="font-style:normal;font-variant:normal;font-weight:normal;font-stretch:normal;line-height:0%;font-family:Lavi;-inkscape-font-specification:Lavi;text-align:center;letter-spacing:0px;word-spacing:0px;text-anchor:middle;fill:#000000;fill-opacity:1;stroke:none"
       xml:space="preserve"><tspan
         id="tspan482"
         y="1081.2249"
         x="891.2019"
         style="font-size:45px;line-height:1.25"
         sodipodi:role="line">¿¡¿Dónde</tspan><tspan
         id="tspan924"
         y="1137.4749"
         x="891.2019"
         style="font-size:45px;line-height:1.25"
         sodipodi:role="line">está?!?</tspan><tspan
         id="tspan917"
         y="1155.9818"
         x="891.2019"
         sodipodi:role="line" /></text>
    <text
       id="text4246-5-3-7"
       y="1138.2609"
       x="1666.7848"
       style="font-style:normal;font-variant:normal;font-weight:normal;font-stretch:normal;line-height:0%;font-family:Lavi;-inkscape-font-specification:Lavi;text-align:center;letter-spacing:0px;word-spacing:0px;text-anchor:middle;fill:#000000;fill-opacity:1;stroke:none"
       xml:space="preserve"><tspan
         id="tspan950"
         y="1138.2609"
         x="1666.7848"
         style="font-size:45px;line-height:1.25"
         sodipodi:role="line">¿Nuestro</tspan><tspan
         id="tspan928"
         y="1194.5109"
         x="1666.7848"
         style="font-size:45px;line-height:1.25"
         sodipodi:role="line">enemigo?</tspan><tspan
         id="tspan917-6"
         y="1213.0444"
         x="1666.7848"
         sodipodi:role="line" /></text>
    <text
       id="text4246-5-3-7-2"
       y="201.45618"
       x="2035.5693"
       style="font-style:normal;font-variant:normal;font-weight:normal;font-stretch:normal;line-height:0%;font-family:Lavi;-inkscape-font-specification:Lavi;text-align:center;letter-spacing:0px;word-spacing:0px;text-anchor:middle;fill:#000000;fill-opacity:1;stroke:none"
       xml:space="preserve"><tspan
         id="tspan950-2"
         y="201.45618"
         x="2035.5693"
         style="font-size:45px;line-height:1.25"
         sodipodi:role="line">Aaajá...</tspan><tspan
         id="tspan917-6-7"
         y="219.96317"
         x="2035.5693"
         sodipodi:role="line" /></text>
    <text
       id="text4246-5-3-7-2-0"
       y="295.57761"
       x="2088.1987"
       style="font-style:normal;font-variant:normal;font-weight:normal;font-stretch:normal;line-height:0%;font-family:Lavi;-inkscape-font-specification:Lavi;text-align:center;letter-spacing:0px;word-spacing:0px;text-anchor:middle;fill:#000000;fill-opacity:1;stroke:none"
       xml:space="preserve"><tspan
         id="tspan950-2-3"
         y="295.57761"
         x="2088.1987"
         style="font-style:normal;font-variant:normal;font-weight:bold;font-stretch:normal;font-size:53.3333px;line-height:1.25;font-family:Lavi;-inkscape-font-specification:'Lavi Bold'"
         sodipodi:role="line">¡Te encontré!</tspan><tspan
         id="tspan917-6-7-6"
         y="316.86414"
         x="2088.1987"
         sodipodi:role="line" /></text>
    <text
       id="text4246-5-3-7-6"
       y="2250.0232"
       x="1552.4355"
       style="font-style:normal;font-variant:normal;font-weight:normal;font-stretch:normal;line-height:0%;font-family:Lavi;-inkscape-font-specification:Lavi;text-align:center;letter-spacing:0px;word-spacing:0px;text-anchor:middle;fill:#000000;fill-opacity:1;stroke:none"
       xml:space="preserve"><tspan
         id="tspan917-6-8"
         y="2250.0232"
         x="1552.4355"
         style="font-style:italic;font-variant:normal;font-weight:normal;font-stretch:normal;font-size:45px;line-height:1.25;font-family:Lavi;-inkscape-font-specification:'Lavi Italic'"
         sodipodi:role="line">¡Pufff...!</tspan></text>
    <text
       id="text4246-5-3-79"
       y="2325.6553"
       x="1621.7766"
       style="font-style:normal;font-variant:normal;font-weight:normal;font-stretch:normal;line-height:0%;font-family:Lavi;-inkscape-font-specification:Lavi;text-align:center;letter-spacing:0px;word-spacing:0px;text-anchor:middle;fill:#000000;fill-opacity:1;stroke:none"
       xml:space="preserve"><tspan
         id="tspan1138"
         y="2325.6553"
         x="1621.7766"
         style="font-size:45px;line-height:1.25"
         sodipodi:role="line">¡Ni modo, es</tspan><tspan
         id="tspan941"
         y="2381.9053"
         x="1621.7766"
         style="font-size:45px;line-height:1.25"
         sodipodi:role="line">muy fácil cuando</tspan><tspan
         id="tspan943"
         y="2438.1553"
         x="1621.7766"
         style="font-size:45px;line-height:1.25"
         sodipodi:role="line">ya se sabe el</tspan><tspan
         id="tspan945"
         y="2494.4053"
         x="1621.7766"
         style="font-size:45px;line-height:1.25"
         sodipodi:role="line">punto débil!</tspan><tspan
         id="tspan917-3"
         y="2512.9124"
         x="1621.7766"
         sodipodi:role="line" /></text>
    <text
       id="text4246-5-5-3"
       y="161.71936"
       x="124.21524"
       style="font-style:normal;font-variant:normal;font-weight:normal;font-stretch:normal;line-height:0%;font-family:Lavi;-inkscape-font-specification:Lavi;text-align:center;letter-spacing:0px;word-spacing:0px;text-anchor:middle;fill:#000000;fill-opacity:1;stroke:none"
       xml:space="preserve"><tspan
         id="tspan940"
         y="161.71936"
         x="124.21524"
         style="font-style:italic;font-variant:normal;font-weight:normal;font-stretch:normal;font-size:45px;line-height:1.25;font-family:Lavi;-inkscape-font-specification:'Lavi Italic';text-align:start;text-anchor:start"
         sodipodi:role="line">“Recoge una</tspan><tspan
         id="tspan883"
         y="217.96936"
         x="124.21524"
         style="font-style:italic;font-variant:normal;font-weight:normal;font-stretch:normal;font-size:45px;line-height:1.25;font-family:Lavi;-inkscape-font-specification:'Lavi Italic';text-align:start;text-anchor:start"
         sodipodi:role="line">pluma de ave</tspan><tspan
         id="tspan885"
         y="274.21936"
         x="124.21524"
         style="font-style:italic;font-variant:normal;font-weight:normal;font-stretch:normal;font-size:45px;line-height:1.25;font-family:Lavi;-inkscape-font-specification:'Lavi Italic';text-align:start;text-anchor:start"
         sodipodi:role="line">en tu camino.”</tspan></text>
    <text
       id="text4246-5-3-9"
       y="445.87546"
       x="261.16489"
       style="font-style:normal;font-variant:normal;font-weight:normal;font-stretch:normal;font-size:11.1239px;line-height:0%;font-family:Lavi;-inkscape-font-specification:Lavi;text-align:center;letter-spacing:0px;word-spacing:0px;text-anchor:middle;fill:#000000;fill-opacity:1;stroke:none;stroke-width:0.926994"
       xml:space="preserve"><tspan
         id="tspan995"
         y="445.87546"
         x="261.16489"
         style="font-size:41.7147px;line-height:1.25;stroke-width:0.926994"
         sodipodi:role="line">¡Y si algo nos</tspan><tspan
         id="tspan892"
         y="498.01889"
         x="261.16489"
         style="font-size:41.7147px;line-height:1.25;stroke-width:0.926994"
         sodipodi:role="line">sobra aquí son</tspan><tspan
         id="tspan894"
         y="550.16235"
         x="261.16489"
         style="font-size:41.7147px;line-height:1.25;stroke-width:0.926994"
         sodipodi:role="line">plumas!</tspan></text>
    <text
       transform="matrix(0.90354167,-0.46833278,0.47503417,0.86053134,0,0)"
       id="text4246-5-5-8"
       y="2107.6648"
       x="13.33729"
       style="font-style:normal;font-variant:normal;font-weight:normal;font-stretch:normal;font-size:9.62365px;line-height:0%;font-family:Lavi;-inkscape-font-specification:Lavi;text-align:center;letter-spacing:0px;word-spacing:0px;text-anchor:middle;fill:#000000;fill-opacity:1;stroke:none;stroke-width:0.801971"
       xml:space="preserve"><tspan
         id="tspan478-2"
         y="2107.6648"
         x="13.33729"
         style="font-style:italic;font-variant:normal;font-weight:normal;font-stretch:normal;font-size:36.0887px;line-height:1.25;font-family:Lavi;-inkscape-font-specification:'Lavi Italic';text-align:start;text-anchor:start;fill:#ffffff;fill-opacity:1;stroke-width:0.801971"
         sodipodi:role="line">cuchi</tspan></text>
    <text
       inkscape:transform-center-y="11.506534"
       inkscape:transform-center-x="-64.107832"
       transform="matrix(0.90354167,-0.46833278,0.47503417,0.86053134,0,0)"
       id="text4246-5-5-8-3"
       y="2071.1909"
       x="50.222191"
       style="font-style:normal;font-variant:normal;font-weight:normal;font-stretch:normal;font-size:9.62365px;line-height:0%;font-family:Lavi;-inkscape-font-specification:Lavi;text-align:center;letter-spacing:0px;word-spacing:0px;text-anchor:middle;fill:#000000;fill-opacity:1;stroke:none;stroke-width:0.801971"
       xml:space="preserve"><tspan
         id="tspan478-2-7"
         y="2071.1909"
         x="50.222191"
         style="font-style:italic;font-variant:normal;font-weight:normal;font-stretch:normal;font-size:36.0887px;line-height:1.25;font-family:Lavi;-inkscape-font-specification:'Lavi Italic';text-align:start;text-anchor:start;fill:#ffffff;fill-opacity:1;stroke-width:0.801971"
         sodipodi:role="line">cuchi</tspan></text>
  </g>
</svg>
