<?xml version="1.0" encoding="UTF-8" standalone="no"?>
<!-- Created with Inkscape (http://www.inkscape.org/) -->

<svg
   xmlns:dc="http://purl.org/dc/elements/1.1/"
   xmlns:cc="http://creativecommons.org/ns#"
   xmlns:rdf="http://www.w3.org/1999/02/22-rdf-syntax-ns#"
   xmlns:svg="http://www.w3.org/2000/svg"
   xmlns="http://www.w3.org/2000/svg"
   xmlns:xlink="http://www.w3.org/1999/xlink"
   xmlns:sodipodi="http://sodipodi.sourceforge.net/DTD/sodipodi-0.dtd"
   xmlns:inkscape="http://www.inkscape.org/namespaces/inkscape"
   id="svg2"
   version="1.1"
   inkscape:version="0.92.2 (5c3e80d, 2017-08-06)"
   width="2481"
   height="3503"
   sodipodi:docname="E36P15.svg">
  <metadata
     id="metadata8">
    <rdf:RDF>
      <cc:Work
         rdf:about="">
        <dc:format>image/svg+xml</dc:format>
        <dc:type
           rdf:resource="http://purl.org/dc/dcmitype/StillImage" />
      </cc:Work>
    </rdf:RDF>
  </metadata>
  <defs
     id="defs6" />
  <sodipodi:namedview
     pagecolor="#1e1e1e"
     bordercolor="#111111"
     borderopacity="1"
     objecttolerance="10"
     gridtolerance="10"
     guidetolerance="10"
     inkscape:pageopacity="0"
     inkscape:pageshadow="2"
     inkscape:window-width="1482"
     inkscape:window-height="1031"
     id="namedview4"
     showgrid="false"
     inkscape:zoom="0.56889775"
     inkscape:cx="1215.3909"
     inkscape:cy="2484.8058"
     inkscape:window-x="432"
     inkscape:window-y="-2"
     inkscape:window-maximized="0"
     inkscape:current-layer="layer1"
     inkscape:pagecheckerboard="0"
     inkscape:snap-global="false" />
  <g
     inkscape:groupmode="layer"
     id="layer2"
     inkscape:label="artwork"
     sodipodi:insensitive="true">
    <image
       sodipodi:absref="C:\Users\Kari\Documents\Pepper and Carrot\Episode 36\fi\../gfx_Pepper-and-Carrot_by-David-Revoy_E36P15.png"
       xlink:href="../gfx_Pepper-and-Carrot_by-David-Revoy_E36P15.png"
       y="0"
       x="0"
       id="image10"
       height="3503"
       width="2481" />
  </g>
  <g
     inkscape:groupmode="layer"
     id="layer3"
     inkscape:label="speechbubbles"
     style="display:inline">
    <path
       sodipodi:nodetypes="zssssz"
       inkscape:connector-curvature="0"
       id="path4040-4-9-3"
       d="m 306.71173,1095.7409 c -34.16885,0.4967 -68.67021,7.4519 -99.08026,23.2978 -15.32754,8.7858 -28.67782,22.0107 -35.04213,38.6421 -5.88172,19.2331 -6.48015,40.4924 0.64285,59.4854 8.14164,20.1699 26.67434,35.5594 47.82733,40.759 19.45871,5.1853 39.75625,2.8076 59.59644,2.1517 16.29188,-0.7229 32.6367,-1.0122 48.90752,0.2808 33.08816,1.2074 66.22251,-0.7076 99.1269,-4.1379 14.94791,-1.9898 30.13004,-6.7775 41.51414,-16.9816 13.10065,-11.6681 19.67234,-29.1673 20.6051,-46.3471 1.12722,-15.5661 -1.3374,-31.9952 -10.19405,-45.1903 -8.06025,-11.8157 -20.44807,-19.5883 -32.23716,-27.2862 -17.35618,-11.0037 -36.98403,-18.9852 -57.59463,-20.9941 -26.51382,-3.3734 -53.29597,-3.4548 -79.98176,-3.6856 -1.36343,0 -2.72685,0 -4.09029,0.01 z"
       style="color:#000000;display:inline;overflow:visible;visibility:visible;fill:#ffffff;fill-opacity:1;fill-rule:nonzero;stroke:none;stroke-width:0.928823px;marker:none;enable-background:accumulate" />
    <path
       sodipodi:nodetypes="zssssz"
       inkscape:connector-curvature="0"
       id="path4040-4-9-3-0"
       d="m 1087.5747,1103.4746 c -51.8898,0.6452 -104.74835,5.7225 -153.58966,27.2362 -16.16943,7.1074 -31.3575,21.0634 -36.21603,40.8274 -5.91111,23.5475 3.22447,49.2855 18.88366,64.9858 13.89596,14.2208 32.14082,20.8677 49.82715,26.1281 32.3557,8.7248 65.75048,10.0899 98.82848,11.6213 71.1568,2.5795 142.3022,-2.5414 213.2293,-8.6252 29.5625,-2.8393 60.0981,-9.1366 85.2811,-28.2133 22.6926,-19.2428 30.8221,-59.0686 15.6138,-86.9357 -10.3606,-19.0725 -28.8509,-30.425 -47.7196,-34.4716 -30.1594,-7.0561 -61.0681,-7.8082 -91.7206,-9.3 -36.9736,-1.5299 -73.9718,-2.1286 -110.9612,-2.9692 -13.8177,-0.2288 -27.637,-0.3939 -41.4564,-0.2838 z"
       style="color:#000000;display:inline;overflow:visible;visibility:visible;fill:#ffffff;fill-opacity:1;fill-rule:nonzero;stroke:none;stroke-width:1.20591247px;marker:none;enable-background:accumulate" />
    <path
       sodipodi:nodetypes="zssssz"
       inkscape:connector-curvature="0"
       id="path4040-4-9-3-0-9"
       d="m 1506.7015,1126.0021 c -43.8418,0.9673 -88.5288,8.1228 -126.832,26.7677 -22.7144,11.8288 -35.0051,34.5975 -34.9005,56.6266 -1.1291,26.7122 10.9462,54.5933 35.7853,71.9384 22.2129,15.1155 50.6347,21.5442 78.3368,25.4096 37.8431,4.9897 76.2337,6.1085 114.4819,6.4063 49.5338,-0.043 99.263,-2.8389 147.8842,-11.064 28.2717,-5.9919 55.8841,-18.2385 73.2923,-38.3925 18.9228,-22.3844 24.5129,-53.3168 10.6471,-78.5981 -11.9271,-22.3956 -37.7313,-38.7752 -66.3286,-43.2574 -41.708,-9.0923 -84.9938,-10.0017 -127.7427,-12.5227 -34.8162,-2.0371 -69.7143,-3.4768 -104.6238,-3.3139 z"
       style="color:#000000;display:inline;overflow:visible;visibility:visible;fill:#ffffff;fill-opacity:1;fill-rule:nonzero;stroke:none;stroke-width:1.2304px;marker:none;enable-background:accumulate" />
    <path
       style="fill:#ffffff;fill-rule:evenodd;stroke:none;stroke-width:0.943598px;stroke-linecap:butt;stroke-linejoin:miter;stroke-opacity:1"
       d="m 314.56517,1240.1318 c -36.76861,0.8784 -73.74335,-0.2682 -110.27563,4.2836 -11.63493,1.6342 -22.82182,5.7546 -32.24286,12.1291 -18.39155,12.0615 -30.61435,31.2571 -33.18006,51.5708 -2.8793,17.1735 -2.59991,34.9901 2.59353,51.7912 4.89188,13.996 15.82585,26.3832 30.47834,33.0376 16.37281,7.9949 34.90842,11.1675 53.04368,14.1763 35.02519,5.3329 70.6945,5.8753 106.12795,5.1205 25.24681,-0.7154 50.36409,-3.3031 75.57982,-4.5014 23.21971,-1.3479 46.70295,-3.6042 68.6821,-10.8702 10.58128,-3.2988 21.76268,-7.1546 29.00201,-15.2347 8.17064,-9.4543 10.44543,-21.7177 11.52311,-33.3419 1.65199,-20.0022 -0.50139,-40.3548 -7.11324,-59.5404 -2.74632,-7.5667 -6.10677,-15.1191 -11.39175,-21.5589 -7.33903,-7.8136 -18.26764,-11.842 -29.00818,-14.389 -26.32192,-7.8205 -54.29082,-8.5722 -81.73283,-9.7567 -24.01753,-1.1469 -48.01141,-3.1814 -72.08599,-2.9159 z"
       id="path4430-0"
       inkscape:connector-curvature="0"
       sodipodi:nodetypes="cccc" />
    <path
       style="fill:#ffffff;fill-rule:evenodd;stroke:none;stroke-width:0.914223px;stroke-linecap:butt;stroke-linejoin:miter;stroke-opacity:1"
       d="m 486.57288,1577.4452 c 28.81918,-66.6247 20.74358,-99.1008 19.77331,-112.4088 -16.52174,10.815 -24.86604,14.1576 -24.65914,13.2895 3.00972,-12.6265 -35.44872,-115.6984 -44.45394,-112.059 l 18.96701,-39.5995 c 16.57291,47.9099 30.322,74.2909 38.66556,123.6461 0,0 15.80065,-9.8432 23.58886,-12.9706 2.56416,11.9254 27.41455,66.0411 -31.88166,140.1023 z"
       id="path891"
       inkscape:connector-curvature="0"
       sodipodi:nodetypes="ccsccccc" />
    <path
       id="path889"
       style="fill:#ffffff;fill-rule:evenodd;stroke:none;stroke-width:1.20086479px;stroke-linecap:butt;stroke-linejoin:miter;stroke-opacity:1"
       d="m 2304.3865,1086.6998 c -57.958,0.2436 -115.9197,0.2796 -173.8791,0.4355 -50.0948,0.099 -100.1899,0.1967 -150.2848,0.2949 -8.6169,6.4832 -14.8619,15.6019 -21.2633,24.2565 -20.3769,29.8495 -31.4764,65.2908 -38.1936,100.8492 -7.0724,38.6817 -8.5729,78.9054 -0.6493,117.5785 4.4607,20.312 13.3958,40.3044 28.8278,54.1825 13.6766,12.7094 31.2258,20.2592 49.2043,23.5551 25.0929,5.7946 50.7116,8.5965 76.2501,11.3306 41.6602,3.3678 83.4653,3.9155 125.208,5.483 32.8836,-0.1088 65.1871,-7.6681 96.8857,-16.0366 17.7425,-5.0681 35.4214,-11.4542 50.9546,-21.8456 16.5662,-13.0346 26.1922,-33.5403 29.9247,-54.356 9.8356,-43.4712 12.2186,-89.0024 4.6493,-133.0641 -4.1836,-25.6965 -11.0173,-51.2518 -23.0941,-74.2534 -8.0717,-14.6178 -19.3601,-28.4279 -34.8533,-34.7676 -6.255,-2.5071 -12.9785,-3.7541 -19.687,-3.6425 z"
       inkscape:connector-curvature="0" />
    <path
       style="display:inline;fill:#ffffff;stroke:none;stroke-width:0.912419"
       d="m 2008.3294,1540.6989 c -33.153,-32.8759 -38.8858,-123.5948 0.3904,-163.0573 23.1728,-23.2827 35.5381,-37.608 35.5381,-37.608 l -25.8875,-19.1211 c -94.4367,86.4289 -50.0669,186.6132 -10.041,219.7864 z"
       id="path3063-1-0"
       inkscape:connector-curvature="0"
       sodipodi:nodetypes="csccc" />
    <path
       style="fill:#ffffff;fill-rule:evenodd;stroke:none;stroke-width:0.91666937px;stroke-linecap:butt;stroke-linejoin:miter;stroke-opacity:1"
       d="m 1442.0291,2276.9601 c -34.1243,0.7209 -68.7049,4.937 -100.9435,19.2532 -15.3362,7.0214 -30.0051,18.3438 -39.0122,35.3158 -8.6907,22.3935 -8.0426,50.2724 2.9791,71.3356 6.0707,11.7074 15.213,20.6304 25.2928,26.8936 13.7817,8.7274 28.9617,13.6364 44.1434,17.2869 25.2887,5.6417 51.0908,6.802 76.7515,6.7593 33.6705,-0.385 67.352,-3.784 100.5289,-10.8037 21.1444,-5.4436 42.5808,-12.741 60.4985,-27.9402 8.9058,-10.8078 12.5579,-26.0628 14.8026,-40.6829 3.6802,-23.8316 -3.9318,-50.3014 -20.3183,-64.7079 -11.5955,-9.7548 -25.493,-14.134 -38.9824,-18.3647 -22.3722,-6.2869 -45.2989,-8.7888 -68.0956,-11.6675 -19.1668,-1.983 -38.4107,-2.7925 -57.6448,-2.6775 z"
       id="path4430-0-7"
       inkscape:connector-curvature="0"
       sodipodi:nodetypes="cccc" />
    <path
       style="display:inline;fill:#ffffff;fill-rule:evenodd;stroke:none;stroke-width:0.71410793px;stroke-linecap:butt;stroke-linejoin:miter;stroke-opacity:1"
       d="m 1114.1579,2911.0666 c -29.0487,1.2458 -58.906,7.239 -83.5441,22.2043 -18.5338,12.1568 -27.5519,33.568 -25.7484,53.381 0.7164,19.8938 11.3571,39.7832 30.3483,50.3699 17.9953,10.219 39.2613,14.8532 60.3222,17.615 30.9826,3.7541 62.8948,5.2791 93.968,-0.6461 19.0593,-3.7847 38.2033,-9.9335 53.6191,-21.1701 9.7313,-7.0146 17.1963,-16.5541 20.6713,-27.2506 6.7525,-18.7214 6.6636,-39.6538 -2.2692,-57.4041 -7.4731,-13.6549 -22.3626,-23.3227 -38.9185,-26.6556 -24.1048,-6.32 -49.3944,-8.2706 -74.4457,-10.1809 -11.3058,-0.579 -22.6577,-0.6801 -34.003,-0.2628 z"
       id="path4430-0-7-3"
       inkscape:connector-curvature="0"
       sodipodi:nodetypes="cccc" />
    <path
       style="color:#000000;display:inline;overflow:visible;visibility:visible;fill:#ffffff;fill-opacity:1;fill-rule:nonzero;stroke:none;stroke-width:0.933879px;marker:none;enable-background:accumulate"
       d="m 1510.6073,2424.7097 c 95.8683,30.7313 27.8183,159.8015 -2.9543,189.2123 50.4373,-43.5579 100.0481,-123.5802 33.0541,-217.2104 -31.2156,-43.6267 -19.8493,18.5629 -19.8493,18.5629 z"
       id="path4035-4"
       inkscape:connector-curvature="0"
       sodipodi:nodetypes="ccscc" />
    <path
       style="color:#000000;display:inline;overflow:visible;visibility:visible;fill:#ffffff;fill-opacity:1;fill-rule:nonzero;stroke:none;stroke-width:1.32172811px;marker:none;enable-background:accumulate"
       d="m 1068.4961,2128.284 c -61.8671,1.1522 -123.88412,1.5229 -185.26748,5.682 -36.25405,2.9059 -72.86597,8.6127 -103.91163,27.5924 -21.95913,13.916 -41.12355,35.5444 -48.31309,65.2808 -4.46322,19.071 -1.55899,41.5411 7.81161,60.7881 11.05433,23.6547 30.89221,42.5269 52.204,48.4915 27.91469,9.8812 56.09887,12.0348 84.13251,17.8358 89.01191,13.9176 176.58078,9.9174 263.44548,5.2376 33.7668,-2.0532 67.8884,-4.555 99.1815,-16.2353 21.6691,-8.6602 42.1216,-23.8341 52.0427,-48.7552 13.5286,-35.521 2.3642,-86.84 -27.2893,-115.5798 -22.5617,-21.7001 -50.0709,-30.6961 -76.2798,-37.6358 -39.4329,-9.8339 -78.9241,-12.9693 -117.7565,-12.7021 z"
       id="path4546-6-5-5"
       inkscape:connector-curvature="0"
       sodipodi:nodetypes="cssssc" />
    <path
       style="color:#000000;display:inline;overflow:visible;visibility:visible;fill:#ffffff;fill-opacity:1;fill-rule:nonzero;stroke:none;stroke-width:0.511885px;marker:none;enable-background:accumulate"
       d="m 1198.7358,2292.3553 c -58.4517,90.8359 85.6046,288.3485 132.7428,310.3129 -51.7175,-3.6213 -215.024,-222.6528 -167.3541,-289.5926 16.3894,-23.014 93.063,-111.5562 34.6113,-20.7203 z"
       id="path4480-6"
       inkscape:connector-curvature="0"
       sodipodi:nodetypes="zcsz" />
    <path
       style="fill:#ffffff;stroke:none;stroke-width:1.22863"
       d="m 1132.3337,2836.1319 c 6.9881,13.1882 16.9513,18.3851 13.6567,35.0595 -18.6808,32.3624 -3.398,71.476 20.2436,84.4218 3.4934,10.3144 -10.2432,41.0229 -10.2432,41.0229 -31.6711,-50.3948 -47.4892,-83.1315 -25.5958,-126.3842 3.8504,-6.927 -8.3872,-14.7062 -12.2361,-26.3855 -3.8491,-11.6793 -4.7084,-20.1125 -0.097,-40.9935 3.9527,-17.898 39.9891,-41.3608 39.9891,-41.3608 -27.433,31.2471 -35.5926,52.7621 -25.7173,74.6198 z"
       id="path3023-4"
       inkscape:connector-curvature="0"
       sodipodi:nodetypes="cccccsscc" />
    <path
       style="color:#000000;display:inline;overflow:visible;visibility:visible;fill:#ffffff;fill-opacity:1;fill-rule:nonzero;stroke:none;stroke-width:1.24837px;marker:none;enable-background:accumulate"
       d="m 1380.3027,1450.8419 c 65.8497,-28.0462 78.4621,-86.1375 90.2102,-126.6975 16.6063,-57.3342 1.8435,-63.2522 1.8435,-63.2522 l 29.8886,-4.9473 c 11.5377,-2.8141 4.798,161.6465 -121.9423,194.897 z"
       id="path3072-1-3"
       inkscape:connector-curvature="0"
       sodipodi:nodetypes="csccc" />
  </g>
  <g
     inkscape:groupmode="layer"
     id="layer1"
     inkscape:label="txt"
     style="display:inline">
    <text
       id="text4246-4-2-7"
       y="1168.6454"
       x="326.61557"
       style="font-style:normal;font-variant:normal;font-weight:normal;font-stretch:normal;line-height:0%;font-family:Lavi;-inkscape-font-specification:Lavi;text-align:center;letter-spacing:0px;word-spacing:0px;text-anchor:middle;fill:#000000;fill-opacity:1;stroke:none"
       xml:space="preserve"><tspan
         y="1168.6454"
         x="326.61557"
         style="font-size:45px;line-height:1.25"
         sodipodi:role="line"
         id="tspan4993">Mutta mitä</tspan><tspan
         y="1224.8954"
         x="326.61557"
         style="font-size:45px;line-height:1.25"
         sodipodi:role="line"
         id="tspan6345">nyt tapahtuu?</tspan></text>
    <text
       id="text4246-4-2-7-3"
       y="1307.0507"
       x="330.63736"
       style="font-style:normal;font-variant:normal;font-weight:normal;font-stretch:normal;line-height:0%;font-family:Lavi;-inkscape-font-specification:Lavi;text-align:center;letter-spacing:0px;word-spacing:0px;text-anchor:middle;fill:#000000;fill-opacity:1;stroke:none"
       xml:space="preserve"><tspan
         y="1307.0507"
         x="330.63736"
         style="font-size:45px;line-height:1.25"
         sodipodi:role="line"
         id="tspan48107">Jotkut heistä</tspan><tspan
         y="1363.3007"
         x="330.63736"
         style="font-size:45px;line-height:1.25"
         sodipodi:role="line"
         id="tspan13938">suutelevat <tspan
   style="font-weight:bold"
   id="tspan24716">...?!</tspan></tspan></text>
    <text
       id="text4246-4-2-7-3-6"
       y="1176.2039"
       x="1142.3701"
       style="font-style:normal;font-variant:normal;font-weight:normal;font-stretch:normal;line-height:0%;font-family:Lavi;-inkscape-font-specification:Lavi;text-align:center;letter-spacing:0px;word-spacing:0px;text-anchor:middle;fill:#000000;fill-opacity:1;stroke:none"
       xml:space="preserve"><tspan
         y="1176.2039"
         x="1142.3701"
         style="font-size:45px;line-height:1.25"
         sodipodi:role="line"
         id="tspan67460">Ooh ... Nyt tuli</tspan><tspan
         y="1232.4539"
         x="1142.3701"
         style="font-size:45px;line-height:1.25"
         sodipodi:role="line"
         id="tspan31052">paljon uusia pareja!</tspan></text>
    <text
       id="text4246-4-2-7-3-6-3"
       y="1207.6427"
       x="1581.8838"
       style="font-style:normal;font-variant:normal;font-weight:normal;font-stretch:normal;line-height:0%;font-family:Lavi;-inkscape-font-specification:Lavi;text-align:center;letter-spacing:0px;word-spacing:0px;text-anchor:middle;fill:#000000;fill-opacity:1;stroke:none"
       xml:space="preserve"><tspan
         y="1207.6427"
         x="1581.8838"
         style="font-size:45px;line-height:1.25"
         sodipodi:role="line"
         id="tspan39922">Näinkö oli tarkoitus</tspan><tspan
         y="1263.8927"
         x="1581.8838"
         style="font-size:45px;line-height:1.25"
         sodipodi:role="line"
         id="tspan44730">tapahtua, Pepper?</tspan></text>
    <text
       id="text4246-4-2-7-3-6-3-6"
       y="1144.2382"
       x="2152.9924"
       style="font-style:normal;font-variant:normal;font-weight:normal;font-stretch:normal;line-height:0%;font-family:Lavi;-inkscape-font-specification:Lavi;text-align:center;letter-spacing:0px;word-spacing:0px;text-anchor:middle;fill:#000000;fill-opacity:1;stroke:none"
       xml:space="preserve"><tspan
         y="1144.2382"
         x="2152.9924"
         style="font-size:45px;line-height:1.25"
         sodipodi:role="line"
         id="tspan87824">Ei sentään! Luulen,</tspan><tspan
         y="1200.4882"
         x="2152.9924"
         style="font-size:45px;line-height:1.25"
         sodipodi:role="line"
         id="tspan76">että se johtui lohi-</tspan><tspan
         y="1256.7382"
         x="2152.9924"
         style="font-size:45px;line-height:1.25"
         sodipodi:role="line"
         id="tspan97452">käärmeen voimasta,</tspan><tspan
         y="1312.9882"
         x="2152.9924"
         style="font-size:45px;line-height:1.25"
         sodipodi:role="line"
         id="tspan101">joka vahvisti loitsuuni</tspan><tspan
         y="1369.2382"
         x="2152.9924"
         style="font-size:45px;line-height:1.25"
         sodipodi:role="line"
         id="tspan89">sisältyvää rakkautta.</tspan></text>
    <text
       id="text4246-4-2-7-3-6-3-6-1"
       y="2207.3054"
       x="1012.6952"
       style="font-style:normal;font-variant:normal;font-weight:normal;font-stretch:normal;line-height:0%;font-family:Lavi;-inkscape-font-specification:Lavi;text-align:center;letter-spacing:0px;word-spacing:0px;text-anchor:middle;fill:#000000;fill-opacity:1;stroke:none"
       xml:space="preserve"><tspan
         y="2207.3054"
         x="1012.6952"
         style="font-size:45px;line-height:1.25"
         sodipodi:role="line"
         id="tspan103411">Hah, tämä taistelu</tspan><tspan
         y="2263.5554"
         x="1012.6952"
         style="font-size:45px;line-height:1.25"
         sodipodi:role="line"
         id="tspan111">tulee menemään suoraan</tspan><tspan
         y="2319.8054"
         x="1012.6952"
         style="font-size:45px;line-height:1.25"
         sodipodi:role="line"
         id="tspan109377">historian kirjoihin.</tspan></text>
    <text
       id="text4246-4-2-7-3-6-3-6-1-3"
       y="2346.5227"
       x="1457.3495"
       style="font-style:normal;font-variant:normal;font-weight:normal;font-stretch:normal;line-height:0%;font-family:Lavi;-inkscape-font-specification:Lavi;text-align:center;letter-spacing:0px;word-spacing:0px;text-anchor:middle;fill:#000000;fill-opacity:1;stroke:none"
       xml:space="preserve"><tspan
         y="2346.5227"
         x="1457.3495"
         style="font-size:45px;line-height:1.25"
         sodipodi:role="line"
         id="tspan83228-9">Heh-heh,</tspan></text>
    <text
       id="text4246-4-2-7-3-6-3-6-1-3-2"
       y="2401.8772"
       x="1461.7375"
       style="font-style:normal;font-variant:normal;font-weight:normal;font-stretch:normal;line-height:0%;font-family:Lavi;-inkscape-font-specification:Lavi;text-align:center;letter-spacing:0px;word-spacing:0px;text-anchor:middle;fill:#000000;fill-opacity:1;stroke:none"
       xml:space="preserve"><tspan
         y="2401.8772"
         x="1461.7375"
         style="font-size:45px;line-height:1.25"
         sodipodi:role="line"
         id="tspan83228-9-2">ehdottomasti!</tspan></text>
    <text
       id="text4246-4-2-7-3-6-3-6-1-3-2-8"
       y="2974.0247"
       x="1141.675"
       style="font-style:normal;font-variant:normal;font-weight:normal;font-stretch:normal;font-size:42px;line-height:0%;font-family:Lavi;-inkscape-font-specification:Lavi;text-align:center;letter-spacing:0px;word-spacing:0px;text-anchor:middle;fill:#000000;fill-opacity:1;stroke:none"
       xml:space="preserve"><tspan
         y="2974.0247"
         x="1141.675"
         style="font-size:42px;line-height:1.25"
         sodipodi:role="line"
         id="tspan123908">Voi miten</tspan><tspan
         y="3026.5247"
         x="1141.675"
         style="font-size:42px;line-height:1.25"
         sodipodi:role="line"
         id="tspan130424">noloa!</tspan></text>
    <text
       transform="matrix(0.85852879,0,-0.29243083,1.1647833,0,0)"
       id="text4213-7"
       y="2982.4719"
       x="2454.0139"
       style="font-style:normal;font-variant:normal;font-weight:normal;font-stretch:normal;font-size:10.76309967px;line-height:0%;font-family:Lavi;-inkscape-font-specification:Lavi;text-align:center;letter-spacing:0px;word-spacing:0px;text-anchor:middle;display:inline;fill:#d97041;fill-opacity:1;stroke:#000000;stroke-width:0;stroke-miterlimit:4;stroke-dasharray:none;stroke-opacity:1"
       xml:space="preserve"><tspan
         style="font-style:normal;font-variant:normal;font-weight:bold;font-stretch:normal;font-size:64.74079895px;line-height:1.25;font-family:Lavi;-inkscape-font-specification:'Lavi Bold';fill:#d97041;fill-opacity:1;stroke:none;stroke-width:0;stroke-miterlimit:4;stroke-dasharray:none"
         y="2982.4719"
         x="2454.0139"
         id="tspan3562-5"
         sodipodi:role="line">- LOPPU -</tspan></text>
  </g>
</svg>
