<?xml version="1.0" encoding="UTF-8" standalone="no"?>
<!-- Created with Inkscape (http://www.inkscape.org/) -->

<svg
   xmlns:dc="http://purl.org/dc/elements/1.1/"
   xmlns:cc="http://creativecommons.org/ns#"
   xmlns:rdf="http://www.w3.org/1999/02/22-rdf-syntax-ns#"
   xmlns:svg="http://www.w3.org/2000/svg"
   xmlns="http://www.w3.org/2000/svg"
   xmlns:xlink="http://www.w3.org/1999/xlink"
   xmlns:sodipodi="http://sodipodi.sourceforge.net/DTD/sodipodi-0.dtd"
   xmlns:inkscape="http://www.inkscape.org/namespaces/inkscape"
   id="svg2"
   version="1.1"
   inkscape:version="0.92.2 5c3e80d, 2017-08-06"
   width="2481"
   height="3503"
   sodipodi:docname="E19P02.svg">
  <metadata
     id="metadata8">
    <rdf:RDF>
      <cc:Work
         rdf:about="">
        <dc:format>image/svg+xml</dc:format>
        <dc:type
           rdf:resource="http://purl.org/dc/dcmitype/StillImage" />
        <dc:title />
      </cc:Work>
    </rdf:RDF>
  </metadata>
  <defs
     id="defs6">
    <filter
       inkscape:collect="always"
       style="color-interpolation-filters:sRGB"
       id="filter5236-4-16-3"
       x="-0.0089085409"
       width="1.0178171"
       y="-0.027928527"
       height="1.0558571">
      <feGaussianBlur
         inkscape:collect="always"
         stdDeviation="0.49168068"
         id="feGaussianBlur5238-0-4-6" />
    </filter>
    <filter
       inkscape:collect="always"
       style="color-interpolation-filters:sRGB"
       id="filter5236-4-16"
       x="-0.0089085409"
       width="1.0178171"
       y="-0.027928527"
       height="1.0558571">
      <feGaussianBlur
         inkscape:collect="always"
         stdDeviation="0.49168068"
         id="feGaussianBlur5238-0-4" />
    </filter>
  </defs>
  <sodipodi:namedview
     pagecolor="#ffffff"
     bordercolor="#666666"
     borderopacity="1"
     objecttolerance="10"
     gridtolerance="10"
     guidetolerance="10"
     inkscape:pageopacity="0"
     inkscape:pageshadow="2"
     inkscape:window-width="1280"
     inkscape:window-height="971"
     id="namedview4"
     showgrid="false"
     inkscape:zoom="0.55"
     inkscape:cx="2392.455"
     inkscape:cy="639.61094"
     inkscape:window-x="0"
     inkscape:window-y="0"
     inkscape:window-maximized="1"
     inkscape:current-layer="layer1" />
  <g
     inkscape:groupmode="layer"
     id="layer2"
     inkscape:label="artwork"
     sodipodi:insensitive="true">
    <image
       sodipodi:absref="/run/media/zveryok/Media/Work/Not Done/Translation/lang/uk/../gfx_Pepper-and-Carrot_by-David-Revoy_E19P02.png"
       xlink:href="../gfx_Pepper-and-Carrot_by-David-Revoy_E19P02.png"
       y="0"
       x="0"
       id="image10"
       height="3503"
       width="2481" />
  </g>
  <g
     inkscape:groupmode="layer"
     id="layer4"
     inkscape:label="translatornotes"
     sodipodi:insensitive="true">
    <path
       inkscape:connector-curvature="0"
       id="path3446"
       d="m 2763.8482,1498.4924 0,-189.0352 -203.8301,0 0,90.9805 -10,0 0,-15.6308 -30.9824,26.9824 30.9824,26.9804 0,-16.6171 10,0 0,76.3398 203.8301,0 z"
       style="color:#000000;clip-rule:nonzero;display:inline;overflow:visible;visibility:visible;opacity:0.481;isolation:auto;mix-blend-mode:normal;color-interpolation:sRGB;color-interpolation-filters:linearRGB;solid-color:#000000;solid-opacity:1;fill:#ffe680;fill-opacity:1;fill-rule:nonzero;stroke:#565656;stroke-width:1.20000005;stroke-linecap:butt;stroke-linejoin:miter;stroke-miterlimit:4;stroke-dasharray:none;stroke-dashoffset:0;stroke-opacity:1;marker:none;color-rendering:auto;image-rendering:auto;shape-rendering:auto;text-rendering:auto;enable-background:accumulate" />
    <flowRoot
       transform="translate(2793.4167,295.2096)"
       style="font-style:normal;font-variant:normal;font-weight:normal;font-stretch:normal;line-height:0.01%;font-family:Lavi;-inkscape-font-specification:'Lavi, Normal';text-align:center;letter-spacing:0px;word-spacing:0px;writing-mode:lr-tb;text-anchor:middle;display:inline;opacity:0.481;fill:#000000;fill-opacity:1;stroke:none;stroke-width:1px;stroke-linecap:butt;stroke-linejoin:miter;stroke-opacity:1"
       id="flowRoot3448"
       xml:space="preserve"><flowRegion
         id="flowRegion3450"><rect
           y="1061.6674"
           x="-275.14545"
           height="247.52747"
           width="291.95547"
           id="rect3452" /></flowRegion><flowPara
         id="flowPara3473"
         style="font-size:25.3241539px;line-height:1.25">labels</flowPara><flowPara
         id="flowPara4255"
         style="font-size:25.3241539px;line-height:1.25">in the </flowPara><flowPara
         id="flowPara4257"
         style="font-size:25.3241539px;line-height:1.25">garden :-)</flowPara></flowRoot>  </g>
  <g
     inkscape:groupmode="layer"
     id="layer3"
     inkscape:label="speechbubbles"
     style="display:inline">
    <path
       style="color:#000000;display:inline;overflow:visible;visibility:visible;fill:#ffffff;fill-opacity:1;fill-rule:nonzero;stroke:none;stroke-width:0.86567086px;marker:none;enable-background:accumulate"
       d="m 1088.286,212.29631 c 18.5837,-31.521 195.9747,-49.53347 252.0301,1.08761 46.7886,42.25268 52.5526,134.0309 17.7932,159.10783 -34.7595,25.07702 -172.1381,26.14266 -227.9514,15.75003 -53.1422,-9.89524 -59.3534,-35.68728 -68.958,-100.10141 -3.9202,-26.28992 8.5022,-44.32298 27.0861,-75.84406 z"
       id="path4040-4"
       inkscape:connector-curvature="0"
       sodipodi:nodetypes="zssssz" />
    <path
       style="color:#000000;display:inline;overflow:visible;visibility:visible;fill:#ffffff;fill-opacity:1;fill-rule:nonzero;stroke:none;stroke-width:1.01251769px;marker:none;enable-background:accumulate"
       d="m 1210.8562,471.60657 c 7.0657,-79.99361 77.6829,-136.92767 258.4463,-117.45099 96.8266,10.43269 206.8409,18.40618 197.6152,135.61853 -9.2256,117.21223 -167.4322,110.3469 -200.1515,112.29768 -32.7192,1.9509 -202.6678,-14.49623 -231.7309,-55.15064 -18.1929,-25.44858 -25.1445,-50.5104 -24.1791,-75.31458 z"
       id="path4546-6"
       inkscape:connector-curvature="0"
       sodipodi:nodetypes="cssssc" />
    <path
       style="color:#000000;display:inline;overflow:visible;visibility:visible;fill:#ffffff;fill-opacity:1;fill-rule:nonzero;stroke:none;stroke-width:0.93834716px;marker:none;enable-background:accumulate"
       d="m 1337.0098,589.14323 c 46.3036,-45.47691 288.915,-35.73457 374.827,-25.5081 127.5452,15.18225 122.0965,57.25132 125.994,69.29192 3.8972,12.04048 -5.8461,67.8648 -48.718,78.81085 -42.8718,10.94593 -165.6411,16.41888 -208.5129,16.41888 -42.8718,0 -179.7283,-6.96704 -214.3597,-22.98654 -33.1281,-15.3243 -75.5344,-70.5502 -29.2304,-116.02701 z"
       id="path3330"
       inkscape:connector-curvature="0"
       sodipodi:nodetypes="zsssssz" />
    <path
       style="color:#000000;display:inline;overflow:visible;visibility:visible;fill:#ffffff;fill-opacity:1;fill-rule:nonzero;stroke:none;stroke-width:1px;marker:none;enable-background:accumulate"
       d="m 1526.8746,669.17148 c -4.748,19.68499 -0.6503,33.38997 2.5742,37.35036 3.2245,3.96027 2.3513,12.12365 5.2378,17.57337 2.3614,4.51862 3.5729,10.81257 -0.8434,12.64306 -4.4163,1.83058 -29.4289,3.69855 -33.6755,16.66121 -4.2467,12.96272 3.9771,24.00648 14.1454,30.32451 10.1684,6.31815 24.4145,10.44127 22.2717,20.40102 -2.1427,9.95976 -9.8422,13.23017 -15.8741,13.66024 -6.0318,0.43007 -42.6593,-1.86158 -51.9545,1.56498 -9.295,3.4266 -34.8875,18.35716 -31.0179,31.36521 11.9004,-13.15184 18.3151,-19.01847 27.1348,-20.36055 8.8198,-1.34212 24.7212,-5.09072 34.6744,-1.78852 9.9534,3.30225 30.2251,7.01956 38.1327,2.88942 7.9077,-4.13 22.6869,-13.91278 22.9796,-24.81049 0.2928,-10.89767 -5.2053,-22.98724 -21.3925,-31.19418 -10.1682,-6.31811 -14.5522,-10.2849 -13.6078,-13.29434 0.9444,-3.00939 11.8681,-7.35452 23.4562,-6.13032 11.5882,1.22424 17.0469,-9.49086 18.0108,-15.97871 0.9638,-6.48781 -2.7884,-15.67273 -3.2186,-21.7046 -0.4301,-6.03183 -6.7045,-40.19004 -6.7045,-40.19004 z"
       id="path5058"
       inkscape:connector-curvature="0"
       sodipodi:nodetypes="cscsssssscssssccscccc" />
    <path
       style="color:#000000;display:inline;overflow:visible;visibility:visible;fill:#ffffff;fill-opacity:1;fill-rule:nonzero;stroke:none;stroke-width:0.93319237px;marker:none;enable-background:accumulate"
       d="m 1437.8263,1851.6443 c 6.17,-66.8002 40.0101,-90.9386 114.401,-94.4418 36.9349,-1.7394 170.7075,-7.7709 224.9329,4.3148 54.2253,12.0859 100.642,49.101 96.5286,98.0496 -4.1133,48.9485 -8.9788,86.8634 -68.1985,100.7192 -59.2197,13.8557 -172.7937,3.652 -184.6198,4.2279 -23.6518,1.1517 -146.148,-15.0963 -166.5909,-49.5245 -12.7967,-21.5511 -17.4817,-42.6139 -16.4533,-63.3452 z"
       id="path4546-6-3"
       inkscape:connector-curvature="0"
       sodipodi:nodetypes="cssssssc" />
    <path
       style="color:#000000;display:inline;overflow:visible;visibility:visible;fill:#ffffff;fill-opacity:1;fill-rule:nonzero;stroke:none;stroke-width:1.03141022px;marker:none;enable-background:accumulate"
       d="m 1752.8933,1983.0096 c -2.43,-13.9006 24.2128,-72.4119 172.4431,-63.1448 148.2304,9.2671 163.7128,20.9339 170.4763,70.8244 2.4997,18.4386 -20.5677,45.3021 -42.4377,49.9356 -21.87,4.6335 -85.8143,17.7137 -122.2642,14.007 -36.4501,-3.7069 -90.2555,-2.8275 -143.8847,-22.2636 -32.3679,-11.7307 -31.9028,-45.6518 -34.3328,-49.3586 z"
       id="path3365"
       inkscape:connector-curvature="0"
       sodipodi:nodetypes="csssssc" />
    <path
       style="fill:#ffffff;fill-opacity:1;stroke:none;stroke-width:1.00962508"
       d="m 1767.4207,2182.6786 c -10.7035,-135.5789 65.5144,-182.6093 268.5061,-182.417 202.9919,0.1922 285.1281,38.7896 293.6575,119.5121 19.0723,180.503 -105.5214,225.5225 -172.2946,236.7266 -133.3767,22.3799 -326.1291,-19.7311 -353.3636,-57.5346 -27.2346,-37.8036 -34.1557,-80.8385 -36.5054,-116.2871 z"
       id="path3238"
       inkscape:connector-curvature="0"
       sodipodi:nodetypes="cssssc" />
    <path
       style="color:#000000;display:inline;overflow:visible;visibility:visible;fill:#ffffff;fill-opacity:1;fill-rule:nonzero;stroke:none;stroke-width:1px;marker:none;enable-background:accumulate"
       d="m 1846.0369,2279.6202 c -30.6436,39.5697 -91.823,73.3362 -171.3605,30.1552 76.0815,26.4581 119.8575,-5.9599 145.0149,-45.5895 21.7184,-34.2122 33.4899,-49.0683 33.4899,-49.0683 z"
       id="path4440"
       inkscape:connector-curvature="0"
       sodipodi:nodetypes="ccscc" />
    <path
       style="color:#000000;display:inline;overflow:visible;visibility:visible;fill:#ffffff;fill-opacity:1;fill-rule:nonzero;stroke:none;stroke-width:0.96344221px;marker:none;enable-background:accumulate"
       d="m 147.63369,2755.7454 c 23.73242,-11.2447 34.98108,-19.0384 0.41456,-35.2174 7.09729,-0.123 46.70396,-2.2 8.83624,-33.7933 12.48475,4.0783 32.4493,14.907 9.97607,-37.5387 13.51259,8.3613 32.25564,35.0969 15.81453,-14.4403 17.80452,16.7423 41.26149,6.1574 36.45967,-2.6376 14.32915,10.6758 42.47007,9.793 40.05955,0.734 10.53521,9.8828 39.07541,12.7801 36.83571,-3.7841 8.75384,11.386 35.92152,10.213 33.25816,0.539 22.9514,11.516 56.13226,18.6141 68.67242,2.5583 10.70778,15.195 60.51567,10.6064 102.28987,0.2354 0.65437,10.7257 47.14926,12.6086 85.04226,-4.8518 0.57352,16.2939 14.24759,21.8149 30.95696,9.824 5.96696,6.6881 4.37439,10.5784 27.8233,-5.2548 -1.11945,10.8881 3.05437,20.933 19.39197,10.5096 2.84605,6.7356 -7.56877,24.1934 33.72537,-1.3138 0.27298,9.5215 -9.42016,28.219 26.13704,5.2548 -28.84471,56.5713 -12.85788,50.5165 6.74501,39.4103 -15.26314,33.3719 -34.94902,74.7638 3.84046,73.2422 -30.37251,7.7095 -29.84155,19.1731 -25.76182,37.107 -38.06663,-36.1136 -42.53928,-8.6685 -59.01928,-3.941 -17.39776,-6.0079 -33.42553,-28.0239 -53.96029,2.6274 -31.45825,-12.6135 -37.69518,-1.0441 -48.05857,6.5685 -54.95995,-24.206 -53.66171,-4.5842 -78.41133,-5.2549 -14.63289,-29.9425 -47.65411,-7.3582 -71.66623,-10.5093 -30.35265,-24.5531 -75.51873,-3.0304 -99.14758,6.4342 11.54867,-15.3375 -16.89093,-29.0295 -43.9372,4.2309 13.43061,-28.105 -8.60505,-37.5806 -49.74477,-1.3844 19.33262,-33.3022 -7.40456,-27.9946 -37.34521,-6.6534 29.30294,-32.3613 -1.66178,-35.1353 -19.22687,-32.7008 z"
       id="path3557"
       inkscape:connector-curvature="0"
       sodipodi:nodetypes="cccccccccccccccccccccccccccccc" />
    <path
       style="color:#000000;display:inline;overflow:visible;visibility:visible;fill:#ffffff;fill-opacity:1;fill-rule:nonzero;stroke:none;stroke-width:0.94654274px;marker:none;enable-background:accumulate"
       d="m 281.3493,2832.249 c 8.07728,-68.6588 89.40636,-118.5388 297.72286,-104.6417 111.58554,7.444 238.36589,12.5767 227.82968,113.1631 -10.53633,100.586 -192.84967,97.1475 -230.55178,99.3246 -37.70211,2.1773 -233.55393,-9.2907 -267.07731,-43.6798 -20.98486,-21.5268 -29.01589,-42.8957 -27.92345,-64.1662 z"
       id="path4546"
       inkscape:connector-curvature="0"
       sodipodi:nodetypes="cssssc" />
    <path
       style="color:#000000;display:inline;overflow:visible;visibility:visible;fill:#ffffff;fill-opacity:1;fill-rule:nonzero;stroke:none;stroke-width:1px;marker:none;enable-background:accumulate"
       d="m 975.24468,2945.7655 c -39.7219,-30.7338 -84.6659,-56.332 -118.3207,-93.0329 l 9.2071,41.4633 c -19.1495,-7.3977 -31.9655,-24.339 -46.9322,-38.0398 l 1.0996,26.2988 c -44.9905,-17.9715 -75.7521,-49.3371 -113.3909,-74.2288 l 5.8989,45.8738 c 41.0512,21.0955 84.9859,35.8216 122.7937,64.0815 l 1.7812,-25.6614 c 14.445,8.0961 28.5921,16.7337 41.4085,27.7896 l -0.8973,-32.5393 z"
       id="path4032-6"
       inkscape:connector-curvature="0"
       sodipodi:nodetypes="cccccccccccc" />
    <path
       style="fill:#ffffff;stroke:none;stroke-width:1.0381546"
       d="m 1678.1278,2764.5934 c 5.5727,-64.2119 39.183,-90.3265 54.434,-98.8492 15.2506,-8.5227 79.2742,-19.4556 121.0961,-17.5738 41.8221,1.8817 145.4973,11.1508 162.9329,14.2377 17.4356,3.0868 63.9501,51.2241 63.4512,92.6422 -0.4989,41.4178 -9.8254,68.6248 -35.2384,92.806 -25.4132,24.1813 -177.0254,28.8709 -186.3663,26.1482 -9.3413,-2.7225 -134.0887,-24.451 -141.8753,-31.7081 -7.7864,-7.257 -39.3436,-27.0947 -38.4342,-77.703 z"
       id="path3278"
       inkscape:connector-curvature="0" />
    <path
       style="color:#000000;display:inline;overflow:visible;visibility:visible;fill:#ffffff;fill-opacity:1;fill-rule:nonzero;stroke:none;stroke-width:0.90504867px;marker:none;enable-background:accumulate"
       d="m 1776.8464,2899.3508 c 34.5637,-44.6136 326.3192,-93.0392 428.8608,-1.0997 102.5414,91.9395 40.3442,202.2669 -18.4912,237.3711 -58.8352,35.1041 -231.9792,73.5515 -310.9867,43.4623 -79.0072,-30.0893 -140.5493,-75.067 -144.5668,-167.1627 -1.6396,-37.588 10.6204,-67.9571 45.1839,-112.571 z"
       id="path4040"
       inkscape:connector-curvature="0"
       sodipodi:nodetypes="zssssz" />
    <path
       style="display:inline;fill:#ffffff;fill-rule:evenodd;stroke:none;stroke-width:1.03864181px;stroke-linecap:butt;stroke-linejoin:miter;stroke-opacity:1"
       d="m 1873.3137,3129.1926 c 51.3565,28.8401 80.61,17.112 79.7285,-49.926 24.5019,72.4427 41.505,88.6447 51.5891,52.9518 32.4389,30.6794 52.6997,22.0737 68.7854,0 5.9956,28.3882 18.8532,16.9327 29.9806,15.5225 3.6649,6.4226 -8.9225,22.3793 41.9315,1.1194 3.294,8.5011 7.7314,15.8219 37.5191,-3.0257 7.7172,34.5047 32.477,-1.9124 57.8425,-40.8486 -15.8035,47.8688 -9.2503,54.6298 10.9431,36.3097 -9.2323,19.7127 -14.7542,34.9725 20.3229,1.513 -12.0086,36.3857 19.496,11.4107 70.3488,-40.8484 -25.4374,38.6296 -92.8914,103.7368 -48.4625,98.3388 -6.1959,11.3881 -28.2963,21.3103 37.5193,39.3355 -12.2869,7.7277 -49.7983,-3.5648 -18.507,29.1547 4.1924,3.8247 -9.8427,6.1602 16.9438,16.2324 -15.8125,-0.6852 -25.5098,1.7627 -10.9433,16.6421 -28.8635,-0.8046 -18.0639,14.8411 3.1267,34.7967 -41.7983,-25.5974 -44.0985,-16.2942 -45.336,-6.0516 -52.3855,-34.8979 -55.4603,-23.9105 -62.532,-16.642 -25.534,0.2723 -51.068,-4.1224 -76.6021,34.7968 -6.687,-24.2066 -20.0936,-42.8395 -76.6019,-25.7193 24.8115,-30.7952 -10.4859,-11.1755 -37.5193,1.5129 14.8039,-38.4709 -22.7663,-13.2225 -70.3487,24.2064 26.6459,-42.4825 -3.6176,-27.1368 -48.4626,3.0259 16.9439,-41.735 -10.6507,-61.9185 -76.6018,-63.5421 31.5662,-15.0543 49.974,-33.9996 17.1964,-68.0807 36.9495,10.0353 47.9711,0.7139 21.8862,-36.3097 40.3022,30.3887 21.9784,-13.6886 6.2533,-54.4645 z"
       id="path4508"
       inkscape:connector-curvature="0"
       sodipodi:nodetypes="cccccccccccccccccccccccccccc" />
    <path
       style="color:#000000;display:inline;overflow:visible;visibility:visible;fill:#ffffff;fill-opacity:1;fill-rule:nonzero;stroke:none;stroke-width:1px;marker:none;enable-background:accumulate"
       d="m 1490.4164,2866.2226 c 36.6716,-30.7338 78.1642,-56.332 109.2346,-93.0329 l -8.5001,41.4633 c 17.679,-7.3977 29.5108,-24.339 43.3282,-38.0398 l -1.0152,26.2988 c 41.5356,-17.9715 69.9349,-49.3371 104.6834,-74.2288 l -5.4459,45.8738 c -37.8988,21.0955 -78.4597,35.8216 -113.3641,64.0815 l -1.6444,-25.6614 c -13.3358,8.0961 -26.3965,16.7337 -38.2287,27.7896 l 0.8284,-32.5393 z"
       id="path4032"
       inkscape:connector-curvature="0"
       sodipodi:nodetypes="cccccccccccc" />
  </g>
  <g
     inkscape:groupmode="layer"
     id="layer1"
     inkscape:label="txt">
    <text
       xml:space="preserve"
       style="font-style:normal;font-variant:normal;font-weight:normal;font-stretch:normal;line-height:0%;font-family:Lavi;-inkscape-font-specification:Lavi;text-align:center;letter-spacing:0px;word-spacing:0px;text-anchor:middle;fill:#000000;fill-opacity:1;stroke:none"
       x="1217.1382"
       y="236.26506"
       id="text4246"><tspan
         sodipodi:role="line"
         style="font-style:normal;font-variant:normal;font-weight:normal;font-stretch:normal;font-size:45px;line-height:1.25;font-family:Neucha;-inkscape-font-specification:Neucha"
         x="1217.1382"
         y="236.26506"
         id="tspan4252">Емм...</tspan></text>
    <text
       xml:space="preserve"
       style="font-style:normal;font-variant:normal;font-weight:normal;font-stretch:normal;line-height:0%;font-family:Lavi;-inkscape-font-specification:Lavi;text-align:center;letter-spacing:0px;word-spacing:0px;text-anchor:middle;fill:#000000;fill-opacity:1;stroke:none"
       x="1223.5011"
       y="295.6713"
       id="text4246-3"><tspan
         sodipodi:role="line"
         style="font-style:normal;font-variant:normal;font-weight:normal;font-stretch:normal;font-size:45px;line-height:1.25;font-family:Neucha;-inkscape-font-specification:Neucha"
         x="1223.5011"
         y="295.6713"
         id="tspan3831">Ну, я, звісно,</tspan><tspan
         sodipodi:role="line"
         style="font-style:normal;font-variant:normal;font-weight:normal;font-stretch:normal;font-size:45px;line-height:1.25;font-family:Neucha;-inkscape-font-specification:Neucha"
         x="1223.5011"
         y="351.9213"
         id="tspan3421">не експерт...</tspan></text>
    <text
       xml:space="preserve"
       style="font-style:normal;font-variant:normal;font-weight:normal;font-stretch:normal;line-height:0%;font-family:Lavi;-inkscape-font-specification:Lavi;text-align:center;letter-spacing:0px;word-spacing:0px;text-anchor:middle;fill:#000000;fill-opacity:1;stroke:none"
       x="1443.8611"
       y="432.80392"
       id="text4246-3-7"><tspan
         sodipodi:role="line"
         style="font-style:normal;font-variant:normal;font-weight:normal;font-stretch:normal;font-size:45px;line-height:1.25;font-family:Neucha;-inkscape-font-specification:Neucha"
         x="1443.8611"
         y="432.80392"
         id="tspan3840">Але врожай в цьому</tspan><tspan
         sodipodi:role="line"
         style="font-style:normal;font-variant:normal;font-weight:normal;font-stretch:normal;font-size:45px;line-height:1.25;font-family:Neucha;-inkscape-font-specification:Neucha"
         x="1443.8611"
         y="489.05392"
         id="tspan3434">році щось дуже</tspan><tspan
         sodipodi:role="line"
         style="font-style:normal;font-variant:normal;font-weight:normal;font-stretch:normal;font-size:45px;line-height:1.25;font-family:Neucha;-inkscape-font-specification:Neucha"
         x="1443.8611"
         y="545.30396"
         id="tspan3438">вже дивний...</tspan></text>
    <text
       xml:space="preserve"
       style="font-style:normal;font-variant:normal;font-weight:normal;font-stretch:normal;line-height:0%;font-family:Lavi;-inkscape-font-specification:Lavi;text-align:center;letter-spacing:0px;word-spacing:0px;text-anchor:middle;fill:#000000;fill-opacity:1;stroke:none"
       x="1582.7253"
       y="627.39465"
       id="text4246-3-7-6"><tspan
         sodipodi:role="line"
         style="font-style:normal;font-variant:normal;font-weight:normal;font-stretch:normal;font-size:45px;line-height:1.25;font-family:Neucha;-inkscape-font-specification:Neucha"
         x="1589.0095"
         y="627.39465"
         id="tspan3445">та це стосується багатьох </tspan><tspan
         sodipodi:role="line"
         style="font-style:normal;font-variant:normal;font-weight:normal;font-stretch:normal;font-size:45px;line-height:1.25;font-family:Neucha;-inkscape-font-specification:Neucha"
         x="1582.7253"
         y="683.64465"
         id="tspan3451">інших рослин в околицях.</tspan></text>
    <text
       id="text4178-6-5-9-0-7-0-4"
       style="font-style:normal;font-variant:normal;font-weight:normal;font-stretch:normal;line-height:0%;font-family:Lavi;-inkscape-font-specification:Lavi;text-align:center;letter-spacing:0px;word-spacing:0px;text-anchor:middle;opacity:0.63300003;fill:#ffffff;fill-opacity:1;stroke:none;filter:url(#filter5236-4-16)"
       xml:space="preserve"
       y="3129.8394"
       x="1318.7137"
       transform="matrix(0.6851492,-0.06612027,-0.09994133,0.78144216,149.5816,-965.35698)"><tspan
         y="3129.8394"
         x="1318.7137"
         style="font-style:normal;font-variant:normal;font-weight:normal;font-stretch:normal;font-size:40.67671585px;line-height:1.25;font-family:Lobster;-inkscape-font-specification:Lobster;fill:#ffffff;fill-opacity:1"
         sodipodi:role="line"
         id="tspan4293-1-6-3-5-0-2">Помідори</tspan></text>
    <text
       id="text4178-6-5-9-0-7-0-4-7"
       style="font-style:normal;font-variant:normal;font-weight:normal;font-stretch:normal;line-height:0%;font-family:Lavi;-inkscape-font-specification:Lavi;text-align:center;letter-spacing:0px;word-spacing:0px;text-anchor:middle;opacity:0.63300003;fill:#ffffff;fill-opacity:1;stroke:none;filter:url(#filter5236-4-16-3)"
       xml:space="preserve"
       y="3129.8394"
       x="1318.7137"
       transform="matrix(0.58543203,0.08325699,-0.38986142,0.70644422,2168.949,-964.86505)"><tspan
         y="3129.8394"
         x="1318.7137"
         style="font-style:normal;font-variant:normal;font-weight:normal;font-stretch:normal;font-size:40.67671585px;line-height:1.25;font-family:Lobster;-inkscape-font-specification:Lobster;fill:#ffffff;fill-opacity:1"
         sodipodi:role="line"
         id="tspan4293-1-6-3-5-0-2-5">Баклажани</tspan></text>
    <text
       xml:space="preserve"
       style="font-style:normal;font-variant:normal;font-weight:normal;font-stretch:normal;line-height:0%;font-family:Lavi;-inkscape-font-specification:Lavi;text-align:center;letter-spacing:0px;word-spacing:0px;text-anchor:middle;fill:#000000;fill-opacity:1;stroke:none"
       x="1652.533"
       y="1819.8271"
       id="text4246-3-2"><tspan
         sodipodi:role="line"
         style="font-style:normal;font-variant:normal;font-weight:normal;font-stretch:normal;font-size:45px;line-height:1.25;font-family:Neucha;-inkscape-font-specification:Neucha"
         x="1652.533"
         y="1819.8271"
         id="tspan3858">Та ще мурахи, вони</tspan><tspan
         sodipodi:role="line"
         style="font-style:normal;font-variant:normal;font-weight:normal;font-stretch:normal;font-size:45px;line-height:1.25;font-family:Neucha;-inkscape-font-specification:Neucha"
         x="1652.533"
         y="1876.0771"
         id="tspan3455">явно щось</tspan><tspan
         sodipodi:role="line"
         style="font-style:normal;font-variant:normal;font-weight:normal;font-stretch:normal;font-size:45px;line-height:1.25;font-family:Neucha;-inkscape-font-specification:Neucha"
         x="1652.533"
         y="1932.3271"
         id="tspan3465">дивне затіяли.</tspan></text>
    <text
       xml:space="preserve"
       style="font-style:normal;font-variant:normal;font-weight:normal;font-stretch:normal;line-height:0%;font-family:Lavi;-inkscape-font-specification:Lavi;text-align:center;letter-spacing:0px;word-spacing:0px;text-anchor:middle;fill:#000000;fill-opacity:1;stroke:none"
       x="1928.5547"
       y="1997.0601"
       id="text4246-3-2-9"><tspan
         sodipodi:role="line"
         style="font-style:normal;font-variant:normal;font-weight:normal;font-stretch:normal;font-size:45px;line-height:1.25;font-family:Neucha;-inkscape-font-specification:Neucha"
         x="1928.5547"
         y="1997.0601"
         id="tspan4259-0">Взагалом, добре...</tspan></text>
    <text
       xml:space="preserve"
       style="font-style:normal;font-variant:normal;font-weight:normal;font-stretch:normal;line-height:0%;font-family:Lavi;-inkscape-font-specification:Lavi;text-align:center;letter-spacing:0px;word-spacing:0px;text-anchor:middle;fill:#000000;fill-opacity:1;stroke:none"
       x="2053.186"
       y="2084.6538"
       id="text4246-3-2-9-6"><tspan
         sodipodi:role="line"
         style="font-style:normal;font-variant:normal;font-weight:normal;font-stretch:normal;font-size:45px;line-height:1.25;font-family:Neucha;-inkscape-font-specification:Neucha"
         x="2053.186"
         y="2084.6538"
         id="tspan3467">Я просто подумала, може,</tspan><tspan
         sodipodi:role="line"
         style="font-style:normal;font-variant:normal;font-weight:normal;font-stretch:normal;font-size:45px;line-height:1.25;font-family:Neucha;-inkscape-font-specification:Neucha"
         x="2059.4702"
         y="2140.9038"
         id="tspan3469">у нас тут деяка проблема </tspan><tspan
         sodipodi:role="line"
         style="font-style:normal;font-variant:normal;font-weight:normal;font-stretch:normal;font-size:45px;line-height:1.25;font-family:Neucha;-inkscape-font-specification:Neucha"
         x="2053.186"
         y="2197.1538"
         id="tspan3475">з забрудненням, та варте</tspan><tspan
         sodipodi:role="line"
         style="font-style:normal;font-variant:normal;font-weight:normal;font-stretch:normal;font-size:45px;line-height:1.25;font-family:Neucha;-inkscape-font-specification:Neucha"
         x="2053.186"
         y="2253.4038"
         id="tspan3507">подумати, як би</tspan><tspan
         sodipodi:role="line"
         style="font-style:normal;font-variant:normal;font-weight:normal;font-stretch:normal;font-size:45px;line-height:1.25;font-family:Neucha;-inkscape-font-specification:Neucha"
         x="2053.186"
         y="2309.6538"
         id="tspan3888">зайнятися очищенням...</tspan></text>
    <text
       xml:space="preserve"
       style="font-style:normal;font-variant:normal;font-weight:normal;font-stretch:normal;line-height:0%;font-family:Lavi;-inkscape-font-specification:Lavi;text-align:center;letter-spacing:0px;word-spacing:0px;text-anchor:middle;fill:#000000;fill-opacity:1;stroke:none;stroke-width:2.79999995;stroke-miterlimit:4;stroke-dasharray:none"
       x="435.84814"
       y="2684.5779"
       id="text4246-3-2-9-6-6"><tspan
         sodipodi:role="line"
         style="font-style:normal;font-variant:normal;font-weight:normal;font-stretch:normal;font-size:45px;line-height:1.25;font-family:Neucha;-inkscape-font-specification:Neucha;stroke-width:2.79999995;stroke-miterlimit:4;stroke-dasharray:none"
         x="435.84814"
         y="2684.5779"
         id="tspan3892">Послухай, міс</tspan><tspan
         sodipodi:role="line"
         style="font-style:normal;font-variant:normal;font-weight:normal;font-stretch:normal;font-size:45px;line-height:1.25;font-family:Neucha;-inkscape-font-specification:Neucha;stroke-width:2.79999995;stroke-miterlimit:4;stroke-dasharray:none"
         x="435.84814"
         y="2740.8279"
         id="tspan3900">&quot;<tspan
   style="font-style:normal;font-variant:normal;font-weight:normal;font-stretch:normal;font-family:Neucha;-inkscape-font-specification:Neucha;stroke:#000000;stroke-width:2.79999995;stroke-miterlimit:4;stroke-dasharray:none;stroke-opacity:1"
   id="tspan4217">Зілля-псувати-наше-все</tspan>&quot;,</tspan><tspan
         sodipodi:role="line"
         style="font-style:normal;font-variant:normal;font-weight:normal;font-stretch:normal;font-size:45px;line-height:1.25;font-family:Neucha;-inkscape-font-specification:Neucha;stroke-width:2.79999995;stroke-miterlimit:4;stroke-dasharray:none"
         x="442.13232"
         y="2797.0779"
         id="tspan4378"> </tspan></text>
    <text
       xml:space="preserve"
       style="font-style:normal;font-variant:normal;font-weight:normal;font-stretch:normal;line-height:0%;font-family:Lavi;-inkscape-font-specification:Lavi;text-align:center;letter-spacing:0px;word-spacing:0px;text-anchor:middle;fill:#000000;fill-opacity:1;stroke:none"
       x="543.12726"
       y="2827.0854"
       id="text4246-3-2-9-6-6-7"><tspan
         sodipodi:role="line"
         style="font-style:normal;font-variant:normal;font-weight:normal;font-stretch:normal;font-size:45px;line-height:1.25;font-family:Neucha;-inkscape-font-specification:Neucha"
         x="543.12726"
         y="2827.0854"
         id="tspan4378-5">безсумнівно, наряд Хіппі</tspan><tspan
         sodipodi:role="line"
         style="font-style:normal;font-variant:normal;font-weight:normal;font-stretch:normal;font-size:45px;line-height:1.25;font-family:Neucha;-inkscape-font-specification:Neucha"
         x="543.12726"
         y="2883.3354"
         id="tspan3524">ти носиш не дарма.</tspan></text>
    <text
       xml:space="preserve"
       style="font-style:normal;font-variant:normal;font-weight:normal;font-stretch:normal;line-height:0%;font-family:Lavi;-inkscape-font-specification:Lavi;text-align:center;letter-spacing:0px;word-spacing:0px;text-anchor:middle;fill:#000000;fill-opacity:1;stroke:none"
       x="1882.85"
       y="2725.4656"
       id="text4246-3-2-9-6-6-0"><tspan
         sodipodi:role="line"
         style="font-style:normal;font-variant:normal;font-weight:normal;font-stretch:normal;font-size:45px;line-height:1.25;font-family:Neucha;-inkscape-font-specification:Neucha"
         x="1882.85"
         y="2725.4656"
         id="tspan3913">Але в школі Хаосу,</tspan><tspan
         sodipodi:role="line"
         style="font-style:normal;font-variant:normal;font-weight:normal;font-stretch:normal;font-size:45px;line-height:1.25;font-family:Neucha;-inkscape-font-specification:Neucha"
         x="1882.85"
         y="2781.7156"
         id="tspan3531">свої помилки слід</tspan><tspan
         sodipodi:role="line"
         style="font-style:normal;font-variant:normal;font-weight:normal;font-stretch:normal;font-size:45px;line-height:1.25;font-family:Neucha;-inkscape-font-specification:Neucha"
         x="1882.85"
         y="2837.9656"
         id="tspan3533">закопувати!</tspan><tspan
         sodipodi:role="line"
         style="font-style:normal;font-variant:normal;font-weight:normal;font-stretch:normal;font-size:45px;line-height:1.25;font-family:Neucha;-inkscape-font-specification:Neucha"
         x="1889.1342"
         y="2894.2156"
         id="tspan4378-7"> </tspan></text>
    <text
       xml:space="preserve"
       style="font-style:normal;font-variant:normal;font-weight:normal;font-stretch:normal;line-height:0%;font-family:Lavi;-inkscape-font-specification:Lavi;text-align:center;letter-spacing:0px;word-spacing:0px;text-anchor:middle;fill:#000000;fill-opacity:1;stroke:none;stroke-width:2.79999995;stroke-miterlimit:4;stroke-dasharray:none"
       x="2002.6411"
       y="2913.0608"
       id="text4246-3-2-9-6-6-0-5"><tspan
         sodipodi:role="line"
         style="font-style:normal;font-variant:normal;font-weight:normal;font-stretch:normal;font-size:45px;line-height:1.25;font-family:Neucha;-inkscape-font-specification:Neucha;stroke-width:2.79999995;stroke-miterlimit:4;stroke-dasharray:none"
         x="2002.6411"
         y="2913.0608"
         id="tspan3929">Ця традиція</tspan><tspan
         sodipodi:role="line"
         style="font-style:normal;font-variant:normal;font-weight:normal;font-stretch:normal;font-size:45px;line-height:1.25;font-family:Neucha;-inkscape-font-specification:Neucha;stroke-width:2.79999995;stroke-miterlimit:4;stroke-dasharray:none"
         x="2002.6411"
         y="2969.3108"
         id="tspan3537">існувала споконвіку,</tspan><tspan
         sodipodi:role="line"
         style="font-style:normal;font-variant:normal;font-weight:normal;font-stretch:normal;font-size:45px;line-height:1.25;font-family:Neucha;-inkscape-font-specification:Neucha;stroke-width:2.79999995;stroke-miterlimit:4;stroke-dasharray:none"
         x="2002.6411"
         y="3025.5608"
         id="tspan3931">та метлою я махала на те,</tspan><tspan
         sodipodi:role="line"
         style="font-style:normal;font-variant:normal;font-weight:normal;font-stretch:normal;font-size:45px;line-height:1.25;font-family:Neucha;-inkscape-font-specification:Neucha;stroke:#000000;stroke-width:2.79999995;stroke-miterlimit:4;stroke-dasharray:none;stroke-opacity:1"
         x="2002.6411"
         y="3081.8108"
         id="tspan3933"><tspan
   id="tspan3541"
   style="font-style:normal;font-variant:normal;font-weight:normal;font-stretch:normal;font-size:45px;font-family:Neucha;-inkscape-font-specification:Neucha;stroke:none;stroke-width:2.79999995;stroke-miterlimit:4;stroke-dasharray:none">що </tspan>МАТИ ПРИРОДА</tspan><tspan
         sodipodi:role="line"
         style="font-style:normal;font-variant:normal;font-weight:normal;font-stretch:normal;font-size:45px;line-height:1.25;font-family:Neucha;-inkscape-font-specification:Neucha;stroke-width:2.79999995;stroke-miterlimit:4;stroke-dasharray:none"
         x="2002.6411"
         y="3138.0608"
         id="tspan3935">про це думає!</tspan><tspan
         sodipodi:role="line"
         style="font-style:normal;font-variant:normal;font-weight:normal;font-stretch:normal;font-size:45px;line-height:1.25;font-family:Neucha;-inkscape-font-specification:Neucha;stroke-width:2.79999995;stroke-miterlimit:4;stroke-dasharray:none"
         x="2008.9253"
         y="3194.3108"
         id="tspan4378-7-6"> </tspan></text>
    <text
       xml:space="preserve"
       style="font-style:normal;font-variant:normal;font-weight:normal;font-stretch:normal;line-height:0%;font-family:Lavi;-inkscape-font-specification:Lavi;text-align:center;letter-spacing:0px;word-spacing:0px;text-anchor:middle;fill:#000000;fill-opacity:1;stroke:none;stroke-width:2.79999995;stroke-miterlimit:4;stroke-dasharray:none"
       x="2084.4802"
       y="3217.491"
       id="text4246-3-2-9-6-6-0-5-1"><tspan
         sodipodi:role="line"
         style="font-style:normal;font-variant:normal;font-weight:normal;font-stretch:normal;font-size:45px;line-height:1.25;font-family:Neucha;-inkscape-font-specification:Neucha;stroke-width:2.79999995;stroke-miterlimit:4;stroke-dasharray:none"
         x="2084.4802"
         y="3217.491"
         id="tspan4544">Так що стули</tspan><tspan
         sodipodi:role="line"
         style="font-style:normal;font-variant:normal;font-weight:normal;font-stretch:normal;font-size:45px;line-height:1.25;font-family:Neucha;-inkscape-font-specification:Neucha;stroke-width:2.79999995;stroke-miterlimit:4;stroke-dasharray:none"
         x="2090.7644"
         y="3273.741"
         id="tspan3939"> пельку та <tspan
   style="font-style:normal;font-variant:normal;font-weight:normal;font-stretch:normal;font-family:Neucha;-inkscape-font-specification:Neucha;stroke:#000000;stroke-width:2.79999995;stroke-miterlimit:4;stroke-dasharray:none;stroke-opacity:1"
   id="tspan4219">КОПАЙ</tspan>!! </tspan><tspan
         sodipodi:role="line"
         style="font-style:normal;font-variant:normal;font-weight:normal;font-stretch:normal;font-size:45px;line-height:1.25;font-family:Neucha;-inkscape-font-specification:Neucha;stroke-width:2.79999995;stroke-miterlimit:4;stroke-dasharray:none"
         x="2090.7644"
         y="3329.991"
         id="tspan4378-7-6-4"> </tspan></text>
    <text
       xml:space="preserve"
       style="font-style:normal;font-weight:normal;line-height:0%;font-family:sans-serif;letter-spacing:0px;word-spacing:0px;fill:#000000;fill-opacity:1;stroke:none;stroke-width:1px;stroke-linecap:butt;stroke-linejoin:miter;stroke-opacity:1"
       x="2157.6731"
       y="2086.8701"
       id="text3495"><tspan
         sodipodi:role="line"
         id="tspan3497"
         x="2157.6731"
         y="2086.8701"
         style="font-size:40px;line-height:1.25"> </tspan></text>
  </g>
</svg>
