<?xml version="1.0" encoding="UTF-8" standalone="no"?>
<svg
   sodipodi:docname="E34P08.svg"
   height="3503"
   width="2481"
   inkscape:version="1.2.1 (9c6d41e410, 2022-07-14)"
   version="1.1"
   id="svg2"
   xmlns:inkscape="http://www.inkscape.org/namespaces/inkscape"
   xmlns:sodipodi="http://sodipodi.sourceforge.net/DTD/sodipodi-0.dtd"
   xmlns:xlink="http://www.w3.org/1999/xlink"
   xmlns="http://www.w3.org/2000/svg"
   xmlns:svg="http://www.w3.org/2000/svg"
   xmlns:rdf="http://www.w3.org/1999/02/22-rdf-syntax-ns#"
   xmlns:cc="http://creativecommons.org/ns#"
   xmlns:dc="http://purl.org/dc/elements/1.1/">
  <metadata
     id="metadata8">
    <rdf:RDF>
      <cc:Work
         rdf:about="">
        <dc:format>image/svg+xml</dc:format>
        <dc:type
           rdf:resource="http://purl.org/dc/dcmitype/StillImage" />
        <dc:title />
      </cc:Work>
    </rdf:RDF>
  </metadata>
  <defs
     id="defs6" />
  <sodipodi:namedview
     borderlayer="true"
     inkscape:snap-global="false"
     inkscape:document-rotation="0"
     inkscape:current-layer="layer3"
     inkscape:window-maximized="1"
     inkscape:window-y="36"
     inkscape:window-x="1283"
     inkscape:cy="2440.4282"
     inkscape:cx="1252.9032"
     inkscape:zoom="0.4665165"
     showgrid="false"
     id="namedview4"
     inkscape:window-height="1388"
     inkscape:window-width="1261"
     inkscape:pageshadow="2"
     inkscape:pageopacity="0"
     guidetolerance="10"
     gridtolerance="10"
     objecttolerance="10"
     borderopacity="1"
     bordercolor="#666666"
     pagecolor="#ffffff"
     inkscape:showpageshadow="2"
     inkscape:pagecheckerboard="0"
     inkscape:deskcolor="#d1d1d1" />
  <g
     sodipodi:insensitive="true"
     inkscape:label="artwork"
     id="layer2"
     inkscape:groupmode="layer">
    <image
       xlink:href="../gfx_Pepper-and-Carrot_by-David-Revoy_E34P08.png"
       width="2481"
       height="3503"
       id="image10"
       x="0"
       y="0" />
  </g>
  <g
     style="display:inline"
     inkscape:label="speechbubbles"
     id="layer3"
     inkscape:groupmode="layer">
    <path
       sodipodi:nodetypes="cccc"
       inkscape:connector-curvature="0"
       id="path3984-7"
       d="m 1858.8745,2602.7661 c 24.645,-31.5484 88.5186,-58.8546 134.0691,-29.1667 47.5832,1.2392 31.3766,-27.3129 31.3766,-27.3129 -2.2798,-13.3723 -128.0086,-31.4485 -165.4457,56.4796 z"
       style="color:#000000;display:inline;overflow:visible;visibility:visible;fill:#ffffff;fill-opacity:1;fill-rule:nonzero;stroke:none;stroke-width:0.770224px;marker:none;enable-background:accumulate" />
    <path
       sodipodi:nodetypes="csssc"
       inkscape:connector-curvature="0"
       id="path3280-8-3"
       d="m 2135.6291,2575.2703 c -39.732,1.5495 -80.0519,13.8487 -112.5385,40.9497 -52.0268,45.0892 -77.6571,126.8672 -62.1474,199.7376 7.5004,39.6501 29.3504,76.0631 60.4817,95.7382 30.274,19.5566 64.9382,27.4961 99.0946,31.9373 50.4803,5.9846 102.0181,-1.0683 150.1128,-19.5576 27.1188,-11.1068 49.3649,-36.3408 59.8113,-67.1583 10.3673,-29.5215 12.2721,-61.8351 12.3085,-93.3495 -0.8573,-48.3166 -15.4633,-96.2365 -41.0767,-134.536 -12.0666,-18.0441 -29.4552,-31.1989 -48.6879,-36.6059 -22.5825,-6.3164 -45.6993,-9.5079 -68.6603,-13.3933 -16.1452,-2.3788 -32.4067,-4.0361 -48.6981,-3.7622 z"
       style="display:inline;fill:#ffffff;stroke:none;stroke-width:1.40637" />
    <path
       sodipodi:nodetypes="cccscsc"
       inkscape:connector-curvature="0"
       id="path3970-3"
       d="m 2150.9688,2471.109 c -32.9366,-0.6792 -66.3161,2.5637 -97.2121,12.1889 -11.6065,3.7035 -23.0516,8.9338 -30.635,17.3087 -9.4897,10.5891 -14.1202,23.8281 -14.5207,36.9564 -0.082,12.9964 5.6564,26.3672 17.2522,35.418 9.2569,7.1259 21.2621,10.974 32.9333,14.5174 21.3941,6.3914 43.8196,10.0046 66.3227,12.2819 14.9683,1.5228 29.9976,2.6183 45.0404,3.4134 13.3185,0.4266 26.5946,-1.132 39.5274,-3.5953 18.7365,-3.1595 37.6635,-7.2725 54.0043,-15.7291 11.623,-6.115 21.4464,-15.2363 25.27,-26.3685 5.1868,-14.2894 1.2511,-30.553 -9.949,-42.3018 -9.3416,-10.7928 -20.4417,-20.9926 -34.6515,-27.4515 -11.987,-5.3087 -25.3175,-7.9142 -38.4132,-10.5668 -18.0506,-3.4498 -36.4811,-5.4533 -54.9688,-6.0717 z"
       style="color:#000000;display:inline;overflow:visible;visibility:visible;fill:#ffffff;fill-opacity:1;fill-rule:nonzero;stroke:none;stroke-width:0.541357px;marker:none;enable-background:accumulate" />
    <path
       sodipodi:nodetypes="cccccccccccccccccccc"
       inkscape:connector-curvature="0"
       id="path1096"
       d="m 181.11772,2630.852 c 31.57354,29.5986 25.76002,42.5201 -18.74893,38.1806 70.96107,45.4504 41.66752,52.2532 -3.26073,53.0288 30.16015,16.6008 63.53199,32.8459 -5.7062,60.4529 40.12419,4.4758 75.08512,10.7957 6.52136,54.0893 35.57255,-1.7782 58.64768,-19.9019 15.74427,39.0285 58.22912,-26.4689 111.40464,-18.1341 81.26155,47.9386 29.2681,-19.4584 77.38584,-68.7722 60.32285,-14.8479 13.40947,-17.2216 30.47545,-23.7394 61.1381,9.5451 -5.97918,-24.0046 -23.99411,-62.0483 30.16143,-15.9086 -16.37151,-36.1025 -0.6725,-72.5612 54.01118,-19.0194 -8.1462,-27.2214 -62.22244,-37.5446 4.68143,-64.7662 -46.08485,-2.7149 -31.79003,-21.1412 -2.44548,-43.4835 -54.87531,-12.3479 -27.72443,-27.2987 4.89105,-42.4231 -33.98979,-5.7648 -60.21246,-15.4731 -6.52145,-65.7557 -59.0987,20.8748 -41.99595,-14.4307 -39.12845,-39.2413 -27.27292,19.701 -58.11495,50.6236 -60.32293,-8.4846 -36.58568,73.3341 -50.43809,17.2689 -70.92018,-1.0605 -21.30335,87.2609 -69.59585,6.839 -83.14768,1.0605 27.63651,35.7158 32.46181,51.8871 -28.53119,11.6665 z"
       style="display:inline;fill:#ffffff;fill-rule:evenodd;stroke:none;stroke-width:1.09798px;stroke-linecap:butt;stroke-linejoin:miter;stroke-opacity:1" />
    <path
       sodipodi:nodetypes="cccccccccc"
       id="path1313"
       d="m 276.69249,2637.35 c 22.24357,147.5922 76.16994,294.7462 66.72409,442.7767 39.32721,-7.5351 57.02691,-43.538 110.60404,61.3044 36.13567,-50.5432 43.46402,-9.9468 54.08883,20.3938 25.92501,-21.2619 53.62712,-17.4156 81.20022,-15.3921 -24.07084,-2.6294 -42.56765,-23.176 -74.42406,-0.7793 -0.99204,-50.5675 -24.7242,-64.2967 -53.19608,-40.6932 -22.25284,-65.4923 -46.37098,-77.5206 -92.38131,-54.9383 1.82968,-175.1557 -47.49605,-279.4592 -67.44658,-422.2765 z"
       style="fill:#ffffff;fill-rule:evenodd;stroke:none;stroke-width:1px;stroke-linecap:butt;stroke-linejoin:miter;stroke-opacity:1" />
    <path
       sodipodi:nodetypes="cssssscsc"
       inkscape:connector-curvature="0"
       id="path4546-6-0"
       d="m 117.11855,2952.2227 c 2.80148,-42.4765 9.11736,-76.1738 43.86561,-94.8593 34.74827,-18.6853 97.92865,-22.3584 178.08483,-15.008 42.93599,3.9372 103.94387,9.6703 138.16041,27.4197 34.21663,17.7488 41.64166,47.5133 38.03622,109.7344 -3.60542,62.2209 -16.2145,95.3659 -55.7934,110.7925 -39.57892,15.4267 -106.12777,13.1348 -120.6141,14.7045 -37.87777,-4.9421 -110.91391,2.0672 -157.34418,-11.013 -46.43039,-13.0801 -66.25468,-46.2498 -64.39539,-141.7708 z"
       style="color:#000000;display:inline;overflow:visible;visibility:visible;fill:#ffffff;fill-opacity:1;fill-rule:nonzero;stroke:none;stroke-width:1.37097px;marker:none;enable-background:accumulate" />
    <path
       sodipodi:nodetypes="ccccccccccccccccccccccccc"
       inkscape:connector-curvature="0"
       id="path1309"
       d="m 214.47997,2649.8057 c 41.12914,-50.2257 43.78252,-5.139 64.99025,36.2923 20.61553,-30.6102 5.98449,-37.0801 53.24135,2.3088 9.80753,-60.6152 31.98483,-43.015 58.81101,-10.9502 -9.28811,-42.6242 -9.82021,-62.5771 31.3746,-25.9228 10.44823,-48.4233 31.30085,-13.1777 60.50817,10.3696 -7.09338,-54.7029 -10.51687,-54.5433 49.303,-44.9322 -41.57654,-48.1984 13.75782,-26.491 56.02596,-20.7394 -63.44187,-37.391 -40.54811,-30.7833 22.41062,-27.6509 -78.11345,-30.9514 -82.74409,-26.6667 -8.96427,-63.9433 -109.99746,11.1753 -99.6295,9.8366 -26.89255,-55.302 -43.66308,5.5174 -157.11089,82.943 -87.4007,13.8262 -59.59949,18.2513 -86.26518,39.2565 -55.02294,-20.9763 l -21.91768,-1.0234 c -22.71058,21.8995 -49.16295,56.4771 -53.04,11.6299 -33.17162,33.519 -31.28781,39.1189 -47.06182,-3.4564 -21.91679,57.8645 -25.30827,13.0651 -38.09801,-24.1945 -28.78986,34.7634 -29.0585,74.5428 -47.06182,19.0097 -12.53369,56.5135 -37.89361,16.4098 -73.95452,-10.3684 11.2471,61.5083 14.45655,60.8806 -40.33888,22.4662 20.54937,56.1578 -0.14033,44.3678 -58.266973,41.4758 69.595713,49.6039 47.429443,48.1051 -22.410637,82.9544 39.019277,5.5208 108.48168,-28.793 71.71348,17.2813 86.18708,-28.1852 16.813,45.1113 -4.482066,82.953 77.007006,-57.7667 108.936616,-104.5155 116.534426,-31.1074 z"
       style="fill:#ffffff;fill-rule:evenodd;stroke:none;stroke-width:1.58332px;stroke-linecap:butt;stroke-linejoin:miter;stroke-opacity:1" />
    <path
       sodipodi:nodetypes="csssc"
       inkscape:connector-curvature="0"
       id="path3280-5"
       d="m 2018.6562,1895.8066 c -32.016,0.8184 -63.9243,3.8749 -95.7065,7.594 -31.2451,4.2788 -62.6889,11.9014 -89.9,28.0388 -28.3035,16.5415 -50.8215,42.455 -62.4451,72.6651 -12.2355,31.1655 -14.0064,65.8698 -6.7558,98.3761 5.3032,23.0288 16.6018,44.8166 33.1887,62.0471 20.8655,22.2082 46.9411,39.3499 74.8305,51.9989 26.8972,12.1779 55.7493,19.748 84.9399,24.4245 19.1905,3.1468 38.4611,5.8935 57.8088,7.9333 28.823,2.8616 58.0126,2.9865 86.736,-0.9764 41.6574,-4.7553 83.0187,-12.9354 122.8209,-25.9671 31.6439,-11.3289 60.809,-30.1084 82.3128,-55.6426 20.262,-23.1236 36.1693,-50.4866 42.9932,-80.3638 4.4245,-25.8741 -1.965,-52.3215 -12.4275,-76.0835 -12.4134,-27.9278 -34.6559,-51.319 -61.6807,-66.3214 -34.1455,-20.3028 -73.2521,-30.7472 -112.2269,-37.9132 -46.989,-8.4471 -94.9272,-10.2312 -142.6066,-9.8484 -0.6273,0.013 -1.2545,0.026 -1.8817,0.039 z"
       style="display:inline;fill:#ffffff;stroke:none;stroke-width:0.966061" />
    <path
       sodipodi:nodetypes="ccccsccc"
       inkscape:connector-curvature="0"
       id="path5074-8"
       d="m 624.95128,1840.0661 c 47.24511,-27.3875 115.83444,-55.1086 154.24551,3.9472 23.5574,-4.8627 69.71482,-40.1263 115.42935,17.7336 -47.53609,-35.9834 -78.50267,-15.4767 -118.07887,4.9225 -18.59072,-41.5285 -83.01307,-49.4207 -140.96132,7.1368 -57.94866,56.5566 -38.62415,45.003 -38.62415,45.003 l 10.52452,-62.5977 z"
       style="color:#000000;display:inline;overflow:visible;visibility:visible;fill:#ffffff;fill-opacity:1;fill-rule:nonzero;stroke:none;stroke-width:0.869755px;marker:none;enable-background:accumulate" />
    <path
       sodipodi:nodetypes="csssc"
       inkscape:connector-curvature="0"
       id="path3280-5-9"
       d="m 479.6824,1821.3801 c -40.54294,0.5635 -81.96982,2.6232 -120.02019,12.8189 -50.10601,13.9723 -88.14352,45.5424 -98.89426,81.3126 -7.71317,23.6348 -6.99699,48.8341 4.82063,71.8034 11.32798,21.2486 35.72229,38.8465 65.62029,48.8243 15.03785,5.2112 31.44848,8.2482 47.98178,10.3986 27.38712,3.8579 55.05728,6.8927 82.89716,8.7928 62.21437,3.8748 126.86768,0.2822 184.44783,-17.0314 19.49588,-5.9136 38.53836,-13.4123 52.89426,-24.2669 19.74791,-15.9834 28.47366,-36.5813 33.72574,-56.7071 6.39622,-26.295 2.22279,-54.5208 -17.60882,-77.9359 -20.42404,-23.6338 -56.16701,-40.1656 -94.94828,-47.3101 -38.95109,-7.7328 -79.75533,-9.616 -120.12173,-10.744 -6.93126,-0.076 -13.86401,-0.058 -20.79441,0.045 z"
       style="display:inline;fill:#ffffff;stroke:none;stroke-width:1.12203" />
    <path
       sodipodi:nodetypes="cssssc"
       inkscape:connector-curvature="0"
       id="path4546-7"
       d="m 1501.321,277.80868 c 6.9942,-110.36371 81.9534,-190.410858 340.0157,-170.57238 138.2325,10.62639 295.1433,17.3599 286.4999,179.02919 -8.6436,161.66901 -234.1137,158.31783 -280.6152,162.26347 -46.5009,3.94591 -265.6688,-13.16969 -308.5968,-68.00052 -26.8723,-34.32241 -37.7281,-68.54575 -37.3036,-102.71976 z"
       style="color:#000000;display:inline;overflow:visible;visibility:visible;fill:#ffffff;fill-opacity:1;fill-rule:nonzero;stroke:none;stroke-width:1.35134px;marker:none;enable-background:accumulate" />
    <path
       sodipodi:nodetypes="cccsc"
       id="path1237"
       d="m 1583.1971,228.38894 -0.065,25.78758 C 1064.4433,130.64867 897.1794,416.85146 793.5913,670.33743 810.89342,604.71047 848.83107,539.01086 867.11504,495.25305 921.33848,365.48369 1120.9039,126.81475 1583.1971,228.38894 Z"
       style="fill:#ffffff;fill-rule:evenodd;stroke:none;stroke-width:1px;stroke-linecap:butt;stroke-linejoin:miter;stroke-opacity:1" />
    <path
       sodipodi:nodetypes="cccccccscccccccccccc"
       inkscape:connector-curvature="0"
       id="path4582"
       d="m 792.00008,200.22561 c 33.7121,12.97476 64.18552,21.04152 53.82517,-32.7734 59.67262,73.06177 51.11263,23.02436 60.55332,5.4622 35.47754,51.61057 66.00304,44.25569 92.51203,-10.9244 14.9859,79.59467 46.3453,41.03052 74.0097,29.1319 -0.067,22.38327 -36.304,58.75533 63.962,16.82898 -23.3402,20.21595 -61.89,54.06155 8.0172,33.79483 -11.3289,5.35959 9.1441,9.60416 0.9908,12.75937 -36.4893,14.12075 -43.292,45.94822 12.0303,57.21953 -39.0932,12.56052 -47.9639,43.98583 -1.9312,80.13352 -58.4566,-24.94281 -49.6253,8.03409 -38.8085,23.94457 -57.4032,-32.71188 -65.4347,-19.61526 -60.5532,5.4622 -18.3198,-22.87975 -39.2236,-32.45983 -79.58358,6.55438 9.02795,-23.43417 -34.88368,-22.77173 -75.40616,14.31454 21.33941,-35.68177 -8.79121,-40.48012 -42.33642,-17.95604 -8.84776,-37.9175 -42.07125,-18.66554 -77.37369,5.46231 28.81487,-37.0083 30.90291,-67.92573 -25.23053,-85.57523 54.398,-21.17144 44.4926,-38.24845 23.54851,-54.62242 20.69208,-15.39734 34.18357,-32.16999 -20.18444,-61.90552 31.78763,4.6228 65.63406,10.58278 31.95869,-27.31132 z"
       style="fill:#ffffff;fill-rule:evenodd;stroke:none;stroke-width:1.07745px;stroke-linecap:butt;stroke-linejoin:miter;stroke-opacity:1" />
    <path
       sodipodi:nodetypes="cccccccccccccccc"
       id="path1213"
       d="m 186.64099,269.10219 c 14.16793,-17.9695 21.6656,-57.67395 -26.96962,-49.84375 39.28832,-24.22773 26.02054,-46.39487 -3.9116,-60.30611 73.97307,21.84758 73.30597,-3.1264 61.65626,-34.98976 47.54155,45.23929 40.41961,-2.73478 35.84699,-20.87523 10.75548,16.73933 13.0223,42.92164 49.60085,2.10678 -0.32028,30.13252 -6.17118,65.92523 62.1714,25.78584 -22.50387,36.76194 -23.29348,63.59943 42.00483,60.23151 -28.38205,11.84018 -67.58994,23.8538 -13.96314,34.38016 -34.61657,-0.92979 -57.61576,1.55757 -42.76886,15.17701 -14.37392,-2.5435 -33.83306,-9.95842 -3.30801,30.50934 -20.80242,-14.97453 -46.52652,-38.26005 -39.11492,-5.59088 -18.23798,-14.68676 -19.40407,6.8976 -15.2404,39.80566 -12.94537,-38.21825 -26.75878,-42.54053 -41.59034,-7.10557 6.55708,-27.98121 3.27152,-63.65454 -44.38626,-25.35425 -12.90735,-2.90399 -11.03497,-2.74842 -20.02718,-3.93075 z"
       style="fill:#ffffff;fill-rule:evenodd;stroke:none;stroke-width:1.14149px;stroke-linecap:butt;stroke-linejoin:miter;stroke-opacity:1" />
    <path
       sodipodi:nodetypes="cccc"
       id="path1217"
       d="M 223.92681,451.40352 C 191.03014,380.78428 162.95416,309.9462 234.75229,234.57441 l -10.34265,-15.32374 c -90.31546,91.35161 -49.21656,162.34365 -0.48283,232.15285 z"
       style="fill:#ffffff;fill-rule:evenodd;stroke:none;stroke-width:1.28731px;stroke-linecap:butt;stroke-linejoin:miter;stroke-opacity:1" />
    <path
       sodipodi:nodetypes="cccccc"
       id="path1284"
       d="m 1643.7985,1929.1739 c 96.8015,-46.6867 120.9988,-40.2821 80.5755,28.3512 65.4725,-1.176 123.2483,3.9962 149.8904,34.8462 l 15.5883,-26.0596 c -31.2138,-18.9598 -72.3678,-35.221 -134.1445,-30.1606 20.9177,-34.9284 13.3859,-99.1339 -111.9097,-6.9772 z"
       style="fill:#ffffff;fill-rule:evenodd;stroke:none;stroke-width:1.08499px;stroke-linecap:butt;stroke-linejoin:miter;stroke-opacity:1" />
  </g>
  <g
     inkscape:label="txt"
     id="layer1"
     inkscape:groupmode="layer">
    <text
       transform="matrix(0.93887237,0,-0.13753791,1.0651075,0,0)"
       id="text4246-3-2-2-6-3-7-9-3-3-56-9-3-20"
       y="221.56798"
       x="316.34204"
       style="font-style:normal;font-variant:normal;font-weight:normal;font-stretch:normal;font-size:81.3623px;line-height:1.25;font-family:Lavi;-inkscape-font-specification:Lavi;text-align:center;letter-spacing:0px;word-spacing:0px;text-anchor:middle;fill:#000000;fill-opacity:1;stroke:none;stroke-width:1.408;stroke-miterlimit:4;stroke-dasharray:none"
       xml:space="preserve"><tspan
         id="tspan334"
         y="221.56798"
         x="316.34204"
         sodipodi:role="line"
         style="font-style:normal;font-variant:normal;font-weight:normal;font-stretch:normal;font-size:81.3623px;font-family:Lavi;-inkscape-font-specification:Lavi;stroke:#000000;stroke-width:1.408;stroke-miterlimit:4;stroke-dasharray:none;stroke-opacity:1">?!!</tspan></text>
    <text
       transform="scale(0.97385247,1.0268496)"
       id="text4246-3-2-2-6-3-7-9-3-3-56-9-3-20-3"
       y="277.9678"
       x="980.52393"
       style="font-style:normal;font-variant:normal;font-weight:normal;font-stretch:normal;font-size:55.0875px;line-height:1.25;font-family:Lavi;-inkscape-font-specification:Lavi;text-align:center;letter-spacing:0px;word-spacing:0px;text-anchor:middle;fill:#000000;fill-opacity:1;stroke:none;stroke-width:1.22417"
       xml:space="preserve"><tspan
         id="tspan68"
         y="277.9678"
         x="980.52393"
         sodipodi:role="line"
         style="font-size:55.0875px;stroke-width:1.22417"><tspan
   style="font-weight:bold"
   id="tspan333">Zij</tspan> was </tspan><tspan
         y="346.82718"
         x="980.52393"
         sodipodi:role="line"
         style="font-size:55.0875px;stroke-width:1.22417"
         id="tspan331">mijn doelwit!</tspan></text>
    <text
       id="text4246-3-2-2-6-3-7-9-3-3-56-9-3-20-3-7"
       y="210.50026"
       x="1829.2006"
       style="font-style:normal;font-variant:normal;font-weight:normal;font-stretch:normal;font-size:48.8015px;line-height:1.25;font-family:Lavi;-inkscape-font-specification:Lavi;text-align:center;letter-spacing:0px;word-spacing:0px;text-anchor:middle;fill:#000000;fill-opacity:1;stroke:none;stroke-width:1.08448"
       xml:space="preserve"><tspan
         id="tspan914"
         y="210.50026"
         x="1829.2006"
         sodipodi:role="line"
         style="font-size:48.8015px;stroke-width:1.08448">Ik heb gewoonweg haar </tspan><tspan
         id="tspan102"
         y="271.50214"
         x="1829.2006"
         sodipodi:role="line"
         style="font-size:48.8015px;stroke-width:1.08448">Verjongingsbetovering,</tspan><tspan
         y="332.504"
         x="1829.2006"
         sodipodi:role="line"
         style="font-size:48.8015px;stroke-width:1.08448"
         id="tspan342">die haar jonger deed</tspan><tspan
         y="393.50589"
         x="1829.2006"
         sodipodi:role="line"
         style="font-size:48.8015px;stroke-width:1.08448"
         id="tspan340">lijken, opgeheven.</tspan></text>
    <text
       id="text4246-3-2-2-6-3-7-9-3-3-56-9-3-20-5"
       y="1891.157"
       x="491.57349"
       style="font-style:normal;font-variant:normal;font-weight:normal;font-stretch:normal;font-size:45px;line-height:1.25;font-family:Lavi;-inkscape-font-specification:Lavi;text-align:center;letter-spacing:0px;word-spacing:0px;text-anchor:middle;fill:#000000;fill-opacity:1;stroke:none"
       xml:space="preserve"><tspan
         id="tspan113"
         y="1891.157"
         x="491.57349"
         sodipodi:role="line"
         style="font-size:45px">Het viel me</tspan><tspan
         y="1947.407"
         x="491.57349"
         sodipodi:role="line"
         style="font-size:45px"
         id="tspan419">al op meteen nadat</tspan><tspan
         y="2003.657"
         x="491.57349"
         sodipodi:role="line"
         style="font-size:45px"
         id="tspan421">ik hier aankwam.</tspan></text>
    <text
       id="text4246-3-2-2-6-3-7-9-3-3-56-9-3-20-5-9"
       y="1976.9462"
       x="2053.3621"
       style="font-style:normal;font-variant:normal;font-weight:normal;font-stretch:normal;font-size:45px;line-height:1.25;font-family:Lavi;-inkscape-font-specification:Lavi;text-align:center;letter-spacing:0px;word-spacing:0px;text-anchor:middle;fill:#000000;fill-opacity:1;stroke:none"
       xml:space="preserve"><tspan
         y="1976.9462"
         x="2053.3621"
         sodipodi:role="line"
         style="font-size:45px"
         id="tspan437">En dit is nog het</tspan><tspan
         y="2033.1962"
         x="2053.3621"
         sodipodi:role="line"
         style="font-size:45px"
         id="tspan439">minste dat je verdient</tspan><tspan
         y="2089.4463"
         x="2053.3621"
         sodipodi:role="line"
         style="font-size:45px"
         id="tspan441">voor het feit dat je Shichimi</tspan><tspan
         y="2145.6963"
         x="2053.3621"
         sodipodi:role="line"
         style="font-size:45px"
         id="tspan443">gedwongen hebt mij</tspan><tspan
         y="2201.9463"
         x="2053.3621"
         sodipodi:role="line"
         style="font-size:45px"
         id="tspan525">aan te vallen!</tspan></text>
    <text
       transform="scale(0.860916,1.1615535)"
       id="text4246-3-2-2-6-3-7-9-3-3-56-9-3-20-5-9-0"
       y="2214.9678"
       x="379.65598"
       style="font-style:normal;font-variant:normal;font-weight:normal;font-stretch:normal;font-size:60px;line-height:1.25;font-family:Lavi;-inkscape-font-specification:Lavi;text-align:center;letter-spacing:2px;word-spacing:0px;text-anchor:middle;fill:#000000;fill-opacity:1;stroke:none;stroke-width:1.32287"
       xml:space="preserve"><tspan
         id="tspan992-6"
         y="2214.9678"
         x="380.65598"
         sodipodi:role="line"
         style="font-style:normal;font-variant:normal;font-weight:bold;font-stretch:normal;font-size:60px;font-family:Lavi;-inkscape-font-specification:'Lavi Bold';stroke-width:1.32287">BRUTAAL NEST!</tspan></text>
    <text
       id="text4246-3-2-2-6-3-7-9-3-3-56-9-3-20-5-2"
       y="2739.698"
       x="322.75195"
       style="font-style:normal;font-variant:normal;font-weight:normal;font-stretch:normal;font-size:58px;line-height:1.25;font-family:Lavi;-inkscape-font-specification:Lavi;text-align:center;letter-spacing:0px;word-spacing:0px;text-anchor:middle;fill:#000000;fill-opacity:1;stroke:none;stroke-width:1.30553"
       xml:space="preserve"><tspan
         id="tspan143"
         y="2739.698"
         x="322.75195"
         sodipodi:role="line"
         style="font-size:58px;stroke-width:1.30553">Hoe</tspan><tspan
         y="2812.198"
         x="322.75195"
         sodipodi:role="line"
         style="font-size:58px;stroke-width:1.30553"
         id="tspan603"><tspan
   style="font-weight:bold"
   id="tspan605">durf</tspan> je,</tspan></text>
    <text
       id="text4246-3-2-2-6-3-7-9-3-3-56-9-3-20-5-2-7"
       y="2920.4714"
       x="318.51727"
       style="font-style:normal;font-variant:normal;font-weight:normal;font-stretch:normal;font-size:50px;line-height:1.25;font-family:Lavi;-inkscape-font-specification:Lavi;text-align:center;letter-spacing:0px;word-spacing:0px;text-anchor:middle;fill:#000000;fill-opacity:1;stroke:none;stroke-width:1.30553"
       xml:space="preserve"><tspan
         id="tspan158"
         y="2920.4714"
         x="318.51727"
         sodipodi:role="line"
         style="font-size:50px;stroke-width:1.30553">en dat in het</tspan><tspan
         y="2982.9714"
         x="318.51727"
         sodipodi:role="line"
         style="font-size:50px;stroke-width:1.30553"
         id="tspan612">bijzijn van mijn</tspan><tspan
         y="3045.4714"
         x="318.51727"
         sodipodi:role="line"
         style="font-size:50px;stroke-width:1.30553"
         id="tspan614">gehele School!</tspan></text>
    <text
       id="text4246-3-2-2-6-3-7-9-3-3-56-9-3-20-5-9-02"
       y="2551.3303"
       x="2147.4666"
       style="font-style:normal;font-variant:normal;font-weight:normal;font-stretch:normal;font-size:45px;line-height:1.25;font-family:Lavi;-inkscape-font-specification:Lavi;text-align:center;letter-spacing:0px;word-spacing:0px;text-anchor:middle;fill:#000000;fill-opacity:1;stroke:none"
       xml:space="preserve"><tspan
         y="2551.3303"
         x="2147.4666"
         sodipodi:role="line"
         style="font-size:45px"
         id="tspan665">Wees blij!</tspan></text>
    <text
       id="text4246-3-2-2-6-3-7-9-3-3-56-9-3-20-5-9-02-2"
       y="2677.8987"
       x="2159.114"
       style="font-style:normal;font-variant:normal;font-weight:normal;font-stretch:normal;font-size:45px;line-height:1.25;font-family:Lavi;-inkscape-font-specification:Lavi;text-align:center;letter-spacing:0px;word-spacing:0px;text-anchor:middle;fill:#000000;fill-opacity:1;stroke:none"
       xml:space="preserve"><tspan
         y="2677.8987"
         x="2159.114"
         sodipodi:role="line"
         style="font-size:45px"
         id="tspan78">Als ik al mijn</tspan><tspan
         y="2734.1487"
         x="2159.114"
         sodipodi:role="line"
         style="font-size:45px"
         id="tspan90">Rea had gehad,</tspan><tspan
         y="2790.3987"
         x="2159.114"
         sodipodi:role="line"
         style="font-size:45px"
         id="tspan686">dan had ik het</tspan><tspan
         y="2846.6487"
         x="2159.114"
         sodipodi:role="line"
         style="font-size:45px"
         id="tspan697">hier niet bij</tspan><tspan
         y="2902.8987"
         x="2159.114"
         sodipodi:role="line"
         style="font-size:45px"
         id="tspan699">gelaten!</tspan></text>
    <text
       id="text164"
       y="2535.75"
       x="2147.625"
       style="font-size:29.3333px;line-height:1.25;font-family:Sword;-inkscape-font-specification:Sword;text-align:center;letter-spacing:0px;word-spacing:0px;writing-mode:lr-tb;text-anchor:middle"
       xml:space="preserve"><tspan
         y="2535.75"
         x="2147.625"
         id="tspan162"
         sodipodi:role="line" /><tspan
         id="tspan166"
         y="2572.4165"
         x="2147.625"
         sodipodi:role="line" /></text>
  </g>
</svg>
