<?xml version="1.0" encoding="UTF-8" standalone="no"?>
<!-- Created with Inkscape (http://www.inkscape.org/) -->

<svg
   xmlns:dc="http://purl.org/dc/elements/1.1/"
   xmlns:cc="http://creativecommons.org/ns#"
   xmlns:rdf="http://www.w3.org/1999/02/22-rdf-syntax-ns#"
   xmlns:svg="http://www.w3.org/2000/svg"
   xmlns="http://www.w3.org/2000/svg"
   xmlns:xlink="http://www.w3.org/1999/xlink"
   xmlns:sodipodi="http://sodipodi.sourceforge.net/DTD/sodipodi-0.dtd"
   xmlns:inkscape="http://www.inkscape.org/namespaces/inkscape"
   id="svg2"
   version="1.1"
   inkscape:version="0.92.3 (2405546, 2018-03-11)"
   width="2481"
   height="5000"
   sodipodi:docname="E25P10.svg">
  <metadata
     id="metadata8">
    <rdf:RDF>
      <cc:Work
         rdf:about="">
        <dc:format>image/svg+xml</dc:format>
        <dc:type
           rdf:resource="http://purl.org/dc/dcmitype/StillImage" />
        <dc:title />
      </cc:Work>
    </rdf:RDF>
  </metadata>
  <defs
     id="defs6">
    <filter
       color-interpolation-filters="sRGB"
       inkscape:label="Drop Shadow"
       id="filter5546">
      <feFlood
         flood-opacity="1"
         flood-color="rgb(0,0,0)"
         result="flood"
         id="feFlood5548" />
      <feComposite
         in="flood"
         in2="SourceGraphic"
         operator="in"
         result="composite1"
         id="feComposite5550" />
      <feGaussianBlur
         in="composite1"
         stdDeviation="1"
         result="blur"
         id="feGaussianBlur5552" />
      <feOffset
         dx="2.5"
         dy="2.5"
         result="offset"
         id="feOffset5554" />
      <feComposite
         in="SourceGraphic"
         in2="offset"
         operator="over"
         result="composite2"
         id="feComposite5556" />
    </filter>
  </defs>
  <sodipodi:namedview
     pagecolor="#ffffff"
     bordercolor="#666666"
     borderopacity="1"
     objecttolerance="10"
     gridtolerance="10"
     guidetolerance="10"
     inkscape:pageopacity="0"
     inkscape:pageshadow="2"
     inkscape:window-width="1366"
     inkscape:window-height="715"
     id="namedview4"
     showgrid="false"
     inkscape:zoom="0.43937994"
     inkscape:cx="1122.2981"
     inkscape:cy="4281.1239"
     inkscape:window-x="1592"
     inkscape:window-y="124"
     inkscape:window-maximized="1"
     inkscape:current-layer="layer2"
     inkscape:object-nodes="true"
     showguides="true"
     inkscape:guide-bbox="true"
     inkscape:measure-start="0,0"
     inkscape:measure-end="0,0">
    <sodipodi:guide
       position="1425.8203,4914.3274"
       orientation="0,1"
       id="guide4214"
       inkscape:locked="false" />
  </sodipodi:namedview>
  <g
     inkscape:groupmode="layer"
     id="layer1"
     inkscape:label="artwork"
     style="display:inline"
     transform="translate(0,1024)"
     sodipodi:insensitive="true">
    <image
       sodipodi:absref="G:\Aslan's Works &amp; Design Projects\2. Personal Projects\3. Translation Projects\1. Pepper &amp; Carrot Translation Project\Episode 25\lang\fa\../gfx_Pepper-and-Carrot_by-David-Revoy_E25P10.png"
       xlink:href="../gfx_Pepper-and-Carrot_by-David-Revoy_E25P10.png"
       width="2481"
       height="5000"
       preserveAspectRatio="none"
       style="image-rendering:optimizeQuality"
       id="image4223"
       x="0.54707891"
       y="-1023.3771" />
  </g>
  <g
     inkscape:groupmode="layer"
     id="layer3"
     inkscape:label="speechbubbles"
     style="display:inline"
     transform="translate(0,1024)" />
  <g
     inkscape:groupmode="layer"
     id="layer2"
     inkscape:label="text"
     style="display:inline;opacity:0.85500004"
     transform="translate(0,1024)">
    <text
       xml:space="preserve"
       style="color:#000000;font-style:normal;font-variant:normal;font-weight:normal;font-stretch:normal;line-height:0%;font-family:Lavi;-inkscape-font-specification:Lavi;text-indent:0;text-align:center;text-decoration:none;text-decoration-line:none;letter-spacing:0px;word-spacing:0px;text-transform:none;writing-mode:lr-tb;direction:ltr;baseline-shift:baseline;text-anchor:middle;display:inline;overflow:visible;visibility:visible;opacity:0.85500004;fill:#241c1c;fill-opacity:1;fill-rule:nonzero;stroke:none;enable-background:accumulate"
       x="1240.17"
       y="-760.42316"
       id="text844"><tspan
         sodipodi:role="line"
         style="color:#000000;font-style:normal;font-variant:normal;font-weight:normal;font-stretch:normal;font-size:53.33333206px;line-height:125%;font-family:Midan;-inkscape-font-specification:Midan;text-indent:0;text-align:center;text-decoration:none;text-decoration-line:none;letter-spacing:0px;word-spacing:0px;text-transform:none;writing-mode:lr-tb;direction:rtl;baseline-shift:baseline;text-anchor:middle;display:inline;overflow:visible;visibility:visible;fill:#241c1c;fill-opacity:1;fill-rule:nonzero;stroke:none;enable-background:accumulate"
         x="1240.17"
         y="-760.42316"
         id="tspan842">پیشنهادات و اصلاحات اولیه: نیکولاس آرتانس، ایمسسائوک، کرگ مالونی، میدگارد، والوین، ایکس هایر و وریوک.</tspan></text>
    <text
       xml:space="preserve"
       style="font-style:normal;font-variant:normal;font-weight:normal;font-stretch:normal;line-height:0%;font-family:Midan;-inkscape-font-specification:Midan;text-align:center;letter-spacing:0px;word-spacing:0px;text-anchor:middle;display:inline;opacity:0.85500004;fill:#241c1c;fill-opacity:1;stroke:none"
       x="1240.6967"
       y="-829.55536"
       id="text4246-42-3"><tspan
         sodipodi:role="line"
         style="font-style:normal;font-variant:normal;font-weight:normal;font-stretch:normal;font-size:53.33333206px;line-height:1.25;font-family:Midan;-inkscape-font-specification:Midan;direction:rtl;fill:#241c1c;stroke:none"
         x="1240.6967"
         y="-829.55536"
         id="tspan4252-9-0">۰۵/ ۲۰۱۸،  www.peppercarrot.com، تصویرگر و نویسندہ: دیوید ریوی، ترجمه: اصلان زمانلو</tspan></text>
    <text
       xml:space="preserve"
       style="color:#000000;font-style:normal;font-variant:normal;font-weight:normal;font-stretch:normal;line-height:0%;font-family:Lavi;-inkscape-font-specification:Lavi;text-indent:0;text-align:center;text-decoration:none;text-decoration-line:none;letter-spacing:0px;word-spacing:0px;text-transform:none;writing-mode:lr-tb;direction:ltr;baseline-shift:baseline;text-anchor:middle;display:inline;overflow:visible;visibility:visible;opacity:0.85500004;fill:#241c1c;fill-opacity:1;fill-rule:nonzero;stroke:none;enable-background:accumulate"
       x="1240.1454"
       y="-692.61499"
       id="text4246-42-4-6"><tspan
         sodipodi:role="line"
         style="color:#000000;font-style:normal;font-variant:normal;font-weight:normal;font-stretch:normal;font-size:53.33333206px;line-height:125%;font-family:Midan;-inkscape-font-specification:Midan;text-indent:0;text-align:center;text-decoration:none;text-decoration-line:none;letter-spacing:0px;word-spacing:0px;text-transform:none;writing-mode:lr-tb;direction:rtl;baseline-shift:baseline;text-anchor:middle;display:inline;overflow:visible;visibility:visible;fill:#241c1c;fill-opacity:1;fill-rule:nonzero;stroke:none;enable-background:accumulate"
         x="1240.1454"
         y="-692.61499"
         id="tspan4252-9-9-7">بر اساس جهان هروا، ساخته و پرداخته دیوید ریوی به همراهی کری مالونی. اصلاحات توسط ویلم سونکه، موینی، هالی، سیگند و الکس گریسون.</tspan></text>
    <text
       xml:space="preserve"
       style="font-style:normal;font-variant:normal;font-weight:normal;font-stretch:normal;line-height:0%;font-family:Arial;-inkscape-font-specification:Arial;text-align:center;letter-spacing:0px;word-spacing:0px;text-anchor:middle;display:inline;opacity:0.85500004;fill:#241c1c;fill-opacity:1;stroke:none"
       x="1239.903"
       y="-621.89276"
       id="text4229-9"><tspan
         sodipodi:role="line"
         x="1239.903"
         y="-621.89276"
         style="font-style:normal;font-variant:normal;font-weight:normal;font-stretch:normal;font-size:53.33333206px;line-height:1.25;font-family:Midan;-inkscape-font-specification:Midan;direction:rtl;fill:#241c1c;stroke:none"
         id="tspan4169-3">نرم افزار: Krita 4.0.0, Inkscape 0.92.3 در Kubuntu 17.10</tspan></text>
    <text
       id="text4179-4"
       y="-553.42749"
       x="1240.0754"
       style="font-style:normal;font-variant:normal;font-weight:normal;font-stretch:normal;line-height:0%;font-family:Arial;-inkscape-font-specification:Arial;text-align:center;letter-spacing:0px;word-spacing:0px;text-anchor:middle;display:inline;opacity:0.85500004;fill:#241c1c;fill-opacity:1;stroke:none"
       xml:space="preserve"><tspan
         id="tspan4181-8"
         style="font-style:normal;font-variant:normal;font-weight:normal;font-stretch:normal;font-size:53.33333206px;line-height:1.25;font-family:Midan;-inkscape-font-specification:Midan;direction:rtl;fill:#241c1c;stroke:none"
         y="-553.42749"
         x="1240.0754"
         sodipodi:role="line">مجوز: Creative Commons Attribution 4.0</tspan></text>
    <text
       xml:space="preserve"
       style="font-style:normal;font-variant:normal;font-weight:normal;font-stretch:normal;line-height:0%;font-family:Arial;-inkscape-font-specification:Arial;text-align:center;letter-spacing:0px;word-spacing:0px;text-anchor:middle;display:inline;opacity:0.85500004;fill:#483e37;fill-opacity:1;stroke:none;filter:url(#filter4155)"
       x="1246.0248"
       y="-390.85916"
       id="text4162-3"><tspan
         sodipodi:role="line"
         x="1246.0248"
         y="-390.85916"
         style="font-style:normal;font-variant:normal;font-weight:normal;font-stretch:normal;font-size:52.5px;line-height:100%;font-family:Midan;-inkscape-font-specification:Midan;direction:rtl;fill:#483e37"
         id="tspan4166-6">فلفل و هویج کاملا رایگان و به صورت متن باز می باشد.</tspan><tspan
         sodipodi:role="line"
         x="1246.0248"
         y="-338.35916"
         style="font-style:normal;font-variant:normal;font-weight:normal;font-stretch:normal;font-size:52.5px;line-height:100%;font-family:Midan;-inkscape-font-specification:Midan;direction:rtl;fill:#483e37"
         id="tspan4206">این وب کامیک با حمایت خوانندگان به کار خود ادامه میدهد.</tspan><tspan
         sodipodi:role="line"
         x="1246.0248"
         y="-285.85916"
         style="font-style:normal;font-variant:normal;font-weight:normal;font-stretch:normal;font-size:52.5px;line-height:100%;font-family:Midan;-inkscape-font-specification:Midan;direction:rtl;fill:#483e37"
         id="tspan950">این قسمت از فلفل و هویج با حمایت ۹۰۹ حامی تهیه شدہ است. </tspan><tspan
         sodipodi:role="line"
         x="1246.0248"
         y="-265.75012"
         style="font-style:normal;font-variant:normal;font-weight:normal;font-stretch:normal;font-size:52.5px;line-height:100%;font-family:Midan;-inkscape-font-specification:Midan;direction:rtl;fill:#483e37"
         id="tspan4208" /></text>
    <text
       xml:space="preserve"
       style="font-style:normal;font-variant:normal;font-weight:normal;font-stretch:normal;line-height:0%;font-family:Arial;-inkscape-font-specification:Arial;text-align:center;letter-spacing:0px;word-spacing:0px;text-anchor:middle;display:inline;opacity:0.85500004;fill:#483e37;fill-opacity:1;stroke:none;filter:url(#filter4155)"
       x="1239.6361"
       y="3854.6023"
       id="text4221"><tspan
         sodipodi:role="line"
         id="tspan4223"
         x="1239.6361"
         y="3854.6023"
         style="font-style:normal;font-variant:normal;font-weight:normal;font-stretch:normal;font-size:60px;line-height:1.25;font-family:Midan;-inkscape-font-specification:Midan;direction:rtl;fill:#483e37">شما هم می تونین با مراجعه به آدرس www.patreon.com/davidrevoy حامی قسمت بعدی فلفل و هویج باشین.</tspan></text>
  </g>
</svg>
