<?xml version="1.0" encoding="UTF-8" standalone="no"?>
<!-- Created with Inkscape (http://www.inkscape.org/) -->

<svg
   xmlns:dc="http://purl.org/dc/elements/1.1/"
   xmlns:cc="http://creativecommons.org/ns#"
   xmlns:rdf="http://www.w3.org/1999/02/22-rdf-syntax-ns#"
   xmlns:svg="http://www.w3.org/2000/svg"
   xmlns="http://www.w3.org/2000/svg"
   xmlns:xlink="http://www.w3.org/1999/xlink"
   xmlns:sodipodi="http://sodipodi.sourceforge.net/DTD/sodipodi-0.dtd"
   xmlns:inkscape="http://www.inkscape.org/namespaces/inkscape"
   id="svg2"
   version="1.1"
   inkscape:version="0.92.4 (5da689c313, 2019-01-14)"
   width="2481"
   height="3503"
   sodipodi:docname="E19P01.svg">
  <sodipodi:namedview
     pagecolor="#ffffff"
     bordercolor="#666666"
     inkscape:pageopacity="0"
     inkscape:pageshadow="2"
     inkscape:window-width="1920"
     inkscape:window-height="965"
     id="namedview70"
     showgrid="false"
     inkscape:zoom="0.85547893"
     inkscape:cx="1843.0063"
     inkscape:cy="315.97136"
     inkscape:current-layer="layer1"
     inkscape:window-x="0"
     inkscape:window-y="74"
     inkscape:window-maximized="1"
     inkscape:snap-global="true" />
  <metadata
     id="metadata8">
    <rdf:RDF>
      <cc:Work
         rdf:about="">
        <dc:format>image/svg+xml</dc:format>
        <dc:type
           rdf:resource="http://purl.org/dc/dcmitype/StillImage" />
        <dc:title />
      </cc:Work>
    </rdf:RDF>
  </metadata>
  <defs
     id="defs6" />
  <sodipodi:namedview
     pagecolor="#ffffff"
     bordercolor="#666666"
     borderopacity="1"
     objecttolerance="10"
     gridtolerance="10"
     guidetolerance="10"
     inkscape:pageopacity="0"
     inkscape:pageshadow="2"
     inkscape:window-width="1920"
     inkscape:window-height="1025"
     id="namedview4"
     showgrid="false"
     inkscape:zoom="0.31941595"
     inkscape:cx="1410.2665"
     inkscape:cy="585.67346"
     inkscape:window-x="0"
     inkscape:window-y="26"
     inkscape:window-maximized="1"
     inkscape:current-layer="layer1"
     showguides="false" />
  <g
     inkscape:groupmode="layer"
     id="layer2"
     inkscape:label="artwork"
     sodipodi:insensitive="true">
    <image
       sodipodi:absref="/felles/omsetting/pepper-carrot/webcomics/ep19_Pollution/lang/nn/../gfx_Pepper-and-Carrot_by-David-Revoy_E19P01.png"
       xlink:href="../gfx_Pepper-and-Carrot_by-David-Revoy_E19P01.png"
       y="0"
       x="0"
       id="image10"
       height="3503"
       width="2481" />
  </g>
  <g
     inkscape:groupmode="layer"
     id="layer3"
     inkscape:label="speechbubbles">
    <path
       style="color:#000000;display:inline;overflow:visible;visibility:visible;fill:#ffffff;fill-opacity:1;fill-rule:nonzero;stroke:none;stroke-width:1.05901134px;marker:none;enable-background:accumulate"
       d="m 994.85448,1943.0733 c -4.36059,-30.8083 29.79982,-67.9762 153.47322,-59.7614 123.6736,8.2149 148.0029,22.6886 151.6557,62.2259 1.5145,16.3916 -31.425,41.8955 -49.672,46.003 -18.247,4.1073 -93.8915,4.722 -124.3032,1.4362 -30.4113,-3.286 -95.6735,-10.4725 -113.9204,-25.2593 -18.24709,-14.7866 -15.20578,-21.3585 -17.23332,-24.6444 z"
       id="path3365"
       inkscape:connector-curvature="0"
       sodipodi:nodetypes="csssssc" />
    <path
       style="color:#000000;display:inline;overflow:visible;visibility:visible;fill:#ffffff;fill-opacity:1;fill-rule:nonzero;stroke:none;stroke-width:1.18078792px;marker:none;enable-background:accumulate"
       d="m 1412.0308,2073.3358 c -11.9978,55.8659 -66.2951,80.8407 -111.3527,95.99 -84.0903,23.995 -172.2105,11.9514 -256.9319,-0.9991 -43.95562,-9.206 -89.23332,-48.8944 -84.63738,-102.4839 4.44166,-48.0365 47.05458,-79.3404 88.12698,-83.8028 60.2108,-15.5734 123.0051,-23.1599 184.2257,-9.9108 52.5682,7.5645 108.867,9.615 155.6878,39.4924 15.6468,15.7865 21.6586,39.4239 24.8815,61.7142 z"
       id="path3365-3"
       inkscape:connector-curvature="0" />
    <path
       style="fill:#ffffff;stroke:none;stroke-width:1.02616763"
       d="m 1004.7683,2283.1067 c 5.9449,-63.3325 52.3835,-97.6028 120.5464,-106.4241 83.5661,-18.8243 161.4568,-27.4485 244.8488,-9.4118 54.5318,14.9199 99.3488,16.6137 141.7157,59.4393 28.0948,31.4091 38.2105,150.2729 -7.2946,181.0791 -47.3714,45.0387 -174.3068,55.0167 -238.5295,53.7856 -92.4378,1.8536 -173.4505,-6.3481 -219.1007,-43.8606 -42.6855,-35.9905 -48.00017,-87.7243 -42.1861,-134.6075 z"
       id="path3065"
       inkscape:connector-curvature="0"
       sodipodi:nodetypes="cccccccc" />
    <path
       style="display:inline;fill:#ffffff;stroke:none"
       d="m 1639.5841,2318.3167 c -21.9558,36.2988 -64.6442,61.9501 -96.7367,35.7869 -19.4449,-15.8524 -29.1134,-28.291 -29.1134,-28.291 l -6.3679,30.9322 20.7854,19.5483 c 0,0 65.508,31.9103 111.4326,-57.9764 z"
       id="path3063-1"
       inkscape:connector-curvature="0"
       sodipodi:nodetypes="cscccc" />
    <path
       style="color:#000000;display:inline;overflow:visible;visibility:visible;fill:#ffffff;fill-opacity:1;fill-rule:nonzero;stroke:none;stroke-width:1.1212039px;marker:none;enable-background:accumulate"
       d="m 1896.9505,2268.2225 c 22.8239,-17.9936 112.6997,-33.4512 202.4633,-31.5635 89.7636,1.8877 179.1021,5.9841 228.3884,56.1492 71.055,72.322 42.1928,214.8806 2.0601,240.0368 -29.0857,18.2318 -116.1377,34.59 -199.5154,36.4295 -83.3774,1.8398 -163.0804,-10.8389 -202.0209,-27.3146 -33.6067,-14.2189 -82.5705,-52.9131 -86.5684,-146.4964 -1.6317,-38.1952 9.5454,-91.2529 55.1929,-127.241 z"
       id="path4040"
       inkscape:connector-curvature="0"
       sodipodi:nodetypes="ssssssss" />
    <path
       style="color:#000000;display:inline;overflow:visible;visibility:visible;fill:#ffffff;fill-opacity:1;fill-rule:nonzero;stroke:none;stroke-width:1px;marker:none;enable-background:accumulate"
       d="m 1924.2755,2258.1863 c -12.6779,-33.6245 -30.9699,-60.7293 -65.977,-55.676 52.3023,-18.546 92.9308,35.3617 103.6224,53.2726 10.6914,17.9109 -37.6454,2.4034 -37.6454,2.4034 z"
       id="path5010"
       inkscape:connector-curvature="0" />
    <path
       style="color:#000000;display:inline;overflow:visible;visibility:visible;fill:#ffffff;fill-opacity:1;fill-rule:nonzero;stroke:none;stroke-width:1.12479997px;marker:none;enable-background:accumulate"
       d="m 580.10826,2724.3612 c -1.20569,-26.3558 9.63209,-51.8539 62.74765,-62.4534 52.44733,-10.4662 122.49858,-9.0026 141.35382,-8.4347 78.8605,-0.1601 153.31463,5.0791 154.14749,67.1765 -3.26611,29.4604 -1.55099,56.5345 -23.25209,62.9889 -21.70123,6.4545 -188.41596,13.8487 -214.08304,13.5611 -25.13003,-0.2816 -57.12602,-3.5096 -82.04108,-14.0823 -23.52044,-9.9808 -37.66715,-32.4002 -38.87275,-58.7561 z"
       id="path3373"
       inkscape:connector-curvature="0"
       sodipodi:nodetypes="zsccsssz" />
    <path
       style="color:#000000;display:inline;overflow:visible;visibility:visible;fill:#ffffff;fill-opacity:1;fill-rule:nonzero;stroke:none;stroke-width:0.93145567px;marker:none;enable-background:accumulate"
       d="m 687.54332,2853.9321 c 8.59917,-71.4433 74.03604,-96.2842 260.82423,-100.5518 48.85317,-1.1161 131.14815,7.4337 169.51225,24.0922 38.3643,16.6585 60.209,73.9993 54.4763,126.3501 -11.4657,104.7015 -131.2672,87.2502 -164.2309,88.4821 -32.96356,1.2319 -259.83635,4.6116 -292.35702,-42.9057 -31.18667,-45.5681 -29.65803,-73.2947 -28.22486,-95.4669 z"
       id="path4546"
       inkscape:connector-curvature="0"
       sodipodi:nodetypes="csssssc" />
    <path
       style="color:#000000;display:inline;overflow:visible;visibility:visible;fill:#ffffff;fill-opacity:1;fill-rule:nonzero;stroke:none;stroke-width:1.04949033px;marker:none;enable-background:accumulate"
       d="m 819.59328,2986.5775 c 35.21484,-43.347 226.75182,-39.6466 290.47962,-20.8665 63.7277,18.7798 91.2776,23.8831 90.4044,62.5997 -0.8174,36.2466 -21.3686,70.1188 -53.9736,80.5522 -32.6049,10.4332 -109.0507,10.2172 -141.6556,10.2172 -32.6048,0 -136.68669,-6.6407 -163.02447,-21.9099 -25.1947,-14.6066 -57.44537,-67.2459 -22.23035,-110.5927 z"
       id="path3330"
       inkscape:connector-curvature="0"
       sodipodi:nodetypes="zsssssz" />
    <path
       style="color:#000000;display:inline;overflow:visible;visibility:visible;fill:#ffffff;fill-opacity:1;fill-rule:nonzero;stroke:none;stroke-width:1px;marker:none;enable-background:accumulate"
       d="m 929.99953,3158.9683 c 39.78505,-10.9584 53.20162,-17.1208 58.43434,-65.1641 5.23266,-48.0433 23.16173,-44.6696 23.16173,-44.6696 l 14.7504,30.3838 c 0,0 -18.3423,101.2684 -96.34647,79.4499 z"
       id="path3072"
       inkscape:connector-curvature="0" />
    <path
       style="fill:#ffffff;fill-rule:evenodd;stroke:none;stroke-width:1.30616498px;stroke-linecap:butt;stroke-linejoin:miter;stroke-opacity:1"
       d="m 1894.5897,3233.1072 c 39.8919,2.4293 91.8452,-9.6632 59.5942,-46.2374 58.0437,29.3061 113.0284,34.7954 170.9145,2.7122 -8.4617,32.3889 86.1866,34.8878 118.6177,13.456 -9.8952,33.7526 35.6058,35.0545 73.6271,36.1261 -80.4308,41.264 -38.1957,54.3873 -6.5034,69.9292 -79.044,-11.499 -59.927,11.7998 -69.3681,24.9746 -67.8078,-29.8509 -117.12,-22.7663 -156.0783,4.9949 -20.3753,-15.0973 -26.7709,-46.3007 -101.8842,1.665 27.621,-41.4082 -8.5837,-37.0619 -67.2002,-16.6497 13.4859,-9.5184 70.2473,-34.9486 -21.7193,-32.6967 14.3611,-3.352 25.8847,-7.0011 34.0063,-11.0067 8.1216,-4.0055 -44.1018,-14.6994 -43.349,-19.4768 0.7529,-4.7772 54.4823,-3.6381 46.7372,-9.3056 -7.7453,-5.6672 -20.0219,-11.8093 -37.3945,-18.4851 z"
       id="path4584"
       inkscape:connector-curvature="0"
       sodipodi:nodetypes="cccccccccccsssc" />
    <path
       style="color:#000000;display:inline;overflow:visible;visibility:visible;fill:#ffffff;fill-opacity:1;fill-rule:nonzero;stroke:none;stroke-width:1px;marker:none;enable-background:accumulate"
       d="m 1929.0839,3276.1051 c -26.7744,0.1934 -96.6935,-12.0611 -103.8888,-13.0148 6.0705,-5.4371 10.1298,-10.8932 13.4021,-15.1162 -13.7156,-0.9263 -59.5001,-2.596 -79.7676,1.5975 50.7453,-11.4228 73.8083,-12.6417 95.8809,-9.8645 -2.9601,5.998 -5.8701,9.4267 -7.3188,12.6033 18.7307,6.708 117.9634,8.8349 106.078,1.4065 z"
       id="path5066"
       inkscape:connector-curvature="0"
       sodipodi:nodetypes="cccccccc" />
  </g>
  <g
     inkscape:groupmode="layer"
     id="layer1"
     inkscape:label="txt"
     style="display:inline">
    <text
       xml:space="preserve"
       style="font-style:normal;font-variant:normal;font-weight:normal;font-stretch:normal;line-height:0%;font-family:Lavi;-inkscape-font-specification:Lavi;text-align:center;letter-spacing:0px;word-spacing:0px;text-anchor:middle;fill:#000000;fill-opacity:1;stroke:none"
       x="1151.4561"
       y="1952.6425"
       id="text4246-3-9"><tspan
         sodipodi:role="line"
         style="font-size:45px;line-height:1.25"
         x="1158.4873"
         y="1952.6425"
         id="tspan4183-8">Eg stikk inn. </tspan></text>
    <text
       xml:space="preserve"
       style="font-style:normal;font-variant:normal;font-weight:normal;font-stretch:normal;font-size:45px;line-height:0%;font-family:Lavi;-inkscape-font-specification:'Lavi, Normal';font-variant-ligatures:normal;font-variant-caps:normal;font-variant-numeric:normal;font-feature-settings:normal;text-align:center;letter-spacing:0px;word-spacing:0px;writing-mode:lr-tb;text-anchor:middle;fill:#000000;fill-opacity:1;stroke:none"
       x="1180.1486"
       y="2038.8254"
       id="text4246"><tspan
         sodipodi:role="line"
         id="tspan1095"
         style="line-height:1.25"
         x="1180.1486"
         y="2038.8254">Det har lite for</tspan><tspan
         sodipodi:role="line"
         id="tspan1099"
         x="1180.1486"
         y="2095.0754"
         style="line-height:1.25">seg å stå og glo på</tspan><tspan
         sodipodi:role="line"
         x="1180.1486"
         y="2151.3254"
         style="line-height:1.25"
         id="tspan870">at du grev ...</tspan></text>
    <text
       xml:space="preserve"
       style="font-style:normal;font-variant:normal;font-weight:normal;font-stretch:normal;line-height:0%;font-family:Lavi;-inkscape-font-specification:Lavi;text-align:center;letter-spacing:0px;word-spacing:0px;text-anchor:middle;fill:#000000;fill-opacity:1;stroke:none"
       x="1266.4561"
       y="2247.5215"
       id="text4246-3-7"><tspan
         sodipodi:role="line"
         style="font-size:45px;line-height:1.25"
         x="1266.4561"
         y="2247.5215"
         id="tspan3968">Grav ned alle desse</tspan><tspan
         sodipodi:role="line"
         style="font-size:45px;line-height:1.25"
         x="1266.4561"
         y="2303.7715"
         id="tspan985">mislukka trylledrikkane,</tspan><tspan
         sodipodi:role="line"
         style="font-size:45px;line-height:1.25"
         x="1266.4561"
         y="2360.0215"
         id="tspan987">og kom inn for å kvila</tspan><tspan
         sodipodi:role="line"
         style="font-size:45px;line-height:1.25"
         x="1266.4561"
         y="2416.2715"
         id="tspan989">så snart du kan.</tspan></text>
    <text
       xml:space="preserve"
       style="font-style:normal;font-variant:normal;font-weight:normal;font-stretch:normal;line-height:0%;font-family:Lavi;-inkscape-font-specification:Lavi;text-align:center;letter-spacing:0px;word-spacing:0px;text-anchor:middle;fill:#000000;fill-opacity:1;stroke:none"
       x="2105.9763"
       y="2310.5068"
       id="text4246-3-7-6"><tspan
         sodipodi:role="line"
         style="font-size:45px;line-height:1.25"
         x="2105.9763"
         y="2310.5068"
         id="tspan3983">Det er nok berre</tspan><tspan
         sodipodi:role="line"
         style="font-size:45px;line-height:1.25"
         x="2105.9763"
         y="2366.7568"
         id="tspan1118">ynskjetenking at du vil</tspan><tspan
         sodipodi:role="line"
         style="font-size:45px;line-height:1.25"
         x="2105.9763"
         y="2423.0068"
         id="tspan1120">lukkast betre i morgon,</tspan><tspan
         sodipodi:role="line"
         style="font-size:45px;line-height:1.25"
         x="2105.9763"
         y="2479.2568"
         id="tspan1122">men me får vel halda</tspan><tspan
         sodipodi:role="line"
         style="font-size:45px;line-height:1.25"
         x="2105.9763"
         y="2535.5068"
         id="tspan884">håpet i live!</tspan></text>
    <text
       xml:space="preserve"
       style="font-style:normal;font-variant:normal;font-weight:normal;font-stretch:normal;line-height:0%;font-family:Lavi;-inkscape-font-specification:Lavi;text-align:center;letter-spacing:0px;word-spacing:0px;text-anchor:middle;fill:#000000;fill-opacity:1;stroke:none"
       x="755.91638"
       y="2714.446"
       id="text4246-3-7-6-7"><tspan
         sodipodi:role="line"
         style="font-size:45px;line-height:1.25"
         x="755.91638"
         y="2714.446"
         id="tspan3987">Ja då, eg skal</tspan><tspan
         sodipodi:role="line"
         style="font-size:45px;line-height:1.25"
         x="755.91638"
         y="2770.696"
         id="tspan1138">skunda meg!</tspan><tspan
         sodipodi:role="line"
         style="font-size:45px;line-height:1.25"
         x="755.91638"
         y="2789.2031"
         id="tspan1140" /></text>
    <text
       xml:space="preserve"
       style="font-style:normal;font-variant:normal;font-weight:normal;font-stretch:normal;line-height:0%;font-family:Lavi;-inkscape-font-specification:Lavi;text-align:center;letter-spacing:0px;word-spacing:0px;text-anchor:middle;fill:#000000;fill-opacity:1;stroke:none"
       x="922.81274"
       y="2836.0046"
       id="text4246-3-7-6-7-0"><tspan
         sodipodi:role="line"
         style="font-size:45px;line-height:1.25"
         x="922.81274"
         y="2836.0046"
         id="tspan4778">Men kva er greia</tspan><tspan
         sodipodi:role="line"
         style="font-size:45px;line-height:1.25"
         x="922.81274"
         y="2892.2546"
         id="tspan1144">med at me alltid skal</tspan><tspan
         sodipodi:role="line"
         style="font-size:45px;line-height:1.25"
         x="929.84399"
         y="2948.5046"
         id="tspan4770"><tspan
   style="stroke:#000000;stroke-width:1.29999995;stroke-miterlimit:4;stroke-dasharray:none;stroke-opacity:1"
   id="tspan4772">grava ned ting</tspan>? </tspan></text>
    <text
       xml:space="preserve"
       style="font-style:normal;font-variant:normal;font-weight:normal;font-stretch:normal;line-height:0%;font-family:Lavi;-inkscape-font-specification:Lavi;text-align:center;letter-spacing:0px;word-spacing:0px;text-anchor:middle;fill:#000000;fill-opacity:1;stroke:none"
       x="1003.1656"
       y="3023.8416"
       id="text4246-3-7-6-7-0-9"><tspan
         sodipodi:role="line"
         style="font-size:45px;line-height:1.25"
         x="1003.1656"
         y="3023.8416"
         id="tspan4782">Var det ikkje</tspan><tspan
         sodipodi:role="line"
         style="font-size:45px;line-height:1.25"
         x="1003.1656"
         y="3080.0916"
         id="tspan1148">betre om me ...</tspan></text>
    <text
       xml:space="preserve"
       style="font-style:normal;font-variant:normal;font-weight:normal;font-stretch:normal;line-height:0%;font-family:Lavi;-inkscape-font-specification:Lavi;text-align:center;letter-spacing:0px;word-spacing:0px;text-anchor:middle;fill:#000000;fill-opacity:1;stroke:none"
       x="2102.415"
       y="3281.0884"
       id="text4246-3-7-6-7-0-9-3"><tspan
         sodipodi:role="line"
         style="font-size:45px;line-height:1.25"
         x="2102.415"
         y="3281.0884"
         id="tspan4464-5">Om me <tspan
   style="stroke:#000000;stroke-width:2.5999999;stroke-miterlimit:4;stroke-dasharray:none;stroke-opacity:1"
   id="tspan4493">KVA</tspan>?</tspan></text>
    <flowRoot
       xml:space="preserve"
       id="flowRoot1002"
       style="fill:black;fill-opacity:1;stroke:none;stroke-opacity:1;stroke-width:1px;stroke-linejoin:miter;stroke-linecap:butt;font-family:Droid Sans;font-style:normal;font-weight:normal;font-size:36px;text-anchor:start;text-align:start;-inkscape-font-specification:Droid Sans;font-stretch:normal;font-variant:normal;line-height:125%;letter-spacing:0px;word-spacing:0px"><flowRegion
         id="flowRegion1004"><rect
           id="rect1006"
           width="260.67273"
           height="114.55571"
           x="1192.3146"
           y="2108.4595" /></flowRegion><flowPara
         id="flowPara1008" /></flowRoot>    <text
       xml:space="preserve"
       style="font-style:normal;font-variant:normal;font-weight:normal;font-stretch:normal;font-size:36px;line-height:125%;font-family:'Droid Sans';-inkscape-font-specification:'Droid Sans';text-align:start;letter-spacing:0px;word-spacing:0px;text-anchor:start;fill:#000000;fill-opacity:1;stroke:none;stroke-width:1px;stroke-linecap:butt;stroke-linejoin:miter;stroke-opacity:1"
       x="1179.4563"
       y="2123.6558"
       id="text1017"><tspan
         sodipodi:role="line"
         id="tspan1015"
         x="1179.4563"
         y="2155.5535" /></text>
  </g>
</svg>
