<?xml version="1.0" encoding="UTF-8" standalone="no"?>
<svg
   sodipodi:docname="E33P08.svg"
   height="3503"
   width="2481"
   inkscape:version="1.1.1 (3bf5ae0d25, 2021-09-20, custom)"
   version="1.1"
   id="svg2"
   xmlns:inkscape="http://www.inkscape.org/namespaces/inkscape"
   xmlns:sodipodi="http://sodipodi.sourceforge.net/DTD/sodipodi-0.dtd"
   xmlns:xlink="http://www.w3.org/1999/xlink"
   xmlns="http://www.w3.org/2000/svg"
   xmlns:svg="http://www.w3.org/2000/svg"
   xmlns:rdf="http://www.w3.org/1999/02/22-rdf-syntax-ns#"
   xmlns:cc="http://creativecommons.org/ns#"
   xmlns:dc="http://purl.org/dc/elements/1.1/">
  <metadata
     id="metadata8">
    <rdf:RDF>
      <cc:Work
         rdf:about="">
        <dc:format>image/svg+xml</dc:format>
        <dc:type
           rdf:resource="http://purl.org/dc/dcmitype/StillImage" />
        <dc:title />
      </cc:Work>
    </rdf:RDF>
  </metadata>
  <defs
     id="defs6">
    <filter
       x="-0.044747395"
       width="1.0740278"
       height="1.1522104"
       inkscape:label="magic-numbers_orange"
       id="filter4375-4-1-1-1-9-5-8-8-3-3-3-6-1-6"
       style="color-interpolation-filters:sRGB"
       y="-0.018863183">
      <feFlood
         radius="5.0999999999999996"
         result="flood"
         flood-color="rgb(216,88,33)"
         flood-opacity="1"
         id="feFlood4377-7-9-0-8-1-7-3-1-6-61-6-2-0-2" />
      <feComposite
         baseFrequency="0.053999999999999999 0.053999999999999999"
         result="composite1"
         operator="in"
         in="flood"
         in2="SourceGraphic"
         id="feComposite4379-3-8-8-2-77-4-1-0-7-2-7-6-6-6" />
      <feMorphology
         result="result3"
         radius="0.96959439099754563"
         operator="dilate"
         id="feMorphology4393-1-0-49-8-9-3-0-1-5-9-5-1-3-1" />
      <feComposite
         numOctaves="4"
         result="fbSourceGraphic"
         operator="over"
         in="SourceGraphic"
         in2="result3"
         id="feComposite4385-9-5-7-0-8-8-7-5-3-3-3-8-2-8" />
      <feColorMatrix
         id="feColorMatrix4544-9-5-1-5-7-0-7"
         values="0 0 0 -1 0 0 0 0 -1 0 0 0 0 -1 0 0 0 0 1 0"
         in="fbSourceGraphic"
         result="fbSourceGraphicAlpha" />
      <feTurbulence
         result="turbulence"
         baseFrequency="0.062 0.054054054054054057"
         seed="172"
         numOctaves="4.4123222748815163"
         type="fractalNoise"
         id="feTurbulence4546-3-6-9-6-9-6-9" />
      <feDisplacementMap
         result="fbSourceGraphic"
         xChannelSelector="R"
         yChannelSelector="G"
         scale="11.642079"
         in="fbSourceGraphic"
         in2="turbulence"
         id="feDisplacementMap4548-8-2-4-2-2-1-20" />
      <feColorMatrix
         scale="10.800000000000001"
         id="feColorMatrix4670-7-9-7-9-0-5-2"
         values="0 0 0 -1 0 0 0 0 -1 0 0 0 0 -1 0 0 0 0 1 0"
         in="fbSourceGraphic"
         result="fbSourceGraphicAlpha" />
      <feComposite
         result="composite1"
         operator="in"
         in="flood"
         in2="fbSourceGraphic"
         id="feComposite4674-8-2-4-1-2-5-3" />
      <feGaussianBlur
         result="blur"
         stdDeviation="0.01"
         in="composite1"
         id="feGaussianBlur4676-3-7-50-2-3-4-7" />
      <feOffset
         result="offset"
         dy="5.2374444725016502"
         dx="-0.42771311737301687"
         id="feOffset4678-6-0-3-7-7-7-5" />
      <feComposite
         result="composite2"
         operator="over"
         in="fbSourceGraphic"
         in2="offset"
         id="feComposite4680-4-9-6-0-5-6-9" />
      <feGaussianBlur
         stdDeviation="0.01"
         id="feGaussianBlur58-9-9-5-2" />
      <feOffset
         dx="0"
         dy="0"
         id="feOffset60-3-2-6-2" />
    </filter>
    <filter
       style="color-interpolation-filters:sRGB"
       id="filter4375-4-1-1-1-9-5-8-8-3-3-7-4-1"
       inkscape:label="magic-numbers_cyan"
       height="1.299904"
       width="1.3297156"
       x="-0.1721244"
       y="-0.095838471">
      <feFlood
         id="feFlood4377-7-9-0-8-1-7-3-1-6-61-3-5-4"
         flood-opacity="1"
         flood-color="rgb(15,126,119)"
         result="flood"
         radius="5.0999999999999996" />
      <feComposite
         id="feComposite4379-3-8-8-2-77-4-1-0-7-2-6-2-9"
         in2="SourceGraphic"
         in="flood"
         operator="in"
         result="composite1"
         baseFrequency="0.053999999999999999 0.053999999999999999" />
      <feMorphology
         id="feMorphology4393-1-0-49-8-9-3-0-1-5-9-1-5-2"
         operator="dilate"
         radius="0.96959439099754563"
         result="result3" />
      <feComposite
         id="feComposite4385-9-5-7-0-8-8-7-5-3-3-2-4-0"
         in2="result3"
         in="SourceGraphic"
         operator="over"
         result="fbSourceGraphic"
         numOctaves="4" />
      <feColorMatrix
         result="fbSourceGraphicAlpha"
         in="fbSourceGraphic"
         values="0 0 0 -1 0 0 0 0 -1 0 0 0 0 -1 0 0 0 0 1 0"
         id="feColorMatrix4544-9-5-1-9-7-6" />
      <feTurbulence
         id="feTurbulence4546-3-6-9-3-4-8"
         type="fractalNoise"
         numOctaves="4.4123222748815163"
         seed="172"
         baseFrequency="0.062 0.054054054054054057"
         result="turbulence" />
      <feDisplacementMap
         id="feDisplacementMap4548-8-2-4-1-4-9"
         in2="turbulence"
         in="fbSourceGraphic"
         scale="11.642079"
         yChannelSelector="G"
         xChannelSelector="R"
         result="fbSourceGraphic" />
      <feColorMatrix
         result="fbSourceGraphicAlpha"
         in="fbSourceGraphic"
         values="0 0 0 -1 0 0 0 0 -1 0 0 0 0 -1 0 0 0 0 1 0"
         id="feColorMatrix4670-7-9-7-9-3-2"
         scale="10.800000000000001" />
      <feComposite
         id="feComposite4674-8-2-4-4-0-6"
         in2="fbSourceGraphic"
         in="flood"
         operator="in"
         result="composite1" />
      <feGaussianBlur
         id="feGaussianBlur4676-3-7-50-7-7-6"
         in="composite1"
         stdDeviation="1.5865199271065846"
         result="blur" />
      <feOffset
         id="feOffset4678-6-0-3-8-8-4"
         dx="-0.42771311737301687"
         dy="5.2374444725016502"
         result="offset" />
      <feComposite
         id="feComposite4680-4-9-6-4-6-9"
         in2="offset"
         in="fbSourceGraphic"
         operator="over"
         result="composite2" />
      <feGaussianBlur
         id="feGaussianBlur58-5-8-5"
         stdDeviation="0.01" />
      <feOffset
         id="feOffset60-0-8-0"
         dy="0"
         dx="0" />
    </filter>
    <filter
       width="1.010449"
       style="color-interpolation-filters:sRGB"
       id="filter4375-4-1-1-1-9-5-8-6-4"
       inkscape:label="soundFX-background"
       x="-0.0052245169"
       y="-0.011114813"
       height="1.0222296">
      <feFlood
         id="feFlood4377-7-9-0-8-1-7-3-7-8"
         flood-opacity="1"
         flood-color="rgb(46,52,54)"
         result="flood" />
      <feComposite
         id="feComposite4379-3-8-8-2-77-4-1-5-1"
         in2="SourceGraphic"
         in="flood"
         operator="in"
         result="composite1" />
      <feMorphology
         id="feMorphology4393-1-0-49-8-9-3-0-3-2"
         operator="dilate"
         radius="6.2000000000000002"
         result="result3" />
      <feComposite
         id="feComposite4385-9-5-7-0-8-8-7-56-9"
         in2="result3"
         in="SourceGraphic"
         operator="over"
         result="fbSourceGraphic" />
      <feColorMatrix
         result="fbSourceGraphicAlpha"
         in="fbSourceGraphic"
         values="0 0 0 -1 0 0 0 0 -1 0 0 0 0 -1 0 0 0 0 1 0"
         id="feColorMatrix4544-2-3" />
      <feTurbulence
         id="feTurbulence4546-9-9"
         type="fractalNoise"
         numOctaves="3"
         seed="37"
         baseFrequency="0.129 0.0050000000000000001"
         result="turbulence" />
      <feDisplacementMap
         id="feDisplacementMap4548-1-0"
         in2="turbulence"
         in="fbSourceGraphic"
         scale="10"
         yChannelSelector="A"
         xChannelSelector="B"
         result="fbSourceGraphic" />
      <feColorMatrix
         result="fbSourceGraphicAlpha"
         in="fbSourceGraphic"
         values="0 0 0 -1 0 0 0 0 -1 0 0 0 0 -1 0 0 0 0 1 0"
         id="feColorMatrix4670-2-8" />
      <feFlood
         id="feFlood4672-7-8"
         flood-opacity="1"
         flood-color="rgb(17,52,65)"
         result="flood"
         in="fbSourceGraphic" />
      <feComposite
         id="feComposite4674-0-5"
         in2="fbSourceGraphic"
         in="flood"
         operator="in"
         result="composite1" />
      <feComposite
         id="feComposite4680-6-0"
         in2="composite1"
         in="fbSourceGraphic"
         operator="over"
         result="composite2" />
      <feGaussianBlur
         stdDeviation="0.027533236"
         id="feGaussianBlur1513" />
    </filter>
  </defs>
  <sodipodi:namedview
     inkscape:snap-global="false"
     inkscape:document-rotation="0"
     inkscape:current-layer="layer1"
     inkscape:window-maximized="1"
     inkscape:window-y="0"
     inkscape:window-x="32"
     inkscape:cy="2390.3592"
     inkscape:cx="1294.896"
     inkscape:zoom="0.529"
     showgrid="false"
     id="namedview4"
     inkscape:window-height="1146"
     inkscape:window-width="1888"
     inkscape:pageshadow="2"
     inkscape:pageopacity="0"
     guidetolerance="10"
     gridtolerance="10"
     objecttolerance="10"
     borderopacity="1"
     bordercolor="#666666"
     pagecolor="#ffffff"
     inkscape:pagecheckerboard="0" />
  <g
     sodipodi:insensitive="true"
     inkscape:label="artwork"
     id="layer2"
     inkscape:groupmode="layer">
    <image
       xlink:href="../gfx_Pepper-and-Carrot_by-David-Revoy_E33P08.png"
       y="0"
       x="0"
       id="image10"
       height="3503.4727"
       width="2481" />
  </g>
  <g
     inkscape:label="speechbubbles"
     id="layer3"
     inkscape:groupmode="layer">
    <path
       style="display:inline;fill:#ffffff;stroke:none;stroke-width:0.869527"
       d="m 2086.916,2126.746 c -39.8666,1.0454 -79.7129,2.4835 -119.5701,3.707 -17.2796,0.6328 -35.0168,2.2609 -50.6241,8.2837 -15.843,6.2299 -28.6453,16.2031 -38.4932,27.346 -7.9052,9.0357 -14.5978,18.8663 -17.6185,29.5273 -3.021,10.0252 -2.8925,20.5818 0.5624,30.5352 7.7333,23.326 31.8388,43.3591 62.3141,50.5893 44.6754,11.9483 92.3315,16.6066 139.585,16.3115 42.9254,-0.4219 85.8574,-4.9257 127.0939,-14.0153 13.1265,-3.2927 26.2685,-8.0361 35.2676,-16.2367 12.8229,-11.7565 21.7545,-26.3841 22.7244,-41.7424 0.056,-10.4785 -1.2463,-21.0359 -4.8995,-31.1696 -6.1185,-17.2733 -21.098,-32.2864 -40.0213,-42.8024 -16.2793,-9.1714 -35.8563,-14.8027 -55.9803,-16.6088 -19.7774,-2.2823 -39.7837,-3.2026 -59.7607,-3.7253 -0.1932,2e-4 -0.3864,3e-4 -0.5797,5e-4 z"
       id="path3278-12"
       inkscape:connector-curvature="0" />
    <path
       style="color:#000000;display:inline;overflow:visible;visibility:visible;fill:#ffffff;fill-opacity:1;fill-rule:nonzero;stroke:none;stroke-width:0.994847px;marker:none;enable-background:accumulate"
       d="m 1884.8728,1962.412 c 12.0583,59.1235 -43.8256,29.4296 -59.9517,22.1728 29.6801,24.3827 29.0707,40.2134 -10.2837,44.0752 56.5902,17.5091 35.1656,37.1399 2.7174,50.4478 49.4282,4.9031 53.9096,25.3001 20.8429,54.3051 60.2859,-17.8626 46.7929,-0.5174 24.5113,24.136 44.1423,-17.5317 68.1994,-20.7249 51.6078,8.4073 -0.082,-7.5143 35.8841,-56.9859 95.7678,1.4626 -2.2041,-31.1206 17.5925,-38.2434 37.6437,4.1425 -7.5225,-46.388 60.0508,-35.3027 96.0334,-21.9477 -18.7139,-27.596 18.6531,-32.4894 49.0547,-27.9465 -55.9889,-27.1986 -16.0982,-37.1947 18.9975,-40.991 -30.8975,-8.2565 -36.7937,-17.7023 19.8688,-30.1205 -43.344,0.5453 -85.6752,-18.2964 -33.8724,-37.293 -34.6464,2.6942 -61.6779,-4.7901 -37.609,-56.482 -26.7111,28.6608 -85.2902,45.2831 -93.7352,-11.6861 -24.9555,42.5189 -46.3681,44.9985 -60.391,9.285 -4.315,15.5921 -23.6906,22.0925 -40.247,23.3881 -6.5656,-5.8974 -13.388,-13.9831 -20.5643,-24.6395 -10.6909,23.2975 -27.1622,39.3614 -60.391,9.2839 z"
       id="path3549-3-7-9-6"
       inkscape:connector-curvature="0"
       sodipodi:nodetypes="cccccccccccccccccccc" />
    <path
       style="fill:#ffffff;fill-rule:evenodd;stroke:none;stroke-width:1px;stroke-linecap:butt;stroke-linejoin:miter;stroke-opacity:1"
       d="m 1881.0986,2429.5402 c 42.1845,-19.5414 70.0418,-49.0032 96.7552,-81.9101 -13.1979,1.1047 -25.5175,2.2354 -38.607,4.1405 43.281,-46.672 75.3438,-81.9823 86.1468,-97.7689 20.0156,-39.712 -8.5318,-31.4429 -30.6261,0.5558 -15.3856,23.3313 -64.2407,81.9966 -95.3964,117.5241 l 38.8332,-3.5957 c -11.3666,17.29 -37.7387,44.1736 -57.1057,61.0543 z"
       id="path1111-3"
       inkscape:connector-curvature="0"
       sodipodi:nodetypes="cccccccc" />
    <path
       style="color:#000000;display:inline;overflow:visible;visibility:visible;fill:#ffffff;fill-opacity:1;fill-rule:nonzero;stroke:none;stroke-width:0.999998px;marker:none;enable-background:accumulate"
       d="m 799.91121,1322.9095 c 12.09998,40.2931 0.7359,97.4999 -82.41882,127.139 67.88362,-35.9777 55.50716,-89.1882 53.98696,-117.9025 C 758.78158,1092.3042 423.05815,974.65211 346.8056,1011.7822 l 4.83646,-35.57511 c 346.83972,1.96835 465.22644,318.36431 448.26915,346.70241 z"
       id="path4440-3"
       inkscape:connector-curvature="0"
       sodipodi:nodetypes="ccsccc" />
    <path
       style="display:inline;fill:#ffffff;fill-opacity:1;stroke:none;stroke-width:0.956992"
       d="m 378.17786,865.57503 c -51.38735,0.17993 -103.83044,4.6179 -149.40782,16.74178 -49.96387,14.02426 -80.67413,42.23305 -79.60933,70.31926 -1.58967,26.21218 -6.42002,52.76573 4.05697,78.70413 7.60496,18.4637 21.2219,36.9352 46.82037,51.2837 21.17442,10.4998 51.28662,15.2584 80.63178,16.6634 47.30486,3.3951 94.702,6.7406 142.43028,8.2969 64.24203,1.3667 128.37677,-1.6718 192.455,-3.447 35.22735,-1.4359 71.00608,-3.4495 104.05953,-9.9528 31.34298,-7.3108 53.46123,-22.0476 63.8386,-38.0425 14.57768,-20.6395 13.09391,-42.8167 12.06849,-64.34125 -0.80225,-18.8991 -3.3206,-38.31258 -18.74591,-55.89338 -16.28413,-19.62605 -46.60338,-36.31015 -84.47227,-46.47089 -23.12898,-6.56938 -49.43652,-9.5115 -75.24109,-12.37201 -71.93049,-8.4283 -146.10187,-11.10416 -219.87356,-11.46632 -6.33676,-0.0299 -12.67403,-0.0291 -19.01104,-0.0231 z"
       id="path3238-0"
       inkscape:connector-curvature="0"
       sodipodi:nodetypes="cssssc" />
    <path
       style="color:#000000;display:inline;overflow:visible;visibility:visible;fill:#ffffff;fill-opacity:1;fill-rule:nonzero;stroke:none;stroke-width:0.999998px;marker:none;enable-background:accumulate"
       d="m 729.64793,1205.8632 c -30.1799,0.7312 -60.51289,15.2734 -80.05527,41.4774 -10.89638,16.2417 -12.72263,38.299 -8.15308,57.5504 4.81718,22.1743 20.25376,40.9368 39.54202,48.1422 23.53745,10.2703 48.69341,14.4113 73.56073,18.3681 41.03961,5.3576 83.81694,-1.2227 120.89363,-22.2083 13.70219,-8.3919 23.43378,-23.8877 26.76591,-40.9073 6.19938,-26.0757 -1.43714,-56.0836 -20.05464,-73.4793 -12.87576,-11.4952 -29.10996,-16.5289 -44.86201,-20.6227 -28.94494,-6.9907 -58.68529,-7.5885 -88.16798,-8.2226 -6.48933,-0.099 -12.97948,-0.1066 -19.46931,-0.099 z"
       id="path3365-74"
       inkscape:connector-curvature="0"
       sodipodi:nodetypes="csssssc" />
  </g>
  <g
     inkscape:groupmode="layer"
     inkscape:label="txt"
     id="layer1">
    <text
       inkscape:label="pepperA"
       xml:space="preserve"
       style="font-style:normal;font-variant:normal;font-weight:normal;font-stretch:normal;line-height:0%;font-family:Lavi;-inkscape-font-specification:Lavi;text-align:center;letter-spacing:0px;word-spacing:0px;text-anchor:middle;fill:#000000;fill-opacity:1;stroke:none"
       x="-236.69489"
       y="964.68097"
       id="text4246-3-2-2"><tspan
         sodipodi:role="line"
         style="font-size:45px;line-height:1.25"
         x="-236.69489"
         y="964.68097"
         id="tspan949" /></text>
    <text
       inkscape:label="pepperB"
       xml:space="preserve"
       style="font-style:normal;font-variant:normal;font-weight:normal;font-stretch:normal;line-height:0%;font-family:Lavi;-inkscape-font-specification:Lavi;text-align:center;letter-spacing:0px;word-spacing:0px;text-anchor:middle;fill:#000000;fill-opacity:1;stroke:none"
       x="473.36752"
       y="942.4325"
       id="text4246-3-2-9-6"><tspan
         id="tspan129"
         sodipodi:role="line"
         style="font-size:45px;line-height:1.25"
         x="473.36752"
         y="942.4325">Sedaj ko so pravila znana</tspan><tspan
         sodipodi:role="line"
         style="font-size:45px;line-height:1.25"
         x="473.36752"
         y="998.6825"
         id="tspan20139">bom ponastavila točke,</tspan><tspan
         sodipodi:role="line"
         style="font-size:45px;line-height:1.25"
         x="473.36752"
         y="1054.9325"
         id="tspan22717">da bomo lahko začeli znova!</tspan></text>
    <text
       inkscape:label="pepperC"
       xml:space="preserve"
       style="font-style:normal;font-variant:normal;font-weight:normal;font-stretch:normal;font-size:10.9475px;line-height:0%;font-family:Lavi;-inkscape-font-specification:Lavi;text-align:center;letter-spacing:0px;word-spacing:0px;text-anchor:middle;fill:#000000;fill-opacity:1;stroke:none;stroke-width:0.999998"
       x="772.10632"
       y="1277.7505"
       id="text4246-3-2-9"><tspan
         sodipodi:role="line"
         style="font-size:41.0531px;line-height:1.25;stroke-width:0.999998"
         x="772.10632"
         y="1277.7505"
         id="tspan1036">Tako je bolj</tspan><tspan
         sodipodi:role="line"
         style="font-size:41.0531px;line-height:1.25;stroke-width:0.999998"
         x="772.10632"
         y="1329.0669"
         id="tspan2256">pošteno.</tspan></text>
    <text
       inkscape:label="scoreP1"
       transform="matrix(0.58085508,0.0196807,-0.00871911,0.96825701,795.76505,769.46879)"
       id="text4580-6-0-0-3-3-8-1"
       y="1584.5073"
       x="787.65729"
       style="font-style:normal;font-variant:normal;font-weight:normal;font-stretch:normal;line-height:0%;font-family:Lavi;-inkscape-font-specification:Lavi;letter-spacing:3.03024px;word-spacing:0px;opacity:0.414404;fill:#fff4b7;fill-opacity:1;stroke:#aa7640;stroke-width:1.71056;stroke-miterlimit:4;stroke-dasharray:none;stroke-opacity:1;filter:url(#filter4375-4-1-1-1-9-5-8-8-3-3-3-6-1-6)"
       xml:space="preserve"><tspan
         style="font-style:normal;font-variant:normal;font-weight:bold;font-stretch:normal;font-size:64.9472px;line-height:1.25;font-family:Drukah;-inkscape-font-specification:'Drukah Bold';fill:#fff4b7;fill-opacity:1;stroke:#aa7640;stroke-width:1.71056;stroke-miterlimit:4;stroke-dasharray:none;stroke-opacity:1"
         y="1584.5073"
         x="787.65729"
         id="tspan4582-1-1-0-6-9-9-4"
         sodipodi:role="line">64</tspan></text>
    <text
       inkscape:label="scoreP2"
       transform="matrix(0.64289671,-0.04761937,-0.00965042,1.1409372,796.71425,531.51997)"
       id="text4580-6-0-0-3-36-7"
       y="1584.5073"
       x="787.65729"
       style="font-style:normal;font-variant:normal;font-weight:normal;font-stretch:normal;line-height:0%;font-family:Lavi;-inkscape-font-specification:Lavi;letter-spacing:1.14398px;word-spacing:0px;opacity:0.526676;fill:#b5ffe1;fill-opacity:1;stroke:#316983;stroke-width:1.49852;stroke-miterlimit:4;stroke-dasharray:none;stroke-opacity:1;filter:url(#filter4375-4-1-1-1-9-5-8-8-3-3-7-4-1)"
       xml:space="preserve"><tspan
         style="font-style:normal;font-variant:normal;font-weight:bold;font-stretch:normal;font-size:69.5991px;line-height:1.25;font-family:Drukah;-inkscape-font-specification:'Drukah Bold';fill:#b5ffe1;fill-opacity:1;stroke:#316983;stroke-width:1.49852;stroke-miterlimit:4;stroke-dasharray:none;stroke-opacity:1"
         y="1584.5073"
         x="787.65729"
         id="tspan4582-1-1-0-6-1-4"
         sodipodi:role="line">45</tspan></text>
    <text
       inkscape:label="scoreP3"
       xml:space="preserve"
       style="font-style:normal;font-variant:normal;font-weight:normal;font-stretch:normal;line-height:0%;font-family:Lavi;-inkscape-font-specification:Lavi;letter-spacing:3.03024px;word-spacing:0px;opacity:0.504709;fill:#fff4b7;fill-opacity:1;stroke:#aa7640;stroke-width:1.32415;stroke-miterlimit:4;stroke-dasharray:none;stroke-opacity:1;filter:url(#filter4375-4-1-1-1-9-5-8-8-3-3-3-6-1-6)"
       x="787.65729"
       y="1584.5073"
       id="text4580-6-0-0-3-3-8"
       transform="matrix(0.76490014,0.02494015,-0.01148179,1.2270126,757.96076,313.10087)"><tspan
         sodipodi:role="line"
         id="tspan4582-1-1-0-6-9-9"
         x="787.65729"
         y="1584.5073"
         style="font-style:normal;font-variant:normal;font-weight:bold;font-stretch:normal;font-size:64.9472px;line-height:1.25;font-family:Drukah;-inkscape-font-specification:'Drukah Bold';fill:#fff4b7;fill-opacity:1;stroke:#aa7640;stroke-width:1.32415;stroke-miterlimit:4;stroke-dasharray:none;stroke-opacity:1">6</tspan></text>
    <text
       inkscape:label="scoreP4"
       xml:space="preserve"
       style="font-style:normal;font-variant:normal;font-weight:normal;font-stretch:normal;line-height:0%;font-family:Lavi;-inkscape-font-specification:Lavi;letter-spacing:2.67495px;word-spacing:0px;opacity:0.615798;fill:#b5ffe1;fill-opacity:1;stroke:#316983;stroke-width:1.33932;stroke-miterlimit:4;stroke-dasharray:none;stroke-opacity:1;filter:url(#filter4375-4-1-1-1-9-5-8-8-3-3-7-4-1)"
       x="787.65729"
       y="1584.5073"
       id="text4580-6-0-0-3-36"
       transform="matrix(0.79148797,-0.04842097,-0.01188089,1.1601433,778.60793,463.05385)"><tspan
         sodipodi:role="line"
         id="tspan4582-1-1-0-6-1"
         x="787.65729"
         y="1584.5073"
         style="font-style:normal;font-variant:normal;font-weight:bold;font-stretch:normal;font-size:69.5991px;line-height:1.25;font-family:Drukah;-inkscape-font-specification:'Drukah Bold';fill:#b5ffe1;fill-opacity:1;stroke:#316983;stroke-width:1.33932;stroke-miterlimit:4;stroke-dasharray:none;stroke-opacity:1">2</tspan></text>
    <text
       inkscape:label="scoreP5"
       xml:space="preserve"
       style="font-style:normal;font-variant:normal;font-weight:normal;font-stretch:normal;line-height:0%;font-family:Lavi;-inkscape-font-specification:Lavi;letter-spacing:3.03024px;word-spacing:0px;opacity:0.67509;fill:#fff4b7;fill-opacity:1;stroke:#aa7640;stroke-width:1.47551;stroke-miterlimit:4;stroke-dasharray:none;stroke-opacity:1;filter:url(#filter4375-4-1-1-1-9-5-8-8-3-3-3-6-1-6)"
       x="787.65729"
       y="1584.5073"
       id="text4580-6-0-0-3-3-8-3-1"
       transform="matrix(0.72200038,0.02127932,-0.01083782,1.0469063,876.7455,580.14461)"><tspan
         sodipodi:role="line"
         id="tspan4582-1-1-0-6-9-9-7-0"
         x="787.65729"
         y="1584.5073"
         style="font-style:normal;font-variant:normal;font-weight:bold;font-stretch:normal;font-size:64.9472px;line-height:1.25;font-family:Lavi;-inkscape-font-specification:'Lavi Bold';fill:#fff4b7;fill-opacity:1;stroke:#aa7640;stroke-width:1.47551;stroke-miterlimit:4;stroke-dasharray:none;stroke-opacity:1">0</tspan></text>
    <text
       inkscape:label="scoreP6"
       xml:space="preserve"
       style="font-style:normal;font-variant:normal;font-weight:normal;font-stretch:normal;line-height:0%;font-family:Lavi;-inkscape-font-specification:Lavi;letter-spacing:2.67495px;word-spacing:0px;fill:#b5ffe1;fill-opacity:1;stroke:#316983;stroke-width:1.39562;stroke-miterlimit:4;stroke-dasharray:none;stroke-opacity:1;filter:url(#filter4375-4-1-1-1-9-5-8-8-3-3-7-4-1)"
       x="787.65729"
       y="1584.5073"
       id="text4580-6-0-0-3-36-4-4"
       transform="matrix(0.74585099,-0.04732194,-0.01119584,1.1338115,921.63161,494.98929)"><tspan
         sodipodi:role="line"
         id="tspan4582-1-1-0-6-1-3-8"
         x="787.65729"
         y="1584.5073"
         style="font-style:normal;font-variant:normal;font-weight:bold;font-stretch:normal;font-size:69.5991px;line-height:1.25;font-family:Lavi;-inkscape-font-specification:'Lavi Bold';fill:#b5ffe1;fill-opacity:1;stroke:#316983;stroke-width:1.39562;stroke-miterlimit:4;stroke-dasharray:none;stroke-opacity:1">0</tspan></text>
    <text
       inkscape:label="scoreP7"
       transform="matrix(1.1433172,0.03174263,-0.01716214,1.5616829,712.82242,-239.84599)"
       id="text4580-6-0-0-3-3-8-3"
       y="1584.5073"
       x="787.65729"
       style="font-style:normal;font-variant:normal;font-weight:normal;font-stretch:normal;line-height:0%;font-family:Lavi;-inkscape-font-specification:Lavi;letter-spacing:3.03024px;word-spacing:0px;fill:#fff4b7;fill-opacity:1;stroke:#aa7640;stroke-width:0.960021;stroke-miterlimit:4;stroke-dasharray:none;stroke-opacity:1;filter:url(#filter4375-4-1-1-1-9-5-8-8-3-3-3-6-1-6)"
       xml:space="preserve"><tspan
         style="font-style:normal;font-variant:normal;font-weight:bold;font-stretch:normal;font-size:64.9472px;line-height:1.25;font-family:Lavi;-inkscape-font-specification:'Lavi Bold';fill:#fff4b7;fill-opacity:1;stroke:#aa7640;stroke-width:0.960021;stroke-miterlimit:4;stroke-dasharray:none;stroke-opacity:1"
         y="1584.5073"
         x="787.65729"
         id="tspan4582-1-1-0-6-9-9-7"
         sodipodi:role="line">0</tspan></text>
    <text
       inkscape:label="scoreP8"
       transform="matrix(1.3732529,-0.07679437,-0.02061366,1.8399568,668.51631,-563.0911)"
       id="text4580-6-0-0-3-36-4-4-6"
       y="1584.5073"
       x="787.65729"
       style="font-style:normal;font-variant:normal;font-weight:normal;font-stretch:normal;line-height:0%;font-family:Lavi;-inkscape-font-specification:Lavi;letter-spacing:2.67495px;word-spacing:0px;fill:#b5ffe1;fill-opacity:1;stroke:#316983;stroke-width:0.807391;stroke-miterlimit:4;stroke-dasharray:none;stroke-opacity:1;filter:url(#filter4375-4-1-1-1-9-5-8-8-3-3-7-4-1)"
       xml:space="preserve"><tspan
         style="font-style:normal;font-variant:normal;font-weight:bold;font-stretch:normal;font-size:69.5991px;line-height:1.25;font-family:Lavi;-inkscape-font-specification:'Lavi Bold';fill:#b5ffe1;fill-opacity:1;stroke:#316983;stroke-width:0.807391;stroke-miterlimit:4;stroke-dasharray:none;stroke-opacity:1"
         y="1584.5073"
         x="787.65729"
         id="tspan4582-1-1-0-6-1-3-8-2"
         sodipodi:role="line">0</tspan></text>
    <text
       inkscape:label="scoreC1"
       transform="matrix(0.7183239,0.04312147,-0.01078263,0.98679735,571.61175,959.64749)"
       id="text4580-6-0-0-3-3-8-8"
       y="1584.5073"
       x="787.65729"
       style="font-style:normal;font-variant:normal;font-weight:normal;font-stretch:normal;line-height:0%;font-family:Lavi;-inkscape-font-specification:Lavi;letter-spacing:3.03024px;word-spacing:0px;opacity:0.39945;fill:#fff4b7;fill-opacity:1;stroke:#aa7640;stroke-width:1.5234;stroke-miterlimit:4;stroke-dasharray:none;stroke-opacity:1;filter:url(#filter4375-4-1-1-1-9-5-8-8-3-3-3-6-1-6)"
       xml:space="preserve"><tspan
         style="font-style:normal;font-variant:normal;font-weight:bold;font-stretch:normal;font-size:64.9472px;line-height:1.25;font-family:Drukah;-inkscape-font-specification:'Drukah Bold';fill:#fff4b7;fill-opacity:1;stroke:#aa7640;stroke-width:1.5234;stroke-miterlimit:4;stroke-dasharray:none;stroke-opacity:1"
         y="1584.5073"
         x="787.65729"
         id="tspan4582-1-1-0-6-9-9-1"
         sodipodi:role="line">9</tspan></text>
    <text
       inkscape:label="scoreC2"
       transform="matrix(0.66279197,-0.29884292,-0.00994906,0.95956644,654.27727,1292.5405)"
       id="text4580-6-0-0-3-36-1"
       y="1584.5073"
       x="787.65729"
       style="font-style:normal;font-variant:normal;font-weight:normal;font-stretch:normal;line-height:0%;font-family:Lavi;-inkscape-font-specification:Lavi;letter-spacing:2.67495px;word-spacing:0px;opacity:0.600398;fill:#b5ffe1;fill-opacity:1;stroke:#316983;stroke-width:1.61255;stroke-miterlimit:4;stroke-dasharray:none;stroke-opacity:1;filter:url(#filter4375-4-1-1-1-9-5-8-8-3-3-7-4-1)"
       xml:space="preserve"><tspan
         style="font-style:normal;font-variant:normal;font-weight:bold;font-stretch:normal;font-size:69.5991px;line-height:1.25;font-family:Drukah;-inkscape-font-specification:'Drukah Bold';fill:#b5ffe1;fill-opacity:1;stroke:#316983;stroke-width:1.61255;stroke-miterlimit:4;stroke-dasharray:none;stroke-opacity:1"
         y="1584.5073"
         x="787.65729"
         id="tspan4582-1-1-0-6-1-9"
         sodipodi:role="line">5</tspan></text>
    <text
       inkscape:label="scoreC3"
       transform="matrix(0.63993057,0.10211521,-0.00960589,1.0634303,721.841,832.98518)"
       id="text4580-6-0-0-3-3-8-3-1-3"
       y="1584.5073"
       x="787.65729"
       style="font-style:normal;font-variant:normal;font-weight:normal;font-stretch:normal;line-height:0%;font-family:Lavi;-inkscape-font-specification:Lavi;letter-spacing:3.03024px;word-spacing:0px;fill:#fff4b7;fill-opacity:1;stroke:#aa7640;stroke-width:1.55416;stroke-miterlimit:4;stroke-dasharray:none;stroke-opacity:1;filter:url(#filter4375-4-1-1-1-9-5-8-8-3-3-3-6-1-6)"
       xml:space="preserve"><tspan
         style="font-style:normal;font-variant:normal;font-weight:bold;font-stretch:normal;font-size:64.9472px;line-height:1.25;font-family:Lavi;-inkscape-font-specification:'Lavi Bold';fill:#fff4b7;fill-opacity:1;stroke:#aa7640;stroke-width:1.55416;stroke-miterlimit:4;stroke-dasharray:none;stroke-opacity:1"
         y="1584.5073"
         x="787.65729"
         id="tspan4582-1-1-0-6-9-9-7-0-9"
         sodipodi:role="line">0</tspan></text>
    <text
       inkscape:label="scoreC4"
       transform="matrix(0.62043393,0.0078806,-0.00931322,1.1023271,815.30942,907.10667)"
       id="text4580-6-0-0-3-36-4-4-3"
       y="1584.5073"
       x="787.65729"
       style="font-style:normal;font-variant:normal;font-weight:normal;font-stretch:normal;line-height:0%;font-family:Lavi;-inkscape-font-specification:Lavi;letter-spacing:2.67495px;word-spacing:0px;fill:#b5ffe1;fill-opacity:1;stroke:#316983;stroke-width:1.55131;stroke-miterlimit:4;stroke-dasharray:none;stroke-opacity:1;filter:url(#filter4375-4-1-1-1-9-5-8-8-3-3-7-4-1)"
       xml:space="preserve"><tspan
         style="font-style:normal;font-variant:normal;font-weight:bold;font-stretch:normal;font-size:69.5991px;line-height:1.25;font-family:Lavi;-inkscape-font-specification:'Lavi Bold';fill:#b5ffe1;fill-opacity:1;stroke:#316983;stroke-width:1.55131;stroke-miterlimit:4;stroke-dasharray:none;stroke-opacity:1"
         y="1584.5073"
         x="787.65729"
         id="tspan4582-1-1-0-6-1-3-8-1"
         sodipodi:role="line">0</tspan></text>
    <text
       inkscape:label="scoreC5"
       xml:space="preserve"
       style="font-style:normal;font-variant:normal;font-weight:normal;font-stretch:normal;line-height:0%;font-family:Lavi;-inkscape-font-specification:Lavi;letter-spacing:3.03024px;word-spacing:0px;fill:#fff4b7;fill-opacity:1;stroke:#aa7640;stroke-width:0.980281;stroke-miterlimit:4;stroke-dasharray:none;stroke-opacity:1;filter:url(#filter4375-4-1-1-1-9-5-8-8-3-3-3-6-1-6)"
       x="787.65729"
       y="1584.5073"
       id="text4580-6-0-0-3-3-8-3-10"
       transform="matrix(0.99320406,0.12366577,-0.01490882,1.7228446,613.7137,-57.733034)"><tspan
         sodipodi:role="line"
         id="tspan4582-1-1-0-6-9-9-7-3"
         x="787.65729"
         y="1584.5073"
         style="font-style:normal;font-variant:normal;font-weight:bold;font-stretch:normal;font-size:64.9472px;line-height:1.25;font-family:Lavi;-inkscape-font-specification:'Lavi Bold';fill:#fff4b7;fill-opacity:1;stroke:#aa7640;stroke-width:0.980281;stroke-miterlimit:4;stroke-dasharray:none;stroke-opacity:1">0</tspan></text>
    <text
       inkscape:label="weaponFXA"
       xml:space="preserve"
       style="font-style:normal;font-variant:normal;font-weight:normal;font-stretch:normal;line-height:0%;font-family:Lavi;-inkscape-font-specification:Lavi;letter-spacing:0px;word-spacing:0px;opacity:1;mix-blend-mode:normal;fill:#ffffff;fill-opacity:1;stroke:#98b9ca;stroke-width:1.27857;stroke-miterlimit:4;stroke-dasharray:none;stroke-opacity:1;filter:url(#filter4375-4-1-1-1-9-5-8-6-4)"
       x="787.65729"
       y="1584.5073"
       id="text4580-6-0-06-9-3-7"
       transform="matrix(0.51552495,0.09969835,-0.36461778,0.72279881,2185.693,1244.7052)"><tspan
         sodipodi:role="line"
         id="tspan4582-1-1-2-63-0-5"
         x="787.65729"
         y="1584.5073"
         style="font-size:70px;line-height:1.25;fill:#ffffff;fill-opacity:1;stroke:#98b9ca;stroke-width:1.27857;stroke-opacity:1"><tspan
           style="font-size:93.1495px;fill:#ffffff;fill-opacity:1;stroke:#98b9ca;stroke-width:1.27857;stroke-opacity:1"
           id="tspan4315-8-6-8-9-4">Šving!</tspan></tspan></text>
    <text
       inkscape:label="weaponFXB"
       transform="matrix(0.4023734,0.40258973,-0.70109371,0.37963743,2675.0948,1792.9119)"
       id="text4580-6-0-06-9-3-7-4"
       y="1584.5073"
       x="787.65729"
       style="font-style:normal;font-variant:normal;font-weight:normal;font-stretch:normal;line-height:0%;font-family:Lavi;-inkscape-font-specification:Lavi;letter-spacing:0px;word-spacing:0px;opacity:1;mix-blend-mode:normal;fill:#ffffff;fill-opacity:1;stroke:#98b9ca;stroke-width:1.23972;stroke-miterlimit:4;stroke-dasharray:none;stroke-opacity:1;filter:url(#filter4375-4-1-1-1-9-5-8-6-4)"
       xml:space="preserve"><tspan
         style="font-size:70px;line-height:1.25;fill:#ffffff;fill-opacity:1;stroke:#98b9ca;stroke-width:1.23972;stroke-opacity:1"
         y="1584.5073"
         x="787.65729"
         id="tspan4582-1-1-2-63-0-5-8"
         sodipodi:role="line"><tspan
           id="tspan4315-8-6-8-9-4-7"
           style="font-size:93.1495px;fill:#ffffff;fill-opacity:1;stroke:#98b9ca;stroke-width:1.23972;stroke-opacity:1">Vuš!</tspan></tspan></text>
    <text
       inkscape:label="weaponFXC"
       xml:space="preserve"
       style="font-style:normal;font-variant:normal;font-weight:normal;font-stretch:normal;line-height:0%;font-family:Lavi;-inkscape-font-specification:Lavi;letter-spacing:0px;word-spacing:0px;opacity:1;mix-blend-mode:normal;fill:#ffffff;fill-opacity:1;stroke:#98b9ca;stroke-width:1.53096;stroke-miterlimit:4;stroke-dasharray:none;stroke-opacity:1;filter:url(#filter4375-4-1-1-1-9-5-8-6-4)"
       x="787.65729"
       y="1584.5073"
       id="text4580-6-0-06-9-3-7-4-4"
       transform="matrix(0.3827755,-0.26874723,0.21370456,0.59515549,1560.2649,2393.2541)"><tspan
         sodipodi:role="line"
         id="tspan4582-1-1-2-63-0-5-8-9"
         x="787.65729"
         y="1584.5073"
         style="font-size:70px;line-height:1.25;fill:#ffffff;fill-opacity:1;stroke:#98b9ca;stroke-width:1.53096;stroke-opacity:1"><tspan
           style="font-size:93.1495px;fill:#ffffff;fill-opacity:1;stroke:#98b9ca;stroke-width:1.53096;stroke-opacity:1"
           id="tspan4315-8-6-8-9-4-7-0">Tšak!</tspan></tspan></text>
    <text
       inkscape:label="weaponFXD"
       transform="matrix(0.39417058,-0.24452937,0.22006646,0.54152369,1001.7469,2476.8674)"
       id="text4580-6-0-06-9-3-7-4-4-6"
       y="1584.5073"
       x="787.65729"
       style="font-style:normal;font-variant:normal;font-weight:normal;font-stretch:normal;line-height:0%;font-family:Lavi;-inkscape-font-specification:Lavi;letter-spacing:0px;word-spacing:0px;opacity:1;mix-blend-mode:normal;fill:#ffffff;fill-opacity:1;stroke:#98b9ca;stroke-width:1.58161;stroke-miterlimit:4;stroke-dasharray:none;stroke-opacity:1;filter:url(#filter4375-4-1-1-1-9-5-8-6-4)"
       xml:space="preserve"><tspan
         style="font-size:70px;line-height:1.25;fill:#ffffff;fill-opacity:1;stroke:#98b9ca;stroke-width:1.58161;stroke-opacity:1"
         y="1584.5073"
         x="787.65729"
         id="tspan4582-1-1-2-63-0-5-8-9-5"
         sodipodi:role="line"><tspan
           id="tspan4315-8-6-8-9-4-7-0-6"
           style="font-size:93.1495px;fill:#ffffff;fill-opacity:1;stroke:#98b9ca;stroke-width:1.58161;stroke-opacity:1">Tok!</tspan></tspan></text>
    <text
       inkscape:label="pepperE"
       xml:space="preserve"
       style="font-style:normal;font-variant:normal;font-weight:normal;font-stretch:normal;font-size:13.6968px;line-height:0%;font-family:Lavi;-inkscape-font-specification:Lavi;text-align:center;letter-spacing:0px;word-spacing:0px;text-anchor:middle;fill:#000000;fill-opacity:1;stroke:none;stroke-width:1"
       x="2016.9861"
       y="2042.2919"
       id="text4246-3-2-9-6-6-0"><tspan
         sodipodi:role="line"
         style="font-style:normal;font-variant:normal;font-weight:bold;font-stretch:normal;font-size:51.3627px;line-height:1.25;font-family:Lavi;-inkscape-font-specification:'Lavi Bold';stroke-width:1"
         x="2016.9861"
         y="2042.2919"
         id="tspan4378-7">Hitreje,</tspan><tspan
         id="tspan114"
         sodipodi:role="line"
         style="font-style:normal;font-variant:normal;font-weight:bold;font-stretch:normal;font-size:51.3627px;line-height:1.25;font-family:Lavi;-inkscape-font-specification:'Lavi Bold';stroke-width:1"
         x="2016.9861"
         y="2106.4954">Korenček!</tspan></text>
    <text
       inkscape:label="pepperF"
       xml:space="preserve"
       style="font-style:normal;font-variant:normal;font-weight:normal;font-stretch:normal;line-height:0%;font-family:Lavi;-inkscape-font-specification:Lavi;text-align:center;letter-spacing:0px;word-spacing:0px;text-anchor:middle;fill:#000000;fill-opacity:1;stroke:none"
       x="2054.678"
       y="2180.6121"
       id="text4246-3-2-9-6-6-0-3"><tspan
         id="tspan142"
         sodipodi:role="line"
         style="font-size:45px;line-height:1.25"
         x="2054.678"
         y="2180.6121">Urok ne bo</tspan><tspan
         sodipodi:role="line"
         style="font-size:45px;line-height:1.25"
         x="2054.678"
         y="2236.8621"
         id="tspan30584">več dolgo zdržal!</tspan></text>
    <text
       inkscape:label="fin"
       xml:space="preserve"
       style="font-style:normal;font-variant:normal;font-weight:normal;font-stretch:normal;font-size:10.7631px;line-height:0%;font-family:Lavi;-inkscape-font-specification:Lavi;text-align:center;letter-spacing:0px;word-spacing:0px;text-anchor:middle;display:inline;opacity:1;fill:#241c1c;fill-opacity:1;stroke:#000000;stroke-width:0;stroke-miterlimit:4;stroke-dasharray:none;stroke-opacity:1"
       x="2454.97"
       y="2985.2324"
       id="text4213-7"
       transform="matrix(0.85852879,0,-0.29243083,1.1647833,0,0)"><tspan
         sodipodi:role="line"
         id="tspan3562-5"
         x="2454.97"
         y="2985.2324"
         style="font-style:normal;font-variant:normal;font-weight:bold;font-stretch:normal;font-size:64.7408px;line-height:1.25;font-family:Lavi;-inkscape-font-specification:'Lavi Bold';fill:#000000;fill-opacity:1;stroke:none;stroke-width:0;stroke-miterlimit:4;stroke-dasharray:none">- KONEC -</tspan></text>
  </g>
</svg>
