{
   "id": 20,
   "original-language": "fr",
   "supporters": 825,
   "published": "2016-12-17",
   "pluxmlID": 393,
   "background-color": "#FFFFFF",
   "credits": {
      "art":[
         "David Revoy <https://framagit.org/Deevad>"
      ],
      "scenario":[
         "David Revoy <https://framagit.org/Deevad>"
      ]
   },
   "software":[
      {
         "name": "Krita",
         "version": "3.1"
      },
      {
         "name": "Inkscape",
         "version": "0.91"
      },
      {
         "name": "Manjaro XFCE",
         "version": "16.10"
      }
   ]
}
