<?xml version="1.0" encoding="UTF-8" standalone="no"?>
<!-- Created with Inkscape (http://www.inkscape.org/) -->

<svg
   xmlns:dc="http://purl.org/dc/elements/1.1/"
   xmlns:cc="http://creativecommons.org/ns#"
   xmlns:rdf="http://www.w3.org/1999/02/22-rdf-syntax-ns#"
   xmlns:svg="http://www.w3.org/2000/svg"
   xmlns="http://www.w3.org/2000/svg"
   xmlns:xlink="http://www.w3.org/1999/xlink"
   xmlns:sodipodi="http://sodipodi.sourceforge.net/DTD/sodipodi-0.dtd"
   xmlns:inkscape="http://www.inkscape.org/namespaces/inkscape"
   id="svg2"
   version="1.1"
   inkscape:version="0.92.4 (5da689c313, 2019-01-14)"
   width="2481"
   height="663"
   sodipodi:docname="E18P00.svg">
  <metadata
     id="metadata8">
    <rdf:RDF>
      <cc:Work
         rdf:about="">
        <dc:format>image/svg+xml</dc:format>
        <dc:type
           rdf:resource="http://purl.org/dc/dcmitype/StillImage" />
        <dc:title />
      </cc:Work>
    </rdf:RDF>
  </metadata>
  <defs
     id="defs6">
    <filter
       id="filter4140"
       style="color-interpolation-filters:sRGB;"
       inkscape:label="Dark And Glow"
       inkscape:menu="Shadows and Glows"
       inkscape:menu-tooltip="Darkens the edge with an inner blur and adds a flexible glow"
       height="1.5"
       y="-0.25">
      <feGaussianBlur
         id="feGaussianBlur4142"
         result="result6"
         stdDeviation="4.6710210876803542" />
      <feComposite
         stdDeviation="4.7000000000000002"
         id="feComposite4144"
         in2="result6"
         operator="atop"
         in="SourceGraphic"
         result="result8" />
      <feComposite
         id="feComposite4146"
         in="result8"
         in2="SourceAlpha"
         operator="over"
         result="result9" />
      <feColorMatrix
         id="feColorMatrix4148"
         result="result10"
         values="1 0 0 0 0 0 1 0 0 0 0 0 1 0 0 0 0 0 1 0 " />
      <feBlend
         id="feBlend4150"
         in2="result6"
         mode="normal"
         in="result10" />
    </filter>
  </defs>
  <sodipodi:namedview
     pagecolor="#ffffff"
     bordercolor="#666666"
     borderopacity="1"
     objecttolerance="10"
     gridtolerance="10"
     guidetolerance="10"
     inkscape:pageopacity="0"
     inkscape:pageshadow="2"
     inkscape:window-width="1680"
     inkscape:window-height="987"
     id="namedview4"
     showgrid="false"
     inkscape:zoom="0.48156789"
     inkscape:cx="1175.773"
     inkscape:cy="452.45133"
     inkscape:window-x="-8"
     inkscape:window-y="24"
     inkscape:window-maximized="1"
     inkscape:current-layer="layer1" />
  <g
     inkscape:groupmode="layer"
     id="layer2"
     inkscape:label="artwork"
     sodipodi:insensitive="true">
    <image
       sodipodi:absref="/felles/omsetting/pepper-carrot/webcomics/ep18_The-Encounter/lang/nn/../gfx_Pepper-and-Carrot_by-David-Revoy_E18P00.png"
       xlink:href="../gfx_Pepper-and-Carrot_by-David-Revoy_E18P00.png"
       y="0"
       x="0"
       id="image10"
       height="663"
       width="2481" />
  </g>
  <g
     inkscape:groupmode="layer"
     id="layer1"
     inkscape:label="txt"
     style="display:inline">
    <flowRoot
       transform="translate(1089.1939,-4310.1621)"
       xml:space="preserve"
       id="flowRoot2987-3"
       style="font-style:normal;font-variant:normal;font-weight:normal;font-stretch:normal;line-height:0.01%;font-family:Lavi;-inkscape-font-specification:Lavi;letter-spacing:0px;word-spacing:0px;fill:#000000;fill-opacity:1;stroke:none;stroke-width:1px;stroke-linecap:butt;stroke-linejoin:miter;stroke-opacity:1"><flowRegion
         id="flowRegion2989-5"><rect
           id="rect2991-6"
           width="721.75812"
           height="55.156185"
           x="502.10858"
           y="-1050.8098"
           style="font-style:normal;font-variant:normal;font-weight:normal;font-stretch:normal;font-family:Lavi;-inkscape-font-specification:Lavi" /></flowRegion><flowPara
         id="flowPara2993-2"
         style="font-size:8.52000046px;line-height:1.25"> </flowPara></flowRoot>    <path
       style="display:inline;opacity:1;fill:#2b1100;fill-opacity:1;stroke-width:1.06920087;enable-background:new"
       d="m 744.66124,498.70915 c -5.40519,-5.4052 -5.77887,-6.11181 -5.77887,-10.92817 0,-6.45698 2.06994,-9.49219 7.46405,-10.94466 2.39231,-0.6442 4.77091,-2.14289 5.5331,-3.48627 0.95895,-1.69027 1.44211,-10.79368 1.70916,-32.20413 l 0.37231,-29.84784 -6.21018,-1.35803 c -8.55762,-1.87136 -15.2483,-4.93046 -15.2483,-6.97182 0,-0.92846 -0.71774,-1.96356 -1.59496,-2.30017 -0.87724,-0.33663 -1.59497,-1.30027 -1.59497,-2.14145 0,-1.19982 0.85924,-1.35797 3.98742,-0.73399 5.80062,1.15704 8.03363,0.87378 14.61452,-1.85384 l 5.90366,-2.44694 -0.38541,-39.40242 c -0.21198,-21.67134 -0.75419,-40.9457 -1.20487,-42.83193 -0.97058,-4.06201 -3.76058,-4.89342 -16.79843,-5.0059 -10.24984,-0.0884 -10.71546,-1.54604 -2.66113,-8.33045 6.33624,-5.33721 8.13193,-6.36548 21.79036,-12.47811 6.84984,-3.06556 10.55535,-4.17784 12.22806,-3.67051 3.42623,1.03918 7.13654,4.70983 8.81844,8.72414 l 1.44787,3.45575 h 12.22742 c 18.72282,0 31.85783,4.60901 48.17485,16.9043 13.0516,9.83462 17.32791,17.58805 17.32791,31.41706 0,9.13392 -2.03711,16.5943 -7.2748,26.64211 -5.01373,9.61807 -20.07981,25.00393 -30.53843,31.18659 -7.61775,4.50325 -31.66336,14.00412 -35.44287,14.00412 -5.50665,0 -5.42891,-0.34537 -5.42891,24.10814 0,13.61611 0.44153,23.64228 1.09484,24.86306 1.27366,2.37981 6.39437,5.25765 9.3553,5.25765 1.12706,0 2.62337,0.69181 3.32509,1.53734 0.9152,1.10273 1.97488,1.27157 3.74852,0.59723 1.45293,-0.55241 5.40193,-0.52529 9.57543,0.0657 5.86852,0.83107 7.74245,0.70231 10.78414,-0.74105 2.68022,-1.27188 5.28723,-1.5812 9.58628,-1.13749 3.24772,0.33519 7.12048,0.14727 8.60614,-0.41758 3.31147,-1.25901 3.98424,-0.72577 2.52473,2.00121 -1.17489,2.19536 -6.49823,3.87868 -6.49823,2.05486 0,-0.58373 -2.37194,1.15731 -5.271,3.86906 -2.89905,2.71171 -5.97504,4.93039 -6.83555,4.93039 -0.86054,0 -2.29972,0.73514 -3.19825,1.63363 -2.09309,2.09314 -7.60885,4.39153 -13.94816,5.81222 -2.74485,0.61513 -6.50982,2.27717 -8.3666,3.69339 -3.96601,3.02506 -12.07168,6.07918 -22.4575,8.46181 -4.09375,0.93915 -7.60267,2.1765 -7.79761,2.74966 -0.19494,0.57318 -2.49897,1.04214 -5.12007,1.04214 -4.35186,0 -5.26739,-0.50177 -10.5445,-5.77886 z m 46.13959,-111.70042 c 17.45041,-8.36287 34.63105,-23.89077 41.24865,-37.28062 3.43776,-6.9559 3.81,-8.5001 3.3591,-13.93721 -0.4696,-5.66225 -0.87148,-6.44449 -5.43315,-10.57443 -6.09819,-5.52103 -12.58352,-7.35726 -25.69945,-7.27642 -10.30929,0.0636 -22.06211,2.60574 -25.20787,5.45263 -1.75149,1.58506 -1.90655,4.28876 -1.90655,33.24725 0,32.3998 0.20784,34.07382 4.23009,34.07382 0.92296,0 5.1571,-1.66728 9.40918,-3.70502 z m 365.43097,83.04945 c -15.217,-4.97186 -22.0016,-9.95863 -27.3388,-20.0944 -1.8197,-3.45597 -2.3722,-6.32544 -2.399,-12.46435 -0.049,-11.25247 4.0357,-19.6545 15.0674,-30.99056 l 8.1859,-8.41175 -3.4163,-6.92763 c -2.6481,-5.3701 -3.1741,-7.37977 -2.3401,-8.93836 1.6299,-3.04538 1.3051,-4.27711 -1.1277,-4.27711 h -2.2038 l 2.2038,-2.8017 c 2.8604,-3.63645 2.8374,-6.8015 -0.055,-7.55794 -2.0476,-0.53545 -2.2041,-1.12382 -1.6716,-6.2835 1.6694,-16.1735 16.3035,-31.90754 31.5766,-33.94992 5.608,-0.74989 13.8585,1.95936 21.6171,7.09846 7.0199,4.64977 12.7847,14.39799 12.781,21.61269 -0.01,9.93056 -3.0692,17.20034 -11.5636,27.43409 -3.2019,3.85743 -5.8215,7.7376 -5.8215,8.62262 0,0.88504 -1.9844,3.30779 -4.41,5.38398 l -4.41,3.77485 7.334,8.14224 c 4.0339,4.47827 8.6848,9.75497 10.3357,11.72605 1.6509,1.97105 3.3983,3.58375 3.8835,3.58375 0.9432,0 3.2164,-5.74824 3.2164,-8.13351 0,-0.97881 -1.4394,-1.44048 -4.519,-1.44945 -4.0065,-0.0117 -4.7978,-0.44342 -6.9774,-3.80697 -3.5231,-5.43743 -2.4748,-9.28727 3.1408,-11.53417 10.906,-4.36372 24.8732,-7.12415 38.1283,-7.53551 7.3104,-0.22686 16.1624,-0.72482 19.6714,-1.10656 l 6.3797,-0.6941 -7.443,7.85732 c -4.0939,4.32153 -8.3612,8.32179 -9.483,8.88949 -1.1217,0.56766 -2.5572,1.98911 -3.19,3.15877 -0.6325,1.16964 -1.2692,2.32534 -1.4146,2.56826 -0.1454,0.24291 -3.4948,0.97075 -7.4431,1.61743 l -7.1787,1.1758 -0.7155,7.21331 c -0.3933,3.96734 -1.6576,9.11816 -2.8094,11.44629 l -2.0944,4.23295 6.5313,4.3709 c 10.7285,7.18 10.4806,6.83176 8.0679,11.33311 -1.1378,2.12269 -2.0685,4.44812 -2.0685,5.16767 0,0.71951 -1.4193,2.7602 -3.154,4.5348 -3.6618,3.74595 -7.4287,4.15134 -11.5682,1.24499 -1.5523,-1.08987 -5.0335,-2.94961 -7.7359,-4.13274 -2.7023,-1.18312 -5.2576,-2.70781 -5.678,-3.38819 -0.5367,-0.86814 -1.7667,-0.47415 -4.1247,1.32106 -5.0257,3.82613 -10.911,6.57572 -20.373,9.51802 -13.0238,4.04988 -15.0499,4.17541 -23.3929,1.44952 z m 25.6262,-27.24178 c 2.2806,-1.37299 4.3221,-2.62874 4.5368,-2.7906 0.2147,-0.16185 -5.0327,-5.56748 -11.6608,-12.01252 l -12.0511,-11.71829 -2.4945,2.34341 c -1.3718,1.28888 -3.4605,3.90667 -4.6415,5.81731 -1.1806,1.91065 -2.7514,3.47391 -3.4902,3.47391 -2.1666,0 -5.1858,4.00514 -4.455,5.90954 0.3663,0.95456 1.5613,1.96967 2.6554,2.2558 1.0944,0.28614 2.6108,1.68083 3.3699,3.09924 0.7591,1.41846 2.852,3.52286 4.6507,4.67644 4.7435,3.04206 17.7414,2.46092 23.5803,-1.05424 z m -7.64,-64.42377 c 13.1882,-11.25286 15.3916,-17.25225 8.8624,-24.13071 -4.087,-4.3055 -9.9648,-5.83992 -14.3233,-3.73913 -4.282,2.06391 -8.9491,9.39035 -9.5869,15.05001 -0.8285,7.34863 2.9236,19.8244 5.962,19.8244 0.4821,0 4.5707,-3.15208 9.0858,-7.00457 z m 195.2076,62.69244 c -9.4959,-1.87956 -19.5732,-5.3926 -25.5842,-8.91889 -17.0567,-10.00618 -28.7457,-21.72899 -36.0314,-36.13588 -4.695,-9.28387 -6.4325,-14.93926 -9.9885,-32.51353 -2.4534,-12.12391 -2.5196,-13.37294 -1.1842,-22.32954 3.4109,-22.87794 11.3885,-51.78656 18.4795,-66.96537 8.848,-18.93968 27.7984,-46.22281 42.0806,-60.58416 11.2485,-11.31069 19.196,-17.24681 31.0807,-23.21471 l 9.8144,-4.9283 11.4519,0.006 c 10.8169,0.005 12.058,0.24135 22.3868,4.25324 14.7078,5.71266 14.7376,5.7086 15.6463,-2.12002 0.4468,-3.85086 1.588,-7.44695 2.8876,-9.09902 2.004,-2.54754 2.5526,-2.68236 8.1378,-1.9999 6.9805,0.85294 17.2684,5.64457 22.2045,10.34173 2.9335,2.79149 3.4488,4.02028 3.4094,8.13061 -0.086,9.01794 -1.605,13.8355 -5.6759,18.00455 -4.4428,4.5499 -5.0197,7.56057 -1.455,7.59581 1.3158,0.013 3.5392,0.90542 4.9411,1.98315 l 2.5484,1.95953 -1.7547,19.03187 c -3.1128,33.76014 -13.8613,80.14292 -18.5717,80.14292 -1.2826,0 -2.3154,-5.29194 -2.3154,-11.86347 0,-2.86979 -0.6716,-6.82486 -1.4922,-8.78903 -0.8382,-2.00596 -1.8333,-9.79742 -2.2705,-17.77633 -0.7096,-12.94672 -1.1964,-15.42746 -5.497,-28.00447 -9.0953,-26.59818 -19.0772,-42.03837 -27.1617,-42.01403 -8.5294,0.0257 -23,9.54113 -37.6565,24.76198 -8.4347,8.75933 -11.2846,11.1033 -12.9656,10.6637 -1.42,-0.37139 -3.0814,0.36326 -4.8729,2.15481 -2.9177,2.91775 -3.3396,4.98378 -1.6587,8.12436 1.4289,2.66992 0.3267,5.12774 -2.4786,5.52736 -1.7392,0.24775 -2.3349,1.10833 -2.4352,3.51792 -0.073,1.75446 -4.0872,11.5635 -8.9208,21.79788 -11.0481,23.39248 -19.7103,49.09066 -20.7882,61.67207 -0.6128,7.15109 -1.311,9.7435 -3.3441,12.41661 -2.4233,3.18596 -2.4772,3.55744 -0.9457,6.51905 0.8933,1.72729 3.0013,4.29934 4.6844,5.71563 1.6832,1.41629 4.4074,4.94233 6.0538,7.83565 4.1682,7.3255 11.7932,15.04207 18.0113,18.22743 4.99,2.55632 5.9155,2.66573 18.6079,2.19997 12.2318,-0.44884 14.3868,-0.85323 25.5849,-4.8008 6.7254,-2.37088 14.0071,-5.07504 16.1814,-6.00923 2.1742,-0.93417 5.2616,-1.69851 6.8608,-1.69851 1.7157,0 4.2363,-1.23023 6.1483,-3.00092 1.7822,-1.65052 6.6538,-4.30265 10.8259,-5.89367 4.1718,-1.59099 8.4771,-3.87823 9.5671,-5.08277 1.0902,-1.20449 3.2567,-2.84921 4.8148,-3.65483 3.3188,-1.71624 3.0894,-4.22861 -0.7665,-8.38905 -2.345,-2.53013 -3.1165,-2.68816 -13.1269,-2.68816 -8.9157,0 -11.8039,-0.44938 -17.8612,-2.77899 -17.8069,-6.84847 -21.173,-7.79975 -27.6944,-7.82666 -3.6552,-0.015 -6.6292,-0.38634 -6.6088,-0.82497 0.02,-0.4386 4.5791,-3.83818 10.1312,-7.55462 5.8934,-3.94506 12.5945,-9.58711 16.1017,-13.55722 3.3039,-3.74002 6.5876,-6.80006 7.297,-6.80006 0.7092,0 5.759,2.93475 11.2216,6.52165 l 9.9319,6.52163 9.0583,-0.69536 c 4.982,-0.38246 12.1049,-1.35563 15.8286,-2.16263 6.3911,-1.38503 7.1772,-1.32893 14.0285,1.00145 3.9923,1.35778 8.2368,2.21286 9.4324,1.9002 3.1933,-0.83508 3.7448,1.92666 1.6464,8.24421 -1.4783,4.4512 -2.4793,5.73871 -5.415,6.96531 -4.0906,1.70922 -4.3127,2.90979 -1.8304,9.89884 l 1.7709,4.98642 -5.949,10.59925 c -8.1942,14.59961 -21.2493,27.03068 -28.3879,27.03068 -1.601,0 -2.9688,1.58595 -5.0801,5.89084 -2.6845,5.4738 -3.7402,6.41431 -14.9103,13.28413 -8.311,5.11138 -15.5383,8.57436 -23.4162,11.21997 -10.4323,3.50333 -12.608,3.85738 -25.7498,4.1898 -7.8951,0.1997 -15.5509,0.12631 -17.0129,-0.16308 z M 486.49204,422.1967 c -8.03668,-3.01736 -14.09572,-11.26827 -15.21502,-20.71912 -0.50707,-4.28145 -0.21507,-5.48435 1.93937,-7.98902 2.06457,-2.40022 3.77558,-3.09477 9.19922,-3.73428 9.40092,-1.10843 10.22993,-2.23329 10.67863,-14.48933 0.35701,-9.75195 0.43977,-10.04182 2.7048,-9.47333 1.5654,0.3929 3.00824,-0.15583 4.3719,-1.66267 2.42387,-2.67832 1.46756,-4.85901 -3.28602,-7.49298 l -3.09565,-1.71532 -0.28089,-32.39898 -0.2809,-32.39897 3.6056,0.42092 c 2.85405,0.3332 3.97218,-0.0987 5.36437,-2.07254 1.64722,-2.33531 1.637,-2.59466 -0.16107,-4.08846 -1.05592,-0.87722 -3.53729,-3.85815 -5.51418,-6.62427 l -3.59433,-5.02931 0.89884,-17.30022 c 0.49438,-9.51513 0.92743,-21.68863 0.96237,-27.0522 0.0575,-8.82648 -0.1742,-10.00479 -2.44101,-12.41589 -1.37748,-1.46517 -5.2054,-3.73141 -8.50649,-5.03612 -3.30108,-1.3047 -7.03991,-3.30085 -8.30849,-4.43587 -3.64917,-3.26499 -6.81501,-11.85794 -7.014,-19.038 -0.16618,-5.99528 0.0567,-6.65704 3.18082,-9.44854 7.2676,-6.4936 40.85636,-14.34312 66.6096,-15.5663 14.22234,-0.6755 32.36425,0.69972 45.86116,3.47644 9.89518,2.03574 27.21182,10.70892 34.69169,17.37562 9.72193,8.66501 21.96176,27.94711 28.11165,44.2859 12.14716,32.27206 -2.63393,64.34653 -41.65746,90.39524 -14.20489,9.48196 -47.44779,24.02318 -64.25562,28.10695 -12.34406,2.9992 -14.76545,4.09359 -15.49579,7.00343 -1.00438,4.00183 0.0131,28.91225 1.23055,30.12913 0.60893,0.60859 3.3775,1.53067 6.15236,2.0491 2.7749,0.5184 5.90304,1.71882 6.95146,2.66762 1.32064,1.19517 3.90263,1.72511 8.40541,1.72511 3.57458,0 6.73134,0.37557 7.01506,0.83464 0.64504,1.0437 32.77521,0.88591 34.48267,-0.16936 0.68804,-0.42523 2.92837,-0.31 4.97849,0.25607 2.13858,0.5905 3.97529,0.62833 4.30876,0.0887 0.50614,-0.81899 6.68253,-0.25727 7.82765,0.71188 1.13778,0.96295 -2.67909,3.62182 -6.10658,4.25387 -2.13431,0.39361 -5.5124,1.5833 -7.50686,2.64379 -1.99445,1.06049 -3.99498,1.7003 -4.44559,1.4218 -0.4506,-0.2785 -2.01018,0.59735 -3.46575,1.94628 -1.51938,1.40815 -6.41866,3.48677 -11.50406,4.88081 -4.87168,1.3355 -10.42895,3.11056 -12.34946,3.94458 -1.92049,0.83402 -4.96227,1.51641 -6.7595,1.51641 -1.7972,0 -6.207,1.38211 -9.79953,3.07137 -13.6096,6.39942 -48.96925,10.71922 -58.48818,7.14535 z m 71.62754,-115.452 c 2.63169,-0.72518 7.81902,-2.69363 11.52742,-4.37432 6.08193,-2.75646 7.01954,-2.91434 9.56981,-1.61167 5.24302,2.67818 9.6139,-1.10197 8.12653,-7.0282 -0.92897,-3.70127 2.99673,-7.13297 6.00828,-5.25222 3.1331,1.95665 5.56061,-0.30049 4.73937,-4.40674 -0.53133,-2.65668 0.2141,-4.0029 5.332,-9.62934 7.19763,-7.91285 14.76666,-20.43585 17.04512,-28.20124 2.34269,-7.98426 1.58026,-18.19991 -1.92435,-25.78463 -8.38995,-18.15753 -25.86849,-25.35781 -53.03551,-21.84795 -12.21523,1.57817 -15.89517,1.15989 -15.89517,-1.80667 0,-0.75784 -1.24761,-2.04558 -2.77248,-2.86166 -2.55588,-1.36788 -2.93655,-1.28118 -4.87243,1.10953 -1.32147,1.63195 -1.94138,3.67366 -1.67221,5.50764 0.34674,2.36249 -0.11639,3.13974 -2.44582,4.10463 -4.6016,1.90604 -8.61874,6.86541 -9.6085,11.86222 -1.15381,5.82495 -2.6072,87.70926 -1.62616,91.61806 0.40244,1.60344 1.71503,3.27909 2.91689,3.72366 2.04193,0.75537 16.95892,-1.91685 28.58721,-5.1211 z M 666.0456,419.74473 c -15.61524,-2.07109 -21.41749,-7.18094 -28.15561,-24.79586 -4.52238,-11.82249 -4.68469,-12.66417 -5.11437,-26.52296 -0.82694,-26.67093 4.477,-44.75784 18.72093,-63.84036 9.38738,-12.57627 15.08997,-17.66854 25.24032,-22.53901 15.4865,-7.43094 20.67063,-6.84301 33.58437,3.80883 7.63796,6.30017 12.67031,14.50237 14.62251,23.83323 1.48926,7.11818 1.52692,31.34866 0.0569,36.64195 -1.44708,5.21083 -4.08804,6.80267 -13.76636,8.29779 -11.28993,1.74409 -53.24862,12.6925 -55.83563,14.56938 -2.58966,1.87882 -3.23892,7.05321 -1.49656,11.92716 2.69465,7.53778 3.34846,8.81679 6.06606,11.86682 6.38333,7.16423 15.25772,6.83718 31.34492,-1.15514 16.50586,-8.20032 21.85894,-11.20588 24.68232,-13.85833 1.56065,-1.46611 3.25919,-2.15767 4.30963,-1.75459 2.06233,0.79139 1.47517,4.73662 -1.88351,12.65577 -1.6613,3.91715 -2.57879,4.94218 -4.01542,4.48621 -2.31147,-0.73363 -7.70919,5.30135 -7.009,7.83646 0.26429,0.95687 0.79136,2.82068 1.17127,4.14187 0.62472,2.17246 -0.25677,2.8594 -9.21959,7.18467 -13.10417,6.32377 -23.3282,8.53911 -33.30319,7.21611 z m 7.97484,-77.98954 c 18.86581,-4.21618 27.2829,-7.05062 29.24159,-9.84704 1.20159,-1.71552 1.58183,-5.29613 1.54333,-14.53365 -0.0617,-14.79405 -1.69285,-19.50636 -6.92965,-20.01879 -7.84449,-0.76759 -27.98258,17.9037 -36.86291,34.17789 -2.76805,5.07276 -5.35063,10.48944 -5.73907,12.03711 -0.64554,2.57202 -0.48708,2.75282 1.84287,2.10322 1.40202,-0.39089 9.00875,-2.15434 16.90384,-3.91874 z m 267.95434,75.87427 c -3.13991,-1.20172 -5.34321,-3.92608 -6.4254,-7.94498 -0.60486,-2.24641 -1.69402,-4.08439 -2.4202,-4.08439 -0.72628,0 -5.37314,1.70988 -10.32631,3.79977 -37.34692,15.75743 -63.45589,6.95642 -61.37582,-20.68917 1.00931,-13.41459 9.08299,-26.75728 20.97452,-34.66277 10.38726,-6.9054 27.8011,-14.92655 38.01164,-17.50881 4.80857,-1.2161 10.01314,-2.69405 11.56574,-3.28435 l 2.82286,-1.07324 -0.71762,-8.74726 c -0.84214,-10.26627 -3.11764,-19.08042 -5.41889,-20.99029 -0.89892,-0.74606 -2.93733,-1.32314 -4.52981,-1.28237 -1.59238,0.0408 -5.20119,0.12689 -8.01957,0.19141 -6.49781,0.1487 -17.92621,5.59318 -28.24863,13.45764 -4.13251,3.1485 -7.95871,5.72455 -8.5027,5.72455 -0.54399,0 -2.76478,2.47178 -4.93526,5.49287 -3.38624,4.71346 -4.09183,5.23264 -4.97256,3.65885 -1.17459,-2.09885 2.53178,-12.35431 7.82257,-21.64488 6.29812,-11.05954 23.27249,-22.56701 36.45198,-24.71204 14.15271,-2.30341 28.84045,4.79144 35.14055,16.97457 3.88022,7.50342 6.8412,32.02724 6.90397,57.1807 0.0219,8.72925 0.68818,10.21823 3.2119,7.17737 0.72796,-0.87725 2.04397,-1.59496 2.9243,-1.59496 2.40985,0 0.91383,7.70646 -2.94459,15.16771 -2.86283,5.53622 -4.16911,11.41505 -2.53635,11.41505 0.34838,0 1.90345,-0.89446 3.45576,-1.98767 1.5523,-1.09321 5.69336,-3.27884 9.20232,-4.85697 3.50886,-1.57811 7.64993,-3.55461 9.20213,-4.3922 1.5523,-0.83758 3.10738,-1.52289 3.45585,-1.52289 1.62253,0 0.27836,3.57503 -3.46978,9.22879 -4.49538,6.78075 -5.67207,9.72316 -5.99309,14.98601 -0.28622,4.69445 -3.58067,7.90725 -12.62289,12.3104 -7.56022,3.68144 -14.6585,5.37249 -17.68662,4.21355 z m -37.43693,-24.32137 c 13.69116,-2.77119 27.26348,-10.10958 30.58806,-16.53861 3.6118,-6.98448 0.35315,-16.89174 -5.55602,-16.89174 -1.7864,0 -2.86612,-0.70945 -3.23677,-2.12664 -0.66949,-2.56036 -2.15984,-2.70497 -4.65014,-0.45125 -1.01816,0.92144 -2.4913,1.78889 -3.27367,1.92766 -6.01309,1.06659 -13.64929,4.23672 -15.82633,6.57018 -1.43495,1.53811 -5.3619,4.73367 -8.72646,7.10127 -7.74023,5.44653 -12.88016,12.81919 -12.01236,17.23026 0.33952,1.72541 1.2081,3.5124 1.9303,3.97113 2.14154,1.36027 11.98422,0.98468 20.76339,-0.79226 z m 609.37165,23.05925 c -2.7012,-0.95101 -7.0077,-3.46627 -9.5698,-5.58951 -3.7843,-3.13602 -5.0078,-5.07272 -6.5193,-10.32124 -2.2561,-7.83356 -2.3681,-13.91355 -0.3453,-18.75471 0.8334,-1.99489 2.0633,-7.36251 2.7327,-11.92811 0.6694,-4.56558 1.8729,-12.36825 2.6744,-17.33924 1.4097,-8.74426 1.9512,-14.88108 3.3561,-38.04602 0.3649,-6.01238 1.0622,-11.17826 1.5501,-11.47975 0.4879,-0.30151 1.877,-0.0183 3.0871,0.62926 1.8533,0.99184 2.7854,0.66347 5.9135,-2.08308 3.2671,-2.86858 4.2514,-3.18528 8.1891,-2.63459 2.4618,0.34428 5.0739,0.81027 5.8049,1.03557 2.2527,0.69426 1.511,9.15509 -1.7776,20.27519 -1.7087,5.77805 -3.4334,14.5727 -3.8326,19.54369 -0.3991,4.97099 -1.8554,14.54078 -3.2359,21.26621 -2.9446,14.34399 -4.1857,25.35783 -3.2694,29.00924 1.8454,7.35278 22.9602,5.68041 40.2863,-3.19091 5.1133,-2.61811 10.4224,-6.09773 11.798,-7.73251 2.5505,-3.03101 4.1318,-10.2856 5.623,-25.79482 0.3793,-3.94754 1.1025,-7.17735 1.6066,-7.17735 1.3618,0 1.1104,-6.13441 -0.2867,-6.99784 -1.504,-0.92957 -0.5868,-29.95512 1.1265,-35.64425 l 1.1536,-3.83126 11.3091,-0.73116 c 10.7309,-0.69376 11.4373,-0.61073 13.8161,1.62415 3.0529,2.8679 3.1965,6.13811 0.4246,9.66212 -1.702,2.1638 -2.1954,4.95952 -2.6979,15.29558 -0.3383,6.95632 -1.0378,15.51877 -1.5546,19.0277 -0.5167,3.50892 -1.2679,11.64325 -1.6689,18.0763 -0.453,7.26571 -1.4918,13.71038 -2.742,17.01299 -2.4391,6.443 -2.5127,7.97482 -0.3835,7.97482 1.8687,0 11.3608,-4.62765 15.5469,-7.57954 1.5524,-1.09464 4.0645,-1.99025 5.5823,-1.99025 3.8345,0 3.6357,3.23395 -0.6044,9.84166 -1.8504,2.88365 -3.7299,7.55501 -4.1767,10.3808 -0.4465,2.8258 -1.6154,6.36404 -2.5976,7.86279 -3.539,5.40132 -18.7983,12.28418 -27.2889,12.30906 -3.2174,0.01 -4.4268,-0.63559 -6.6457,-3.54464 -1.4918,-1.95586 -2.7124,-4.28972 -2.7124,-5.18635 0,-3.84947 -2.6685,-4.11157 -10.2139,-1.0032 -14.6927,6.05275 -23.9919,8.47965 -34.445,8.98954 -7.6178,0.3716 -11.3092,0.0676 -15.0128,-1.23634 z m -527.09282,-3.26263 c -2.38926,-2.46197 -4.66067,-5.51656 -5.04754,-6.78795 -0.38695,-1.2714 -1.30039,-3.02939 -2.02985,-3.9066 -2.258,-2.71528 -2.82703,-7.13955 -1.1357,-8.83085 1.20521,-1.20529 3.61358,-1.42333 11.04262,-0.99975 l 9.50116,0.54173 0.40555,-22.43346 c 0.28751,-15.90514 0.78748,-22.81544 1.71798,-23.74598 0.9298,-0.92984 1.3125,-6.18705 1.3125,-18.03122 0,-16.10292 -0.094,-16.83062 -2.5556,-19.75594 -1.77319,-2.10722 -2.39365,-3.8847 -2.02648,-5.80514 0.69903,-3.65705 -1.24071,-4.6901 -4.63311,-2.46732 -2.09013,1.36949 -3.27965,1.53525 -5.004,0.69739 -1.24411,-0.60454 -4.05643,-1.64808 -6.24948,-2.31902 -4.6914,-1.43522 -4.97942,-2.96293 -1.25951,-6.68278 3.13801,-3.13796 18.92186,-9.17154 25.98148,-9.93167 9.8675,-1.06252 15.945,5.37329 15.948,16.88865 8e-4,3.36274 0.3952,6.11405 0.8762,6.11405 0.4809,0 3.6182,-3.10592 6.9718,-6.90201 7.5027,-8.49305 13.832,-12.40383 20.231,-12.50055 6.6266,-0.10017 11.183,1.94246 10.4641,4.69117 -0.4845,1.85271 -0.1168,2.09667 2.7124,1.79991 4.6778,-0.49069 8.02,3.10884 13.5977,14.6449 5.2456,10.84938 5.3384,11.35035 3.0988,16.71052 -0.8772,2.09951 -1.5949,5.74663 -1.5949,8.10468 0,3.16321 -0.4321,4.28739 -1.6478,4.28739 -2.3573,0 -8.001,3.01012 -11.1418,5.94248 -2.4721,2.30806 -3.0276,2.40857 -6.9115,1.2504 -2.3228,-0.69266 -4.4627,-1.5178 -4.755,-1.83369 -0.2925,-0.31586 -1.4887,-1.09974 -2.6583,-1.74196 -3.146,-1.72743 -4.8819,-5.70249 -3.5648,-8.16346 0.9907,-1.85115 1.2328,-1.72188 2.8553,1.52451 1.8784,3.75855 4.0103,4.68807 8.2889,3.61422 2.8668,-0.71953 6.7753,-8.20647 6.7753,-12.97862 0,-3.71098 -1.993,-7.03225 -3.8032,-6.33765 -0.981,0.37647 -1.5134,-0.1284 -1.5134,-1.43532 0,-3.37859 -4.9966,-6.42548 -10.5107,-6.40915 -2.699,0.009 -6.0071,0.30913 -7.3515,0.66921 -2.6387,0.70678 -6.2023,6.87689 -10.3307,17.88654 -3.0592,8.15815 -7.9656,37.2213 -8.0748,47.82972 -0.1002,9.74269 1.4116,12.63037 8.1797,15.62416 3.2399,1.43321 4.6952,2.72063 4.6952,4.15379 0,2.4934 2.3927,2.72369 4.3089,0.4147 1.2512,-1.5073 1.4663,-1.5073 2.3097,0 1.1594,2.07152 4.4078,2.15575 6.0664,0.15733 1.4975,-1.80447 7.3483,-0.51603 9.2302,2.03263 0.6492,0.87937 2.2043,1.59884 3.4557,1.59884 2.6949,0 2.9854,2.34012 0.5421,4.36785 -2.2505,1.86776 -12.8405,5.16616 -16.6513,5.18629 -1.6316,0.009 -4.981,1.06044 -7.4433,2.33739 -3.4514,1.78998 -7.2772,2.49762 -16.7048,3.08972 -6.7254,0.42243 -16.5925,1.11637 -21.9268,1.54212 l -9.69887,0.77407 z m 713.69472,2.30583 c -3.5813,-2.90625 -8.9027,-10.97124 -8.9027,-13.49264 0,-3.32715 5.1716,-7.72852 10.1016,-8.59735 8.3955,-1.47954 7.9748,0.79494 7.9748,-43.1251 0,-24.02279 -0.4438,-41.19413 -1.1496,-44.4848 -1.2916,-6.02328 -4.1167,-8.89401 -10.6909,-10.86367 -4.1863,-1.25428 -5.1655,-2.97655 -2.78,-4.89056 1.3265,-1.06455 19.7366,-4.51048 24.0973,-4.51048 3.4539,0 10.756,7.3398 11.6498,11.70992 1.1347,5.54762 3.3755,5.03361 8.678,-1.99054 3.622,-4.79801 6.3199,-7.07351 11.3387,-9.56322 6.4321,-3.1909 6.705,-3.23163 11.7048,-1.74687 6.4977,1.92961 13.1898,6.82734 15.7017,11.49139 1.853,3.44106 1.8703,4.34264 0.3418,17.86204 -1.6,14.14956 -1.6429,14.29094 -6.9216,22.74455 -2.9214,4.67859 -5.9779,8.50649 -6.7921,8.50649 -1.1289,0 -1.6156,-2.52685 -2.048,-10.63312 -0.6558,-12.29212 -2.2507,-16.17411 -8.0526,-19.59729 -6.357,-3.75068 -7.9209,-2.8488 -11.7791,6.79249 -5.4936,13.72923 -11.8571,54.25529 -9.5139,60.59028 2.7527,7.44175 2.2991,7.25711 14.58,5.93579 6.0938,-0.65567 12.8849,-1.58348 15.0914,-2.06187 2.4339,-0.5276 4.2629,-0.46393 4.6495,0.1619 0.3508,0.56741 -2.7307,4.45142 -6.8481,8.63113 -4.1168,4.17971 -8.1879,9.32085 -9.0464,11.42478 -2.72,6.6658 -6.4292,8.01943 -25.7295,9.39004 -9.3572,0.66452 -18.4484,1.42062 -20.2029,1.68029 -2.0271,0.3 -4.0145,-0.19702 -5.452,-1.36358 z m 261.1782,0.82235 c -14.5929,-1.25016 -23.5099,-10.17392 -26.9921,-27.01319 -1.3362,-6.46048 -1.7172,-14.7482 -1.7172,-37.34359 0,-15.97219 -0.2905,-29.79723 -0.6455,-30.72228 -0.5117,-1.33389 -2.354,-1.68195 -8.9027,-1.68195 h -8.2573 l -4.4754,-4.85524 c -2.7252,-2.95653 -4.2364,-5.47785 -3.8646,-6.44723 0.3361,-0.87557 -0.1,-2.9668 -0.969,-4.64718 -0.8688,-1.68037 -1.3325,-3.69958 -1.0304,-4.48716 0.8184,-2.13248 15.2269,-9.07752 20.5485,-9.90442 8.6342,-1.34171 8.7514,-1.71024 8.6174,-27.08194 -0.071,-13.47287 -0.5849,-23.49725 -1.3018,-25.3966 -1.3312,-3.52642 0.2185,-6.52842 3.335,-6.46082 2.7156,0.0589 14.6897,7.75956 17.3757,11.17441 2.2162,2.81718 2.481,4.5337 3.0668,19.86661 0.5387,14.09888 0.9481,17.12211 2.5599,18.90334 2.46,2.71823 4.1127,2.65767 10.6584,-0.3905 3.4576,-1.61005 8.5193,-2.76679 14.3224,-3.27298 4.936,-0.43061 10.1858,-1.39708 11.6655,-2.14772 1.4798,-0.75062 5.7024,-1.64964 9.3834,-1.99777 5.5739,-0.52719 6.8031,-0.34465 7.3544,1.09192 0.4553,1.18633 -0.6341,2.75233 -3.4893,5.01534 -2.2831,1.80972 -9.6769,8.12217 -16.4307,14.02767 -9.0772,7.93757 -13.8693,11.33224 -18.3779,13.01908 -3.3542,1.25499 -8.4092,3.45274 -11.2335,4.88386 l -5.1349,2.60205 -0.6989,31.16456 c -0.7889,35.17471 -0.2106,42.22144 3.7929,46.22499 2.5377,2.5375 2.8532,2.59763 5.7504,1.09527 1.686,-0.87431 9.4213,-7.61837 17.1897,-14.98673 14.9399,-14.17061 19.1364,-16.52154 17.745,-9.94127 -1.7031,8.05547 -4.7011,14.60246 -8.0617,17.60507 -3.1216,2.78926 -3.3913,3.44593 -2.3522,5.72709 1.9,4.16952 -2.6589,12.3878 -10.5112,18.94908 -8.8602,7.40336 -10.7138,8.13116 -18.9191,7.42823 z m -137.9433,-1.62617 c -5.4734,-1.72334 -14.4482,-8.03805 -19.6012,-13.79152 -4.8313,-5.39424 -10.8984,-17.46614 -12.4513,-24.77431 -1.6204,-7.62675 -1.4482,-26.60738 0.3302,-36.36609 1.4175,-7.77744 6.2683,-22.19429 9.7021,-28.83478 4.1374,-8.00043 15.2843,-17.35648 28.6447,-24.04249 15.5125,-7.76296 41.2569,-3.44579 50.6533,8.4942 1.5425,1.95993 4.2315,6.40792 5.9756,9.88443 9.8754,19.68391 12.169,38.51428 7.3099,60.01812 -1.813,8.02294 -3.3703,12.59374 -4.5287,13.2914 -0.9712,0.5848 -2.8872,2.02028 -4.2574,3.18993 -2.3849,2.0354 -2.4205,2.27019 -0.8294,5.47528 1.5917,3.2062 1.5403,3.54197 -1.2063,7.89295 -4.4409,7.03458 -11.9348,14.51337 -18.0474,18.01064 -5.5148,3.15533 -5.6723,3.17795 -21.3761,3.07358 -9.9264,-0.0659 -17.4958,-0.63271 -20.318,-1.52134 z m 30.7664,-22.97344 c 9.784,-2.16796 17.0182,-13.888 18.4714,-29.92454 0.3961,-4.37047 0.3478,-16.73827 -0.1074,-27.48402 l -0.8275,-19.53773 -8.8694,-6.64568 c -9.8713,-7.39664 -11.8367,-7.84533 -21.7171,-4.95792 -9.5001,2.77632 -19.1082,13.98188 -21.7565,25.3737 -0.8039,3.45856 -3.0146,7.95632 -5.6921,11.58077 -4.9406,6.68764 -5.2141,8.09989 -2.3584,12.1739 1.1108,1.58457 2.2834,5.38468 2.606,8.44468 0.7393,7.01342 9.6109,25.44521 13.629,28.31538 6.3797,4.55733 14.4329,5.36244 26.622,2.66146 z m -222.4411,19.29234 c -2.3178,-2.51071 -4.5208,-5.57341 -4.8954,-6.80601 -0.3746,-1.23263 -1.2779,-2.95886 -2.0074,-3.83607 -2.3668,-2.8463 -2.8242,-7.14243 -0.9585,-9.00799 1.306,-1.30603 2.8208,-1.55333 6.3102,-1.03008 l 4.5915,0.68854 1.2601,-4.62921 c 0.693,-2.54607 1.1792,-8.55393 1.0803,-13.35081 -0.1267,-6.16411 0.3133,-9.67473 1.5012,-11.97189 1.3029,-2.51928 1.4145,-3.74782 0.4965,-5.46289 -1.6194,-3.02586 -1.4738,-9.16421 0.508,-21.41535 0.9212,-5.6957 1.675,-12.33807 1.675,-14.76084 0,-2.65593 0.9107,-5.87843 2.2934,-8.11581 2.0079,-3.24865 2.1351,-4.14814 1.0236,-7.22273 -1.4543,-4.02146 -0.1387,-17.86809 2.5348,-26.6806 0.8626,-2.84313 1.5734,-7.72419 1.5798,-10.84681 0.01,-3.12265 1.4015,-11.73547 3.1001,-19.13961 1.6987,-7.40416 3.1249,-15.85457 3.1696,-18.77868 0.045,-2.9241 0.4543,-10.18046 0.9102,-16.12524 l 0.8292,-10.8087 -2.8657,1.69279 c -2.0699,1.22275 -3.2541,1.37942 -4.2646,0.5642 -0.7693,-0.62072 -2.9208,-1.45385 -4.7811,-1.85139 -10.1908,-2.17779 -4.6997,-8.79956 11.8474,-14.28653 8.9646,-2.97257 11.4639,-3.39705 16.4696,-2.79713 7.5987,0.91068 17.3788,3.68321 18.3709,5.2079 1.1483,1.76459 -0.1489,5.0062 -3.5748,8.93423 -1.6757,1.92101 -3.0467,4.20885 -3.0467,5.0841 0,0.87523 -0.8372,1.90554 -1.8606,2.28954 -4.336,1.62694 -5.943,7.59581 -2.9388,10.91536 1.7321,1.9138 1.763,1.6463 -3.1966,27.66221 -1.3936,7.31026 -3.0611,18.0763 -3.7053,23.9245 -2.6697,24.23233 -5.5571,45.50376 -8.0159,59.05158 -1.7904,9.86373 -2.6122,18.24804 -2.6122,26.64538 0,9.12738 -0.3981,12.77936 -1.5611,14.31688 -2.2202,2.93529 -2.2002,15.68422 0.029,17.53301 0.9111,0.75608 2.306,2.92938 3.0998,4.82953 1.8952,4.53543 5.2593,6.37538 8.7493,4.7852 3.4592,-1.57616 4.5708,-0.69931 4.5708,3.60599 0,2.97081 -0.9157,4.37753 -5.4093,8.30821 -5.8924,5.15461 -6.7179,5.3652 -26.555,6.77326 l -9.5353,0.67684 z m -563.8288,-6.13138 c -2.1696,-0.48198 -2.2314,-0.7681 -0.76,-3.5173 1.0456,-1.95377 5.2222,-2.82256 6.6596,-1.38527 0.8954,0.89549 -0.9705,4.27598 -2.6801,4.85543 -0.7473,0.25329 -2.1959,0.27449 -3.2195,0.0471 z"
       id="path8305"
       inkscape:connector-curvature="0" />
    <flowRoot
       xml:space="preserve"
       id="episode-title-3"
       style="font-style:normal;font-variant:normal;font-weight:normal;font-stretch:normal;line-height:0.01%;font-family:Arial;-inkscape-font-specification:Arial;letter-spacing:0px;word-spacing:0px;display:inline;fill:#301b0b;fill-opacity:1;stroke:none"
       transform="translate(-702.44922,-120.8471)"><flowRegion
         id="flowRegion2989"><rect
           id="rect2991"
           width="2405.8"
           height="107.55731"
           x="739.22333"
           y="644.36664"
           style="fill:#301b0b;fill-opacity:1" /></flowRegion><flowPara
         id="flowPara2993"
         style="font-style:normal;font-variant:normal;font-weight:normal;font-stretch:normal;font-size:72px;line-height:1.25;font-family:Lavi;-inkscape-font-specification:Lavi;text-align:center;text-anchor:middle;fill:#301b0b;fill-opacity:1">Episode 18: Det fyrste møtet</flowPara></flowRoot>  </g>
</svg>
