<?xml version="1.0" encoding="UTF-8" standalone="no"?>
<svg
   xmlns:dc="http://purl.org/dc/elements/1.1/"
   xmlns:cc="http://creativecommons.org/ns#"
   xmlns:rdf="http://www.w3.org/1999/02/22-rdf-syntax-ns#"
   xmlns:svg="http://www.w3.org/2000/svg"
   xmlns="http://www.w3.org/2000/svg"
   xmlns:xlink="http://www.w3.org/1999/xlink"
   xmlns:sodipodi="http://sodipodi.sourceforge.net/DTD/sodipodi-0.dtd"
   xmlns:inkscape="http://www.inkscape.org/namespaces/inkscape"
   id="svg2"
   version="1.1"
   inkscape:version="0.92.5 (2060ec1f9f, 2020-04-08)"
   width="2481"
   height="3503"
   sodipodi:docname="E34P10.svg">
  <metadata
     id="metadata8">
    <rdf:RDF>
      <cc:Work
         rdf:about="">
        <dc:format>image/svg+xml</dc:format>
        <dc:type
           rdf:resource="http://purl.org/dc/dcmitype/StillImage" />
        <dc:title />
      </cc:Work>
    </rdf:RDF>
  </metadata>
  <defs
     id="defs6">
    <filter
       style="color-interpolation-filters:sRGB"
       id="filter4375-4-1-1-1-9-5-8-8-5-5-3-3-3-0"
       inkscape:label="soundFX1">
      <feFlood
         id="feFlood4377-7-9-0-8-1-7-3-1-2-7-6-6-5-96"
         flood-opacity="1"
         flood-color="rgb(52,52,52)"
         result="flood" />
      <feComposite
         id="feComposite4379-3-8-8-2-77-4-1-0-6-4-7-7-6-3"
         in2="SourceGraphic"
         in="flood"
         operator="in"
         result="composite1"
         baseFrequency="0.053999999999999999 0.053999999999999999" />
      <feMorphology
         id="feMorphology4393-1-0-49-8-9-3-0-1-9-9-5-5-2-8"
         operator="dilate"
         radius="2.5856550817276021"
         result="result3" />
      <feComposite
         id="feComposite4385-9-5-7-0-8-8-7-5-4-9-3-3-9-5"
         in2="result3"
         in="SourceGraphic"
         operator="over"
         result="fbSourceGraphic" />
      <feColorMatrix
         result="fbSourceGraphicAlpha"
         in="fbSourceGraphic"
         values="0 0 0 -1 0 0 0 0 -1 0 0 0 0 -1 0 0 0 0 1 0"
         id="feColorMatrix4544-9-4-4-5-5-1-6" />
      <feTurbulence
         id="feTurbulence4546-3-6-5-6-6-2-1"
         type="fractalNoise"
         numOctaves="4"
         seed="147"
         baseFrequency="0.046080819231719368"
         result="turbulence" />
      <feDisplacementMap
         id="feDisplacementMap4548-8-0-9-2-2-7-1"
         in2="turbulence"
         in="fbSourceGraphic"
         scale="13.20326"
         yChannelSelector="G"
         xChannelSelector="R"
         result="fbSourceGraphic" />
      <feColorMatrix
         result="fbSourceGraphicAlpha"
         in="fbSourceGraphic"
         values="0 0 0 -1 0 0 0 0 -1 0 0 0 0 -1 0 0 0 0 1 0"
         id="feColorMatrix4670-7-7-3-9-9-0-5" />
      <feFlood
         id="feFlood4672-4-4-5-1-1-9-9"
         flood-opacity="1"
         flood-color="rgb(28,28,28)"
         result="flood"
         in="fbSourceGraphic" />
      <feComposite
         id="feComposite4674-8-3-7-2-2-3-8"
         in2="fbSourceGraphic"
         in="flood"
         operator="in"
         result="composite1" />
      <feGaussianBlur
         id="feGaussianBlur4676-3-7-08-7-7-6-4"
         in="composite1"
         stdDeviation="0"
         result="blur" />
      <feOffset
         id="feOffset4678-6-9-1-0-0-0-8"
         dx="-8.3919392296330813"
         dy="1.5526614972014983"
         result="offset" />
      <feComposite
         id="feComposite4680-4-0-9-9-9-6-1"
         in2="offset"
         in="fbSourceGraphic"
         operator="over"
         result="composite2" />
    </filter>
    <filter
       style="color-interpolation-filters:sRGB"
       id="filter4375-4-1-1-1-9-5-8-8-5-5-3-8"
       inkscape:label="soundFX1">
      <feFlood
         id="feFlood4377-7-9-0-8-1-7-3-1-2-7-6-7"
         flood-opacity="1"
         flood-color="rgb(255,255,255)"
         result="flood" />
      <feComposite
         id="feComposite4379-3-8-8-2-77-4-1-0-6-4-7-9"
         in2="SourceGraphic"
         in="flood"
         operator="in"
         result="composite1"
         baseFrequency="0.053999999999999999 0.053999999999999999" />
      <feMorphology
         id="feMorphology4393-1-0-49-8-9-3-0-1-9-9-5-2"
         operator="dilate"
         radius="2.9756367599225957"
         result="result3" />
      <feComposite
         id="feComposite4385-9-5-7-0-8-8-7-5-4-9-3-0"
         in2="result3"
         in="SourceGraphic"
         operator="over"
         result="fbSourceGraphic" />
      <feColorMatrix
         result="fbSourceGraphicAlpha"
         in="fbSourceGraphic"
         values="0 0 0 -1 0 0 0 0 -1 0 0 0 0 -1 0 0 0 0 1 0"
         id="feColorMatrix4544-9-4-4-5-2" />
      <feTurbulence
         id="feTurbulence4546-3-6-5-6-3"
         type="fractalNoise"
         numOctaves="5"
         seed="174"
         baseFrequency="0.053999999999999999 0.054054054054054057"
         result="turbulence" />
      <feDisplacementMap
         id="feDisplacementMap4548-8-0-9-2-7"
         in2="turbulence"
         in="fbSourceGraphic"
         scale="6.6"
         yChannelSelector="G"
         xChannelSelector="R"
         result="fbSourceGraphic" />
      <feColorMatrix
         result="fbSourceGraphicAlpha"
         in="fbSourceGraphic"
         values="0 0 0 -1 0 0 0 0 -1 0 0 0 0 -1 0 0 0 0 1 0"
         id="feColorMatrix4670-7-7-3-9-5" />
      <feFlood
         id="feFlood4672-4-4-5-1-9"
         flood-opacity="1"
         flood-color="rgb(255,255,255)"
         result="flood"
         in="fbSourceGraphic" />
      <feComposite
         id="feComposite4674-8-3-7-2-22"
         in2="fbSourceGraphic"
         in="flood"
         operator="in"
         result="composite1" />
      <feGaussianBlur
         id="feGaussianBlur4676-3-7-08-7-8"
         in="composite1"
         stdDeviation="0"
         result="blur" />
      <feOffset
         id="feOffset4678-6-9-1-0-9"
         dx="-6.3258232761971414"
         dy="6"
         result="offset" />
      <feComposite
         id="feComposite4680-4-0-9-9-7"
         in2="offset"
         in="fbSourceGraphic"
         operator="over"
         result="composite2" />
    </filter>
    <filter
       style="color-interpolation-filters:sRGB"
       id="filter5561"
       inkscape:label="deevad outline effect">
      <feFlood
         id="feFlood5563"
         flood-opacity="1"
         flood-color="rgb(0,0,0)"
         result="flood" />
      <feComposite
         id="feComposite5565"
         in2="SourceGraphic"
         in="flood"
         operator="in"
         result="composite1" />
      <feMorphology
         id="feMorphology5567"
         operator="dilate"
         radius="1.8999999999999999 6.0999999999999996"
         result="result3" />
      <feComposite
         id="feComposite5569"
         in2="result3"
         in="SourceGraphic"
         operator="over"
         result="composite2" />
    </filter>
    <filter
       style="color-interpolation-filters:sRGB"
       id="filter4375-4-1-1-1-9-5-8-8-5-5-3-8-5"
       inkscape:label="soundFX1">
      <feFlood
         id="feFlood4377-7-9-0-8-1-7-3-1-2-7-6-7-6"
         flood-opacity="1"
         flood-color="rgb(52,52,52)"
         result="flood" />
      <feComposite
         id="feComposite4379-3-8-8-2-77-4-1-0-6-4-7-9-2"
         in2="SourceGraphic"
         in="flood"
         operator="in"
         result="composite1"
         baseFrequency="0.053999999999999999 0.053999999999999999" />
      <feMorphology
         id="feMorphology4393-1-0-49-8-9-3-0-1-9-9-5-2-9"
         operator="dilate"
         radius="2.9756367599225957"
         result="result3" />
      <feComposite
         id="feComposite4385-9-5-7-0-8-8-7-5-4-9-3-0-1"
         in2="result3"
         in="SourceGraphic"
         operator="over"
         result="fbSourceGraphic" />
      <feColorMatrix
         result="fbSourceGraphicAlpha"
         in="fbSourceGraphic"
         values="0 0 0 -1 0 0 0 0 -1 0 0 0 0 -1 0 0 0 0 1 0"
         id="feColorMatrix4544-9-4-4-5-2-2" />
      <feTurbulence
         id="feTurbulence4546-3-6-5-6-3-7"
         type="fractalNoise"
         numOctaves="5"
         seed="174"
         baseFrequency="0.053999999999999999 0.054054054054054057"
         result="turbulence" />
      <feDisplacementMap
         id="feDisplacementMap4548-8-0-9-2-7-0"
         in2="turbulence"
         in="fbSourceGraphic"
         scale="6.6"
         yChannelSelector="G"
         xChannelSelector="R"
         result="fbSourceGraphic" />
      <feColorMatrix
         result="fbSourceGraphicAlpha"
         in="fbSourceGraphic"
         values="0 0 0 -1 0 0 0 0 -1 0 0 0 0 -1 0 0 0 0 1 0"
         id="feColorMatrix4670-7-7-3-9-5-9" />
      <feFlood
         id="feFlood4672-4-4-5-1-9-3"
         flood-opacity="1"
         flood-color="rgb(28,28,28)"
         result="flood"
         in="fbSourceGraphic" />
      <feComposite
         id="feComposite4674-8-3-7-2-22-6"
         in2="fbSourceGraphic"
         in="flood"
         operator="in"
         result="composite1" />
      <feGaussianBlur
         id="feGaussianBlur4676-3-7-08-7-8-0"
         in="composite1"
         stdDeviation="0"
         result="blur" />
      <feOffset
         id="feOffset4678-6-9-1-0-9-6"
         dx="-6.3258232761971414"
         dy="6"
         result="offset" />
      <feComposite
         id="feComposite4680-4-0-9-9-7-2"
         in2="offset"
         in="fbSourceGraphic"
         operator="over"
         result="composite2" />
    </filter>
  </defs>
  <sodipodi:namedview
     pagecolor="#ffffff"
     bordercolor="#666666"
     borderopacity="1"
     objecttolerance="10"
     gridtolerance="10"
     guidetolerance="10"
     inkscape:pageopacity="0"
     inkscape:pageshadow="2"
     inkscape:window-width="1920"
     inkscape:window-height="1023"
     id="namedview4"
     showgrid="false"
     inkscape:zoom="0.46000001"
     inkscape:cx="1174.5175"
     inkscape:cy="2261.8348"
     inkscape:window-x="0"
     inkscape:window-y="0"
     inkscape:window-maximized="1"
     inkscape:current-layer="layer3"
     inkscape:document-rotation="0"
     inkscape:snap-global="false"
     borderlayer="true" />
  <g
     inkscape:groupmode="layer"
     id="layer2"
     inkscape:label="artwork"
     sodipodi:insensitive="true">
    <image
       sodipodi:absref="/home/peppercarrot/webcomics/"
       xlink:href="../gfx_Pepper-and-Carrot_by-David-Revoy_E34P10.png"
       width="2481"
       height="3503"
       id="image10"
       x="0"
       y="0" />
  </g>
  <g
     inkscape:groupmode="layer"
     id="layer3"
     inkscape:label="speechbubbles">
    <path
       style="display:inline;fill:#ffffff;stroke:none;stroke-width:0.81725925"
       d="m 2081.6033,1307.5287 c -23.1403,0.4465 -46.9211,-0.01 -69.0764,6.4657 -15.9829,4.7067 -30.0722,13.7576 -39.5049,25.5637 -14.9792,18.124 -21.0602,40.6976 -19.8612,62.5379 1.0961,17.338 7.2106,34.8966 20.0641,48.7273 12.9124,13.3942 31.8567,21.6237 51.245,26.5068 42.67,11.2109 88.7214,13.2721 132.5845,6.0052 22.2558,-3.729 43.9089,-12.5302 59.0199,-26.9851 11.5803,-11.1313 16.6966,-25.7604 19.8952,-39.9977 2.9991,-14.7541 6.3425,-29.991 2.6057,-44.8776 -3.7924,-14.9538 -15.6101,-27.5055 -29.1006,-37.3593 -20.643,-15.182 -47.4436,-24.1256 -74.8025,-25.6018 -17.6477,-1.2456 -35.3774,-1.0237 -53.0688,-0.9851 z"
       id="path3280-5-9"
       inkscape:connector-curvature="0"
       sodipodi:nodetypes="csssc" />
    <path
       style="color:#000000;display:inline;overflow:visible;visibility:visible;fill:#ffffff;fill-opacity:1;fill-rule:nonzero;stroke:none;stroke-width:1.14754367px;marker:none;enable-background:accumulate"
       d="m 375.05715,1329.7174 c 0,0 53.48843,7.2764 61.97857,11.1947 8.49015,3.9179 26.27077,2.774 -33.16664,47.8158 102.87358,-31.5742 96.56086,-23.9308 114.39032,-22.2519 -7.64109,11.1947 -35.19614,31.4557 -35.19614,31.4557 0,0 81.32545,-29.5932 89.81567,-29.034 -2.54702,5.0375 -18.3303,15.9764 -18.3303,15.9764 l 60.39915,-7.4463 -42.11338,28.9462 c 0,0 129.82399,-33.4364 135.88767,-31.8789 6.89282,1.5575 -5.09397,32.4638 -5.09397,32.4638 l 38.71306,-22.9229 -2.20518,11.7288 28.86671,-19.0309 9.33913,10.6349 20.13762,-11.7679 0.23885,12.3277 32.26281,-16.2322 11.03717,1.6796 28.01771,25.7467 10.51621,-13.1813 12.4073,-19.3082 50.09231,21.2954 c -0.87965,-7.6033 0.20808,-17.8933 -1.37632,-25.3954 l 25.14886,15.8803 -2.32589,-16.7789 23.55148,3.9052 c 14.23227,6.3795 33.10447,9.4968 47.22437,16.0832 l -10.3345,-19.8669 35.1651,11.1185 -17.0203,-19.0989 c 15.2633,3.5822 35.0912,5.4922 48.5459,12.8831 l -18.6586,-13.8184 c 39.0478,3.8351 68.4189,9.1136 105.2828,15.0036 l -47.5696,-28.6114 -11.8861,-7.8356 43.3,-7.8361 -24.2096,-7.4097 27.8653,-18.4109 6.487,-45.8169 -16.3067,-23.2018 -727.45874,-1.3435 25.61789,22.3211 -68.96696,-19.0191 47.57816,29.4105 -96.92806,-4.0075 83.72991,32.414 -35.95983,5.9578 37.35696,8.3961 -36.50789,12.8737 22.92351,8.9552 z"
       id="path3931-4"
       inkscape:connector-curvature="0"
       sodipodi:nodetypes="cccccccccccccccccccccccccccccccccccccccccccccccccccc" />
    <path
       style="color:#000000;display:inline;overflow:visible;visibility:visible;fill:#ffffff;fill-opacity:1;fill-rule:nonzero;stroke:none;stroke-width:0.789892px;marker:none;enable-background:accumulate"
       d="m 1917.8333,178.93355 c -23.7906,0.27643 -47.9678,4.38122 -69.7668,16.19023 -10.036,5.76369 -19.7312,13.83599 -25.2668,25.6302 -4.8375,11.61609 -4.642,25.22637 -2.3828,37.63133 2.3991,11.46841 9.0193,21.47917 17.7216,27.15664 12.7197,9.13914 27.5391,12.67154 42.0078,15.58414 24.6933,4.71396 49.7636,5.80884 74.7373,5.76809 23.8123,-0.3214 47.7077,-2.27031 71.0814,-7.88813 11.2866,-3.27908 22.4527,-9.89237 29.4179,-21.29477 7.5428,-11.89973 10.442,-28.46738 5.6669,-42.52728 -4.298,-13.39226 -13.7229,-23.46838 -24.0338,-30.35612 -14.1747,-9.85698 -29.8294,-16.40707 -45.7517,-20.95817 -22.3258,-5.58 -45.2659,-4.67375 -67.9431,-4.9377 -1.8293,5.1e-4 -3.6587,9.5e-4 -5.4879,0.002 z"
       id="path4040-2"
       inkscape:connector-curvature="0"
       sodipodi:nodetypes="zssssz" />
    <path
       style="display:inline;fill:#ffffff;fill-rule:evenodd;stroke:none;stroke-width:1.0438112px;stroke-linecap:butt;stroke-linejoin:miter;stroke-opacity:1"
       d="m 1632.1158,249.53425 c -61.5389,-24.62484 -105.3036,-28.148 -62.2189,25.03245 -62.7017,-53.82379 -94.2531,-42.95053 -81.7757,-14.46671 -39.1665,-27.09997 -62.9696,-18.30151 -81.5051,2.80271 -7.779,-26.0546 -22.7418,-14.91847 -35.8934,-13.15824 -4.4954,-5.8015 10.0407,-21.09626 -49.712,0.67092 -4.1052,-7.7407 -9.5372,-14.34229 -44.3854,4.332 -9.964,-31.6514 -38.4371,3.09537 -67.5678,40.19932 17.5883,-44.98948 9.6628,-50.98651 -13.8296,-33.19219 10.4712,-18.63805 16.6515,-33.00019 -24.1168,-0.57311 13.3646,-34.19697 -23.3723,-9.77664 -82.3869,40.70892 29.2233,-36.82392 107.6036,-99.88759 55.0873,-93.07706 7.0708,-10.80241 33.0221,-20.89474 -45.392,-34.91166 14.3751,-7.66033 59.0915,1.27329 21.2364,-27.76364 -5.0586,-3.37239 11.5163,-6.10829 -20.4629,-14.34789 18.7528,-0.008 30.185,-2.67227 12.5715,-15.86239 34.2198,-0.43151 21.0515,-14.48578 -4.5319,-32.108602 50.1358,22.010512 50.7782,-16.720811 52.0011,-26.260711 62.9017,30.195856 66.2844,19.891482 74.4909,12.869508 30.2491,-1.292238 60.6092,1.738076 89.9403,-35.3572 8.4988,22.152612 24.8274,38.868185 91.378,20.705059 -28.6675,29.540735 12.6907,9.925802 44.4213,-2.929918 -16.6271,36.243208 27.2907,11.322047 82.7825,-25.291487 -30.5637,40.442013 4.9313,24.992099 57.352,-4.777883 -19.085,39.354356 15.9542,86.946844 94.1394,85.764274 -37.0456,15.23191 -58.4072,33.53317 -18.7584,63.77059 -44.0208,-7.7907 -56.8589,1.29341 -25.0707,34.52985 -48.4768,-26.51032 -57.7042,11.03905 -17.7932,42.69309 z"
       id="path4508-2"
       inkscape:connector-curvature="0"
       sodipodi:nodetypes="cccccccccccccccccccccccccccc" />
    <path
       style="fill:#ffffff;fill-rule:evenodd;stroke:none;stroke-width:0.948103px;stroke-linecap:butt;stroke-linejoin:miter;stroke-opacity:1"
       d="m 1769.5044,423.01474 c 63.9612,-15.98879 63.9232,-32.79495 71.6929,-40.62661 54.4882,-5.72993 87.7448,-47.55926 77.6703,-102.20871 -3.5879,-16.85606 18.9915,-15.2184 19.391,4.83139 -1.0987,60.691 -16.1574,91.15186 -91.941,107.14119 -13.3423,25.71642 -40.0046,26.09144 -76.8132,30.86274 z"
       id="path4272-2"
       inkscape:connector-curvature="0"
       sodipodi:nodetypes="cccccc" />
    <path
       style="color:#000000;display:inline;overflow:visible;visibility:visible;fill:#ffffff;fill-opacity:1;fill-rule:nonzero;stroke:none;stroke-width:1.15076px;marker:none;enable-background:accumulate"
       d="m 451.5565,1524.1672 c 77.73068,-52.6757 108.17029,-66.4987 176.8647,-111.3306 l -5.71608,28.8704 c 60.48451,-34.1783 93.06945,-54.7177 138.95581,-81.4871 l 64.72178,-3.0505 c -49.31969,23.1577 -186.82827,93.8637 -233.75953,124.887 l 2.854,-25.9346 c -80.19296,32.7945 -87.07813,44.4174 -143.92068,68.0454 z"
       id="path4032-1"
       inkscape:connector-curvature="0"
       sodipodi:nodetypes="cccccccc" />
    <path
       style="color:#000000;display:inline;overflow:visible;visibility:visible;fill:#ffffff;fill-opacity:1;fill-rule:nonzero;stroke:none;stroke-width:0.946773px;marker:none;enable-background:accumulate"
       d="m 1953.8541,1506.2575 c 74.843,1.2486 77.07,-86.4065 88.8547,-128.5666 l 26.4517,50.7412 c 0,0 -44.075,103.6484 -115.3064,77.8254 z"
       id="path3072-56"
       inkscape:connector-curvature="0"
       sodipodi:nodetypes="cccc" />
    <path
       style="color:#000000;display:inline;overflow:visible;visibility:visible;fill:#ffffff;fill-opacity:1;fill-rule:nonzero;stroke:none;stroke-width:0.79567271px;marker:none;enable-background:accumulate"
       d="m 2138.2765,1373.8715 c 7.083,-14.5935 43.7307,-14.3344 57.0828,-10.76 -26.4933,-17.7415 -19.4076,-30.3293 17.5295,-30.4171 -47.6076,-22.874 -15.4904,-21.4379 -0.722,-21.3484 -42.5082,-11.6353 -29.4135,-26.5642 -6.9556,-34.4901 -42.6659,1.0031 -45.5,-1.5368 -32.7532,-20.2482 -16.0847,7.236 -55.2743,24.5116 -50.7018,-11.8774 -30.871,19.0416 -60.1785,30.4388 -79.6501,-2.4622 -15.7447,21.2072 -46.3729,26.1422 -71.8843,-6.7353 5.9513,34.5083 -27.3041,22.7757 -60.2332,11.8389 16.9548,18.5088 -7.1078,34.0752 -39.2787,22.0861 21.5451,15.8624 -6.2713,16.8565 -28.0193,20.1018 28.4359,7.2962 33.4694,13.8228 -20.0549,18.4223 40.4962,2.3235 68.1727,2.8941 29.7626,26.423 23.2617,-5.809 76.8486,-11.4994 33.3892,34.8622 41.0813,-19.549 62.6361,-23.7754 46.7934,6.3377 16.9974,-18.2753 80.8218,-28.1486 92.1309,-3.9828 4.8077,-9.906 23.2226,-12.9488 38.7457,-12.7713 5.8355,4.2538 11.802,9.9503 17.9698,17.3459 11.1455,-14.5375 27.3267,-24.0005 56.8492,-2.3251 z"
       id="path3549-3-7-1"
       inkscape:connector-curvature="0"
       sodipodi:nodetypes="cccccccccccccccccccc" />
  </g>
  <g
     inkscape:groupmode="layer"
     id="layer1"
     inkscape:label="txt">
    <text
       xml:space="preserve"
       style="font-style:normal;font-variant:normal;font-weight:normal;font-stretch:normal;font-size:105.817px;line-height:1.25;font-family:Lavi;-inkscape-font-specification:Lavi;letter-spacing:0px;word-spacing:0px;fill:#000000;fill-opacity:1;stroke:#030303;stroke-width:0.716208;stroke-miterlimit:4;stroke-dasharray:none;stroke-opacity:1;filter:url(#filter4375-4-1-1-1-9-5-8-8-5-5-3-8)"
       x="787.65729"
       y="1584.5073"
       id="text4580-6-0-0-0-9-3-36"
       transform="matrix(1.0231031,-0.37102511,-0.35076992,1.3038401,-25.652514,-621.71416)"><tspan
         style="font-size:152.472px;fill:#000000;fill-opacity:1;stroke:#030303;stroke-width:0.716208;stroke-miterlimit:4;stroke-dasharray:none;stroke-opacity:1"
         sodipodi:role="line"
         id="tspan876-6-1"
         x="787.65729"
         y="1584.5073">?<tspan
   style="font-size:127.883px"
   id="tspan925">!</tspan></tspan></text>
    <text
       xml:space="preserve"
       style="font-style:normal;font-variant:normal;font-weight:normal;font-stretch:normal;font-size:69.03659821px;line-height:1.25;font-family:Lavi;-inkscape-font-specification:Lavi;text-align:center;letter-spacing:0px;word-spacing:0px;text-anchor:middle;fill:#000000;fill-opacity:1;stroke:none;stroke-width:1.53412998"
       x="1419.605"
       y="191.08641"
       id="text4246-3-2-2-6-3-7-9-3-3-56-9-3-20-3-3-2-7-2"
       transform="matrix(0.99725425,0,-0.12471947,1.0027533,0,0)"><tspan
         style="font-style:normal;font-variant:normal;font-weight:bold;font-stretch:normal;font-size:69.03659821px;font-family:Lavi;-inkscape-font-specification:'Lavi Bold';stroke-width:1.53412998"
         sodipodi:role="line"
         x="1419.605"
         y="191.08641"
         id="tspan1414-3">GLACAIBH I!!</tspan></text>
    <text
       xml:space="preserve"
       style="font-style:normal;font-variant:normal;font-weight:normal;font-stretch:normal;font-size:45px;line-height:1.25;font-family:Lavi;-inkscape-font-specification:Lavi;text-align:center;letter-spacing:0px;word-spacing:0px;text-anchor:middle;fill:#000000;fill-opacity:1;stroke:none"
       x="1943.2986"
       y="257.62378"
       id="text4246-3-2-2-6"><tspan
         style="font-size:45px"
         sodipodi:role="line"
         id="tspan1097-2"
         x="1943.2986"
         y="257.62378">Obh obh.</tspan></text>
    <text
       xml:space="preserve"
       style="font-style:normal;font-variant:normal;font-weight:normal;font-stretch:normal;font-size:51.43560028px;line-height:1.25;font-family:Lavi;-inkscape-font-specification:Lavi;text-align:center;letter-spacing:0px;word-spacing:0px;text-anchor:middle;fill:#000000;fill-opacity:1;stroke:none;stroke-width:1.14301002"
       x="782.15143"
       y="1308.6313"
       id="text4246-3-2-2-6-3"><tspan
         style="font-size:51.43560028px;stroke-width:1.14301002"
         sodipodi:role="line"
         id="tspan1097-2-6"
         x="782.15143"
         y="1308.6313">A Pheabar, gabh mo sguab-sa!</tspan></text>
    <text
       xml:space="preserve"
       style="font-style:normal;font-variant:normal;font-weight:normal;font-stretch:normal;font-size:8.55136013px;line-height:0%;font-family:Lavi;-inkscape-font-specification:Lavi;letter-spacing:0px;word-spacing:0px;fill:#000000;fill-opacity:1;stroke:#000000;stroke-width:8.13070011;stroke-miterlimit:4;stroke-dasharray:none;stroke-opacity:1;paint-order:stroke fill markers"
       x="1769.7273"
       y="1956.4039"
       id="text4580-25"
       transform="matrix(1.0352599,-0.3538216,-0.45318147,1.1208252,0,0)"><tspan
         sodipodi:role="line"
         id="tspan4582-4"
         x="1769.7273"
         y="1956.4039"
         style="font-size:49.88290024px;line-height:100%;letter-spacing:3.48001003px;fill:#ffffff;stroke:#000000;stroke-width:8.13070011;stroke-miterlimit:4;stroke-dasharray:none;stroke-opacity:1;paint-order:stroke fill markers"><tspan
           style="font-size:57.2942009px;line-height:100%;letter-spacing:3.48001003px;stroke:#000000;stroke-width:8.13070011;stroke-miterlimit:4;stroke-dasharray:none;stroke-opacity:1;paint-order:stroke fill markers"
           id="tspan4617-9">Fisss!</tspan></tspan></text>
    <text
       xml:space="preserve"
       style="font-style:normal;font-variant:normal;font-weight:normal;font-stretch:normal;font-size:53.12200165px;line-height:1.25;font-family:Lavi;-inkscape-font-specification:Lavi;text-align:center;letter-spacing:0px;word-spacing:0px;text-anchor:middle;fill:#000000;fill-opacity:1;stroke:none;stroke-width:1.18049002"
       x="2036.292"
       y="1325.7084"
       id="text4246-3-2-2-6-0"><tspan
         style="font-size:53.12200165px;stroke-width:1.18049002"
         sodipodi:role="line"
         x="2036.292"
         y="1325.7084"
         id="tspan1235">A shaoghail!</tspan></text>
    <text
       xml:space="preserve"
       style="font-style:normal;font-variant:normal;font-weight:normal;font-stretch:normal;font-size:45px;line-height:1.25;font-family:Lavi;-inkscape-font-specification:Lavi;text-align:center;letter-spacing:0px;word-spacing:0px;text-anchor:middle;fill:#000000;fill-opacity:1;stroke:none"
       x="2103.4827"
       y="1394.8405"
       id="text4246-3-2-2-6-0-7"><tspan
         style="font-size:45px"
         sodipodi:role="line"
         x="2110.5139"
         y="1394.8405"
         id="tspan1233-9">Mòran taing, </tspan><tspan
         style="font-size:45px"
         sodipodi:role="line"
         x="2103.4827"
         y="1451.0905"
         id="tspan1235-3">a Chròch!</tspan></text>
    <text
       xml:space="preserve"
       style="font-style:normal;font-variant:normal;font-weight:normal;font-stretch:normal;font-size:7.13715982px;line-height:0%;font-family:Lavi;-inkscape-font-specification:Lavi;letter-spacing:0px;word-spacing:0px;fill:#000000;fill-opacity:1;stroke:#000000;stroke-width:6.78606987;stroke-miterlimit:4;stroke-dasharray:none;stroke-opacity:1;paint-order:stroke fill markers"
       x="2509.1191"
       y="2128.6602"
       id="text4580-25-7"
       transform="matrix(0.94891997,-0.36282871,-0.2498382,1.1493577,0,0)"><tspan
         sodipodi:role="line"
         id="tspan4582-4-5"
         x="2509.1191"
         y="2128.6602"
         style="font-size:41.63339996px;line-height:100%;letter-spacing:2.90450001px;fill:#ffffff;stroke:#000000;stroke-width:6.78606987;stroke-miterlimit:4;stroke-dasharray:none;stroke-opacity:1;paint-order:stroke fill markers"><tspan
           style="font-size:47.81900024px;line-height:100%;letter-spacing:2.90450001px;stroke:#000000;stroke-width:6.78606987;stroke-miterlimit:4;stroke-dasharray:none;stroke-opacity:1;paint-order:stroke fill markers"
           id="tspan4617-9-3">Poc!</tspan></tspan></text>
    <text
       xml:space="preserve"
       style="font-style:normal;font-variant:normal;font-weight:normal;font-stretch:normal;font-size:99.13069916px;line-height:1.25;font-family:Lavi;-inkscape-font-specification:Lavi;letter-spacing:0px;word-spacing:0px;fill:#ffffff;fill-opacity:1;stroke:#ffffff;stroke-width:0.71620798;stroke-miterlimit:4;stroke-dasharray:none;stroke-opacity:1;filter:url(#filter4375-4-1-1-1-9-5-8-8-5-5-3-8-5)"
       id="text4580-6-0-0-0-9-3-36-6"
       transform="matrix(0.83569631,-0.05703359,0,0.91800268,450.98089,-394.64664)"><textPath
         xlink:href="#path974"
         id="textPath1153"><tspan
   style="font-size:99.13069916px;fill:#ffffff;fill-opacity:1;stroke:#ffffff;stroke-width:0.71620798;stroke-miterlimit:4;stroke-dasharray:none;stroke-opacity:1"
   id="tspan876-6-1-1"><tspan
     style="font-size:73.65470123px;fill:#ffffff;fill-opacity:1;stroke-width:0.71620798"
     id="tspan884-0-2"
     rotate="0"><tspan
   style="font-size:87.30249786px;fill:#ffffff;stroke-width:0.71620798"
   id="tspan976-9"
   rotate="0 0 0 0 0">Fruu</tspan>U<tspan
   style="font-size:100.94999695px;fill:#ffffff;stroke-width:0.71620798"
   id="tspan972-3"
   rotate="0 0">U</tspan></tspan><tspan
     id="tspan974-1"
     style="font-size:155.54200745px;fill:#ffffff;stroke-width:0.71620798"
     rotate="0 0">U</tspan><tspan
     style="font-size:182.83799744px;fill:#ffffff;stroke-width:0.71620798"
     id="tspan958-9"
     rotate="0 0 20 0">iS!</tspan></tspan></textPath></text>
    <path
       style="fill:none;fill-rule:evenodd;stroke:none;stroke-width:0.989149px;stroke-linecap:butt;stroke-linejoin:miter;stroke-opacity:1"
       d="M 587.57621,4024.2799 C 1026.33,4092.146 1310.4295,3793.5377 1509.4977,3369.7215"
       id="path974"
       sodipodi:nodetypes="cc" />
    <text
       xml:space="preserve"
       style="font-style:normal;font-variant:normal;font-weight:normal;font-stretch:normal;font-size:46.97480011px;line-height:1.25;font-family:Lavi;-inkscape-font-specification:Lavi;text-align:end;letter-spacing:0px;word-spacing:0px;text-anchor:end;fill:#000000;fill-opacity:1;stroke:none;stroke-width:1.04387999"
       x="2872.979"
       y="3161.5713"
       id="text4246-3-2-2-6-3-8"
       transform="matrix(0.91327378,0,-0.07872707,1.0949619,0,0)"><tspan
         style="font-style:normal;font-variant:normal;font-weight:bold;font-stretch:normal;font-size:46.97480011px;font-family:Lavi;-inkscape-font-specification:'Lavi Bold';text-align:end;text-anchor:end;stroke-width:1.04387999"
         sodipodi:role="line"
         id="tspan1097-2-6-7"
         x="2872.979"
         y="3161.5713">RI LEANTAINN…</tspan></text>
  </g>
</svg>
