<?xml version="1.0" encoding="UTF-8" standalone="no"?>
<svg
   xmlns:dc="http://purl.org/dc/elements/1.1/"
   xmlns:cc="http://creativecommons.org/ns#"
   xmlns:rdf="http://www.w3.org/1999/02/22-rdf-syntax-ns#"
   xmlns:svg="http://www.w3.org/2000/svg"
   xmlns="http://www.w3.org/2000/svg"
   xmlns:xlink="http://www.w3.org/1999/xlink"
   xmlns:sodipodi="http://sodipodi.sourceforge.net/DTD/sodipodi-0.dtd"
   xmlns:inkscape="http://www.inkscape.org/namespaces/inkscape"
   id="svg2"
   version="1.1"
   inkscape:version="0.92.5 (2060ec1f9f, 2020-04-08)"
   width="2481"
   height="3503"
   sodipodi:docname="E34P01.svg">
  <metadata
     id="metadata8">
    <rdf:RDF>
      <cc:Work
         rdf:about="">
        <dc:format>image/svg+xml</dc:format>
        <dc:type
           rdf:resource="http://purl.org/dc/dcmitype/StillImage" />
        <dc:title />
      </cc:Work>
    </rdf:RDF>
  </metadata>
  <defs
     id="defs6">
    <filter
       inkscape:collect="always"
       style="color-interpolation-filters:sRGB"
       id="filter7961"
       x="-0.0038362744"
       width="1.0076725"
       y="-0.012583922"
       height="1.0251678"
       inkscape:label="blur-layer-whisper">
      <feGaussianBlur
         inkscape:collect="always"
         stdDeviation="2.6222679"
         id="feGaussianBlur7963" />
    </filter>
    <filter
       style="color-interpolation-filters:sRGB;"
       inkscape:label="narrator-drop-shadow"
       id="filter8274"
       width="1.3"
       height="1.5">
      <feFlood
         flood-opacity="0.603922"
         flood-color="rgb(0,21,64)"
         result="flood"
         id="feFlood8264" />
      <feComposite
         in="flood"
         in2="SourceGraphic"
         operator="in"
         result="composite1"
         id="feComposite8266" />
      <feGaussianBlur
         in="composite1"
         stdDeviation="2.0230825044646368"
         result="blur"
         id="feGaussianBlur8268" />
      <feOffset
         dx="-7.4077921838061513"
         dy="4.8380533854166714"
         result="offset"
         id="feOffset8270" />
      <feComposite
         in="SourceGraphic"
         in2="offset"
         operator="over"
         result="fbSourceGraphic"
         id="feComposite8272" />
      <feColorMatrix
         result="fbSourceGraphicAlpha"
         in="fbSourceGraphic"
         values="0 0 0 -1 0 0 0 0 -1 0 0 0 0 -1 0 0 0 0 1 0"
         id="feColorMatrix8420" />
      <feFlood
         id="feFlood8422"
         flood-opacity="0.061934527228860295"
         flood-color="rgb(0,12,37)"
         result="flood"
         in="fbSourceGraphic" />
      <feComposite
         in2="fbSourceGraphic"
         id="feComposite8424"
         in="flood"
         operator="in"
         result="composite1" />
      <feGaussianBlur
         id="feGaussianBlur8426"
         in="composite1"
         stdDeviation="1"
         result="blur" />
      <feOffset
         id="feOffset8428"
         dx="-3.3194756113327486"
         dy="-2.8318869588504754"
         result="offset" />
      <feComposite
         in2="offset"
         id="feComposite8430"
         in="fbSourceGraphic"
         operator="over"
         result="composite2" />
    </filter>
  </defs>
  <sodipodi:namedview
     pagecolor="#ffffff"
     bordercolor="#666666"
     borderopacity="1"
     objecttolerance="10"
     gridtolerance="10"
     guidetolerance="10"
     inkscape:pageopacity="0"
     inkscape:pageshadow="2"
     inkscape:window-width="1920"
     inkscape:window-height="1023"
     id="namedview4"
     showgrid="false"
     inkscape:zoom="0.30952006"
     inkscape:cx="358.02046"
     inkscape:cy="968.56185"
     inkscape:window-x="0"
     inkscape:window-y="0"
     inkscape:window-maximized="1"
     inkscape:current-layer="layer1"
     inkscape:document-rotation="0"
     borderlayer="true"
     inkscape:snap-global="false" />
  <g
     inkscape:groupmode="layer"
     id="layer2"
     inkscape:label="artwork"
     sodipodi:insensitive="true">
    <image
       sodipodi:absref="/home/peppercarrot/webcomics/"
       xlink:href="../gfx_Pepper-and-Carrot_by-David-Revoy_E34P01.png"
       y="0"
       x="0"
       id="image10"
       height="3503.7233"
       width="2481" />
  </g>
  <g
     inkscape:groupmode="layer"
     id="layer3"
     inkscape:label="speechbubbles-whisper"
     style="display:inline;opacity:0.65;filter:url(#filter7961)">
    <path
       id="path1299"
       style="fill:#e0ffff;fill-rule:evenodd;stroke:none;stroke-width:1.254px;stroke-linecap:butt;stroke-linejoin:miter;stroke-opacity:1"
       d="m 1493.8738,2593.9831 c -39.2719,2.5162 -78.8828,4.2884 -117.4283,13.7911 -31.845,9.4174 -62.5408,24.2883 -88.9374,45.4706 -21.2254,18.6953 -35.874,46.2146 -37.3054,75.1448 -1.2631,32.5142 16.6242,64.1698 43.6129,79.6764 19.9691,12.1023 41.829,20.3148 63.4018,28.8193 31.3959,11.2866 64.8685,15.5286 98.1536,15.592 40.6006,0.5577 81.1943,-2.4683 121.7525,-4.8903 32.2428,-2.1395 64.8525,-4.9366 95.9605,-15.123 18.5959,-6.3365 36.0037,-17.1139 49.5181,-32.0521 10.8815,-11.4412 21.1498,-24.5457 25.2288,-40.3218 4.3467,-17.4793 1.8359,-35.8231 -3.008,-52.7156 -6.2462,-20.9843 -18.6778,-39.475 -34.2161,-54.0521 -17.1123,-16.186 -36.4368,-30.1537 -58.0332,-39.1518 -10.9433,-4.6851 -22.4784,-7.7518 -34.1719,-9.7804 -29.6254,-5.6806 -59.7716,-8.0375 -89.8568,-10.0475 -11.5414,-0.5431 -23.1079,-0.6169 -34.6711,-0.3596 z" />
    <path
       style="fill:#e0ffff;fill-rule:evenodd;stroke:none;stroke-width:1.96093023px;stroke-linecap:butt;stroke-linejoin:miter;stroke-opacity:1"
       d="m 1200.31,2507.5181 c -35.4085,0.636 -71.4108,3.4762 -103.7437,11.7605 -38.2236,10.3873 -64.7233,32.9313 -64.6312,56.3535 0.8599,12.2117 11.5826,23.7541 26.6421,32.5956 10.8193,6.318 24.4017,10.972 38.5673,14.7222 28.5206,7.8032 60.4823,11.4254 92.273,11.6255 50.6546,1.5347 101.894,-0.3839 151.193,-7.1169 23.2007,-3.3062 46.2997,-8.5816 63.4927,-17.9839 17.5993,-9.2868 30.4987,-21.8361 32.0209,-35.3496 0.4672,-12.1148 -9.1503,-23.618 -21.6731,-33.3512 -15.9581,-12.9258 -40.3448,-23.0243 -68.3934,-26.5277 -34.1238,-5.1019 -69.7254,-5.6833 -104.8604,-6.5085 -13.625,-0.2165 -27.2572,-0.2443 -40.8872,-0.2195 z"
       id="path1285"
       inkscape:connector-curvature="0" />
    <path
       style="vector-effect:none;fill:#e0ffff;fill-opacity:1;stroke:none;stroke-width:1.32852268px;stroke-linecap:butt;stroke-linejoin:miter;stroke-miterlimit:4;stroke-dasharray:none;stroke-dashoffset:0;stroke-opacity:1"
       d="m 249.78077,2507.1549 c -28.96482,1.2958 -58.04552,11.0793 -80.61423,30.2238 -19.01271,15.5865 -34.92863,36.1381 -42.30076,60.2763 -12.23571,43.4189 2.70976,93.6905 36.81991,122.1483 18.49381,15.7072 41.42339,24.5547 64.46236,30.2784 38.94353,9.3186 79.68973,10.3782 119.0812,3.4561 23.86569,-4.9252 47.26861,-15.2791 65.01217,-32.8334 19.2407,-19.0556 31.80937,-45.7169 32.6872,-73.3993 0.61337,-15.5066 -1.17937,-31.0318 -4.11033,-46.2197 -5.00046,-23.7118 -17.15778,-46.0802 -35.46277,-61.5109 -12.206,-10.429 -26.86308,-17.5053 -42.1691,-21.512 -26.12658,-7.4914 -53.33735,-9.6428 -80.3298,-10.632 -11.02275,-0.3017 -22.05018,-0.2809 -33.07585,-0.2756 z"
       id="path3280-8-90"
       inkscape:connector-curvature="0"
       sodipodi:nodetypes="csssc" />
    <path
       style="fill:#e0ffff;fill-opacity:1;fill-rule:evenodd;stroke:none;stroke-width:1.28082px;stroke-linecap:butt;stroke-linejoin:miter;stroke-opacity:1"
       d="m 405.61348,2631.9631 c 42.85265,-5.0607 58.06957,-2.3086 68.49973,0.7202 10.42915,3.0295 34.5561,33.0962 43.85358,53.3011 -34.06156,-36.1486 -48.52756,-39.3772 -65.05064,-34.4498 -16.52311,4.9273 -63.29994,23.4366 -63.29994,23.4366 l 11.09296,-45.4041 z"
       id="path1291"
       inkscape:connector-curvature="0"
       sodipodi:nodetypes="csccccc" />
    <path
       style="fill:#e0ffff;fill-rule:evenodd;stroke:none;stroke-width:0.964753px;stroke-linecap:butt;stroke-linejoin:miter;stroke-opacity:1"
       d="m 1434.2038,2989.2388 c 48.3667,-37.0134 81.9085,-79.2404 77.928,-171.8638 l 30.8393,-3.1198 c -4.7727,67.6875 -17.9327,144.5385 -108.7673,174.9836 z"
       id="path1291-6"
       inkscape:connector-curvature="0"
       sodipodi:nodetypes="cccc" />
  </g>
  <g
     inkscape:groupmode="layer"
     id="layer4"
     inkscape:label="speechbubbles"
     style="display:inline">
    <path
       id="path4040-4-1"
       style="color:#000000;display:inline;overflow:visible;visibility:visible;fill:#ffffff;fill-opacity:1;fill-rule:nonzero;stroke:none;stroke-width:0.85299212px;marker:none;enable-background:accumulate"
       d="m 407.39459,1883.1614 c -45.6987,0.6566 -91.71356,0.4085 -136.88478,11.822 -26.72595,7.4568 -52.25982,26.7995 -70.24881,56.7353 -8.19845,13.7917 -13.98056,30.5859 -16.38606,48.4857 -4.24097,28.6222 -2.49297,58.4965 2.318,86.7211 5.10125,28.4752 15.11562,55.811 30.80624,74.9245 14.18458,17.699 31.95748,28.5506 50.26266,33.401 18.19339,5.2741 36.65963,8.3349 55.13173,10.647 51.57328,5.8926 103.33371,2.4892 154.98237,1.4344 30.11357,-1.1524 60.61856,-5.3315 89.15555,-20.1674 15.8762,-7.8198 31.89608,-17.5094 44.27456,-34.3924 11.10573,-16.5926 16.4586,-39.1365 20.1942,-61.1454 4.48416,-27.922 5.90037,-57.0914 3.0207,-85.518 -3.40631,-27.8363 -14.05481,-53.5317 -29.25496,-71.1873 -12.89252,-15.4339 -28.5879,-25.0367 -44.61338,-31.2903 -45.60823,-19.6342 -93.63957,-20.4254 -140.82158,-20.5075 -3.97887,-0.018 -7.95762,0.012 -11.93644,0.038 z"
       inkscape:connector-curvature="0" />
    <path
       style="color:#000000;display:inline;overflow:visible;visibility:visible;fill:#ffffff;fill-opacity:1;fill-rule:nonzero;stroke:none;stroke-width:1.80075px;marker:none;enable-background:accumulate"
       d="m 539.19946,1927.3519 c 7.55014,-44.8382 62.74837,-99.1824 137.61984,-61.3131 -80.77928,-16.5552 -107.19343,39.0539 -106.74645,81.3775 0.39562,37.4602 -16.36437,17.1598 -16.36437,17.1598 z"
       id="path4440-1"
       inkscape:connector-curvature="0"
       sodipodi:nodetypes="ccscc" />
    <path
       style="color:#000000;display:inline;overflow:visible;visibility:visible;fill:#ffffff;fill-opacity:1;fill-rule:nonzero;stroke:none;stroke-width:0.79339677px;marker:none;enable-background:accumulate"
       d="m 1865.9202,2932.4355 c -24.0012,2.5941 -48.16,6.1471 -70.8347,15.0673 -11.9383,5.0192 -21.6254,15.2749 -27.4467,27.5302 -4.5462,9.6259 -6.7682,20.8902 -4.7836,31.7544 3.0273,17.7548 14.7429,33.6763 30.1587,40.7039 14.6933,7.3046 30.7776,9.9763 46.6147,11.8771 36.4991,4.1258 73.1273,2.1775 109.6845,3.6831 16.0626,0.5793 32.462,-1.5255 47.0702,-8.7592 12.321,-5.9879 23.373,-15.7271 29.7456,-28.7969 4.6203,-9.1181 6.3892,-20.0225 4.493,-30.4029 -1.5226,-9.349 -5.7622,-18.1027 -11.6656,-25.1567 -9.0206,-11.1973 -21.4092,-18.6282 -34.3119,-22.9969 -17.4324,-6.3166 -35.5278,-9.99 -53.6441,-12.6239 -21.6203,-2.8848 -43.4304,-3.1672 -65.0801,-1.8795 z"
       id="path4040-2"
       inkscape:connector-curvature="0"
       sodipodi:nodetypes="zssssz" />
    <path
       style="color:#000000;display:inline;overflow:visible;visibility:visible;fill:#ffffff;fill-opacity:1;fill-rule:nonzero;stroke:none;stroke-width:0.811733px;marker:none;enable-background:accumulate"
       d="m 1970.7532,2998.2521 c 42.5246,54.5422 86.7334,47.5024 118.7066,15.8691 -23.32,34.399 -69.359,69.3478 -144.2603,0.1036 -14.3413,-13.258 25.5537,-15.9727 25.5537,-15.9727 z"
       id="path5010-4"
       inkscape:connector-curvature="0"
       sodipodi:nodetypes="ccsc" />
    <path
       style="color:#000000;display:inline;overflow:visible;visibility:visible;fill:#ffffff;fill-opacity:1;fill-rule:nonzero;stroke:none;stroke-width:0.86670703px;marker:none;enable-background:accumulate"
       d="m 1824.6052,2808.7002 c -25.5175,0.9317 -51.8015,6.2086 -73.1888,20.844 -13.2107,9.4086 -20.5516,24.5743 -26.0268,39.3864 -6.4831,17.1109 -9.342,36.6522 -2.8257,54.1969 6.7393,18.1454 22.054,31.7096 38.7641,40.6713 36.4689,19.6751 79.7794,24.1739 120.2688,17.2095 13.1201,-2.2337 26.3564,-5.6136 37.6244,-12.9763 14.7645,-9.1974 26.2969,-23.3855 32.1992,-39.7572 9.3617,-24.7536 7.0116,-54.3909 -8.6883,-76.0903 -12.7402,-17.843 -32.8023,-29.1862 -53.6972,-34.7402 -20.8795,-6.115 -42.6813,-9.0046 -64.4297,-8.7441 z"
       id="path4040-2-5"
       inkscape:connector-curvature="0"
       sodipodi:nodetypes="zssssz" />
    <rect
       style="color:#000000;overflow:visible;fill:#eeffdb;fill-opacity:0.89322001;stroke:#807e00;stroke-width:8.05222988;stroke-opacity:1;paint-order:stroke fill markers;filter:url(#filter8274)"
       id="rect8238"
       width="417.40149"
       height="86.261734"
       x="128.97966"
       y="127.99652"
       transform="matrix(1.2046816,0,0,0.92607555,-23.311139,13.607025)" />
  </g>
  <g
     inkscape:groupmode="layer"
     id="layer1"
     inkscape:label="txt">
    <text
       xml:space="preserve"
       style="font-style:normal;font-variant:normal;font-weight:normal;font-stretch:normal;font-size:45px;line-height:1.25;font-family:Lavi;-inkscape-font-specification:Lavi;text-align:center;letter-spacing:0px;word-spacing:0px;text-anchor:middle;fill:#000000;fill-opacity:1;stroke:none"
       x="383.29865"
       y="186.49605"
       id="text4246-3-2-2-35"><tspan
         style="font-size:45px"
         sodipodi:role="line"
         x="383.29865"
         y="186.49605"
         id="tspan905-2">Air an dearbh oidhche…</tspan></text>
    <text
       xml:space="preserve"
       style="font-style:normal;font-variant:normal;font-weight:normal;font-stretch:normal;font-size:45px;line-height:1.25;font-family:Lavi;-inkscape-font-specification:Lavi;text-align:center;letter-spacing:0px;word-spacing:0px;text-anchor:middle;fill:#000000;fill-opacity:1;stroke:none"
       x="407.95737"
       y="1958.8977"
       id="text4246-3-2-2"><tspan
         style="font-size:45px"
         sodipodi:role="line"
         x="414.98862"
         y="1958.8977"
         id="tspan885">…agus le sin bheir </tspan><tspan
         style="font-size:45px"
         sodipodi:role="line"
         x="407.95737"
         y="2015.1477"
         id="tspan883">sinn fàilte ort a-</tspan><tspan
         style="font-size:45px"
         sodipodi:role="line"
         x="414.98862"
         y="2071.3977"
         id="tspan893">nochd, a Shidsimi, </tspan><tspan
         style="font-size:45px"
         sodipodi:role="line"
         x="414.98862"
         y="2127.6477"
         id="tspan881">’nad Bhan-ridire </tspan><tspan
         style="font-size:45px"
         sodipodi:role="line"
         x="407.95737"
         y="2183.8977"
         id="tspan895">Achd as òige.</tspan></text>
    <text
       xml:space="preserve"
       style="font-style:normal;font-variant:normal;font-weight:normal;font-stretch:normal;font-size:45px;line-height:1.25;font-family:Lavi;-inkscape-font-specification:Lavi;text-align:center;letter-spacing:0px;word-spacing:0px;text-anchor:middle;fill:#000000;fill-opacity:1;stroke:none"
       x="281.69833"
       y="2602.4832"
       id="text4246-3-2-2-3"><tspan
         style="font-size:45px;fill:#000000;fill-opacity:1"
         sodipodi:role="line"
         x="288.72958"
         y="2602.4832"
         id="tspan1165">A bheil sgeul </tspan><tspan
         style="font-size:45px;fill:#000000;fill-opacity:1"
         sodipodi:role="line"
         x="288.72958"
         y="2658.7332"
         id="tspan904">air Peabar </tspan><tspan
         style="font-size:45px;fill:#000000;fill-opacity:1"
         sodipodi:role="line"
         x="281.69833"
         y="2714.9832"
         id="tspan902">fhathast?</tspan></text>
    <text
       xml:space="preserve"
       style="font-style:normal;font-variant:normal;font-weight:normal;font-stretch:normal;font-size:45px;line-height:1.25;font-family:Lavi;-inkscape-font-specification:Lavi;text-align:center;letter-spacing:0px;word-spacing:0px;text-anchor:middle;white-space:pre;fill:#000000;fill-opacity:1;stroke:none"
       x="1235.5311"
       y="2587.5854"
       id="text4246-3-2-2-3-5"><tspan
         x="1235.5311"
         y="2587.5854"
         id="tspan48"><tspan
           style="font-size:45px;fill:#000000;fill-opacity:1"
           id="tspan46">Chan eil fhathast.</tspan></tspan></text>
    <text
       xml:space="preserve"
       style="font-style:normal;font-variant:normal;font-weight:normal;font-stretch:normal;font-size:45px;line-height:1.25;font-family:Lavi;-inkscape-font-specification:Lavi;text-align:center;letter-spacing:0px;word-spacing:0px;text-anchor:middle;fill:#000000;fill-opacity:1;stroke:none"
       x="1506.9663"
       y="2681.9597"
       id="text4246-3-2-2-3-5-1"><tspan
         style="font-size:45px;fill:#000000;fill-opacity:1"
         sodipodi:role="line"
         x="1513.9976"
         y="2681.9597"
         id="tspan7590">Mura cuir i </tspan><tspan
         style="font-size:45px;fill:#000000;fill-opacity:1"
         sodipodi:role="line"
         x="1513.9976"
         y="2738.2097"
         id="tspan917">greas oirre, caillidh i </tspan><tspan
         style="font-size:45px;fill:#000000;fill-opacity:1"
         sodipodi:role="line"
         x="1506.9663"
         y="2794.4597"
         id="tspan923">òraid Sidimi.</tspan></text>
    <text
       xml:space="preserve"
       style="font-style:normal;font-variant:normal;font-weight:normal;font-stretch:normal;font-size:45px;line-height:1.25;font-family:Lavi;-inkscape-font-specification:Lavi;text-align:center;letter-spacing:0px;word-spacing:0px;text-anchor:middle;fill:#000000;fill-opacity:1;stroke:none"
       x="1839.7936"
       y="2878.1755"
       id="text4246-3-2-2-3-5-1-7"><tspan
         style="font-size:45px"
         sodipodi:role="line"
         x="1846.8248"
         y="2878.1755"
         id="tspan7676">Mòran </tspan><tspan
         style="font-size:45px"
         sodipodi:role="line"
         x="1839.7936"
         y="2934.4255"
         id="tspan931">taing.</tspan></text>
    <text
       xml:space="preserve"
       style="font-style:normal;font-variant:normal;font-weight:normal;font-stretch:normal;font-size:45px;line-height:1.25;font-family:Lavi;-inkscape-font-specification:Lavi;text-align:center;letter-spacing:0px;word-spacing:0px;text-anchor:middle;fill:#000000;fill-opacity:1;stroke:none"
       x="1900.54"
       y="3017.3691"
       id="text4246-3-2-2-3-5-1-7-3"><tspan
         style="font-size:45px"
         sodipodi:role="line"
         x="1900.54"
         y="3017.3691"
         id="tspan7730">Bu toigh l’…</tspan></text>
  </g>
</svg>
