<?xml version="1.0" encoding="UTF-8" standalone="no"?>
<!-- Created with Inkscape (http://www.inkscape.org/) -->

<svg
   xmlns:dc="http://purl.org/dc/elements/1.1/"
   xmlns:cc="http://creativecommons.org/ns#"
   xmlns:rdf="http://www.w3.org/1999/02/22-rdf-syntax-ns#"
   xmlns:svg="http://www.w3.org/2000/svg"
   xmlns="http://www.w3.org/2000/svg"
   xmlns:xlink="http://www.w3.org/1999/xlink"
   xmlns:sodipodi="http://sodipodi.sourceforge.net/DTD/sodipodi-0.dtd"
   xmlns:inkscape="http://www.inkscape.org/namespaces/inkscape"
   id="svg2"
   version="1.1"
   inkscape:version="0.92.4 (5da689c313, 2019-01-14)"
   width="2481"
   height="3503"
   sodipodi:docname="E36P04.svg">
  <metadata
     id="metadata8">
    <rdf:RDF>
      <cc:Work
         rdf:about="">
        <dc:format>image/svg+xml</dc:format>
        <dc:type
           rdf:resource="http://purl.org/dc/dcmitype/StillImage" />
        <dc:title />
      </cc:Work>
    </rdf:RDF>
  </metadata>
  <defs
     id="defs6">
    <filter
       inkscape:collect="always"
       style="color-interpolation-filters:sRGB"
       id="filter827"
       x="-0.0065555413"
       y="-0.0039446045"
       width="1.0131111"
       height="1.0078892">
      <feGaussianBlur
         inkscape:collect="always"
         stdDeviation="5.1724067"
         id="feGaussianBlur829" />
    </filter>
    <filter
       style="color-interpolation-filters:sRGB"
       id="filter5561-1"
       inkscape:label="deevad outline effect"
       x="-0.0040729675"
       y="-0.015367663"
       width="1.0081459"
       height="1.0307353">
      <feFlood
         id="feFlood5563-9"
         flood-opacity="1"
         flood-color="rgb(0,0,0)"
         result="flood" />
      <feComposite
         id="feComposite5565-0"
         in2="SourceGraphic"
         in="flood"
         operator="in"
         result="composite1" />
      <feMorphology
         id="feMorphology5567-7"
         operator="dilate"
         radius="1.8999999999999999 6.0999999999999996"
         result="result3" />
      <feComposite
         id="feComposite5569-2"
         in2="result3"
         in="SourceGraphic"
         operator="over"
         result="composite2" />
    </filter>
  </defs>
  <sodipodi:namedview
     pagecolor="#1e1e1e"
     bordercolor="#111111"
     borderopacity="1"
     objecttolerance="10"
     gridtolerance="10"
     guidetolerance="10"
     inkscape:pageopacity="0"
     inkscape:pageshadow="2"
     inkscape:window-width="1858"
     inkscape:window-height="1057"
     id="namedview4"
     showgrid="false"
     inkscape:zoom="0.43016843"
     inkscape:cx="1061.6401"
     inkscape:cy="688.55254"
     inkscape:window-x="54"
     inkscape:window-y="-8"
     inkscape:window-maximized="1"
     inkscape:current-layer="layer4"
     inkscape:pagecheckerboard="0"
     inkscape:snap-global="false" />
  <g
     inkscape:groupmode="layer"
     id="layer2"
     inkscape:label="artwork"
     sodipodi:insensitive="true">
    <image
       sodipodi:absref="D:\Documents\Others\webcomics\new-ep36_Title-Here\lang\id\../gfx_Pepper-and-Carrot_by-David-Revoy_E36P04.png"
       xlink:href="../gfx_Pepper-and-Carrot_by-David-Revoy_E36P04.png"
       width="2481"
       height="3503"
       id="image10"
       x="0"
       y="0" />
  </g>
  <g
     inkscape:groupmode="layer"
     id="layer4"
     inkscape:label="speechbubbles-whisper"
     style="display:inline;opacity:0.7;mix-blend-mode:screen;filter:url(#filter827)">
    <path
       style="fill:#cdf0ff;fill-opacity:1;stroke:none;stroke-width:0.571523"
       d="m 136.33301,238.02884 c 6.40162,-61.37455 66.92602,-131.82212 208.92557,-121.68162 141.99954,10.13994 196.12232,53.90254 192.04856,137.69232 -4.07376,83.78973 -80.89318,116.34495 -200.19608,111.54172 C 217.80817,360.77805 129.34943,326.62174 136.33301,238.02884 Z"
       id="path3274"
       inkscape:connector-curvature="0" />
    <path
       style="color:#000000;display:inline;overflow:visible;visibility:visible;fill:#cdf0ff;fill-opacity:1;fill-rule:nonzero;stroke:none;stroke-width:1.2829px;marker:none;enable-background:accumulate"
       d="m 237.21621,333.3289 c -60.89615,44.87238 -75.82159,95.90727 -42.44689,136.76086 -66.94955,-55.398 -25.05599,-140.35221 2.50625,-158.22088 26.98706,-17.49572 39.94064,21.46002 39.94064,21.46002 z"
       id="path5010-4"
       inkscape:connector-curvature="0"
       sodipodi:nodetypes="ccsc" />
    <path
       style="fill:#cdf0ff;fill-opacity:1;stroke:none;stroke-width:0.828359"
       d="m 118.55309,1031.0637 c -0.60831,-49.35671 12.69411,-91.55994 152.97823,-91.59878 147.32567,-0.0405 176.73183,26.31197 183.40565,92.89738 9.41802,93.9654 -73.9573,89.5921 -160.97392,89.8308 -121.89156,0.3334 -167.61531,0.4126 -175.40996,-91.1294 z"
       id="path3280-10"
       inkscape:connector-curvature="0"
       sodipodi:nodetypes="csssc" />
    <path
       style="opacity:1;fill:#cdf0ff;fill-opacity:1;stroke:none;stroke-width:0.85324454"
       d="m 372.38346,1139.5355 c -0.70281,-45.3262 14.66592,-84.083 176.74066,-84.1187 170.21007,-0.037 204.18397,24.1633 211.89443,85.3112 10.88095,86.2921 -85.44524,82.2759 -185.97833,82.4951 -140.82524,0.3061 -193.65136,0.3789 -202.65676,-83.6876 z"
       id="path3280-10-9"
       inkscape:connector-curvature="0"
       sodipodi:nodetypes="csssc" />
    <path
       style="fill:#cdf0ff;stroke:none;stroke-width:0.9001;fill-opacity:1"
       d="m 414.45801,1041.2033 c 1.8259,-28.5636 11.25884,-52.98674 91.14989,-53.00954 83.90114,-0.027 99.48767,15.22754 100.35756,53.76114 1.22784,54.3791 -46.06047,51.8485 -95.62547,51.9869 -69.4297,0.1929 -95.47205,0.2384 -95.88198,-52.7385 z"
       id="path3280-1"
       inkscape:connector-curvature="0"
       sodipodi:nodetypes="csssc" />
    <path
       inkscape:connector-curvature="0"
       id="path1082-6"
       d="m 280.58037,1007.5411 c -1.05852,1.1484 -2.23987,0.5097 -1.98486,-0.6816 0.46134,-10.2919 -2.14669,-20.41668 -9.6319,-26.29329 -10.13751,-7.29069 -22.77075,-12.21022 -29.84045,-22.59504 -5.75745,-8.74427 -5.01971,-21.18698 -1.49413,-32.91007 4.31252,-14.84587 13.38648,-30.0739 26.78068,-41.34485 6.19451,-5.09695 13.0206,-9.28731 19.6858,-13.63981 1.70647,-1.09332 3.42181,-2.16912 5.1321,-3.25498 -15.98365,14.17836 -28.18362,32.92468 -31.66564,51.29818 -0.83521,11.52515 5.1122,20.58777 12.46283,27.38858 8.74595,8.67863 19.87856,15.63077 24.72663,27.4867 2.05504,6.07335 3.77199,13.18731 -0.0119,20.5838 -3.32768,5.64168 -9.09749,9.69898 -14.15911,13.96238 z"
       style="display:inline;fill:#cdf0ff;fill-opacity:1;fill-rule:evenodd;stroke:none;stroke-width:0.863514px;stroke-linecap:butt;stroke-linejoin:miter;stroke-opacity:1" />
    <path
       style="fill:#cdf0ff;fill-opacity:1;stroke:none;stroke-width:1.16513"
       d="M 1702.8125 126.28125 C 1654.2641 127.56668 1605.6936 130.58396 1557.5711 137.27883 C 1530.1089 142.89462 1505.9065 163.38293 1496.6965 189.97118 C 1492.23 205.13054 1496.9499 221.97227 1506.9482 233.90504 C 1518.6843 249.81108 1536.2785 260.92973 1555.3443 265.8105 C 1569.792 269.58477 1584.8074 269.87635 1599.6031 271.17483 C 1614.6862 272.24312 1629.7638 273.47613 1644.7632 275.40586 C 1679.8702 278.8281 1715.1859 278.43178 1750.4118 279.21755 C 1777.692 279.73713 1805.0243 279.60597 1832.2206 277.1721 C 1866.2154 274.45298 1900.1953 271.26598 1933.9683 266.48798 C 1954.6665 263.04636 1975.5223 256.86848 1992.5996 244.26758 C 2005.4293 234.38993 2012.4386 218.09615 2012.157 202.05161 C 2012.0478 184.32249 2003.6727 166.36778 1988.8102 156.30869 C 1973.1929 145.75478 1955.0027 139.71663 1936.6106 136.1704 C 1910.6575 131.1784 1884.2066 129.47776 1857.842 128.39559 C 1821.4754 127.15248 1785.0826 127.02903 1748.7016 126.47758 C 1734.9132 126.37459 1721.1219 125.99823 1707.3345 126.17814 C 1705.8272 126.21251 1704.3198 126.24688 1702.8125 126.28125 z "
       id="path3280-8-90"
       inkscape:connector-curvature="0"
       sodipodi:nodetypes="csssc" />
    <path
       style="color:#000000;display:inline;overflow:visible;visibility:visible;fill:#cdf0ff;fill-opacity:1;fill-rule:nonzero;stroke:none;stroke-width:1.45931px;marker:none;enable-background:accumulate"
       d="m 1894.2527,478.01503 c -46.7238,3.40887 -69.3017,-79.91577 -74.6609,-127.91878 -5.3593,-48.00301 8.584,-99.29915 8.584,-99.29915 l -48.7389,-16.48951 c 0,0 -2.5241,264.49574 114.8158,243.70744 z"
       id="path3072-5"
       inkscape:connector-curvature="0"
       inkscape:transform-center-x="-2.5695303"
       inkscape:transform-center-y="25.826442"
       sodipodi:nodetypes="czccc" />
    <path
       style="color:#000000;display:inline;overflow:visible;visibility:visible;fill:#cdf0ff;fill-opacity:1;fill-rule:nonzero;stroke:none;stroke-width:1.33796453px;marker:none;enable-background:accumulate"
       d="m 1585.5645,1155.6744 c 1.0953,-55.4749 22.4303,-107.9364 211.562,-106.1209 141.8117,1.3605 179.577,44.1029 182.7189,100.1767 2.2143,39.5168 -74.5068,76.0945 -196.3476,74.1563 -116.4563,-1.8521 -189.4167,-25.906 -197.9333,-68.2121 z"
       id="path5026-3"
       inkscape:connector-curvature="0"
       sodipodi:nodetypes="csssc" />
    <path
       style="fill:#cdf0ff;fill-rule:evenodd;stroke:none;stroke-width:1.78217px;stroke-linecap:butt;stroke-linejoin:miter;stroke-opacity:1;fill-opacity:1"
       d="m 1876.9024,1072.4564 c 28.2335,-6.4279 93.4241,-58.729 105.0673,-115.8066 2.8219,25.56546 -15.0538,86.6026 -55.5282,133.1516 -63.168,72.6485 -68.303,-6.7555 -68.303,-6.7555 z"
       id="path4248"
       inkscape:connector-curvature="0"
       sodipodi:nodetypes="ccscc" />
    <path
       style="fill:#cdf0ff;fill-rule:evenodd;stroke:none;stroke-width:1.22277px;stroke-linecap:butt;stroke-linejoin:miter;stroke-opacity:1;fill-opacity:1"
       d="m 1099.1618,1799.6189 c 55.0256,-83.383 172.3793,-75.3048 263.4952,-78.5144 133.1051,-3.9315 261.657,-25.7446 380.1586,34.0416 37.278,18.8074 49.5467,172.9067 -40.0173,178.8734 -118.7218,15.7986 -239.5241,16.6831 -359.3327,15.71 -71.1739,-4.8814 -149.8532,-8.1169 -210.2451,-46.3633 -29.0631,-26.2994 -42.7255,-66.785 -34.0587,-103.7473 z"
       id="path4246"
       inkscape:connector-curvature="0"
       sodipodi:nodetypes="sssssss" />
    <path
       style="fill:#cdf0ff;fill-opacity:1;stroke:none;stroke-width:0.92893809"
       d="m 1457.7352,1979.5823 c -36.0248,0.5171 -72.7214,3.408 -106.5951,15.6285 -20.2762,7.578 -38.9547,21.0751 -48.1503,39.9168 -12.1359,24.0635 -12.6123,52.068 -5.5613,77.5054 5.8259,20.8181 19.5259,39.9147 38.9842,51.7553 23.4184,15.1097 52.0595,21.8359 80.2911,22.5941 30.0845,1.2964 60.2031,0.081 90.3029,0.3918 30.1495,-0.084 60.835,-0.4058 90.0252,-8.2501 25.7293,-7.5509 47.7876,-25.8904 57.7077,-49.3626 7.527,-16.9058 9.1263,-35.5496 7.7615,-53.6542 -1.0799,-17.6613 -4.0425,-35.9527 -14.1616,-51.2726 -7.758,-11.7487 -19.6132,-20.8651 -33.0759,-26.493 -24.7588,-10.9092 -52.3319,-14.0647 -79.2919,-16.5801 -26.0044,-2.2026 -52.1458,-2.3212 -78.2365,-2.1793 z"
       id="path3280-10-5"
       inkscape:connector-curvature="0"
       sodipodi:nodetypes="csssc" />
    <path
       style="fill:#cdf0ff;fill-rule:evenodd;stroke:none;stroke-width:0.982814px;stroke-linecap:butt;stroke-linejoin:miter;stroke-opacity:1;fill-opacity:1"
       d="m 1452.8701,2063.1977 c 20.0222,-118.9472 -38.8836,-176.8263 -112.6674,-203.8912 -73.7839,-27.0648 -408.44801,-122.5007 -586.75006,31.3 164.14364,-172.6923 505.87416,-84.1291 578.34696,-59.2455 72.4727,24.8835 165.149,62.928 159.016,232.4228 -6.133,169.4949 -37.9455,-0.5861 -37.9455,-0.5861 z"
       id="path98507" />
    <path
       style="color:#000000;display:inline;overflow:visible;visibility:visible;fill:#cdf0ff;fill-opacity:1;fill-rule:nonzero;stroke:none;stroke-width:0.623202px;marker:none;enable-background:accumulate"
       d="m 172.21239,2845.2025 c 24.56093,-36.8211 160.75651,-31.1896 203.11889,-21.7058 46.23086,10.3497 60.46466,25.0144 62.53193,57.1557 0.63857,9.9277 -3.10093,54.9473 -25.84151,63.8101 -22.74053,8.8622 -87.8611,13.2936 -110.60169,13.2936 -22.74052,0 -95.33332,-5.6406 -113.70286,-18.6115 -17.57221,-12.407 -40.06575,-57.1216 -15.50476,-93.9421 z"
       id="path3330-0"
       inkscape:connector-curvature="0"
       sodipodi:nodetypes="zsssssz" />
    <path
       style="color:#000000;display:inline;overflow:visible;visibility:visible;fill:#cdf0ff;fill-opacity:1;fill-rule:nonzero;stroke:none;stroke-width:1.75643301px;marker:none;enable-background:accumulate"
       d="m 288.50496,3039.3885 c -12.17393,-115.9713 95.13654,-186.6108 407.2263,-167.4145 161.89219,9.9579 358.79964,21.3996 346.58924,195.5142 -10.7615,153.459 -275.72224,130.7364 -328.77663,132.5473 -53.0552,1.8108 -327.00497,14.0058 -377.4669,-40.1254 -31.58787,-33.8859 -47.18984,-87.9253 -47.57201,-120.5216 z"
       id="path4546-6-5-3"
       inkscape:connector-curvature="0"
       sodipodi:nodetypes="cssssc" />
    <path
       style="color:#000000;display:inline;overflow:visible;visibility:visible;fill:#cdf0ff;fill-opacity:1;fill-rule:nonzero;stroke:none;stroke-width:0.96622437px;marker:none;enable-background:accumulate"
       d="m 1110.5605,3071.4609 c -45.283,0.3416 -91.9107,1.6341 -134.47266,17.7102 -26.99777,10.1644 -52.70894,26.0653 -68.48216,49.431 -9.63685,14.7754 -14.72389,33.5443 -8.27786,50.3154 6.5135,15.5339 17.8136,29.0546 31.03936,40.1016 19.41256,14.533 44.37576,19.9629 68.47873,23.193 39.90419,5.5969 80.29629,6.7815 120.50399,9.2854 59.6386,2.3858 119.3966,-0.2084 178.8059,-5.2364 24.5818,-2.8405 49.9789,-8.281 69.9563,-22.7223 21.1148,-15.7864 32.4309,-41.6737 30.522,-66.7609 -1.1949,-22.3233 -13.065,-44.2551 -32.7527,-57.2168 -25.5819,-18.219 -57.8649,-25.0055 -89.1212,-28.9408 -38.5317,-4.8843 -77.4309,-6.2658 -116.2178,-8.2836 -16.6513,-0.6271 -33.3167,-0.9397 -49.9819,-0.8758 z"
       id="path4546-1"
       inkscape:connector-curvature="0"
       sodipodi:nodetypes="cssssc" />
    <path
       style="fill:#cdf0ff;fill-rule:evenodd;stroke:none;stroke-width:0.8628px;stroke-linecap:butt;stroke-linejoin:miter;stroke-opacity:1;fill-opacity:1"
       d="m 1485.2712,3247.2085 c -50.4862,11.4936 -118.5889,-1.8333 -151.4166,-46.2885 -32.8277,-44.4549 -2.6699,31.9178 -2.6699,31.9178 0,0 59.9464,55.1538 154.0865,14.3707 z"
       id="path914"
       inkscape:connector-curvature="0"
       sodipodi:nodetypes="cscc" />
  </g>
  <g
     inkscape:groupmode="layer"
     id="layer3"
     inkscape:label="speechbubbles"
     style="display:inline">
    <path
       style="color:#000000;display:inline;overflow:visible;visibility:visible;fill:#ffffff;fill-opacity:1;fill-rule:nonzero;stroke:none;stroke-width:0.76825px;marker:none;enable-background:accumulate"
       d="m 1286.1959,1984.1813 c -18.9485,13.729 -18.2881,22.2591 7.439,23.5835 -43.1447,24.7437 -7.8873,20.9995 -0.9332,27.2737 -33.8765,8.5275 -21.3092,19.6601 -12.6885,29.704 -42.1154,-16.2682 -27.7586,6.1339 -24.8515,20.7092 -11.8143,-9.8963 -30.9848,-19.7481 -22.9114,5.932 -25.7549,-20.467 -47.9262,-38.8367 -50.3894,-3.0184 -10.377,-18.0193 -36.8482,-21.3996 -36.0516,0.092 -21.402,-25.3028 -43.4646,-26.7823 -64.7833,-9.0768 0.7313,-11.3625 25.1813,-35.0922 -26.5648,-18.3608 21.2092,-15.8217 6.0255,-18.1254 -18.9581,-17.5242 20.011,-5.0513 23.6989,-10.2617 -13.4568,-15.8687 28.2734,-0.5427 54.6383,-1.6541 21.4676,-20.7759 10.4066,-0.4632 58.4658,15.3065 10.5872,-44.3656 17.8948,14.9491 52.4898,24.5281 47.3151,-8.6629 28.6587,27.3868 41.0685,13.7711 49.6189,-5.7696 20.1907,28.718 29.8395,23.0011 50.0885,2.0703 1.5387,13.2814 24.2569,30.3795 50.3608,12.8593 -14.218,21.0674 11.1217,26.7445 34.7115,21.1989 z"
       id="path3549-3-7-3"
       inkscape:connector-curvature="0"
       sodipodi:nodetypes="ccccccccccccccccccc" />
    <path
       style="color:#000000;display:inline;overflow:visible;visibility:visible;fill:#ffffff;fill-opacity:1;fill-rule:nonzero;stroke:none;stroke-width:0.837149px;marker:none;enable-background:accumulate"
       d="m 966.36472,2000.5771 c 42.82178,-22.7004 91.81268,-11.0807 106.41908,-4.0321 46.7932,22.5812 18.1866,37.5471 18.1866,37.5471 0.4518,-0.4935 -62.6742,-53.459 -124.60568,-33.515 z"
       id="path5002-7"
       inkscape:connector-curvature="0"
       sodipodi:nodetypes="cscc" />
  </g>
  <g
     inkscape:groupmode="layer"
     id="layer1"
     inkscape:label="txt"
     style="display:inline">
    <text
       id="text4246-4-2-7"
       y="195.1812"
       x="341.45972"
       style="font-style:normal;font-variant:normal;font-weight:normal;font-stretch:normal;line-height:0%;font-family:Lavi;-inkscape-font-specification:Lavi;text-align:center;letter-spacing:0px;word-spacing:0px;text-anchor:middle;fill:#000000;fill-opacity:1;stroke:none"
       xml:space="preserve"><tspan
         y="195.1812"
         x="341.45972"
         style="font-size:45px;line-height:1.25"
         sodipodi:role="line"
         id="tspan710">Aku... Aku</tspan><tspan
         y="251.4312"
         x="341.45972"
         style="font-size:45px;line-height:1.25"
         sodipodi:role="line"
         id="tspan714">minta maaf buat</tspan><tspan
         y="307.68121"
         x="341.45972"
         style="font-size:45px;line-height:1.25"
         sodipodi:role="line"
         id="tspan716">yang terjadi...</tspan></text>
    <text
       id="text4246-4-2-7-3"
       y="1011.4944"
       x="283.29669"
       style="font-style:normal;font-variant:normal;font-weight:normal;font-stretch:normal;line-height:0%;font-family:Lavi;-inkscape-font-specification:Lavi;text-align:center;letter-spacing:0px;word-spacing:0px;text-anchor:middle;fill:#000000;fill-opacity:1;stroke:none"
       xml:space="preserve"><tspan
         y="1011.4944"
         x="283.29669"
         style="font-size:45px;line-height:1.25"
         sodipodi:role="line"
         id="tspan37052">...tahu kan,</tspan><tspan
         y="1067.7444"
         x="283.29669"
         style="font-size:45px;line-height:1.25"
         sodipodi:role="line"
         id="tspan718">perang kita.</tspan></text>
    <text
       id="text4246-4-2-7-3-1"
       y="1058.5084"
       x="530.32697"
       style="font-style:normal;font-variant:normal;font-weight:normal;font-stretch:normal;line-height:0%;font-family:Lavi;-inkscape-font-specification:Lavi;text-align:center;letter-spacing:0px;word-spacing:0px;text-anchor:middle;fill:#000000;fill-opacity:1;stroke:none"
       xml:space="preserve"><tspan
         y="1058.5084"
         x="530.32697"
         style="font-size:45px;line-height:1.25"
         sodipodi:role="line"
         id="tspan37052-0">Aku...</tspan></text>
    <text
       id="text4246-4-2-7-3-5"
       y="1133.2123"
       x="572.98853"
       style="font-style:normal;font-variant:normal;font-weight:normal;font-stretch:normal;line-height:0%;font-family:Lavi;-inkscape-font-specification:Lavi;text-align:center;letter-spacing:0px;word-spacing:0px;text-anchor:middle;fill:#000000;fill-opacity:1;stroke:none"
       xml:space="preserve"><tspan
         y="1133.2123"
         x="572.98853"
         style="font-size:45px;line-height:1.25"
         sodipodi:role="line"
         id="tspan25464">Aku <tspan
   style="font-style:italic;font-variant:normal;font-weight:normal;font-stretch:normal;font-family:Lavi;-inkscape-font-specification:'Lavi Italic'"
   id="tspan44436">terpaksa</tspan></tspan><tspan
         y="1189.4623"
         x="572.98853"
         style="font-size:45px;line-height:1.25"
         sodipodi:role="line"
         id="tspan30466">melakukannya.</tspan></text>
    <text
       id="text4246-4-2-7-9"
       y="194.09795"
       x="1752.517"
       style="font-style:normal;font-variant:normal;font-weight:normal;font-stretch:normal;line-height:0%;font-family:Lavi;-inkscape-font-specification:Lavi;text-align:center;letter-spacing:0px;word-spacing:0px;text-anchor:middle;fill:#000000;fill-opacity:1;stroke:none"
       xml:space="preserve"><tspan
         y="194.09795"
         x="1759.6801"
         style="font-size:45px;line-height:1.25"
         sodipodi:role="line"
         id="tspan64873">Tak perlu kuatir – </tspan><tspan
         y="250.34795"
         x="1752.517"
         style="font-size:45px;line-height:1.25"
         sodipodi:role="line"
         id="tspan722">Aku tahu kok</tspan></text>
    <text
       id="text4246-4-2-7-9-2"
       y="1126.0326"
       x="1785.3541"
       style="font-style:normal;font-variant:normal;font-weight:normal;font-stretch:normal;line-height:0%;font-family:Lavi;-inkscape-font-specification:Lavi;text-align:center;letter-spacing:0px;word-spacing:0px;text-anchor:middle;fill:#000000;fill-opacity:1;stroke:none"
       xml:space="preserve"><tspan
         y="1126.0326"
         x="1785.3541"
         style="font-size:45px;line-height:1.25"
         sodipodi:role="line"
         id="tspan72856">Terima kasih</tspan><tspan
         y="1182.2826"
         x="1785.3541"
         style="font-size:45px;line-height:1.25"
         sodipodi:role="line"
         id="tspan726">sudah datang.</tspan></text>
    <text
       id="text4246-4-2-7-9-2-7"
       y="1788.3612"
       x="1438.9933"
       style="font-style:normal;font-variant:normal;font-weight:normal;font-stretch:normal;line-height:0%;font-family:Lavi;-inkscape-font-specification:Lavi;text-align:center;letter-spacing:0px;word-spacing:0px;text-anchor:middle;fill:#000000;fill-opacity:1;stroke:none"
       xml:space="preserve"><tspan
         y="1788.3612"
         x="1446.1564"
         style="font-size:45px;line-height:1.25"
         sodipodi:role="line"
         id="tspan93883">Penjara sihir ini sangat </tspan><tspan
         y="1844.6112"
         x="1438.9933"
         style="font-size:45px;line-height:1.25"
         sodipodi:role="line"
         id="tspan79597">kuat – mereka tak tanggung-</tspan><tspan
         y="1900.8612"
         x="1438.9933"
         style="font-size:45px;line-height:1.25"
         sodipodi:role="line"
         id="tspan82763">tanggung buatmu!</tspan></text>
    <text
       xml:space="preserve"
       style="font-style:normal;font-variant:normal;font-weight:normal;font-stretch:normal;line-height:0%;font-family:Lavi;-inkscape-font-specification:Lavi;text-align:center;letter-spacing:0px;word-spacing:0px;text-anchor:middle;display:inline;fill:#000000;fill-opacity:1;stroke:none"
       x="1168.7362"
       y="2033.7449"
       id="text4246-97"><tspan
         sodipodi:role="line"
         style="font-style:normal;font-variant:normal;font-weight:bold;font-stretch:normal;font-size:45px;line-height:1.25;font-family:Lavi;-inkscape-font-specification:'Lavi Bold'"
         x="1168.7362"
         y="2033.7449"
         id="tspan4252-99">Ha ha!</tspan></text>
    <text
       id="text4246-4-2-7-9-2-7-0"
       y="2045.4873"
       x="1477.1412"
       style="font-style:normal;font-variant:normal;font-weight:normal;font-stretch:normal;font-size:11.07520008px;line-height:0%;font-family:Lavi;-inkscape-font-specification:Lavi;text-align:center;letter-spacing:0px;word-spacing:0px;text-anchor:middle;fill:#000000;fill-opacity:1;stroke:none;stroke-width:0.92293203"
       xml:space="preserve"><tspan
         y="2045.4873"
         x="1477.1412"
         style="font-size:41.5318985px;line-height:1.25;stroke-width:0.92293203"
         sodipodi:role="line"
         id="tspan95848">Pelan-pelan,</tspan><tspan
         y="2097.4021"
         x="1477.1412"
         style="font-size:41.5318985px;line-height:1.25;stroke-width:0.92293203"
         sodipodi:role="line"
         id="tspan98350">nanti terdengar</tspan><tspan
         y="2149.3171"
         x="1477.1412"
         style="font-size:41.5318985px;line-height:1.25;stroke-width:0.92293203"
         sodipodi:role="line"
         id="tspan734">mereka.</tspan></text>
    <text
       xml:space="preserve"
       style="color:#000000;font-style:normal;font-variant:normal;font-weight:normal;font-stretch:normal;font-size:7.41214px;line-height:0.01%;font-family:Arial;-inkscape-font-specification:Arial;letter-spacing:2.51825px;word-spacing:0px;display:inline;overflow:visible;visibility:visible;opacity:0.635039;fill:#e69d76;fill-opacity:1;fill-rule:nonzero;stroke:#e99f77;stroke-width:2.70666;stroke-opacity:1;marker:none;enable-background:accumulate"
       x="599.59552"
       y="3065.2383"
       id="text4246-1711"
       transform="matrix(0.87642423,-0.49049559,0.3850957,0.92547904,0,0)"><tspan
         sodipodi:role="line"
         x="600.85468"
         y="3065.2383"
         id="tspan1709"
         style="word-spacing:0px;fill:#ffffff;fill-opacity:1;stroke:#ffffff;stroke-width:2.70666;stroke-opacity:1"><tspan
           x="599.59552"
           y="3065.2383"
           style="color:#000000;font-style:normal;font-variant:normal;font-weight:normal;font-stretch:normal;font-size:39.5314px;line-height:1.25;font-family:Lavi;-inkscape-font-specification:Lavi;text-align:center;word-spacing:0px;text-anchor:middle;display:inline;overflow:visible;visibility:visible;fill:#ffffff;fill-opacity:1;fill-rule:nonzero;stroke:#ffffff;stroke-width:2.1336;stroke-miterlimit:4;stroke-dasharray:none;stroke-opacity:1;marker:none;enable-background:accumulate"
           id="tspan1707">LAP</tspan></tspan></text>
    <text
       xml:space="preserve"
       style="color:#000000;font-style:normal;font-variant:normal;font-weight:normal;font-stretch:normal;font-size:5.89332px;line-height:0.01%;font-family:Arial;-inkscape-font-specification:Arial;letter-spacing:2.00224px;word-spacing:0px;display:inline;overflow:visible;visibility:visible;opacity:0.635039;fill:#e69d76;fill-opacity:1;fill-rule:nonzero;stroke:#e99f77;stroke-width:2.15204;stroke-opacity:1;marker:none;enable-background:accumulate"
       x="651.1543"
       y="3086.4412"
       id="text4246-8"
       transform="matrix(0.86624931,-0.49625693,0.3806249,0.93634967,0,0)"><tspan
         sodipodi:role="line"
         x="652.1554"
         y="3086.4412"
         id="tspan1709-9"
         style="word-spacing:0px;fill:#ffffff;fill-opacity:1;stroke:#ffffff;stroke-width:2.15204;stroke-opacity:1"><tspan
           x="651.1543"
           y="3086.4412"
           style="color:#000000;font-style:normal;font-variant:normal;font-weight:normal;font-stretch:normal;font-size:31.431px;line-height:1.25;font-family:Lavi;-inkscape-font-specification:Lavi;text-align:center;word-spacing:0px;text-anchor:middle;display:inline;overflow:visible;visibility:visible;fill:#ffffff;fill-opacity:1;fill-rule:nonzero;stroke:#ffffff;stroke-width:1.69641;stroke-miterlimit:4;stroke-dasharray:none;stroke-opacity:1;marker:none;enable-background:accumulate"
           id="tspan1707-7">LAP</tspan></tspan></text>
    <text
       xml:space="preserve"
       style="color:#000000;font-style:normal;font-variant:normal;font-weight:normal;font-stretch:normal;font-size:4.80028px;line-height:0.01%;font-family:Arial;-inkscape-font-specification:Arial;letter-spacing:1.63088px;word-spacing:0px;display:inline;overflow:visible;visibility:visible;opacity:0.635039;fill:#e69d76;fill-opacity:1;fill-rule:nonzero;stroke:#e99f77;stroke-width:1.7529;stroke-opacity:1;marker:none;enable-background:accumulate"
       x="663.8678"
       y="3119.0703"
       id="text4246-8-3"
       transform="matrix(0.86358569,-0.49778757,0.37945452,0.93923772,0,0)"><tspan
         sodipodi:role="line"
         x="664.68323"
         y="3119.0703"
         id="tspan1709-9-6"
         style="word-spacing:0px;fill:#ffffff;fill-opacity:1;stroke:#ffffff;stroke-width:1.7529;stroke-opacity:1"><tspan
           x="663.8678"
           y="3119.0703"
           style="color:#000000;font-style:normal;font-variant:normal;font-weight:normal;font-stretch:normal;font-size:25.6015px;line-height:1.25;font-family:Lavi;-inkscape-font-specification:Lavi;text-align:center;word-spacing:0px;text-anchor:middle;display:inline;overflow:visible;visibility:visible;fill:#ffffff;fill-opacity:1;fill-rule:nonzero;stroke:#ffffff;stroke-width:1.38177;stroke-miterlimit:4;stroke-dasharray:none;stroke-opacity:1;marker:none;enable-background:accumulate"
           id="tspan1707-7-1">LAP</tspan></tspan></text>
    <text
       id="text4246-4-2-7-9-2-7-0-9"
       y="2899.5105"
       x="296.33832"
       style="font-style:normal;font-variant:normal;font-weight:normal;font-stretch:normal;line-height:0%;font-family:Lavi;-inkscape-font-specification:Lavi;text-align:center;letter-spacing:0px;word-spacing:0px;text-anchor:middle;fill:#000000;fill-opacity:1;stroke:none"
       xml:space="preserve"><tspan
         y="2899.5105"
         x="296.33832"
         style="font-size:45px;line-height:1.25"
         sodipodi:role="line"
         id="tspan96797-9">Kau tahu,</tspan></text>
    <text
       id="text4246-4-2-7-9-2-7-0-9-4"
       y="2970.8228"
       x="661.96979"
       style="font-style:normal;font-variant:normal;font-weight:normal;font-stretch:normal;line-height:0%;font-family:Lavi;-inkscape-font-specification:Lavi;text-align:center;letter-spacing:0px;word-spacing:0px;text-anchor:middle;fill:#000000;fill-opacity:1;stroke:none"
       xml:space="preserve"><tspan
         y="2970.8228"
         x="661.96979"
         style="font-size:45px;line-height:1.25"
         sodipodi:role="line"
         id="tspan7320">alasan lain aku datang ialah</tspan><tspan
         y="3027.0728"
         x="669.13287"
         style="font-size:45px;line-height:1.25"
         sodipodi:role="line"
         id="tspan20534">aku diundang ke lingkaran </tspan><tspan
         y="3083.3228"
         x="661.96979"
         style="font-size:45px;line-height:1.25"
         sodipodi:role="line"
         id="tspan32406">dalam Wasabi langsung</tspan><tspan
         y="3139.5728"
         x="661.96979"
         style="font-size:45px;line-height:1.25"
         sodipodi:role="line"
         id="tspan35724">setelah upacara waktu itu.</tspan></text>
    <text
       id="text4246-4-2-7-9-2-7-0-9-4-8"
       y="3155.363"
       x="1161.6588"
       style="font-style:normal;font-variant:normal;font-weight:normal;font-stretch:normal;line-height:0%;font-family:Lavi;-inkscape-font-specification:Lavi;text-align:center;letter-spacing:0px;word-spacing:0px;text-anchor:middle;fill:#000000;fill-opacity:1;stroke:none"
       xml:space="preserve"><tspan
         y="3155.363"
         x="1161.6588"
         style="font-size:45px;line-height:1.25"
         sodipodi:role="line"
         id="tspan134621">Di situ aku jadi</tspan><tspan
         y="3211.613"
         x="1161.6588"
         style="font-size:45px;line-height:1.25"
         sodipodi:role="line"
         id="tspan46304">tahu rencananya...</tspan></text>
  </g>
</svg>
