<?xml version="1.0" encoding="UTF-8" standalone="no"?>
<!-- Created with Inkscape (http://www.inkscape.org/) -->

<svg
   xmlns:dc="http://purl.org/dc/elements/1.1/"
   xmlns:cc="http://creativecommons.org/ns#"
   xmlns:rdf="http://www.w3.org/1999/02/22-rdf-syntax-ns#"
   xmlns:svg="http://www.w3.org/2000/svg"
   xmlns="http://www.w3.org/2000/svg"
   xmlns:xlink="http://www.w3.org/1999/xlink"
   xmlns:sodipodi="http://sodipodi.sourceforge.net/DTD/sodipodi-0.dtd"
   xmlns:inkscape="http://www.inkscape.org/namespaces/inkscape"
   id="svg2"
   version="1.1"
   inkscape:version="0.92.4 (5da689c313, 2019-01-14)"
   width="2481"
   height="3503"
   sodipodi:docname="E36P06.svg">
  <metadata
     id="metadata8">
    <rdf:RDF>
      <cc:Work
         rdf:about="">
        <dc:format>image/svg+xml</dc:format>
        <dc:type
           rdf:resource="http://purl.org/dc/dcmitype/StillImage" />
        <dc:title />
      </cc:Work>
    </rdf:RDF>
  </metadata>
  <defs
     id="defs6" />
  <sodipodi:namedview
     pagecolor="#1e1e1e"
     bordercolor="#111111"
     borderopacity="1"
     objecttolerance="10"
     gridtolerance="10"
     guidetolerance="10"
     inkscape:pageopacity="0"
     inkscape:pageshadow="2"
     inkscape:window-width="1858"
     inkscape:window-height="1057"
     id="namedview4"
     showgrid="false"
     inkscape:zoom="0.46000002"
     inkscape:cx="622.82606"
     inkscape:cy="997.82599"
     inkscape:window-x="54"
     inkscape:window-y="-8"
     inkscape:window-maximized="1"
     inkscape:current-layer="layer3"
     inkscape:pagecheckerboard="0"
     inkscape:snap-global="false" />
  <g
     inkscape:groupmode="layer"
     id="layer2"
     inkscape:label="artwork"
     sodipodi:insensitive="true">
    <image
       sodipodi:absref="D:\Documents\Others\webcomics\new-ep36_Title-Here\lang\id\../gfx_Pepper-and-Carrot_by-David-Revoy_E36P06.png"
       xlink:href="../gfx_Pepper-and-Carrot_by-David-Revoy_E36P06.png"
       y="0"
       x="0"
       id="image10"
       height="3503"
       width="2481" />
  </g>
  <g
     inkscape:groupmode="layer"
     id="layer3"
     inkscape:label="speechbubbles"
     style="display:inline">
    <path
       style="color:#000000;display:inline;overflow:visible;visibility:visible;fill:#ffffff;fill-opacity:1;fill-rule:nonzero;stroke:none;stroke-width:0.825943px;marker:none;enable-background:accumulate"
       d="m 577.39062,1890.3496 c 13.55459,4.6614 27.39899,10.6876 36.98583,21.7461 6.87829,8.625 7.56098,20.6709 4.66066,30.9708 -1.44275,5.9611 -3.11819,12.8374 0.29351,18.4496 3.25292,4.4413 8.97247,5.7004 13.65335,8.0759 1.68146,0.5503 3.16657,2.0604 4.93205,2.0447 3.65441,-0.7862 8.30688,-4.5636 7.78517,-7.7805 0.4108,-14.3571 1.10006,-28.425 -3.6806,-42.3235 -4.09402,-10.8462 -16.4336,-19.4968 -27.02744,-23.2608 -13.09899,-5.2184 -27.0995,-7.7878 -41.09862,-9.0336 1.16537,0.3704 2.33073,0.7409 3.49609,1.1113 z"
       id="path4064-5-5"
       inkscape:connector-curvature="0"
       sodipodi:nodetypes="ccszccccccc" />
    <path
       style="color:#000000;display:inline;overflow:visible;visibility:visible;fill:#ffffff;fill-opacity:1;fill-rule:nonzero;stroke:none;stroke-width:1.23372388px;marker:none;enable-background:accumulate"
       d="m 473.09357,2065.9711 c -0.0322,-37.3433 24.16952,-72.8613 59.21074,-94.4911 26.18759,-16.3962 59.11647,-25.1836 91.6307,-22.9471 35.9235,1.3719 72.00259,9.853 101.77956,27.4394 26.03628,15.1532 47.59359,37.833 53.45878,64.7652 6.72184,29.232 -8.334,59.8463 -33.67744,79.5352 -15.68933,12.4038 -35.43461,20.7471 -56.33615,24.4628 -45.51052,8.4696 -93.34379,8.1351 -138.54849,-1.5858 -39.08995,-12.1532 -68.23902,-42.9508 -77.5177,-77.1786 z"
       id="path3365-8"
       inkscape:connector-curvature="0"
       sodipodi:nodetypes="cssccsc" />
    <path
       style="color:#000000;display:inline;overflow:visible;visibility:visible;fill:#ffffff;fill-opacity:1;fill-rule:nonzero;stroke:none;stroke-width:1.48514px;marker:none;enable-background:accumulate"
       d="m 1893.0469,1570.3017 c -56.6883,6.1761 -126.1336,-1.1979 -166.2258,47.4363 -39.7269,55.411 -32.9822,137.28 9.439,189.1728 44.5465,39.7481 109.4242,35.4544 165.4807,40.9499 61.9844,1.4706 126.7501,0.2417 185.1236,-21.9167 51.481,-29.1242 63.9132,-94.6813 52.9865,-148.1498 -4.2933,-49.6514 -42.1481,-95.1973 -94.242,-98.7057 -50.377,-8.0424 -101.7833,-5.726 -152.562,-8.7868 z"
       id="path3525-1"
       inkscape:connector-curvature="0"
       sodipodi:nodetypes="ccccc" />
    <path
       style="color:#000000;display:inline;overflow:visible;visibility:visible;fill:#ffffff;fill-opacity:1;fill-rule:nonzero;stroke:none;stroke-width:0.844663px;marker:none;enable-background:accumulate"
       d="m 1973.1118,1889.6755 c -18.1752,-11.0216 -34.1079,-35.6909 -38.6041,-62.1813 -3.212,-15.891 -4.9491,-32.3534 -3.0603,-47.1809 2.5292,-4.9506 8.5452,-3.2093 12.36,1.2176 6.174,5.2735 12.9392,8.5628 18.8573,14.6149 3.5725,5.1778 3.8133,12.417 2.6585,17.788 -1.1636,10.2097 -2.5765,21.1708 0.8478,32.3369 4.2315,15.7365 13.9898,28.6271 24.2515,37.2817 12.3531,10.7595 26.1526,15.1864 39.0912,15.7949 0.045,0.4487 -1.409,0.4203 -1.8941,0.6592 -17.1414,4.2654 -36.4098,1.3261 -54.5078,-10.331 z"
       id="path4064-5"
       inkscape:connector-curvature="0"
       sodipodi:nodetypes="ccszc" />
    <path
       style="fill:#ffffff;stroke:none;stroke-width:1.29168"
       d="m 431.77695,2274.0147 c -60.05752,0.7266 -120.58149,0.4642 -179.85727,10.0414 -21.76904,3.5289 -43.71881,8.3841 -62.9408,18.2501 -14.84651,7.6229 -27.35833,18.84 -34.79337,32.4248 -10.10085,18.3562 -11.74386,39.6762 -7.04585,59.4484 5.93767,24.7766 22.79358,47.8461 47.50365,61.5678 18.99812,10.7258 41.51038,15.9294 63.95787,17.2676 42.26943,3.9084 84.63705,6.9938 127.06594,9.2475 29.61735,1.6133 59.2448,3.1895 88.90255,4.1063 61.11349,1.2318 122.33927,-2.4334 182.74079,-10.554 22.19547,-3.4538 44.56603,-9.8906 61.95247,-22.8016 16.23334,-12.0501 25.94404,-29.5674 30.11983,-47.5343 3.77703,-15.3575 4.80741,-31.2491 2.97672,-46.8723 -2.07965,-14.3377 -8.40133,-28.5569 -20.08023,-39.0727 -12.97089,-12.3857 -30.57429,-20.7657 -49.27042,-24.5541 -19.9215,-4.774 -40.49312,-6.8962 -60.81667,-9.9334 -62.99206,-8.176 -126.75857,-11.2963 -190.41521,-11.0315 z"
       id="path3100-2"
       inkscape:connector-curvature="0" />
    <path
       style="fill:#ffffff;stroke:none;stroke-width:1.23969173"
       d="m 429.47412,2411.1355 c -66.77497,1.4255 -134.48583,1.592 -199.45191,14.9613 -26.41569,5.5849 -52.79302,16.109 -68.31865,34.6065 -21.06411,26.9283 -18.48163,62.8095 0.93694,90.1445 17.5398,24.9652 51.30301,41.749 86.80137,44.4582 46.85788,4.2758 93.90977,6.9026 140.99045,8.5905 24.35467,0.8358 48.68994,2.1318 73.04634,2.863 61.82061,1.2179 123.67377,-2.3285 184.72163,-9.5113 25.92776,-3.1885 52.53128,-8.9344 72.75623,-22.783 14.12259,-9.4092 23.08567,-22.8156 27.73425,-36.8796 6.57156,-19.3058 6.67451,-39.7754 3.17021,-59.5531 -3.40426,-15.7827 -12.7253,-32.1256 -30.78354,-40.5249 -19.34537,-9.0909 -42.22233,-10.1793 -63.70921,-13.6435 -75.25935,-10.3541 -151.72734,-13.9631 -227.89411,-12.7286 z"
       id="path3100-2-1"
       inkscape:connector-curvature="0" />
    <path
       style="fill:#ffffff;stroke:none;stroke-width:1.3016547"
       d="m 547.3991,2549.8479 c -69.60527,3.3969 -142.80206,-0.023 -207.48978,32.1682 -33.72572,19.5627 -48.63314,62.8266 -45.18484,102.3484 1.72274,51.7545 34.31178,106.9319 85.08629,113.4785 51.58585,6.9746 103.63266,10.3493 155.57448,12.963 68.18178,2.1007 137.92353,-0.388 203.46553,-22.3817 33.27762,-14.3602 52.03782,-51.987 54.17881,-89.129 7.05923,-46.5536 -7.85012,-101.4422 -49.52856,-123.5645 -36.74362,-16.1424 -77.35826,-17.6861 -116.37227,-22.7662 -26.51265,-2.3668 -53.12769,-3.3756 -79.72966,-3.1167 z"
       id="path3100-2-1-9"
       inkscape:connector-curvature="0" />
    <path
       style="fill:#ffffff;fill-rule:evenodd;stroke:none;stroke-width:1px;stroke-linecap:butt;stroke-linejoin:miter;stroke-opacity:1"
       d="m 565.35803,2748.8183 c 0,0 15.49435,31.1557 18.76123,47.2541 3.26688,16.0984 -2.23396,98.2886 -54.0297,124.672 60.58129,-13.8373 97.25045,-97.2182 74.9118,-174.2445 -8.13467,-28.0492 -39.64333,2.3184 -39.64333,2.3184 z"
       id="path1357"
       inkscape:connector-curvature="0"
       sodipodi:nodetypes="cscsc" />
    <path
       style="color:#000000;display:inline;overflow:visible;visibility:visible;fill:#ffffff;fill-opacity:1;fill-rule:nonzero;stroke:none;stroke-width:1.00343px;marker:none;enable-background:accumulate"
       d="m 1109.4596,1613.416 c -25.4878,0.665 -51.5815,4.8405 -74.3584,17.7518 -19.524,11.7343 -33.1202,32.595 -40.06812,55.0672 -4.86532,14.3929 -7.66947,30.6636 -2.68445,45.4728 6.15287,18.412 21.59167,31.7974 38.53527,37.9765 27.1963,11.2748 56.7336,12.4073 85.5298,13.4689 31.2149,0.8833 62.5198,1.6213 93.6762,-1.086 16.979,-1.7873 34.1749,-6.7791 47.956,-17.9635 11.3343,-8.7548 20.606,-21.8232 22.1729,-37.0517 2.2744,-17.9924 -2.1782,-36.2294 -9.2522,-52.4672 -9.6146,-21.0264 -26.7204,-38.1831 -47.375,-46.1168 -26.2994,-10.962 -54.8234,-12.5985 -82.6912,-14.3303 -10.4691,-0.5894 -20.9565,-0.9884 -31.4408,-0.7217 z"
       id="path4546-6-89"
       inkscape:connector-curvature="0"
       sodipodi:nodetypes="cssssc" />
    <path
       style="color:#000000;display:inline;overflow:visible;visibility:visible;fill:#ffffff;fill-opacity:1;fill-rule:nonzero;stroke:none;stroke-width:1px;marker:none;enable-background:accumulate"
       d="m 1191.4693,1723.1631 c 34.2678,49.2543 68.9523,97.6924 121.3421,87.479 -53.9312,29.956 -129.2913,-39.4416 -157.7344,-79.0515 -24.1583,-33.6427 36.3923,-8.4275 36.3923,-8.4275 z"
       id="path4480-3"
       inkscape:connector-curvature="0"
       sodipodi:nodetypes="ccsc" />
    <path
       style="color:#000000;display:inline;overflow:visible;visibility:visible;fill:#ffffff;fill-opacity:1;fill-rule:nonzero;stroke:none;stroke-width:0.95977px;marker:none;enable-background:accumulate"
       d="m 926.821,2384.7386 c 1.0541,-41.5238 55.68419,-72.0916 205.335,-64.8041 80.161,3.9043 171.0095,6.3303 170.3913,67.1567 -0.6184,60.8263 -130.9903,59.7186 -157.753,61.2348 -26.7623,1.5161 -167.34902,-4.3702 -193.63802,-24.9684 -16.45634,-12.8943 -23.65532,-25.7617 -24.33528,-38.619 z"
       id="path4546-6-89-3"
       inkscape:connector-curvature="0"
       sodipodi:nodetypes="cssssc" />
    <path
       style="fill:#ffffff;stroke:none;stroke-width:0.839867"
       d="m 1191.6612,2424.9112 c 139.5256,6.2934 191.5057,18.2924 200.0502,145.4044 11.8268,175.9229 -106.4572,184.701 -270.1451,176.5139 -176.60867,-8.8335 -179.73698,-112.4756 -176.43638,-197.0237 5.69513,-145.9021 103.44558,-127.8186 246.53128,-124.8946 z"
       id="path3280-8-0"
       inkscape:connector-curvature="0"
       sodipodi:nodetypes="csssc" />
    <path
       style="color:#000000;display:inline;overflow:visible;visibility:visible;fill:#ffffff;fill-opacity:1;fill-rule:nonzero;stroke:none;stroke-width:1px;marker:none;enable-background:accumulate"
       d="m 1210.7284,2694.9039 c -14.7937,34.7302 -29.7284,103.9977 49.732,149.2666 -38.7431,-11.0789 -115.7589,-45.8618 -84.4037,-150.4179 9.0983,-30.339 16.322,-15.8945 23.6557,-14.9665 7.3338,0.9279 11.016,16.1178 11.016,16.1178 z"
       id="path4064-3"
       inkscape:connector-curvature="0"
       sodipodi:nodetypes="ccszc" />
    <path
       style="color:#000000;display:inline;overflow:visible;visibility:visible;fill:#ffffff;fill-opacity:1;fill-rule:nonzero;stroke:none;stroke-width:0.76586086px;marker:none;enable-background:accumulate"
       d="m 1668.083,2304.8762 c 29.8364,-39.6682 80.8665,-42.2159 124.2513,-42.2394 40.8463,1.0129 83.5191,3.7125 121.0258,22.7913 24.1697,12.2041 40.5091,44.8101 26.952,72.1033 -16.7232,23.4202 -47.0217,23.0482 -71.3672,29.5615 -48.0365,7.4345 -96.6492,0.6211 -144.4622,-5.5691 -21.8001,-4.6029 -48.6271,-9.8591 -57.5464,-35.6353 -5.0638,-12.5917 -7.3421,-29.5328 1.1467,-41.0123 z"
       id="path3533-6"
       inkscape:connector-curvature="0" />
    <path
       style="fill:#ffffff;fill-rule:evenodd;stroke:none;stroke-width:1.38581px;stroke-linecap:butt;stroke-linejoin:miter;stroke-opacity:1"
       d="m 1854.546,2372.7244 c 38.9505,26.0497 41.6227,92.7882 26.6214,123.6319 14.1425,-16.2403 51.5149,-98.8625 -6.7766,-150.4117 -47.9683,-42.42 -26.0826,20.6575 -26.0826,20.6575 z"
       id="path4248"
       inkscape:connector-curvature="0"
       sodipodi:nodetypes="ccscc" />
    <path
       style="display:inline;fill:#ffffff;stroke:none;stroke-width:0.994595"
       d="m 2064.8877,2367.6599 c 0.6414,-44.3595 24.3072,-84.2461 131.8193,-77.1267 107.5122,7.1193 142.8181,11.8987 143.038,72.3809 0.2301,63.2975 -53.2334,78.1849 -134.6101,80.635 -83.8905,2.5256 -139.9151,-23.1978 -140.2472,-75.8892 z"
       id="path3280-64"
       inkscape:connector-curvature="0"
       sodipodi:nodetypes="csssc" />
    <path
       style="color:#000000;display:inline;overflow:visible;visibility:visible;fill:#ffffff;fill-opacity:1;fill-rule:nonzero;stroke:none;stroke-width:1.00876px;marker:none;enable-background:accumulate"
       d="m 2225.6941,2499.207 c 29.3281,-35.4419 42.8909,-48.473 14.1537,-86.3903 -28.7372,-37.9162 -14.1521,-48.0944 -14.1521,-48.0944 l 30.5785,11.3041 c 0,0 63.9999,68.3303 -30.5801,123.1806 z"
       id="path3072-56"
       inkscape:connector-curvature="0"
       sodipodi:nodetypes="ccccc" />
    <path
       style="color:#000000;display:inline;overflow:visible;visibility:visible;fill:#ffffff;fill-opacity:1;fill-rule:nonzero;stroke:none;stroke-width:0.719299px;marker:none;enable-background:accumulate"
       d="m 2128.8746,2857.9175 c 16.7613,-9.9895 136.3147,-19.5563 170.2493,6.1257 28.3247,21.4363 26.5072,63.4313 0.5658,79.2151 -26.4284,16.0793 -127.1439,10.4002 -166.0708,2.6999 -36.6568,-7.2509 -35.9935,-24.7778 -34.9936,-55.3282 0.4081,-12.4682 13.4881,-22.7237 30.2493,-32.7125 z"
       id="path4040-4-5-3-6"
       inkscape:connector-curvature="0"
       sodipodi:nodetypes="zssssz" />
    <path
       style="color:#000000;display:inline;overflow:visible;visibility:visible;fill:#ffffff;fill-opacity:1;fill-rule:nonzero;stroke:none;stroke-width:0.76562px;marker:none;enable-background:accumulate"
       d="m 2213.0192,2932.3993 c -24.5343,0.6034 -49.2388,2.8489 -73.0158,10.4239 -14.062,3.8736 -28.824,6.2524 -41.4839,15.0179 -10.5919,7.1872 -20.1487,16.5512 -28.1096,27.4979 -4.8125,7.4446 -7.0135,16.8968 -6.9531,26.1957 -0.8846,14.8074 1.1357,30.5851 8.7003,42.8057 7.7297,12.4857 19.7092,20.1605 31.9272,24.862 31.5222,13.4612 65.3278,16.7034 98.5972,17.3147 27.4685,0.2673 55.249,0.3062 82.2038,-6.7829 10.9751,-2.9335 21.8386,-6.8639 31.9691,-12.7063 15.9904,-10.6744 25.9911,-31.7651 27.0633,-53.2266 1.2321,-18.9355 -3.8483,-38.9852 -15.514,-52.4062 -9.4689,-10.3911 -22.0878,-15.1955 -34.3126,-19.0498 -21.3204,-6.433 -42.223,-15.2088 -64.0979,-18.7603 -5.6233,-0.8931 -11.3013,-1.2722 -16.974,-1.1857 z"
       id="path4040-4-5-3"
       inkscape:connector-curvature="0"
       sodipodi:nodetypes="zssssz" />
    <path
       style="display:inline;fill:#ffffff;fill-rule:evenodd;stroke:none;stroke-width:1px;stroke-linecap:butt;stroke-linejoin:miter;stroke-opacity:1"
       d="m 2233.8905,2901.4843 c -59.0902,-10.6562 16.1202,-61.0715 -1.0396,-83.0609 -8.296,-10.6309 -45.3019,13.7249 -85.4552,-27.1328 44.274,25.5713 73.4492,-3.2499 94.1628,5.6982 39.3401,16.9937 6.1746,61.0235 5.4438,70.8494 -0.9776,13.1415 -13.1118,33.6461 -13.1118,33.6461 z"
       id="path4186-80"
       inkscape:connector-curvature="0"
       sodipodi:nodetypes="cscssc" />
  </g>
  <g
     inkscape:groupmode="layer"
     id="layer1"
     inkscape:label="txt"
     style="display:inline">
    <text
       id="text4246-4-2-7"
       y="2035.0352"
       x="630.4826"
       style="font-style:normal;font-variant:normal;font-weight:normal;font-stretch:normal;line-height:0%;font-family:Lavi;-inkscape-font-specification:Lavi;text-align:center;letter-spacing:0px;word-spacing:0px;text-anchor:middle;fill:#000000;fill-opacity:1;stroke:none"
       xml:space="preserve"><tspan
         y="2035.0352"
         x="630.4826"
         style="font-size:45px;line-height:1.25"
         sodipodi:role="line"
         id="tspan5816">Hampir</tspan><tspan
         y="2091.2852"
         x="630.4826"
         style="font-size:45px;line-height:1.25"
         sodipodi:role="line"
         id="tspan1403">saja lolos...</tspan></text>
    <text
       id="text4246-4-2-7-3-2"
       y="1685.6537"
       x="1133.2744"
       style="font-style:normal;font-variant:normal;font-weight:normal;font-stretch:normal;line-height:0%;font-family:Lavi;-inkscape-font-specification:Lavi;text-align:center;letter-spacing:0px;word-spacing:0px;text-anchor:middle;fill:#000000;fill-opacity:1;stroke:none"
       xml:space="preserve"><tspan
         y="1685.6537"
         x="1133.2744"
         style="font-size:45px;line-height:1.25"
         sodipodi:role="line"
         id="tspan103302">Iya,</tspan><tspan
         y="1741.9037"
         x="1133.2744"
         style="font-size:45px;line-height:1.25"
         sodipodi:role="line"
         id="tspan11289">hampir.</tspan></text>
    <text
       id="text4246-4-2-7-3"
       y="1638.6501"
       x="1922.8013"
       style="font-style:normal;font-variant:normal;font-weight:normal;font-stretch:normal;line-height:0%;font-family:Lavi;-inkscape-font-specification:Lavi;text-align:center;letter-spacing:0px;word-spacing:0px;text-anchor:middle;fill:#000000;fill-opacity:1;stroke:none"
       xml:space="preserve"><tspan
         y="1638.6501"
         x="1922.8013"
         style="font-size:45px;line-height:1.25"
         sodipodi:role="line"
         id="tspan14192">Omong-omong,</tspan><tspan
         y="1694.9001"
         x="1922.8013"
         style="font-size:45px;line-height:1.25"
         sodipodi:role="line"
         id="tspan17531">apa kamu tahu</tspan><tspan
         y="1751.1501"
         x="1922.8013"
         style="font-size:45px;line-height:1.25"
         sodipodi:role="line"
         id="tspan1405">kenapa Wasabi</tspan><tspan
         y="1807.4001"
         x="1922.8013"
         style="font-size:45px;line-height:1.25"
         sodipodi:role="line"
         id="tspan26099"> mengejarku?</tspan></text>
    <text
       id="text4246-4-2-7-3-6-7"
       y="2348.5913"
       x="447.81973"
       style="font-style:normal;font-variant:normal;font-weight:normal;font-stretch:normal;line-height:0%;font-family:Lavi;-inkscape-font-specification:Lavi;text-align:center;letter-spacing:0px;word-spacing:0px;text-anchor:middle;fill:#000000;fill-opacity:1;stroke:none"
       xml:space="preserve"><tspan
         y="2348.5913"
         x="454.98282"
         style="font-size:45px;line-height:1.25;fill:#000000"
         sodipodi:role="line"
         id="tspan143860">Dia takut pada penyihir </tspan><tspan
         y="2404.8413"
         x="447.81973"
         style="font-size:45px;line-height:1.25;fill:#000000"
         sodipodi:role="line"
         id="tspan32649">Chaosah, Pepper...</tspan></text>
    <text
       id="text4246-4-2-7-3-6-7-6"
       y="2489.0842"
       x="452.73358"
       style="font-style:normal;font-variant:normal;font-weight:normal;font-stretch:normal;line-height:0%;font-family:Lavi;-inkscape-font-specification:Lavi;text-align:center;letter-spacing:0px;word-spacing:0px;text-anchor:middle;fill:#000000;fill-opacity:1;stroke:none"
       xml:space="preserve"><tspan
         y="2489.0842"
         x="459.89667"
         style="font-size:45px;line-height:1.25;fill:#000000"
         sodipodi:role="line"
         id="tspan83621">Terutama dengan </tspan><tspan
         y="2545.3342"
         x="452.73358"
         style="font-size:45px;line-height:1.25;fill:#000000"
         sodipodi:role="line"
         id="tspan69"><tspan
   style="font-style:normal;font-variant:normal;font-weight:bold;font-stretch:normal;font-family:Lavi;-inkscape-font-specification:'Lavi Bold'"
   id="tspan48049">reaksi berantai </tspan>kalian.</tspan></text>
    <text
       id="text4246-4-2-7-3-6-7-6-6"
       y="2645.9121"
       x="542.9151"
       style="font-style:normal;font-variant:normal;font-weight:normal;font-stretch:normal;line-height:0%;font-family:Lavi;-inkscape-font-specification:Lavi;text-align:center;letter-spacing:0px;word-spacing:0px;text-anchor:middle;fill:#000000;fill-opacity:1;stroke:none"
       xml:space="preserve"><tspan
         y="2645.9121"
         x="542.9151"
         style="font-size:45px;line-height:1.25;fill:#000000"
         sodipodi:role="line"
         id="tspan53050">Dia percaya itu</tspan><tspan
         y="2702.1621"
         x="542.9151"
         style="font-size:45px;line-height:1.25;fill:#000000"
         sodipodi:role="line"
         id="tspan58122">ancaman besar</tspan><tspan
         y="2758.4121"
         x="542.9151"
         style="font-size:45px;line-height:1.25;fill:#000000"
         sodipodi:role="line"
         id="tspan61804">untuk rencananya.</tspan></text>
    <text
       id="text4246-4-2-7-3-6-7-6-6-4"
       y="2394.4653"
       x="1119.1504"
       style="font-style:normal;font-variant:normal;font-weight:normal;font-stretch:normal;line-height:0%;font-family:Lavi;-inkscape-font-specification:Lavi;text-align:center;letter-spacing:0px;word-spacing:0px;text-anchor:middle;fill:#000000;fill-opacity:1;stroke:none"
       xml:space="preserve"><tspan
         y="2394.4653"
         x="1119.1504"
         style="font-size:45px;line-height:1.25;fill:#000000"
         sodipodi:role="line"
         id="tspan83621-1-4">Oh, itu, pfff...</tspan></text>
    <text
       id="text4246-4-2-7-3-6-7-6-6-4-5"
       y="2513.5476"
       x="1174.139"
       style="font-style:normal;font-variant:normal;font-weight:normal;font-stretch:normal;line-height:0%;font-family:Lavi;-inkscape-font-specification:Lavi;text-align:center;letter-spacing:0px;word-spacing:0px;text-anchor:middle;fill:#000000;fill-opacity:1;stroke:none"
       xml:space="preserve"><tspan
         y="2513.5476"
         x="1174.139"
         style="font-size:45px;line-height:1.25;fill:#000000"
         sodipodi:role="line"
         id="tspan8797">Dia tak perlu</tspan><tspan
         y="2569.7976"
         x="1174.139"
         style="font-size:45px;line-height:1.25;fill:#000000"
         sodipodi:role="line"
         id="tspan82280">takut; Aku tidak</tspan><tspan
         y="2626.0476"
         x="1174.139"
         style="font-size:45px;line-height:1.25;fill:#000000"
         sodipodi:role="line"
         id="tspan1418">pernah berhasil</tspan><tspan
         y="2682.2976"
         x="1174.139"
         style="font-size:45px;line-height:1.25;fill:#000000"
         sodipodi:role="line"
         id="tspan1420">melakukannya.</tspan></text>
    <text
       id="text4246-4-2-7-3-6-7-6-6-4-5-1"
       y="2338.7527"
       x="1802.5892"
       style="font-style:normal;font-variant:normal;font-weight:normal;font-stretch:normal;line-height:0%;font-family:Lavi;-inkscape-font-specification:Lavi;text-align:center;letter-spacing:0px;word-spacing:0px;text-anchor:middle;fill:#000000;fill-opacity:1;stroke:none"
       xml:space="preserve"><tspan
         y="2338.7527"
         x="1802.5892"
         style="font-size:45px;line-height:1.25;fill:#000000"
         sodipodi:role="line"
         id="tspan186800-2">Benarkah?</tspan></text>
    <text
       id="text4246-4-2-7-3-6-7-6-6-4-5-1-6"
       y="2351.8303"
       x="2202.064"
       style="font-style:normal;font-variant:normal;font-weight:normal;font-stretch:normal;font-size:39px;line-height:0%;font-family:Lavi;-inkscape-font-specification:Lavi;text-align:center;letter-spacing:0px;word-spacing:0px;text-anchor:middle;fill:#000000;fill-opacity:1;stroke:none"
       xml:space="preserve"><tspan
         y="2351.8303"
         x="2202.064"
         style="font-size:39px;line-height:1.25;fill:#000000"
         sodipodi:role="line"
         id="tspan94771">Iya, benar,</tspan><tspan
         y="2400.5803"
         x="2202.064"
         style="font-size:39px;line-height:1.25;fill:#000000"
         sodipodi:role="line"
         id="tspan1424">ha ha ha!</tspan></text>
    <text
       id="text4246-4-2-7-3-6-7-6-6-4-5-1-6-5"
       y="2911.1982"
       x="2205.9717"
       style="font-style:normal;font-variant:normal;font-weight:normal;font-stretch:normal;font-size:42.50630188px;line-height:0%;font-family:Lavi;-inkscape-font-specification:Lavi;text-align:center;letter-spacing:0px;word-spacing:0px;text-anchor:middle;fill:#000000;fill-opacity:1;stroke:none;stroke-width:1.08990002"
       xml:space="preserve"><tspan
         y="2911.1982"
         x="2205.9717"
         style="font-size:42.50630188px;line-height:1.25;fill:#000000;stroke-width:1.08990002"
         sodipodi:role="line"
         id="tspan201029-4">Hihihi!</tspan></text>
    <text
       id="text4246-4-2-7-3-6-7-6-6-4-5-1-6-5-7"
       y="3002.9026"
       x="2200.3838"
       style="font-style:normal;font-variant:normal;font-weight:normal;font-stretch:normal;font-size:39px;line-height:0%;font-family:Lavi;-inkscape-font-specification:Lavi;text-align:center;letter-spacing:0px;word-spacing:0px;text-anchor:middle;fill:#000000;fill-opacity:1;stroke:none"
       xml:space="preserve"><tspan
         y="3002.9026"
         x="2206.5918"
         style="font-size:39px;line-height:1.25;fill:#000000"
         sodipodi:role="line"
         id="tspan215195">Dia terlalu </tspan><tspan
         y="3051.6526"
         x="2200.3838"
         style="font-size:39px;line-height:1.25;fill:#000000"
         sodipodi:role="line"
         id="tspan104571">paranoid...</tspan></text>
  </g>
</svg>
