<?xml version="1.0" encoding="UTF-8" standalone="no"?>
<svg
   id="svg2"
   version="1.1"
   inkscape:version="1.2 (1:1.2.1+202207142221+cd75a1ee6d)"
   width="2481"
   height="3503"
   sodipodi:docname="E37P08.svg"
   xmlns:inkscape="http://www.inkscape.org/namespaces/inkscape"
   xmlns:sodipodi="http://sodipodi.sourceforge.net/DTD/sodipodi-0.dtd"
   xmlns:xlink="http://www.w3.org/1999/xlink"
   xmlns="http://www.w3.org/2000/svg"
   xmlns:svg="http://www.w3.org/2000/svg"
   xmlns:rdf="http://www.w3.org/1999/02/22-rdf-syntax-ns#"
   xmlns:cc="http://creativecommons.org/ns#"
   xmlns:dc="http://purl.org/dc/elements/1.1/">
  <metadata
     id="metadata8">
    <rdf:RDF>
      <cc:Work
         rdf:about="">
        <dc:format>image/svg+xml</dc:format>
        <dc:type
           rdf:resource="http://purl.org/dc/dcmitype/StillImage" />
        <dc:title />
      </cc:Work>
    </rdf:RDF>
  </metadata>
  <defs
     id="defs6">
    <filter
       style="color-interpolation-filters:sRGB"
       id="filter4375-4-1-1-15-1-3-5"
       inkscape:label="deevad outline effect"
       x="-0.0010983899"
       y="-0.0045733851"
       width="1.0021968"
       height="1.0091468">
      <feFlood
         id="feFlood4377-7-9-0-4-4-4-9"
         flood-opacity="1"
         flood-color="rgb(0,0,0)"
         result="flood" />
      <feComposite
         id="feComposite4379-3-8-8-6-0-7-7"
         in2="SourceGraphic"
         in="flood"
         operator="in"
         result="composite1" />
      <feMorphology
         id="feMorphology4393-1-0-49-8-2-7-7"
         operator="dilate"
         radius="0.69999999999999996"
         result="result3" />
      <feComposite
         id="feComposite4385-9-5-7-2-1-2-6"
         in2="result3"
         in="SourceGraphic"
         operator="over"
         result="composite2" />
    </filter>
    <filter
       style="color-interpolation-filters:sRGB"
       id="filter4375-4-1-1-15-1-3-5-1"
       inkscape:label="deevad outline effect"
       x="-0.0017880683"
       y="-0.0034836332"
       width="1.0035761"
       height="1.0069673">
      <feFlood
         id="feFlood4377-7-9-0-4-4-4-9-2"
         flood-opacity="1"
         flood-color="rgb(0,0,0)"
         result="flood" />
      <feComposite
         id="feComposite4379-3-8-8-6-0-7-7-7"
         in2="SourceGraphic"
         in="flood"
         operator="in"
         result="composite1" />
      <feMorphology
         id="feMorphology4393-1-0-49-8-2-7-7-0"
         operator="dilate"
         radius="0.69999999999999996"
         result="result3" />
      <feComposite
         id="feComposite4385-9-5-7-2-1-2-6-9"
         in2="result3"
         in="SourceGraphic"
         operator="over"
         result="composite2" />
    </filter>
    <filter
       style="color-interpolation-filters:sRGB"
       id="filter4375-4-1-1-1-9-30-2-7-9"
       inkscape:label="Roughen"
       x="0"
       y="0"
       width="1"
       height="1">
      <feFlood
         id="feFlood4377-7-9-0-8-1-78-6-7-8"
         flood-opacity="1"
         flood-color="rgb(0,0,0)"
         result="flood" />
      <feComposite
         id="feComposite4379-3-8-8-2-77-68-1-1-4"
         in2="SourceGraphic"
         in="flood"
         operator="in"
         result="composite1" />
      <feMorphology
         id="feMorphology4393-1-0-49-8-9-8-0-1-8"
         operator="dilate"
         radius="4"
         result="result3" />
      <feComposite
         id="feComposite4385-9-5-7-0-8-4-6-5-1"
         in2="result3"
         in="SourceGraphic"
         operator="over"
         result="fbSourceGraphic" />
      <feColorMatrix
         result="fbSourceGraphicAlpha"
         in="fbSourceGraphic"
         values="0 0 0 -1 0 0 0 0 -1 0 0 0 0 -1 0 0 0 0 1 0"
         id="feColorMatrix333-3-1-9-0" />
      <feTurbulence
         id="feTurbulence335-1-5-7-3"
         type="fractalNoise"
         numOctaves="5"
         seed="1"
         baseFrequency="0.013 0.013"
         result="turbulence" />
      <feDisplacementMap
         in2="turbulence"
         id="feDisplacementMap337-4-9-7-0"
         in="fbSourceGraphic"
         scale="6.6"
         yChannelSelector="G"
         xChannelSelector="R"
         result="fbSourceGraphic" />
      <feColorMatrix
         result="fbSourceGraphicAlpha"
         in="fbSourceGraphic"
         values="0 0 0 -1 0 0 0 0 -1 0 0 0 0 -1 0 0 0 0 1 0"
         id="feColorMatrix435-92-4-6-4" />
      <feTurbulence
         id="feTurbulence437-06-9-7-4"
         type="fractalNoise"
         numOctaves="5"
         seed="27"
         baseFrequency="0.001 0.4414"
         result="turbulence" />
      <feDisplacementMap
         in2="turbulence"
         id="feDisplacementMap439-8-0-3-4"
         in="fbSourceGraphic"
         scale="4.27461"
         yChannelSelector="G"
         xChannelSelector="R" />
    </filter>
  </defs>
  <sodipodi:namedview
     pagecolor="#ffffff"
     bordercolor="#666666"
     borderopacity="1"
     objecttolerance="10"
     gridtolerance="10"
     guidetolerance="10"
     inkscape:pageopacity="0"
     inkscape:pageshadow="2"
     inkscape:window-width="1216"
     inkscape:window-height="704"
     id="namedview4"
     showgrid="false"
     inkscape:zoom="0.49190039"
     inkscape:cx="1115.0632"
     inkscape:cy="325.26911"
     inkscape:window-x="0"
     inkscape:window-y="0"
     inkscape:window-maximized="0"
     inkscape:current-layer="layer1"
     inkscape:pagecheckerboard="0"
     inkscape:showpageshadow="0"
     inkscape:deskcolor="#d1d1d1"
     inkscape:document-rotation="0" />
  <g
     inkscape:groupmode="layer"
     id="layer2"
     inkscape:label="artwork"
     sodipodi:insensitive="true">
    <image
       xlink:href="../gfx_Pepper-and-Carrot_by-David-Revoy_E37P08.png"
       width="2481"
       height="3503"
       id="image10"
       x="0"
       y="0" />
  </g>
  <g
     inkscape:groupmode="layer"
     id="layer3"
     inkscape:label="speechbubbles">
    <path
       style="color:#000000;display:inline;overflow:visible;visibility:visible;fill:#ffffff;fill-opacity:1;fill-rule:nonzero;stroke:none;stroke-width:0.702239px;marker:none;enable-background:accumulate"
       d="m 143.6158,135.32326 c 3.61636,-3.47216 10.23506,-0.94728 14.93963,-2.67999 4.70465,-1.73323 7.49516,-7.72454 12.2427,-9.00489 16.434,-3.67137 34.23308,2.62188 51.02849,1.31925 16.79557,-1.30213 32.58754,-10.20068 49.401,-10.0798 16.00836,0.3564 30.48675,9.12472 46.44109,11.00113 15.95426,1.87589 33.38456,-3.14118 48.70613,1.68343 7.29045,2.30959 6.83687,10.19444 13.282,14.32648 6.44512,4.13205 19.78885,4.51128 23.91705,11.03383 6.9447,10.63903 2.92843,23.26496 4.09769,35.68237 1.16936,12.41738 7.52409,24.62571 4.45402,36.56479 -2.33391,8.46331 -14.95723,13.33822 -19.64392,21.02335 -4.68659,7.68513 -1.43645,18.18047 -9.3706,22.93296 -7.52008,3.87577 -20.52519,-1.10706 -28.78792,0.69931 -8.26273,1.80638 -11.78307,10.403 -20.10604,11.53444 -20.35133,2.28727 -41.91286,-5.65256 -62.39454,-5.40304 -20.48168,0.25005 -39.88333,8.69 -60.30896,7.42523 -9.80417,-0.84301 -17.0253,-10.01495 -26.83347,-11.3866 -9.80808,-1.37111 -22.20302,5.05806 -31.37023,1.24196 -6.40207,-2.58195 -7.71841,-11.88565 -12.37786,-16.79794 -4.65946,-4.91227 -12.66195,-5.43312 -14.86133,-11.80782 -2.79514,-7.83506 4.85404,-17.55016 3.7837,-25.76029 -1.07042,-8.21065 -10.86025,-14.91633 -11.18589,-23.14202 -0.009,-11.18167 12.98179,-17.28143 17.37647,-27.48937 4.39468,-10.20844 0.19823,-24.52455 7.57079,-32.91677 z"
       id="path4040-4-5"
       inkscape:connector-curvature="0"
       sodipodi:nodetypes="cscscscscscscscscscscscsc" />
    <path
       style="color:#000000;display:inline;overflow:visible;visibility:visible;fill:#ffffff;fill-opacity:1;fill-rule:nonzero;stroke:none;stroke-width:0.748778px;marker:none;enable-background:accumulate"
       d="m 206.86396,335.47434 c 2.96567,-2.10545 8.39351,-0.57441 12.2516,-1.6251 3.85814,-1.051 6.14657,-4.684 10.0399,-5.46039 13.47706,-2.22622 28.07362,1.58987 41.84708,0.79998 13.7736,-0.78958 26.72417,-6.18547 40.51242,-6.11218 13.12802,0.21611 25.00136,5.53306 38.08508,6.67086 13.08365,1.1375 27.37778,-1.90475 39.94258,1.0208 5.9787,1.40047 5.60675,6.18168 10.8922,8.68727 5.28548,2.50557 16.22831,2.73556 19.61373,6.69069 5.69518,6.45128 2.40152,14.10738 3.36041,21.63703 0.95896,7.52965 6.17031,14.93253 3.65262,22.17213 -1.91396,5.13197 -12.26603,8.08802 -16.10945,12.74811 -3.84333,4.66011 -1.17797,11.02426 -7.68458,13.90607 -6.16702,2.35019 -16.83215,-0.67129 -23.60819,0.42405 -6.77605,1.09535 -9.66297,6.30816 -16.4884,6.99424 -16.68959,1.38696 -34.37163,-3.42759 -51.16809,-3.27629 -16.79649,0.15162 -32.70724,5.26943 -49.45774,4.5025 -8.04013,-0.51118 -13.96198,-6.07285 -22.00542,-6.90458 -8.04333,-0.83142 -18.20808,3.06711 -25.72587,0.75308 -5.25015,-1.56563 -6.32966,-7.20719 -10.15074,-10.18591 -3.8211,-2.97869 -10.38373,-3.29452 -12.18737,-7.16002 -2.29223,-4.751 3.98067,-10.64206 3.10289,-15.62049 -0.8778,-4.97877 -8.90618,-9.04496 -9.17324,-14.03282 -0.006,-6.78036 10.64604,-10.47912 14.24998,-16.66899 3.60396,-6.19018 0.16255,-14.87118 6.2086,-19.96004 z"
       id="path4040-4-5-5"
       inkscape:connector-curvature="0"
       sodipodi:nodetypes="cscscscscscscscscscscscsc" />
    <path
       style="color:#000000;display:inline;overflow:visible;visibility:visible;fill:#ffffff;fill-opacity:1;fill-rule:nonzero;stroke:none;stroke-width:1px;marker:none;enable-background:accumulate"
       d="M 248.60156 229.58203 C 244.39892 229.98448 241.3875 233.85856 240.47519 237.75004 C 239.37916 241.79267 241.34033 245.7317 242.02336 249.66032 C 249.14144 280.69184 255.56648 312.03167 266.61848 341.97015 C 270.54885 352.2806 275.2506 362.27439 279.89538 372.27648 C 286.60214 386.36532 293.8784 400.22398 302.4333 413.28668 C 312.21154 425.54126 325.33528 434.57193 338.87446 442.20971 C 347.30329 447.12997 355.71022 452.10469 363.78516 457.59375 C 367.15748 462.3499 366.92193 468.81374 364.63436 473.97432 C 363.20776 478.79123 361.79543 484.10452 363.59389 489.01582 C 367.05325 495.85037 374.7656 499.72306 382.24414 499.86914 C 389.10791 500.39517 396.04583 500.09655 402.84766 501.30664 C 406.74858 503.4322 408.22032 507.89592 410.02468 511.66104 C 413.40285 518.84343 419.15291 525.37394 426.87375 527.8922 C 435.05955 530.69638 444.22435 528.98089 451.63807 524.82257 C 457.91976 521.88721 464.15756 518.8258 470.67383 516.43359 C 459.91483 517.79013 449.73813 522.43753 438.80273 522.60547 C 429.27116 521.61609 421.21593 513.86243 419.00927 504.66886 C 417.80185 500.37952 415.78134 495.82905 411.63821 493.65685 C 406.78201 490.76048 400.87265 491.07377 395.46928 491.72699 C 390.0183 492.26335 384.07323 492.62468 379.17984 489.70927 C 375.67117 487.49889 374.49265 482.84505 375.55219 478.98918 C 376.59113 475.02548 379.28898 471.75457 380.38477 467.80469 C 381.89521 463.30556 382.13682 458.10466 379.70119 453.87495 C 376.86537 448.48729 371.69106 444.8869 366.47298 442.04054 C 353.39351 433.89207 339.60337 426.46274 328.53129 415.56384 C 317.03507 403.43023 309.22498 388.47156 301.64138 373.73051 C 289.09435 349.13379 276.86605 324.12236 269.45508 297.41992 C 266.72368 287.68483 265.19715 277.19384 267.89844 267.27539 C 269.04475 263.06294 271.79926 259.48584 274.98828 256.58984 C 276.26643 254.49474 274.72734 252.1689 273.76973 250.2899 C 271.32404 245.94145 268.03597 242.15398 265.14853 238.10669 C 261.11379 233.15191 255.16362 229.43373 248.60156 229.58203 z "
       id="path4496-8"
       inkscape:connector-curvature="0"
       sodipodi:nodetypes="cccccccccccccccccccc" />
    <path
       style="color:#000000;display:inline;overflow:visible;visibility:visible;fill:#ffffff;fill-opacity:1;fill-rule:nonzero;stroke:none;stroke-width:1.45441px;marker:none;enable-background:accumulate"
       d="m 1512.9819,490.45553 c 5.8495,-80.6842 74.1095,-139.57501 251.0176,-124.00646 94.7613,8.33895 202.3781,13.90845 194.9084,132.10657 -7.4698,118.19912 -162.1678,114.82169 -194.1169,117.51613 -31.9492,2.69542 -198.2486,-10.06517 -227.1869,-50.34065 -18.1143,-25.21129 -25.2386,-50.28538 -24.6222,-75.27559 z"
       id="path4546-6-5"
       inkscape:connector-curvature="0"
       sodipodi:nodetypes="cssssc" />
    <path
       style="color:#000000;display:inline;overflow:visible;visibility:visible;fill:#ffffff;fill-opacity:1;fill-rule:nonzero;stroke:none;stroke-width:1.02629px;marker:none;enable-background:accumulate"
       d="m 1647.4996,181.75651 c -2.8067,-65.53932 -47.1606,-114.514217 -164.3231,-105.034832 -62.7584,5.077346 -133.9795,7.679992 -130.595,103.672092 3.3847,95.99291 105.7033,96.00551 126.7901,98.75901 21.087,2.75431 131.1989,-4.63653 150.8601,-36.78538 12.3072,-20.12427 17.3468,-40.33275 17.2679,-60.61089 z"
       id="path4546-6-5-1"
       inkscape:connector-curvature="0"
       sodipodi:nodetypes="cssssc" />
    <path
       style="color:#000000;display:inline;overflow:visible;visibility:visible;fill:#ffffff;fill-opacity:1;fill-rule:nonzero;stroke:none;stroke-width:1.123px;marker:none;enable-background:accumulate"
       d="m 1794.7169,316.04882 c -3.19,-44.77306 -53.6016,-78.23018 -186.7655,-71.75436 -71.3296,3.46859 -152.2777,5.24658 -148.4308,70.82341 3.8468,65.57739 120.1395,65.58599 144.1063,67.46704 23.9668,1.88159 149.1173,-3.16744 171.4636,-25.12987 13.9882,-13.74785 19.716,-27.55324 19.6264,-41.40622 z"
       id="path4546-6-5-1-8"
       inkscape:connector-curvature="0"
       sodipodi:nodetypes="cssssc" />
    <path
       style="color:#000000;display:inline;overflow:visible;visibility:visible;fill:#ffffff;fill-opacity:1;fill-rule:nonzero;stroke:none;stroke-width:1px;marker:none;enable-background:accumulate"
       d="m 2028.2472,543.45854 c -37.3331,39.54779 -57.8273,37.26198 -72.9181,37.37736 -0.6657,-5.19261 -3.4254,-13.93796 -3.4254,-13.93796 0,0 -29.9699,3.29695 -41.2638,0.37719 -11.2939,-2.91973 -7.1578,-18.91959 -7.1578,-18.91959 0,0 58.3009,-8.02179 70.8431,-13.81554 1.2997,14.39271 3.6048,21.01241 2.1448,26.65978 8.2273,3.13074 38.2294,-4.17454 51.7772,-17.74124 z"
       id="path4456-3"
       inkscape:connector-curvature="0" />
    <path
       style="color:#000000;display:inline;overflow:visible;visibility:visible;fill:#ffffff;fill-opacity:1;fill-rule:nonzero;stroke:none;stroke-width:0.979012px;marker:none;enable-background:accumulate"
       d="m 656.80169,1592.2113 c -17.89954,-5.2851 -69.512,-47.1466 -6.2117,-44.9601 -46.58732,-17.614 -40.39427,-52.6687 -2.10994,-73.1426 -50.21577,4.1847 -87.48035,-4.552 -61.60552,-40.7324 -74.27761,23.1697 -107.24288,27.8941 -91.80661,-22.9244 -34.21669,41.9338 -67.03679,34.1074 -75.49148,-14.9474 -7.71067,36.5637 -24.17114,56.5467 -73.23744,10.5097 -3.61175,13.4158 -13.85734,55.8724 -119.65946,43.6898 40.09617,25.5724 65.56688,41.9413 -2.66489,52.7596 34.7734,11.5042 56.94892,27.088 2.75341,51.8466 35.11612,7.8196 90.67119,5.5272 23.20801,52.8806 44.47783,-22.3804 118.67177,-6.2099 86.69313,29.8898 87.15795,-40.5626 103.9212,-29.7469 117.08178,-0.6825 32.40697,-42.5575 79.2409,-37.7373 106.48165,-12.9989 -13.24267,-37.7137 56.54683,-31.2038 96.56906,-31.1878 z"
       id="path3549-3-78-5"
       inkscape:connector-curvature="0"
       sodipodi:nodetypes="ccccccccccccccc" />
    <path
       style="color:#000000;display:inline;overflow:visible;visibility:visible;fill:#ffffff;fill-opacity:1;fill-rule:nonzero;stroke:none;stroke-width:0.959944px;marker:none;enable-background:accumulate"
       d="m 379.74497,1694.667 c 19.63276,-5.2024 76.24286,-46.4087 6.81318,-44.2565 51.09838,-17.3383 44.30566,-51.8444 2.31425,-71.9979 55.07818,4.1192 95.95109,-4.4807 67.57079,-40.0949 81.46994,22.8071 117.62724,27.4576 100.69626,-22.5656 37.5299,41.2775 73.52799,33.5736 82.80135,-14.7135 8.4573,35.9915 26.51163,55.6617 80.32904,10.3452 3.96147,13.2059 15.19914,54.998 131.24611,43.0061 -43.9787,25.1722 -71.91574,41.2849 2.92292,51.9339 -38.14051,11.3241 -62.46329,26.664 -3.02002,51.0352 -38.51641,7.6972 -99.4509,5.4407 -25.45524,52.053 -48.78463,-22.0302 -130.16279,-6.1127 -95.08765,29.422 -95.59747,-39.9278 -113.98391,-29.2814 -128.41883,-0.6718 -35.54495,-41.8915 -86.91381,-37.1467 -116.79229,-12.7955 14.52496,-37.1235 -62.02227,-30.7154 -105.91987,-30.6997 z"
       id="path3549-3-78-5-2"
       inkscape:connector-curvature="0"
       sodipodi:nodetypes="ccccccccccccccc" />
    <path
       style="color:#000000;display:inline;overflow:visible;visibility:visible;fill:#ffffff;fill-opacity:1;fill-rule:nonzero;stroke:none;stroke-width:1px;marker:none;enable-background:accumulate"
       d="m 730.6484,1672.3589 c 24.58889,17.0255 58.1857,36.9488 66.10452,35.8831 -8.27321,5.3495 -14.59566,11.5935 -19.61526,16.3705 10.8945,10.2124 55.72892,28.2136 80.79774,39.0726 -45.44587,-1.2883 -99.65783,-22.4232 -118.62671,-35.9648 9.69378,-3.5509 16.76376,-8.3846 19.55366,-12.4141 -5.41715,-10.5354 -45.88559,-24.0982 -46.46956,-23.6682 z"
       id="path5066-6"
       inkscape:connector-curvature="0"
       sodipodi:nodetypes="cccccccc" />
    <path
       style="color:#000000;display:inline;overflow:visible;visibility:visible;fill:#ffffff;fill-opacity:1;fill-rule:nonzero;stroke:none;stroke-width:1.34745px;marker:none;enable-background:accumulate"
       d="m 1873.8644,1496.0149 c -9.4217,29.3996 -62.5615,31.8653 -82.1238,25.8896 39.4329,32.8897 38.0583,53.3237 -15.4806,56.4975 89.7855,59.2757 16.414,50.306 1.9419,65.3361 70.4983,20.4287 40.9624,50.3725 28.4114,75.6811 68.7492,-13.0009 32.3371,6.0572 20.6521,52.1126 22.8971,-15.5991 81.2586,-65.0584 76.7385,7.1865 43.6474,-40.1175 93.1473,-58.3002 123.2795,5.1022 21.5952,-43.1669 43.8628,-67.1003 82.7485,-4.2353 -10.6262,-67.6747 60.3084,-48.5498 108.6761,-29.6233 -11.4852,-18.0899 7.9532,-65.0514 55.2824,-43.9848 -32.1502,-29.5796 8.1142,-33.803 39.4524,-41.9798 -41.6435,-12.101 -49.3182,-24.5832 28.0042,-38.0157 -58.8379,-1.2997 -113.7046,-3.9614 -44.6748,-49.7714 -21.6567,-1.1077 -73.0391,37.1158 -49.0826,-74.749 -37.2396,35.8121 -76.9708,55.5777 -126.7976,-19.4386 -23.5804,37.477 -64.4805,56.0224 -82.2739,9.2104 -6.3953,19.9562 -32.9137,27.4619 -55.4259,28.3725 -8.7055,-7.9279 -17.6843,-18.6948 -27.0539,-32.8011 -15.3141,29.6193 -38.2222,49.6245 -82.2739,9.2105 z"
       id="path3549-3-7-1"
       inkscape:connector-curvature="0"
       sodipodi:nodetypes="cccccccccccccccccccc" />
    <path
       style="color:#000000;display:inline;overflow:visible;visibility:visible;fill:#ffffff;fill-opacity:1;fill-rule:nonzero;stroke:none;stroke-width:2.00053px;marker:none;enable-background:accumulate"
       d="m 1889.8797,1704.1371 c -6.0848,-9.0445 -78.053,18.5831 -74.6462,27.8679 0,0 -29.3607,-6.4482 -34.6423,-5.6747 -9.9834,10.8034 -12.9296,25.7173 -12.9296,25.7173 l -58.0107,-10.8388 43.8646,-1.7548 5.4216,-32.5531 48.8388,1.1853 38.3888,-41.3739 z"
       id="path4448"
       inkscape:connector-curvature="0"
       sodipodi:nodetypes="cccccccccc" />
    <path
       style="color:#000000;display:inline;overflow:visible;visibility:visible;fill:#ffffff;fill-opacity:1;fill-rule:nonzero;stroke:none;stroke-width:1.29067px;marker:none;enable-background:accumulate"
       d="m 275.85235,2097.3398 c -11.21531,19.6296 -74.47117,21.2756 -97.75744,17.2855 46.93967,21.9594 45.30326,35.603 -18.42763,37.7214 106.87777,39.5764 19.53871,33.5875 2.31168,43.6231 83.91882,13.6388 92.2804,35.6244 20.84007,54.9407 96.48314,-13.4062 82.77952,4.264 45.74502,27.0645 48.16783,-13.8113 80.82785,-26.1972 83.16527,8.1162 62.79796,-31.1654 110.03468,-2.5727 105.61075,13.8984 25.7062,-28.8207 92.47242,-51.4937 90.49925,-17.1189 63.69193,-44.7087 120.92796,-28.6157 178.50318,-15.9794 15.12183,-13.494 16.88381,-34.225 65.80648,-29.3669 -6.85951,-13.375 9.65881,-22.569 46.96275,-28.0288 -49.57098,-8.0794 -58.70675,-16.4134 33.33545,-25.3818 -70.03873,-0.8674 -135.35031,-2.6448 -53.17966,-33.23 -25.7792,-0.7401 -86.94312,24.781 -58.42609,-49.9069 -44.32879,23.9101 -91.62367,37.1069 -150.93566,-12.9791 -28.06948,25.0221 -76.75532,37.4039 -97.93605,6.1495 -7.61279,13.3243 -39.17949,18.3352 -65.97727,18.943 -10.36274,-5.2926 -21.05071,-12.4814 -32.20409,-21.8999 -18.22926,19.7763 -45.49827,33.1322 -97.93601,6.1494 z"
       id="path3549-3-7"
       inkscape:connector-curvature="0"
       sodipodi:nodetypes="cccccccccccccccccccc" />
    <path
       style="fill:#ffffff;fill-rule:evenodd;stroke:none;stroke-width:1.42783px;stroke-linecap:butt;stroke-linejoin:miter;stroke-opacity:1"
       d="m 298.8916,2241.16 c 56.50735,14.419 107.5861,23.3837 90.22033,-36.4215 100.02168,81.1945 85.67366,25.5874 101.49789,6.0702 59.46655,57.3555 110.63264,49.1819 155.0662,-12.1404 25.11889,88.4547 77.68282,45.5978 124.05291,32.3746 -0.11337,24.8748 -12.77396,53.3983 124.05306,38.445 -39.12241,22.4663 -58.93769,40.9596 28.61018,52.7307 -60.81458,18.0636 -88.9907,23.2179 -22.97145,46.6361 -35.0722,34.1145 -11.61452,54.3888 36.65196,68.7962 -113.01204,1.9952 -85.79607,20.7635 -67.66521,38.4451 -96.2178,-36.3532 -109.67979,-21.7987 -101.49781,6.0701 -44.7838,-15.9869 -59.23246,-55.0323 -139.23321,-5.3052 -23.79311,-16.5037 -64.37754,-36.0893 -117.3309,15.4223 -3.7355,-44.9322 -42.4509,-43.242 -98.67851,-18.2106 -14.83039,-42.1382 -70.51874,-20.7432 -129.69177,6.0703 48.29872,-41.1278 51.79864,-75.4867 -42.29077,-95.1009 91.18051,-23.5281 59.25847,-42.7579 9.32062,-52.5458 64.49313,1.8122 68.91933,-30.3123 39.60337,-47.8082 53.28159,5.1374 66.72889,-1.4158 10.28311,-43.528 z"
       id="path4582"
       inkscape:connector-curvature="0"
       sodipodi:nodetypes="ccccccccccccccccccc" />
    <path
       style="display:inline;fill:#ffffff;fill-rule:evenodd;stroke:none;stroke-width:1.2242px;stroke-linecap:butt;stroke-linejoin:miter;stroke-opacity:1"
       d="m 625.48512,2656.2353 32.7469,-152.6846 -42.63337,18.6917 12.11307,-117.5264 -34.31052,3.6874 3.18735,140.2064 35.4462,-15.7643 z"
       id="path4667-2"
       inkscape:connector-curvature="0"
       sodipodi:nodetypes="cccccccc" />
  </g>
  <g
     inkscape:groupmode="layer"
     id="layer1"
     inkscape:label="txt">
    <text
       xml:space="preserve"
       style="font-style:normal;font-variant:normal;font-weight:normal;font-stretch:normal;font-size:45.3333px;line-height:125%;font-family:Lavi;-inkscape-font-specification:Lavi;text-align:center;letter-spacing:0px;word-spacing:0px;text-anchor:middle;fill:#000000;fill-opacity:1;stroke:none"
       x="267.78494"
       y="191.73756"
       id="text4246-70-2-2-2-7-4-9-9-6-1-2-3-9-2-7-9-3-3-5"><tspan
         sodipodi:role="line"
         style="font-size:45.3333px"
         x="267.78494"
         y="191.73756"
         id="tspan1036">Ha ! Vi </tspan><tspan
         sodipodi:role="line"
         style="font-size:45.3333px"
         x="267.78494"
         y="248.40419"
         id="tspan912">revenis.</tspan></text>
    <text
       xml:space="preserve"
       style="font-style:normal;font-variant:normal;font-weight:normal;font-stretch:normal;font-size:34.2589px;line-height:125%;font-family:Lavi;-inkscape-font-specification:Lavi;text-align:center;letter-spacing:0px;word-spacing:0px;text-anchor:middle;fill:#000000;fill-opacity:1;stroke:none;stroke-width:1"
       x="313.10175"
       y="385.30099"
       id="text4246-70-2-2-2-7-4-9-9-6-1-2-3-9-2-7-9-3-3-5-36"><tspan
         sodipodi:role="line"
         style="font-size:34.2589px;stroke-width:1"
         x="313.10175"
         y="385.30099"
         id="tspan474">Tiel baldaŭ...</tspan></text>
    <text
       xml:space="preserve"
       style="font-style:normal;font-variant:normal;font-weight:normal;font-stretch:normal;font-size:45.3333px;line-height:125%;font-family:Lavi;-inkscape-font-specification:Lavi;text-align:center;letter-spacing:0px;word-spacing:0px;text-anchor:middle;fill:#000000;fill-opacity:1;stroke:none"
       x="1496.1012"
       y="163.22484"
       id="text4246-70-2-2-2-7-4-9-9-6-1-2-3-9-2-7-9-3-3-5-3"><tspan
         sodipodi:role="line"
         style="font-style:normal;font-variant:normal;font-weight:bold;font-stretch:normal;font-size:45.3333px;font-family:Lavi;-inkscape-font-specification:'Lavi Bold'"
         x="1496.1012"
         y="163.22484"
         id="tspan1134">Metala</tspan><tspan
         sodipodi:role="line"
         style="font-style:normal;font-variant:normal;font-weight:bold;font-stretch:normal;font-size:45.3333px;font-family:Lavi;-inkscape-font-specification:'Lavi Bold'"
         x="1496.1012"
         y="219.89146"
         id="tspan918">armilo ?!</tspan></text>
    <text
       xml:space="preserve"
       style="font-style:normal;font-variant:normal;font-weight:normal;font-stretch:normal;font-size:45.3333px;line-height:125%;font-family:Lavi;-inkscape-font-specification:Lavi;text-align:center;letter-spacing:0px;word-spacing:0px;text-anchor:middle;fill:#000000;fill-opacity:1;stroke:none"
       x="1623.1512"
       y="326.78018"
       id="text4246-70-2-2-2-7-4-9-9-6-1-2-3-9-2-7-9-3-3-5-3-3"><tspan
         sodipodi:role="line"
         style="font-style:italic;font-variant:normal;font-weight:normal;font-stretch:normal;font-size:45.3333px;font-family:Lavi;-inkscape-font-specification:'Lavi Italic'"
         x="1623.1512"
         y="326.78018"
         id="tspan16557-6">Ĉu vere ?!</tspan></text>
    <text
       xml:space="preserve"
       style="font-style:normal;font-variant:normal;font-weight:normal;font-stretch:normal;font-size:45.3333px;line-height:125%;font-family:Lavi;-inkscape-font-specification:Lavi;text-align:center;letter-spacing:0px;word-spacing:0px;text-anchor:middle;fill:#000000;fill-opacity:1;stroke:none"
       x="1740.2262"
       y="443.30933"
       id="text4246-70-2-2-2-7-4-9-9-6-1-2-3-9-2-7-9-3-3-5-3-3-2"><tspan
         sodipodi:role="line"
         style="font-size:45.3333px"
         x="1740.2262"
         y="443.30933"
         id="tspan26906">Ĉu vi ne scias,</tspan><tspan
         sodipodi:role="line"
         style="font-size:45.3333px"
         x="1740.2262"
         y="499.97595"
         id="tspan920">ke mi povas fandi</tspan><tspan
         sodipodi:role="line"
         style="font-size:45.3333px"
         x="1740.2262"
         y="556.64258"
         id="tspan1147">ĉian metalon kaj...</tspan></text>
    <text
       xml:space="preserve"
       style="color:#000000;font-style:normal;font-variant:normal;font-weight:normal;font-stretch:normal;font-size:66.6887px;line-height:0.01%;font-family:Lavi;-inkscape-font-specification:'Lavi, Normal';font-variant-ligatures:normal;font-variant-caps:normal;font-variant-numeric:normal;font-feature-settings:normal;text-align:start;letter-spacing:0.0113909px;word-spacing:0px;writing-mode:lr-tb;text-anchor:start;display:inline;overflow:visible;visibility:visible;fill:#ffffff;fill-opacity:1;fill-rule:nonzero;stroke:#000000;stroke-width:12;stroke-linecap:butt;stroke-linejoin:miter;stroke-miterlimit:4;stroke-dasharray:none;stroke-dashoffset:0;stroke-opacity:1;marker:none;paint-order:markers stroke fill;enable-background:accumulate"
       x="1186.1803"
       y="1892.3933"
       id="text1702-3"
       transform="matrix(0.76617461,-0.51781655,0.6039947,0.89697771,0,0)"><tspan
         sodipodi:role="line"
         id="tspan1032-6"
         x="1186.1803"
         y="1892.3933"
         style="font-style:normal;font-variant:normal;font-weight:bold;font-stretch:normal;font-family:Lavi;-inkscape-font-specification:'Lavi Bold';stroke:#000000;stroke-width:12;stroke-miterlimit:4;stroke-dasharray:none;stroke-opacity:1;paint-order:markers stroke fill">Plop</tspan></text>
    <text
       xml:space="preserve"
       style="color:#000000;font-style:normal;font-variant:normal;font-weight:normal;font-stretch:normal;font-size:57.2464px;line-height:0.01%;font-family:Lavi;-inkscape-font-specification:'Lavi, Normal';font-variant-ligatures:normal;font-variant-caps:normal;font-variant-numeric:normal;font-feature-settings:normal;text-align:start;letter-spacing:0.00977809px;word-spacing:0px;writing-mode:lr-tb;text-anchor:start;display:inline;overflow:visible;visibility:visible;fill:#ffffff;fill-opacity:1;fill-rule:nonzero;stroke:#000000;stroke-width:12;stroke-linecap:butt;stroke-linejoin:miter;stroke-miterlimit:4;stroke-dasharray:none;stroke-dashoffset:0;stroke-opacity:1;marker:none;paint-order:markers stroke fill;enable-background:accumulate"
       x="1290.0953"
       y="1974.2545"
       id="text1702-3-0"
       transform="matrix(0.73530329,-0.5395568,0.57965806,0.93463685,0,0)"><tspan
         sodipodi:role="line"
         id="tspan1032-6-6"
         x="1290.0953"
         y="1974.2545"
         style="font-style:normal;font-variant:normal;font-weight:bold;font-stretch:normal;font-family:Lavi;-inkscape-font-specification:'Lavi Bold';stroke:#000000;stroke-width:12;stroke-miterlimit:4;stroke-dasharray:none;stroke-opacity:1;paint-order:markers stroke fill">Plop</tspan></text>
    <text
       xml:space="preserve"
       style="color:#000000;font-style:normal;font-variant:normal;font-weight:normal;font-stretch:normal;font-size:49.8591px;line-height:0.01%;font-family:Lavi;-inkscape-font-specification:'Lavi, Normal';font-variant-ligatures:normal;font-variant-caps:normal;font-variant-numeric:normal;font-feature-settings:normal;text-align:start;letter-spacing:0.00851629px;word-spacing:0px;writing-mode:lr-tb;text-anchor:start;display:inline;overflow:visible;visibility:visible;fill:#ffffff;fill-opacity:1;fill-rule:nonzero;stroke:#000000;stroke-width:12;stroke-linecap:butt;stroke-linejoin:miter;stroke-miterlimit:4;stroke-dasharray:none;stroke-dashoffset:0;stroke-opacity:1;marker:none;paint-order:markers stroke fill;enable-background:accumulate"
       x="1383.9742"
       y="2054.8049"
       id="text1702-3-0-2"
       transform="matrix(0.7083762,-0.56006666,0.55843076,0.97016465,0,0)"><tspan
         sodipodi:role="line"
         id="tspan1032-6-6-6"
         x="1383.9742"
         y="2054.8049"
         style="font-style:normal;font-variant:normal;font-weight:bold;font-stretch:normal;font-family:Lavi;-inkscape-font-specification:'Lavi Bold';stroke:#000000;stroke-width:12;stroke-miterlimit:4;stroke-dasharray:none;stroke-opacity:1;paint-order:markers stroke fill">Plop</tspan></text>
    <text
       xml:space="preserve"
       style="font-style:normal;font-variant:normal;font-weight:normal;font-stretch:normal;font-size:64.787px;line-height:125%;font-family:Lavi;-inkscape-font-specification:Lavi;text-align:center;letter-spacing:0px;word-spacing:0px;text-anchor:middle;fill:#000000;fill-opacity:1;stroke:none;stroke-width:1.42912"
       x="436.67139"
       y="1539.6874"
       id="text4246-70-2-2-2-7-4-9-9-6-1-2-3-9-2-7-9-3-2-3-6-1"><tspan
         sodipodi:role="line"
         style="font-style:normal;font-variant:normal;font-weight:bold;font-stretch:normal;font-size:64.787px;font-family:Lavi;-inkscape-font-specification:'Lavi Bold';stroke-width:1.42912"
         x="436.67139"
         y="1539.6874"
         id="tspan37654-7">HO NE !</tspan></text>
    <text
       xml:space="preserve"
       style="font-style:normal;font-variant:normal;font-weight:normal;font-stretch:normal;font-size:64.787px;line-height:125%;font-family:Lavi;-inkscape-font-specification:Lavi;text-align:center;letter-spacing:0px;word-spacing:0px;text-anchor:middle;fill:#000000;fill-opacity:1;stroke:none;stroke-width:1.42912"
       x="620.6698"
       y="1651.1398"
       id="text4246-70-2-2-2-7-4-9-9-6-1-2-3-9-2-7-9-3-2-3-6-1-7"><tspan
         sodipodi:role="line"
         style="font-style:normal;font-variant:normal;font-weight:bold;font-stretch:normal;font-size:64.787px;font-family:Lavi;-inkscape-font-specification:'Lavi Bold';stroke-width:1.42912"
         x="620.6698"
         y="1651.1398"
         id="tspan37654-7-9">NE TIO !</tspan></text>
    <text
       xml:space="preserve"
       style="font-style:normal;font-variant:normal;font-weight:normal;font-stretch:normal;font-size:68.45px;line-height:125%;font-family:Lavi;-inkscape-font-specification:Lavi;text-align:center;letter-spacing:0px;word-spacing:0px;text-anchor:middle;fill:#000000;fill-opacity:1;stroke:none;stroke-width:1.50992"
       x="2037.4337"
       y="1613.8715"
       id="text4246-70-2-2-2-7-4-9-9-6-1-2-3-9-2-7-9-3-2-3-6-1-2"><tspan
         sodipodi:role="line"
         style="font-style:normal;font-variant:normal;font-weight:bold;font-stretch:normal;font-size:68.45px;font-family:Lavi;-inkscape-font-specification:'Lavi Bold';stroke-width:1.50992"
         x="2037.4337"
         y="1613.8715"
         id="tspan44667">TIO NE </tspan><tspan
         sodipodi:role="line"
         style="font-style:normal;font-variant:normal;font-weight:bold;font-stretch:normal;font-size:68.45px;font-family:Lavi;-inkscape-font-specification:'Lavi Bold';stroke-width:1.50992"
         x="2037.4337"
         y="1699.434"
         id="tspan1325">JUSTAS !</tspan></text>
    <text
       xml:space="preserve"
       style="font-style:normal;font-variant:normal;font-weight:normal;font-stretch:normal;font-size:54.7739px;line-height:125%;font-family:Lavi;-inkscape-font-specification:Lavi;text-align:center;letter-spacing:0px;word-spacing:0px;text-anchor:middle;fill:#000000;fill-opacity:1;stroke:none;stroke-width:1.25434"
       x="467.22021"
       y="2202.2456"
       id="text4246-70-2-2-2-7-4-9-9-6-1-2-3-9-2-7-9-3-3-5-3-3-2-3"><tspan
         sodipodi:role="line"
         style="font-style:normal;font-variant:normal;font-weight:bold;font-stretch:normal;font-size:54.7739px;font-family:Lavi;-inkscape-font-specification:'Lavi Bold';stroke-width:1.25434"
         x="467.22021"
         y="2202.2456"
         id="tspan26906-2">Rapide, Karoĉjo !</tspan></text>
    <text
       xml:space="preserve"
       style="font-style:normal;font-variant:normal;font-weight:normal;font-stretch:normal;font-size:50.6384px;line-height:125%;font-family:Lavi;-inkscape-font-specification:Lavi;text-align:center;letter-spacing:0px;word-spacing:0px;text-anchor:middle;fill:#000000;fill-opacity:1;stroke:none;stroke-width:1.11702"
       x="580.03149"
       y="2346.8682"
       id="text4246-70-2-2-2-7-4-9-9-6-1-2-3-9-2-7-9-3-3-5-3-3-2-3-2"><tspan
         sodipodi:role="line"
         style="font-size:50.6384px;stroke-width:1.11702"
         x="580.03149"
         y="2346.8682"
         id="tspan909">Prenu tiom da larmoj,</tspan><tspan
         sodipodi:role="line"
         style="font-size:50.6384px;stroke-width:1.11702"
         x="580.03149"
         y="2410.1663"
         id="tspan1504">kiom vi povas !</tspan></text>
    <text
       xml:space="preserve"
       style="font-style:normal;font-variant:normal;font-weight:normal;font-stretch:normal;font-size:8.2445px;line-height:0%;font-family:Lavi;-inkscape-font-specification:Lavi;letter-spacing:0px;word-spacing:0px;fill:#000000;fill-opacity:1;stroke:#000000;stroke-width:12;stroke-linecap:square;stroke-miterlimit:4;stroke-dasharray:none;stroke-opacity:1;paint-order:stroke fill markers"
       x="798.03912"
       y="3198.8276"
       id="text4580-9-9-6-3"
       transform="matrix(0.93156536,-0.43055488,0.11148381,1.0219359,0,0)"><tspan
         sodipodi:role="line"
         id="tspan4582-26-1-5-0"
         x="798.03912"
         y="3198.8276"
         style="font-style:normal;font-variant:normal;font-weight:normal;font-stretch:normal;font-size:48.0929px;line-height:1.25;font-family:ComicSpice;-inkscape-font-specification:ComicSpice;fill:#ffffff;stroke-width:12;stroke-linecap:square;stroke-miterlimit:4;stroke-dasharray:none;paint-order:stroke fill markers">Hak !</tspan></text>
    <text
       xml:space="preserve"
       style="font-style:normal;font-variant:normal;font-weight:normal;font-stretch:normal;font-size:8.2445px;line-height:0%;font-family:Lavi;-inkscape-font-specification:Lavi;letter-spacing:0px;word-spacing:0px;fill:#000000;fill-opacity:1;stroke:#000000;stroke-width:12;stroke-linecap:square;stroke-miterlimit:4;stroke-dasharray:none;stroke-opacity:1;paint-order:stroke fill markers"
       x="786.51398"
       y="3272.8726"
       id="text4580-9-9-6-3-3"
       transform="matrix(0.93156536,-0.43055488,0.11148381,1.0219359,0,0)"><tspan
         sodipodi:role="line"
         id="tspan4582-26-1-5-0-6"
         x="786.51398"
         y="3272.8726"
         style="font-style:normal;font-variant:normal;font-weight:normal;font-stretch:normal;font-size:48.0929px;line-height:1.25;font-family:ComicSpice;-inkscape-font-specification:ComicSpice;fill:#ffffff;stroke-width:12;stroke-linecap:square;stroke-miterlimit:4;stroke-dasharray:none;paint-order:stroke fill markers">Hak !</tspan></text>
    <text
       xml:space="preserve"
       style="font-style:normal;font-variant:normal;font-weight:normal;font-stretch:normal;font-size:8.2445px;line-height:0%;font-family:Lavi;-inkscape-font-specification:Lavi;letter-spacing:0px;word-spacing:0px;fill:#000000;fill-opacity:1;stroke:#000000;stroke-width:12;stroke-linecap:square;stroke-miterlimit:4;stroke-dasharray:none;stroke-opacity:1;paint-order:stroke fill markers"
       x="769.24554"
       y="3348.0605"
       id="text4580-9-9-6-3-3-7"
       transform="matrix(0.93156536,-0.43055488,0.11148381,1.0219359,0,0)"><tspan
         sodipodi:role="line"
         id="tspan4582-26-1-5-0-6-5"
         x="769.24554"
         y="3348.0605"
         style="font-style:normal;font-variant:normal;font-weight:normal;font-stretch:normal;font-size:48.0929px;line-height:1.25;font-family:ComicSpice;-inkscape-font-specification:ComicSpice;fill:#ffffff;stroke-width:12;stroke-linecap:square;stroke-miterlimit:4;stroke-dasharray:none;paint-order:stroke fill markers">Hak !</tspan></text>
    <text
       transform="matrix(0.85852879,0,-0.29243083,1.1647833,0,0)"
       id="text4213-7"
       y="2977.7437"
       x="2452.6748"
       style="font-style:normal;font-variant:normal;font-weight:normal;font-stretch:normal;font-size:10.7631px;line-height:0%;font-family:Lavi;-inkscape-font-specification:Lavi;text-align:center;letter-spacing:0px;word-spacing:0px;text-anchor:middle;display:inline;fill:#000000;fill-opacity:1;stroke:#000000;stroke-width:0;stroke-miterlimit:4;stroke-dasharray:none;stroke-opacity:1"
       xml:space="preserve"><tspan
         style="font-style:normal;font-variant:normal;font-weight:bold;font-stretch:normal;font-size:64.7408px;line-height:1.25;font-family:Lavi;-inkscape-font-specification:'Lavi Bold';fill:#000000;fill-opacity:1;stroke:#000000;stroke-width:0;stroke-miterlimit:4;stroke-dasharray:none;stroke-opacity:1"
         y="2977.7437"
         x="2452.6748"
         id="tspan3562-5"
         sodipodi:role="line">- FINO -</tspan></text>
  </g>
</svg>
