<?xml version="1.0" encoding="UTF-8" standalone="no"?>
<svg
   xmlns:dc="http://purl.org/dc/elements/1.1/"
   xmlns:cc="http://creativecommons.org/ns#"
   xmlns:rdf="http://www.w3.org/1999/02/22-rdf-syntax-ns#"
   xmlns:svg="http://www.w3.org/2000/svg"
   xmlns="http://www.w3.org/2000/svg"
   xmlns:xlink="http://www.w3.org/1999/xlink"
   xmlns:sodipodi="http://sodipodi.sourceforge.net/DTD/sodipodi-0.dtd"
   xmlns:inkscape="http://www.inkscape.org/namespaces/inkscape"
   id="svg2"
   version="1.1"
   inkscape:version="1.0.2-2 (e86c870879, 2021-01-15)"
   width="2481"
   height="3503"
   sodipodi:docname="E12P03.svg">
  <sodipodi:namedview
     pagecolor="#ffffff"
     bordercolor="#666666"
     inkscape:pageopacity="0"
     inkscape:pageshadow="2"
     inkscape:window-width="1366"
     inkscape:window-height="745"
     id="namedview70"
     showgrid="false"
     inkscape:zoom="0.4"
     inkscape:cx="1429.4663"
     inkscape:cy="3237.7207"
     inkscape:current-layer="layer1"
     inkscape:document-rotation="0"
     inkscape:window-x="-8"
     inkscape:window-y="-8"
     inkscape:window-maximized="1" />
  <metadata
     id="metadata8">
    <rdf:RDF>
      <cc:Work
         rdf:about="">
        <dc:format>image/svg+xml</dc:format>
        <dc:type
           rdf:resource="http://purl.org/dc/dcmitype/StillImage" />
        <dc:title />
      </cc:Work>
    </rdf:RDF>
  </metadata>
  <defs
     id="defs6">
    <filter
       style="color-interpolation-filters:sRGB"
       id="filter4375-4-1-7-3-7"
       inkscape:label="deevad outline effect">
      <feFlood
         id="feFlood4377-7-9-2-4-1"
         flood-opacity="1"
         flood-color="rgb(60,100,48)"
         result="flood" />
      <feComposite
         id="feComposite4379-3-8-5-4-75"
         in2="SourceGraphic"
         in="flood"
         operator="in"
         result="composite1" />
      <feMorphology
         id="feMorphology4393-1-0-4-5-8"
         operator="dilate"
         radius="4"
         result="result3" />
      <feComposite
         id="feComposite4385-9-5-2-1-5"
         in2="result3"
         in="SourceGraphic"
         operator="over"
         result="composite2" />
    </filter>
    <filter
       style="color-interpolation-filters:sRGB"
       id="filter4375-4-1-7-3-7-6"
       inkscape:label="deevad outline effect">
      <feFlood
         id="feFlood4377-7-9-2-4-1-8"
         flood-opacity="1"
         flood-color="rgb(60,100,48)"
         result="flood" />
      <feComposite
         id="feComposite4379-3-8-5-4-75-5"
         in2="SourceGraphic"
         in="flood"
         operator="in"
         result="composite1" />
      <feMorphology
         id="feMorphology4393-1-0-4-5-8-4"
         operator="dilate"
         radius="4"
         result="result3" />
      <feComposite
         id="feComposite4385-9-5-2-1-5-1"
         in2="result3"
         in="SourceGraphic"
         operator="over"
         result="composite2" />
    </filter>
  </defs>
  <sodipodi:namedview
     pagecolor="#ffffff"
     bordercolor="#666666"
     borderopacity="1"
     objecttolerance="10"
     gridtolerance="10"
     guidetolerance="10"
     inkscape:pageopacity="0"
     inkscape:pageshadow="2"
     inkscape:window-width="1920"
     inkscape:window-height="1025"
     id="namedview4"
     showgrid="false"
     inkscape:zoom="0.52900001"
     inkscape:cx="1115.0786"
     inkscape:cy="1421.7276"
     inkscape:window-x="0"
     inkscape:window-y="26"
     inkscape:window-maximized="1"
     inkscape:current-layer="layer1" />
  <g
     inkscape:groupmode="layer"
     id="layer2"
     inkscape:label="artwork"
     sodipodi:insensitive="true">
    <image
       sodipodi:absref="C:\Users\quentinlipeck\Downloads\webcomics-master-ec7d62e6553c2c63bb1cf2e799ee31f9cb9ce5e2\webcomics-master-ec7d62e6553c2c63bb1cf2e799ee31f9cb9ce5e2\ep12_Autumn-Clearout\lang\gfx_Pepper-and-Carrot_by-David-Revoy_E12P03.png"
       xlink:href="../gfx_Pepper-and-Carrot_by-David-Revoy_E12P03.png"
       y="0"
       x="0"
       id="image10"
       height="3503"
       width="2481" />
  </g>
  <g
     inkscape:groupmode="layer"
     id="layer3"
     inkscape:label="speechbubbles" />
  <g
     inkscape:groupmode="layer"
     id="layer1"
     inkscape:label="txt">
    <path
       style="color:#000000;display:inline;overflow:visible;visibility:visible;fill:#ffffff;fill-opacity:1;fill-rule:nonzero;stroke:none;stroke-width:1px;marker:none;enable-background:accumulate"
       d="m 360.65741,1428.9168 c 3.96899,-2.1762 19.79333,-6.9821 19.79333,-6.9821 0.55874,-0.5426 31.82703,-6.6724 33.89724,-3.2539 23.50142,-1.8382 18.51495,16.9819 16.90818,17.9577 23.09413,3.5551 36.75984,-0.6117 56.56622,-7.1964 -18.01666,1.9167 -27.40814,2.7487 -39.91218,-3.6394 -9.20058,-5.3807 -7.73265,-12.4453 -4.16316,-19.8417 -16.63434,-0.4326 -32.65372,-1.9056 -38.35236,-20.837 l -3.29059,-6.528 c -65.32627,-16.3385 -79.16215,32.6762 -41.44668,50.3208 z"
       id="path4448"
       inkscape:connector-curvature="0"
       sodipodi:nodetypes="cccccccccc" />
    <path
       style="display:inline;fill:#ffffff;fill-rule:evenodd;stroke:none;stroke-width:1.02588px;stroke-linecap:butt;stroke-linejoin:miter;stroke-opacity:1"
       d="m 2370.9082,256.9936 c 0.2091,57.48581 -9.6008,52.75655 -33.5846,78.08438 -24.5527,25.92855 -34.4691,30.19165 -72.7028,40.27218 -31.658,8.34652 -51.371,-5.21461 -74.0382,2.38139 -22.6673,7.59562 -49.3316,30.906 -80.7413,32.35839 -31.4099,1.45275 -60.1311,-36.46887 -80.2577,-37.37961 -20.1268,-0.91066 -51.7192,26.558 -67.3736,25.8497 -15.6541,-0.70829 -48.9756,-24.72195 -66.8661,-25.53142 -17.8905,-0.80958 -37.5055,25.82678 -68.7124,21.54094 -31.2069,-4.28595 -52.6214,-29.72522 -72.8495,-27.76662 -20.2282,1.95846 -35.2192,27.79042 -70.7974,20.43279 -35.5782,-7.3574 -60.6539,-26.97332 -74.2745,-21.84186 -13.6206,5.13131 -50.4421,29.78887 -88.1551,19.46096 -37.7132,-10.32803 -49.9627,-42.57546 -70.0897,-43.48621 -20.1266,-0.91065 -44.9765,-14.2952 -56.0037,-34.19454 -14.6919,-26.5131 27.9859,-29.77231 15.5434,-58.62497 -10.7671,-24.96839 -13.9061,-22.50238 -7.7506,-51.84888 4.7304,-22.55214 31.9338,-30.64623 56.736,-35.27159 24.8021,-4.62546 19.168,-32.94729 48.3414,-34.50121 29.1734,-1.5538 44.0533,20.71386 75.3616,22.13044 31.3083,1.41661 61.8173,-37.58227 88.4503,-30.62954 26.6329,6.95271 55.5997,24.07823 88.8024,22.08814 53.6258,-3.21412 57.972,-22.59081 89.3818,-24.04345 31.4097,-1.45264 56.1036,27.07133 80.7031,28.18443 24.5996,1.11309 48.1617,-30.84314 83.7446,-23.52014 35.4492,7.29555 22.9581,11.70925 66.4853,18.99318 31.0357,5.19357 19.8493,-21.30792 80.7247,-19.68898 35.802,0.95212 35.8087,23.67491 66.2029,37.41696 31.0909,14.05681 60.2634,-16.37516 92.3821,-2.10994 39.6453,17.60806 59.2506,69.68323 51.3376,101.24508 z"
       id="path5057"
       inkscape:connector-curvature="0"
       sodipodi:nodetypes="cssssssssssssssssssssssssssssc" />
    <flowRoot
       xml:space="preserve"
       id="flowRoot2987-4-9-3-7-8-6-6-6-0-7"
       style="font-style:normal;font-variant:normal;font-weight:normal;font-stretch:normal;line-height:0.01%;font-family:Lavi;-inkscape-font-specification:Lavi;text-align:center;letter-spacing:0px;word-spacing:0px;text-anchor:middle;display:inline;fill:#000000;fill-opacity:1;stroke:none"
       transform="translate(1296.4889,-97.301375)"><flowRegion
         id="flowRegion2989-5-4-5-5-1-2-4-2-0-8"><rect
           id="rect2991-7-9-6-9-5-7-2-1-3-2"
           width="926.47235"
           height="193.26711"
           x="120.55251"
           y="265.53046"
           style="font-style:normal;font-variant:normal;font-weight:normal;font-stretch:normal;font-family:Lavi;-inkscape-font-specification:Lavi;text-align:center;text-anchor:middle" /></flowRegion><flowPara
         style="font-size:45px;line-height:1.25;text-align:center;text-anchor:middle"
         id="flowPara5032">&quot;taso tenpo ale la, o kepeken ala </flowPara><flowPara
         style="font-size:45px;line-height:1.25;text-align:center;text-anchor:middle"
         id="flowPara65">wawa sina. pali pi nasa ala la, jan sona pi kulupu Pakalaa li kepeken ala wawa nasa.&quot;</flowPara></flowRoot>
    <path
       style="color:#000000;display:inline;overflow:visible;visibility:visible;fill:#ffffff;fill-opacity:1;fill-rule:nonzero;stroke:none;stroke-width:1px;marker:none;enable-background:accumulate"
       d="m 1422.2566,272.72798 c -9.0465,17.17821 -22.1298,35.41844 -25.8633,37.63371 -3.7335,2.21528 -29.1071,-2.82552 -32.6588,2.42499 -3.5516,5.25048 -0.184,20.39637 -3.1892,23.03676 -3.005,2.64026 -22.248,2.15282 -24.7979,6.52322 -2.55,4.3704 -5.4057,31.01895 -7.9857,32.93092 -2.5801,1.91189 -16.4823,12.35157 -25.5588,27.07123 27.6826,-18.9975 34.9365,-17.20605 38.4881,-22.45653 3.5518,-5.25051 3.3409,-22.45998 7.9244,-26.13214 4.5834,-3.67214 23.0981,-3.60961 26.498,-9.43687 3.3999,-5.82716 2.2477,-17.23961 2.2477,-17.23961 5.6756,2.82332 37.3315,12.99419 59.43,-13.16691 22.0987,-26.16114 -14.5345,-41.18877 -14.5345,-41.18877 z"
       id="path5050"
       inkscape:connector-curvature="0" />
    <path
       style="color:#000000;display:inline;overflow:visible;visibility:visible;fill:#ffffff;fill-opacity:1;fill-rule:nonzero;stroke:none;stroke-width:1px;marker:none;enable-background:accumulate"
       d="m 302.45497,1247.2041 c -0.72586,10.7691 4.61327,46.7566 23.3544,17.1486 11.73064,53.8925 50.01371,45.6317 113.9568,25.6267 -30.0755,25.5248 -33.68351,63.3139 -4.70964,70.2726 -10.52722,10.176 -6.2823,22.0327 11.14346,35.3894 -30.96555,-4.2774 -40.13682,0.9564 5.15189,29.9566 -38.37944,-15.3101 -74.68819,-28.7424 -45.75549,16.9831 -14.34068,-5.2656 -34.47176,-41.7222 -57.06199,30.4356 -11.83439,-31.1777 -30.72405,-53.6181 -88.35886,-23.228 0.19749,-21.5567 -7.76041,-39.5401 -49.90586,-27.8686 3.92195,-19.8183 -29.52488,-35.7654 -44.17028,-37.6038 36.60897,-8.5199 42.68214,-20.873 9.24023,-37.3588 78.04732,-10.2422 27.69985,-25.0426 23.47944,-37.812 52.40176,7.2754 40.696,-16.2319 41.20861,-34.5048 52.5427,21.6245 49.23904,-9.4184 62.42729,-27.4366 z"
       id="path3549-3"
       inkscape:connector-curvature="0"
       sodipodi:nodetypes="ccccccccccccccc" />
    <flowRoot
       transform="matrix(0.90617713,0,-0.22078013,1.6225798,-90.595202,884.77795)"
       style="font-style:normal;font-variant:normal;font-weight:normal;font-stretch:normal;line-height:0.01%;font-family:Lavi;-inkscape-font-specification:Lavi;text-align:center;letter-spacing:0px;word-spacing:0px;text-anchor:middle;fill:#000000;fill-opacity:1;stroke:#000000;stroke-width:2.47324;stroke-miterlimit:4;stroke-dasharray:none;stroke-opacity:1"
       id="flowRoot4212-3-7-8-6"
       xml:space="preserve"><flowRegion
         id="flowRegion4214-6-7-8-3"><rect
           style="font-style:normal;font-variant:normal;font-weight:normal;font-stretch:normal;font-family:Lavi;-inkscape-font-specification:Lavi;text-align:center;text-anchor:middle;stroke:#000000;stroke-width:2.47324347;stroke-miterlimit:4;stroke-dasharray:none;stroke-opacity:1"
           y="265.53046"
           x="120.55251"
           height="355.03918"
           width="798.1947"
           id="rect4216-4-0-26-5" /></flowRegion><flowPara
         style="font-size:48px;line-height:1.25;text-align:center;letter-spacing:5.20896px;text-anchor:middle;stroke:#000000;stroke-width:2.47324;stroke-miterlimit:4;stroke-dasharray:none;stroke-opacity:1"
         id="flowPara4358-7-1">ike a !</flowPara></flowRoot>
    <path
       style="color:#000000;display:inline;overflow:visible;visibility:visible;fill:#ffffff;fill-opacity:1;fill-rule:nonzero;stroke:none;stroke-width:1.06072px;marker:none;enable-background:accumulate"
       d="m 1799.3756,1075.5212 -60.4679,-20.4155 15.2759,36.657 c -28.1676,1.2222 -42.8436,-5.8473 -62.8295,-9.6534 l 31.4147,28.9601 -5.2358,8.0447 c 5.1003,4.7036 12.7963,7.9118 14.6602,14.48 -14.2291,4.0933 -24.4598,4.0906 -36.2275,5.6622 11.0726,5.4398 20.2911,11.7341 26.8031,19.2759 l -37.6977,12.8711 34.5541,11.2605 c -25.9906,18.5168 -58.6571,30.1948 -89.0065,44.2467 l 89.3995,-5.1823 -22.0578,30.194 c 12.5551,-2.7061 19.3913,-6.6059 38.4215,-11.336 -11.8442,7.8819 -47.936,35.4945 -44.3667,33.2623 4.1886,-0.8045 50.6496,-11.5423 50.6496,-11.5423 0,0 -31.4147,22.5249 -27.226,22.5249 4.1885,0 38.7448,-5.6312 38.7448,-5.6312 l -11.5188,21.7202 45.028,-12.067 -18.8489,27.007 c 11.7151,-1.5887 19.2738,-2.1435 15.1086,7.2474 41.8521,-17.9496 23.2826,-0.088 -13.1312,43.0852 23.8865,-12.8436 37.778,-25.8652 71.9303,-39.7518 8.2314,12.346 9.3946,29.4981 5.6765,46.0752 11.2115,-12.6081 20.4378,-27.5426 41.8864,-28.1558 8.6262,2.8133 6.7807,11.7618 7.3302,19.3069 l 31.4148,-24.1335 v 24.938 c 14.5,-19.3054 27.1271,-24.4054 40.8392,-28.9603 11.3249,6.1284 22.6588,13.7837 20.935,39.2985 16.7572,-21.6941 35.1322,-31.0632 50.2719,-24.8182 9.0052,10.0424 11.1601,21.5441 13.6132,32.9823 2.5699,-10.789 2.8252,-23.0848 10.4717,-30.5691 4.7667,7.1281 3.7082,16.5314 3.1415,25.7425 7.3915,-17.5776 18.3341,-26.1397 29.3203,-34.5914 16.5894,7.0058 18.3595,19.5366 21.9906,31.3736 5.686,-13.8339 7.2919,-16.2917 20.9429,-28.9602 41.3036,0.736 63.281,42.7099 78.5371,78.8361 -4.4199,-32.4743 -8.1085,-64.0119 -6.2829,-88.4896 11.8677,-2.5507 23.7355,2.5511 35.6033,9.6535 l -6.2829,-21.7203 43.9809,14.4801 -19.8963,-33.787 c 67.1353,-1.0826 53.6578,4.7159 69.1129,8.0447 l -12.5661,-21.7203 46.0753,16.8935 c -12.587,-17.9741 -24.2942,-28.5117 -32.8727,-44.946 l 43.3441,-4.9301 c -18.876,-14.4599 -27.9059,-21.9242 -45.3077,-36.6428 l 31.6948,-9.2108 -39.7922,-24.1336 31.4148,-13.6756 -25.1318,-3.2179 41.8863,-28.9602 -55.4996,-2.4133 67.0184,-52.2894 -77.4898,11.2624 6.2829,-37.8093 -42.9335,27.3514 20.6332,-75.3218 c -35.4394,32.4129 -44.2339,31.0455 -86.1511,66.0093 l 13.011,-33.8963 -44.8792,29.3003 4.1887,-27.1185 -61.7823,32.9824 6.2829,-15.2845 -18.8489,14.4801 4.1884,-20.1113 -32.4619,24.1335 2.9889,-21.0274 -15.5549,13.7873 -4.7897,-13.212 -18.2477,8.3853 c -5.4906,-34.8595 -8.1354,-45.2147 -1.6077,-80.07426 -21.424,39.90586 -36.5524,51.49916 -72.7408,81.68316 l -11.5187,-15.2791 -14.3621,14.1284 -14.5075,-18.2623 -21.8425,21.8228 c -17.2728,-16.6253 -27.3329,-26.8115 -34.1078,-43.4367 3.341,15.5813 5.7704,26.0484 0.8967,43.2076 -63.7631,-26.2712 -85.7168,-43.2076 -85.7168,-43.2076 0,0 10.2086,27.4113 14.8243,43.2879 z"
       id="path4024"
       inkscape:connector-curvature="0"
       sodipodi:nodetypes="cccccccccccccccccsccccccccccccccccccccccccccccccccccccccccccccccccccccccccccccccccccc" />
    <path
       style="color:#000000;display:inline;overflow:visible;visibility:visible;fill:#ffffff;fill-opacity:1;fill-rule:nonzero;stroke:none;stroke-width:1px;marker:none;enable-background:accumulate"
       d="m 1495.2162,1161.0088 c 45.2667,-1.3399 91.122,-12.2107 135.7051,-2.4766 l -30.5598,-34.6986 c 17.4874,-8.2093 36.1977,-1.4791 54.4929,0.1778 l -16.1244,-25.907 c 41.4303,-18.6844 80.9068,-12.0098 121.3275,-17.5923 l -30.8631,-41.9161 c -40.548,12.2593 -79.3563,33.3843 -121.8615,35.6716 l 13.7717,27.627 c -14.6613,3.6275 -29.4343,6.4581 -44.7057,5.7293 l 19.6323,32.4356 z"
       id="path4032"
       inkscape:connector-curvature="0"
       sodipodi:nodetypes="cccccccccccc" />
    <path
       style="color:#000000;display:inline;overflow:visible;visibility:visible;fill:#ffffff;fill-opacity:1;fill-rule:nonzero;stroke:none;stroke-width:1.03093px;marker:none;enable-background:accumulate"
       d="m 1721.4774,920.23711 c -7.7554,22.2136 -51.4971,24.0763 -67.5997,19.561 32.459,24.84999 31.3274,40.28969 -12.7427,42.68699 73.9063,44.7862 13.511,38.009 1.5985,49.3655 58.0302,15.4343 32.0669,34.6427 21.7355,53.7643 66.7,0.6568 44.8721,31.3081 47.6834,55.7199 5.6545,-11.4551 32.5177,-46.3295 34.1341,-7.4992 44.1181,-37.0462 97.2573,-60.9762 101.4767,3.8548 17.776,-32.6147 35.4985,-46.399 34.1341,-7.4992 44.0432,-50.5941 83.6221,-32.3826 123.4356,-18.0828 10.4569,-15.2705 11.6753,-38.7304 45.5055,-33.2327 -4.7434,-15.1358 6.6791,-25.5401 32.4749,-31.7186 -34.2785,-9.1431 -40.5959,-18.574 23.0516,-28.7231 -48.432,-0.9817 -93.5953,-2.993 -36.7739,-37.6044 -17.8265,-0.8375 -60.1215,28.0432 -40.4019,-56.47679 -30.6536,27.05779 -63.3581,41.99179 -104.3726,-14.6874 -19.4102,28.3158 -53.0766,42.32759 -67.7232,6.9589 -5.2643,15.0783 -27.0928,20.749 -45.6235,21.4367 -7.1659,-5.9894 -14.5567,-14.1245 -22.2693,-24.7828 -12.6056,22.3796 -31.4622,37.49379 -67.7231,6.9589 z"
       id="path3549-3-7"
       inkscape:connector-curvature="0"
       sodipodi:nodetypes="cccccccccccccccccccc" />
    <flowRoot
       xml:space="preserve"
       id="flowRoot2987-4-9-3-0"
       style="font-style:normal;font-variant:normal;font-weight:normal;font-stretch:normal;line-height:0.01%;font-family:Lavi;-inkscape-font-specification:Lavi;text-align:center;letter-spacing:0px;word-spacing:0px;text-anchor:middle;fill:#000000;fill-opacity:1;stroke:none"
       transform="matrix(1.0770452,0,0,1.2835583,1399.7088,638.66334)"><flowRegion
         id="flowRegion2989-5-4-5-1"><rect
           id="rect2991-7-9-6-4"
           width="602.40173"
           height="310.73996"
           x="120.55251"
           y="265.53046"
           style="font-style:normal;font-variant:normal;font-weight:normal;font-stretch:normal;font-family:Lavi;-inkscape-font-specification:Lavi;text-align:center;text-anchor:middle" /></flowRegion><flowPara
         style="font-size:45px;line-height:1.25;text-align:center;letter-spacing:1.5px;text-anchor:middle;stroke:#000000;stroke-width:1.1;stroke-miterlimit:4;stroke-dasharray:none;stroke-opacity:1"
         id="flowPara3030-8-7">soweli Kawa o!</flowPara></flowRoot>
    <flowRoot
       xml:space="preserve"
       id="flowRoot2987-4-9-3-7-8-6-6-6-0-7-2"
       style="font-style:normal;font-variant:normal;font-weight:normal;font-stretch:normal;line-height:0.01%;font-family:Lavi;-inkscape-font-specification:Lavi;text-align:center;letter-spacing:0px;word-spacing:0px;text-anchor:middle;display:inline;fill:#000000;fill-opacity:1;stroke:none"
       transform="translate(1457.5706,832.02983)"><flowRegion
         id="flowRegion2989-5-4-5-5-1-2-4-2-0-8-9"><rect
           id="rect2991-7-9-6-9-5-7-2-1-3-2-1"
           width="927.72241"
           height="235.76709"
           x="120.55251"
           y="265.53046"
           style="font-style:normal;font-variant:normal;font-weight:normal;font-stretch:normal;font-family:Lavi;-inkscape-font-specification:Lavi;text-align:center;text-anchor:middle" /></flowRegion><flowPara
         style="font-size:45px;line-height:1.25;text-align:center;text-anchor:middle"
         id="flowPara69">o pana e lipu nanpa luka tu </flowPara><flowPara
         style="font-size:45px;line-height:1.25;text-align:center;text-anchor:middle"
         id="flowPara73">pi kulupu Pakalaa:</flowPara><flowPara
         style="font-size:45px;line-height:1.25;text-align:center;text-anchor:middle"
         id="flowPara4242">&quot;sona pi nasin pi </flowPara><flowPara
         style="font-size:45px;line-height:1.25;text-align:center;text-anchor:middle"
         id="flowPara75">kama anpa kiwen&quot;...</flowPara><flowPara
         style="font-size:45px;line-height:1.25;text-align:center;text-anchor:middle"
         id="flowPara4244">...o tawa!</flowPara></flowRoot>
    <path
       style="fill:#ffffff;fill-opacity:1;stroke:none"
       d="m 1312.427,2107.3463 c 41.1093,7.1531 56.9204,13.7949 49.5416,17.8825 16.8654,2.0437 23.1901,55.1807 7.3788,64.8883 -1.054,1.0222 -8.4327,4.0875 -5.2704,4.5985 3.1621,0.511 22.1356,-1.0217 25.2978,1.0219 3.1623,2.0438 -28.4601,31.1668 -24.244,32.1887 4.2166,1.0218 101.1922,-18.3936 114.8951,-13.7952 13.7031,4.5984 6.3246,16.3497 10.5411,16.8609 4.216,0.5109 43.2173,-2.5546 48.4877,-2.0439 5.2702,0.511 14.7567,15.8388 20.0272,16.3497 5.2705,0.511 29.5144,-6.6419 33.7308,-6.131 4.2165,0.511 2.1081,13.2843 7.3785,13.7948 5.2705,0.5113 28.4602,-10.7294 31.6224,-10.2185 3.1622,0.5111 14.7574,26.0579 20.0276,27.5905 5.2704,1.5329 39.001,-28.1014 42.1633,-28.6122 3.162,-0.511 23.1897,34.7436 27.406,35.2543 4.2166,0.5111 25.2981,-24.0141 28.4604,-23.5028 3.1621,0.5108 23.1897,14.817 27.406,15.8388 4.2162,1.0219 31.6224,-31.6777 35.8387,-31.6777 4.2166,0 40.0552,13.795 43.2177,16.3497 3.162,2.5548 6.324,-13.2843 10.5406,-13.2843 4.2164,0 52.7042,9.1969 53.7582,8.686 1.0538,-0.511 -7.3787,-10.2186 -4.2163,-10.2186 3.1623,0 52.7039,12.7733 54.8124,10.2186 2.1078,-2.5546 107.5161,12.7733 114.8946,10.7295 7.3788,-2.0436 -47.4336,-41.8964 -42.1636,-44.9618 5.2706,-3.0657 24.2444,0.5107 25.2984,-1.022 1.054,-1.5329 -11.5949,-8.1748 -8.433,-10.2187 3.1625,-2.0437 39.0012,-10.2184 42.1634,-12.773 3.1623,-2.5549 -15.8111,-9.1971 -11.5948,-10.7298 4.2163,-1.5329 66.4073,-11.2405 67.4614,-13.7952 1.0539,-2.5547 -31.6224,-14.8168 -27.4065,-18.3935 4.2164,-3.5765 15.8115,-5.1092 14.7573,-7.664 -1.0541,-2.5547 -21.0817,-5.6203 -20.0274,-8.1749 1.0542,-2.5547 11.5947,-15.3279 14.757,-17.3717 3.1622,-2.0436 -22.1357,-1.0218 -22.1357,-3.0656 0,-2.0436 92.7592,-56.7136 90.6509,-72.0415 -32.6765,9.7078 -144.4091,27.0796 -179.1935,22.9921 -34.7851,-4.0875 -21.0818,-29.6341 -26.3522,-31.1668 -5.2702,-1.5329 -44.2715,8.686 -49.542,5.1092 -5.2704,-3.5765 -7.3783,-10.2184 -11.5949,-10.2184 -4.2162,0 -28.4602,14.3056 -33.7304,13.7952 -5.2706,-0.5113 -54.8123,-22.9921 -62.1909,-23.5032 -7.3786,-0.5107 -35.8388,8.686 -42.1633,9.1968 -6.3245,0.5112 -11.5948,-12.2623 -16.8653,-11.2403 -5.2706,1.0218 -39.0011,10.2186 -44.2711,9.1967 -5.2706,-1.0219 -9.4869,-5.1091 -13.7036,-4.0875 -4.2159,1.0218 -23.1895,5.1094 -23.1895,5.1094 -11.6363,2.5924 -21.7873,-5.1527 -20.0276,-3.0657 3.8333,4.5461 -49.3104,17.4789 -54.8123,17.8825 -5.2703,1.0217 -50.5959,-38.8307 -47.4337,-41.8962 3.1626,-3.0656 -47.4336,42.4075 -54.8123,43.9401 -7.3784,1.5326 -29.5142,-3.0655 -31.6222,-1.5326 -2.1084,1.5326 -8.4329,9.7075 -14.7573,10.2184 -6.3245,0.5108 -21.0816,2.5546 -21.0816,2.5546 l 2.1081,3.0658 c 0,0 -44.2714,-8.1751 -49.5417,-11.2407 -5.2703,-3.0655 3.1622,13.2842 6.3244,17.3717 -18.9732,-4.0875 -74.8397,-12.7733 -79.0557,-15.328 -4.2168,-2.5546 7.3783,9.197 13.7028,12.7733 -8.4327,-1.5328 -15.8114,-2.0437 -15.8114,-2.0437 l 24.244,12.2624 -7.3787,1.022 c 0,0 15.8112,5.6202 15.8112,8.1749 0,2.5545 -41.1091,5.6201 -41.1091,5.6201 0,0 16.8654,4.5983 12.649,7.153 -4.2164,2.5546 -14.7571,4.0874 -14.7571,4.0874 l -2.1082,6.6422 z"
       id="path5888"
       inkscape:connector-curvature="0"
       sodipodi:nodetypes="cccsccscccccccccccscscsccsscsccccccscsssscccccscsccsccccsccccccsccccc" />
    <flowRoot
       xml:space="preserve"
       id="flowRoot2987-4-9-3-7-8-6-6-6-0-7-2-6"
       style="font-style:normal;font-variant:normal;font-weight:normal;font-stretch:normal;line-height:0.01%;font-family:Lavi;-inkscape-font-specification:Lavi;text-align:center;letter-spacing:0px;word-spacing:0px;text-anchor:middle;display:inline;fill:#000000;fill-opacity:1;stroke:none"
       transform="translate(1281.9919,1813.0962)"><flowRegion
         id="flowRegion2989-5-4-5-5-1-2-4-2-0-8-9-7"><rect
           id="rect2991-7-9-6-9-5-7-2-1-3-2-1-0"
           width="687.005"
           height="114.93557"
           x="120.55251"
           y="265.53046"
           style="font-style:normal;font-variant:normal;font-weight:normal;font-stretch:normal;font-family:Lavi;-inkscape-font-specification:Lavi;text-align:center;text-anchor:middle" /></flowRegion><flowPara
         style="font-size:45px;line-height:1.25;text-align:center;text-anchor:middle"
         id="flowPara3597">mi pana a e pali mi pi kulupu Pakalaa a tawa ona a!</flowPara></flowRoot>
    <path
       style="color:#000000;fill:#ffffff;fill-opacity:1;fill-rule:nonzero;stroke:none;stroke-width:1px;marker:none;visibility:visible;display:inline;overflow:visible;enable-background:accumulate"
       d="m 1476.1891,2360.3093 c 58.7023,-40.2328 74.2517,-66.7852 83.6395,-84.5531 -18.192,-19.5453 -34.2979,-26.4643 -42.5827,-40.8563 31.517,-4.8173 59.7042,-4.3629 69.2765,1.3288 22.6858,-33.1454 -24.8003,-30.4847 -24.8003,-30.4847 0,0 -49.2813,4.066 -77.5084,12.5569 5.4898,31.6668 40.314,52.0029 45.4103,58.94 -10.9648,48.502 -45.6639,73.3026 -53.4349,83.0684 z"
       id="path5162"
       inkscape:connector-curvature="0"
       sodipodi:nodetypes="cccccccc" />
    <flowRoot
       xml:space="preserve"
       id="flowRoot2987-7-9-9-7-0-3-5-2-6"
       style="font-style:normal;font-variant:normal;font-weight:normal;font-stretch:normal;line-height:0.01%;font-family:Lavi;-inkscape-font-specification:Lavi;letter-spacing:0px;word-spacing:0px;fill:#000000;fill-opacity:1;stroke:#000000;stroke-width:0.992362;stroke-miterlimit:4;stroke-dasharray:none;stroke-opacity:1;filter:url(#filter4375-4-1-7-3-7)"
       transform="matrix(0.69413547,-0.3960575,-0.18345695,1.6511803,1948.8802,2819.5754)"
       inkscape:transform-center-x="192.72092"
       inkscape:transform-center-y="-136.44814"><flowRegion
         id="flowRegion2989-4-5-8-7-41-7-68-63-1"
         style="stroke-width:5.40286"><rect
           id="rect2991-45-1-3-3-8-0-3-6-32"
           width="319.66232"
           height="56.089447"
           x="120.55251"
           y="265.53046"
           style="font-style:normal;font-variant:normal;font-weight:normal;font-stretch:normal;font-family:Lavi;-inkscape-font-specification:Lavi;fill:#000000;fill-opacity:1;stroke:#000000;stroke-width:0.99236238;stroke-miterlimit:4;stroke-dasharray:none;stroke-opacity:1" /></flowRegion><flowPara
         id="flowPara2995-4-1-5-0-7-2-5-3-0"
         style="font-weight:normal;font-size:48px;line-height:1.25;-inkscape-font-specification:Lavi;letter-spacing:7.06853px;fill:#ffffff;fill-opacity:1;stroke:#ffffff;stroke-width:0.992362;stroke-linejoin:miter;stroke-miterlimit:4;stroke-dasharray:none;stroke-opacity:1">Noka</flowPara></flowRoot>
    <flowRoot
       xml:space="preserve"
       id="flowRoot2987-7-9-9-7-0-3-5-2-6-5"
       style="font-style:normal;font-variant:normal;font-weight:normal;font-stretch:normal;line-height:0.01%;font-family:Lavi;-inkscape-font-specification:Lavi;letter-spacing:0px;word-spacing:0px;fill:#000000;fill-opacity:1;stroke:#000000;stroke-width:0.992362;stroke-miterlimit:4;stroke-dasharray:none;stroke-opacity:1;filter:url(#filter4375-4-1-7-3-7-6)"
       transform="matrix(0.74738538,-0.36226504,-0.23031168,1.5278671,2226.8064,2821.3226)"
       inkscape:transform-center-x="202.28223"
       inkscape:transform-center-y="-127.60543"><flowRegion
         id="flowRegion2989-4-5-8-7-41-7-68-63-1-5"
         style="stroke-width:5.40286"><rect
           id="rect2991-45-1-3-3-8-0-3-6-32-1"
           width="319.66232"
           height="56.089447"
           x="120.55251"
           y="265.53046"
           style="font-style:normal;font-variant:normal;font-weight:normal;font-stretch:normal;font-family:Lavi;-inkscape-font-specification:Lavi;fill:#000000;fill-opacity:1;stroke:#000000;stroke-width:0.99236238;stroke-miterlimit:4;stroke-dasharray:none;stroke-opacity:1" /></flowRegion><flowPara
         id="flowPara2995-4-1-5-0-7-2-5-3-0-4"
         style="font-weight:normal;font-size:48px;line-height:1.25;-inkscape-font-specification:Lavi;letter-spacing:7.06853px;fill:#ffffff;fill-opacity:1;stroke:#ffffff;stroke-width:0.992362;stroke-linejoin:miter;stroke-miterlimit:4;stroke-dasharray:none;stroke-opacity:1">Noka</flowPara></flowRoot>
  </g>
</svg>
