<?xml version="1.0" encoding="UTF-8" standalone="no"?>
<svg
   xmlns:dc="http://purl.org/dc/elements/1.1/"
   xmlns:cc="http://creativecommons.org/ns#"
   xmlns:rdf="http://www.w3.org/1999/02/22-rdf-syntax-ns#"
   xmlns:svg="http://www.w3.org/2000/svg"
   xmlns="http://www.w3.org/2000/svg"
   xmlns:xlink="http://www.w3.org/1999/xlink"
   xmlns:sodipodi="http://sodipodi.sourceforge.net/DTD/sodipodi-0.dtd"
   xmlns:inkscape="http://www.inkscape.org/namespaces/inkscape"
   id="svg2"
   version="1.1"
   inkscape:version="1.0.2 (e86c870879, 2021-01-15)"
   width="2481"
   height="3503"
   sodipodi:docname="E35P03.svg">
  <metadata
     id="metadata8">
    <rdf:RDF>
      <cc:Work
         rdf:about="">
        <dc:format>image/svg+xml</dc:format>
        <dc:type
           rdf:resource="http://purl.org/dc/dcmitype/StillImage" />
        <dc:title />
      </cc:Work>
    </rdf:RDF>
  </metadata>
  <defs
     id="defs6">
    <filter
       style="color-interpolation-filters:sRGB"
       id="filter3018-7-5"
       inkscape:label="Lapping"
       inkscape:menu="Distort"
       inkscape:menu-tooltip="Something like a water noise"
       height="1.0484816"
       y="-0.024240738"
       width="1.030456"
       x="-0.015227396">
      <feTurbulence
         id="feTurbulence3020-0-6"
         numOctaves="5"
         seed="0"
         type="fractalNoise"
         baseFrequency="0.1"
         result="result1" />
      <feGaussianBlur
         id="feGaussianBlur3022-9-9"
         stdDeviation="2"
         result="result2" />
      <feDisplacementMap
         id="feDisplacementMap3024-3-3"
         in2="result2"
         scale="50"
         yChannelSelector="B"
         xChannelSelector="R"
         in="SourceGraphic" />
    </filter>
    <filter
       style="color-interpolation-filters:sRGB"
       id="filter3018-7-5-3"
       inkscape:label="Lapping"
       inkscape:menu="Distort"
       inkscape:menu-tooltip="Something like a water noise"
       height="1.0376527"
       y="-0.018825715"
       width="1.0312601"
       x="-0.015633958">
      <feTurbulence
         id="feTurbulence3020-0-6-6"
         numOctaves="5"
         seed="0"
         type="fractalNoise"
         baseFrequency="0.1"
         result="result1" />
      <feGaussianBlur
         id="feGaussianBlur3022-9-9-4"
         stdDeviation="2"
         result="result2" />
      <feDisplacementMap
         id="feDisplacementMap3024-3-3-0"
         in2="result2"
         scale="50"
         yChannelSelector="B"
         xChannelSelector="R"
         in="SourceGraphic" />
    </filter>
  </defs>
  <sodipodi:namedview
     pagecolor="#ffffff"
     bordercolor="#666666"
     borderopacity="1"
     objecttolerance="10"
     gridtolerance="10"
     guidetolerance="10"
     inkscape:pageopacity="0"
     inkscape:pageshadow="2"
     inkscape:window-width="1920"
     inkscape:window-height="967"
     id="namedview4"
     showgrid="false"
     inkscape:zoom="0.49190038"
     inkscape:cx="1186.2444"
     inkscape:cy="2843.751"
     inkscape:window-x="0"
     inkscape:window-y="72"
     inkscape:window-maximized="1"
     inkscape:current-layer="layer1"
     inkscape:document-rotation="0"
     inkscape:snap-global="false"
     inkscape:pagecheckerboard="0" />
  <g
     inkscape:groupmode="layer"
     id="layer2"
     inkscape:label="artwork"
     sodipodi:insensitive="true">
    <image
       sodipodi:absref="/felles/omsetting/pepper-carrot/webcomics/new-ep35_The-Reflection/lang/gfx_Pepper-and-Carrot_by-David-Revoy_E35P03.png"
       xlink:href="../gfx_Pepper-and-Carrot_by-David-Revoy_E35P03.png"
       y="0"
       x="0"
       id="image10"
       height="3503"
       width="2481" />
  </g>
  <g
     inkscape:groupmode="layer"
     id="layer3"
     inkscape:label="speechbubbles">
    <path
       style="color:#000000;font-variation-settings:normal;display:inline;overflow:visible;visibility:visible;vector-effect:none;fill:#000000;fill-opacity:1;fill-rule:nonzero;stroke:#000000;stroke-width:1.14231px;stroke-linecap:butt;stroke-linejoin:miter;stroke-miterlimit:4;stroke-dasharray:none;stroke-dashoffset:0;stroke-opacity:1;marker:none;filter:url(#filter3018-7-5-3);enable-background:accumulate;stop-color:#000000"
       d="m 793.30894,1614.644 c 23.82273,-47.9754 246.90696,-46.4583 287.99606,-34.1015 44.8414,13.4849 26.4915,52.9837 28.4965,94.8616 0.6193,12.9351 3.6139,107.5016 -35.0018,150.5677 -16.6614,18.5816 -130.35585,31.3976 -177.32736,29.0986 -54.16639,-2.6513 -110.21957,-48.382 -122.33758,-94.36 -6.00689,-22.7912 -5.64861,-98.0918 18.17418,-146.0664 z"
       id="path3330-0-3"
       inkscape:connector-curvature="0"
       sodipodi:nodetypes="zsssssz"
       transform="matrix(1.1534088,0,0,1.1393662,665.02164,-243.67871)" />
    <path
       style="color:#000000;display:inline;overflow:visible;visibility:visible;fill:#ffffff;fill-opacity:1;fill-rule:nonzero;stroke:none;stroke-width:0.886588px;marker:none;enable-background:accumulate"
       d="m 373.68751,1662.8877 c 4.49999,-42.4153 54.87815,-73.3336 185.03617,-65.037 69.71967,4.444 154.17292,7.4397 148.39013,69.5771 -5.78287,62.1375 -94.2724,60.0367 -148.41054,61.661 -23.56176,0.7069 -145.87689,-5.4167 -167.07666,-26.6097 -13.27057,-13.2663 -18.45304,-26.4529 -17.9391,-39.5914 z"
       id="path4546-6"
       inkscape:connector-curvature="0"
       sodipodi:nodetypes="cssssc" />
    <path
       style="color:#000000;display:inline;overflow:visible;visibility:visible;fill:#ffffff;fill-opacity:1;fill-rule:nonzero;stroke:none;stroke-width:1px;marker:none;enable-background:accumulate"
       d="m 607.22175,1875.8288 c 14.59712,-5.8706 26.29817,-25.6919 33.0509,-42.7644 1.81732,-4.8941 3.35817,-10.0845 3.44931,-15.3063 -1.11457,-5.4519 -6.12943,-9.0626 -11.35413,-10.1074 -7.44055,-2.0376 -16.10468,-1.0872 -22.43244,-6.159 6.62373,-30.7926 18.74668,-68.4402 -17.81815,-100.3755 -3.70155,-5.0208 -8.27562,-9.7554 -14.29935,-11.8512 -15.20805,-6.077 -34.1273,-3.517 -46.17318,7.9291 -6.99168,8.0303 -6.68349,22.0171 2.0681,28.6598 4.56751,3.5756 10.81069,3.4906 16.09434,1.8177 10.2879,-1.26 21.19532,-1.962 32.10285,4.7937 26.90502,21.3542 0.1543,60.804 6.34164,79.1456 4.62252,6.1074 12.88912,6.7863 19.94966,6.5539 7.28747,-0.052 15.73398,-0.9368 21.57373,4.3653 4.54779,3.1337 1.70824,8.9838 1.26798,13.3961 -3.27148,14.0224 -10.88009,26.8444 -20.66145,37.2985 -1.00695,0.926 -2.08089,1.7656 -3.15981,2.6041 z"
       id="path4496-2"
       inkscape:connector-curvature="0"
       sodipodi:nodetypes="ccccccccccccccccc" />
    <path
       style="color:#000000;font-variation-settings:normal;display:inline;overflow:visible;visibility:visible;opacity:1;vector-effect:none;fill:#000000;fill-opacity:1;fill-rule:nonzero;stroke:#000000;stroke-width:1.10629px;stroke-linecap:butt;stroke-linejoin:miter;stroke-miterlimit:4;stroke-dasharray:none;stroke-dashoffset:0;stroke-opacity:1;marker:none;filter:url(#filter3018-7-5);enable-background:accumulate;stop-color:#000000;stop-opacity:1"
       d="m 777.77605,1578.7499 c 31.97542,-17.3022 195.30977,-20.2429 269.47485,7.666 43.8378,16.4965 52.9774,46.4663 54.9826,88.3442 0.6193,12.9351 -9.7092,80.202 -31.7663,91.7496 -22.057,11.5468 -145.30106,18.1636 -167.35816,18.1636 -22.05703,0 -119.11217,1.0198 -136.93014,-15.8797 -17.04406,-16.1655 -20.37826,-172.7416 11.59715,-190.0437 z"
       id="path3330-0"
       inkscape:connector-curvature="0"
       sodipodi:nodetypes="zsssssz"
       transform="matrix(1.2789512,0,0,1.1451812,-228.70776,-243.64332)" />
    <path
       style="color:#000000;display:inline;overflow:visible;visibility:visible;fill:#ffffff;fill-opacity:1;fill-rule:nonzero;stroke:none;stroke-width:0.84091px;marker:none;enable-background:accumulate"
       d="m 2038.9128,1574.7544 c 10.4232,-33.8667 59.7462,-23.7138 161.4602,-17.4412 65.2226,4.0222 113.3734,-13.0359 142.8318,5.6994 13.9143,8.8497 24.4642,85.3856 12.0809,121.6138 -14.8258,43.3739 -60.4042,52.9529 -160.4671,52.8182 -88.9384,-0.1198 -115.6929,-8.2974 -129.6132,-17.3345 -44.8432,-29.1128 -36.7157,-111.4888 -26.2926,-145.3557 z"
       id="path4530-1"
       inkscape:connector-curvature="0"
       sodipodi:nodetypes="zsssssz" />
    <path
       style="fill:#ffffff;fill-rule:evenodd;stroke:none;stroke-width:1.66048px;stroke-linecap:butt;stroke-linejoin:miter;stroke-opacity:1"
       d="m 2278.4307,1705.0797 c 0,0 1.1455,15.2829 18.5599,18.5871 25.0022,4.7439 49.3554,67.4676 36.9796,95.7568 20.9615,-42.7867 12.7402,-70.9857 7.3083,-83.7931 -5.4319,-12.8092 -39.1198,-60.7121 -39.1198,-60.7121 z"
       id="path1367"
       inkscape:connector-curvature="0"
       sodipodi:nodetypes="cscccc" />
    <rect
       style="color:#000000;overflow:visible;opacity:1;vector-effect:none;fill:#ffffff;fill-opacity:1;stroke:none;stroke-width:1.02241px;stroke-linecap:butt;stroke-linejoin:miter;stroke-miterlimit:4;stroke-dasharray:none;stroke-dashoffset:0;stroke-opacity:1;marker:none;paint-order:stroke fill markers;stop-color:#000000;stop-opacity:1"
       id="rect955"
       width="421.44244"
       height="45.576038"
       x="1552.6824"
       y="1533.1331" />
    <rect
       style="color:#000000;overflow:visible;vector-effect:none;fill:#ffffff;fill-opacity:1;stroke:none;stroke-width:1.02241px;stroke-linecap:butt;stroke-linejoin:miter;stroke-miterlimit:4;stroke-dasharray:none;stroke-dashoffset:0;stroke-opacity:1;marker:none;paint-order:stroke fill markers;stop-color:#000000"
       id="rect955-1"
       width="324.11044"
       height="32.770958"
       x="1550.2794"
       y="-1959.2345"
       transform="rotate(90)" />
    <rect
       style="color:#000000;overflow:visible;vector-effect:none;fill:#000000;fill-opacity:1;stroke:none;stroke-width:1.02241px;stroke-linecap:butt;stroke-linejoin:miter;stroke-miterlimit:4;stroke-dasharray:none;stroke-dashoffset:0;stroke-opacity:1;marker:none;paint-order:stroke fill markers;stop-color:#000000"
       id="rect955-1-9-5"
       width="215.94513"
       height="32.770958"
       x="1556.7144"
       y="-782.47455"
       transform="rotate(90)" />
    <rect
       style="color:#000000;overflow:visible;vector-effect:none;fill:#ffffff;fill-opacity:1;stroke:none;stroke-width:1.02241px;stroke-linecap:butt;stroke-linejoin:miter;stroke-miterlimit:4;stroke-dasharray:none;stroke-dashoffset:0;stroke-opacity:1;marker:none;paint-order:stroke fill markers;stop-color:#000000"
       id="rect955-7"
       width="421.44244"
       height="45.576038"
       x="724.89355"
       y="1533.1924" />
    <rect
       style="color:#000000;overflow:visible;vector-effect:none;fill:#ffffff;fill-opacity:1;stroke:none;stroke-width:1.02241px;stroke-linecap:butt;stroke-linejoin:miter;stroke-miterlimit:4;stroke-dasharray:none;stroke-dashoffset:0;stroke-opacity:1;marker:none;paint-order:stroke fill markers;stop-color:#000000"
       id="rect955-1-9"
       width="324.11044"
       height="32.770958"
       x="1571.7268"
       y="-757.57123"
       transform="rotate(90)" />
    <path
       style="color:#000000;display:inline;overflow:visible;visibility:visible;fill:#000000;fill-opacity:1;fill-rule:nonzero;stroke:none;stroke-width:1px;marker:none;enable-background:accumulate"
       d="m 969.06447,1788.9746 c -10.48781,65.7332 8.09398,115.8018 48.41863,135.2849 -66.86197,-16.5608 -88.22071,-107.654 -82.18417,-135.3353 5.91061,-27.1034 33.76554,0.05 33.76554,0.05 z"
       id="path5010-4"
       inkscape:connector-curvature="0"
       sodipodi:nodetypes="ccsc" />
    <path
       style="color:#000000;display:inline;overflow:visible;visibility:visible;fill:#000000;fill-opacity:1;fill-rule:nonzero;stroke:none;stroke-width:1.01928px;marker:none;enable-background:accumulate"
       d="m 1747.4083,1860.8534 c 15.7747,59.4217 0.2571,106.4332 -40.0744,126.9069 68.0485,-19.5495 83.3814,-104.2606 75.0597,-129.1773 -8.1479,-24.3965 -34.9853,2.2704 -34.9853,2.2704 z"
       id="path5010-4-3"
       inkscape:connector-curvature="0"
       sodipodi:nodetypes="ccsc" />
  </g>
  <g
     inkscape:groupmode="layer"
     id="layer1"
     inkscape:label="txt">
    <text
       xml:space="preserve"
       style="font-style:normal;font-variant:normal;font-weight:normal;font-stretch:normal;font-size:45px;line-height:1.25;font-family:Lavi;-inkscape-font-specification:Lavi;text-align:center;letter-spacing:0px;word-spacing:0px;text-anchor:middle;fill:#000000;fill-opacity:1;stroke:none"
       x="539.94183"
       y="1677.2283"
       id="text4246-3-2-2"><tspan
         style="font-size:45px"
         sodipodi:role="line"
         x="539.94183"
         y="1677.2283"
         id="tspan858">Såg du det?</tspan></text>
    <text
       xml:space="preserve"
       style="font-style:normal;font-variant:normal;font-weight:normal;font-stretch:normal;font-size:56px;line-height:1.25;font-family:Lavi;-inkscape-font-specification:Lavi;text-align:center;letter-spacing:0px;word-spacing:0px;text-anchor:middle;fill:#000000;fill-opacity:1;stroke:none"
       x="956.72522"
       y="1659.095"
       id="text4246-3-2-2-3"><tspan
         style="font-style:normal;font-variant:normal;font-weight:normal;font-stretch:normal;font-size:56px;font-family:Drukah;-inkscape-font-specification:Drukah;fill:#ffffff"
         sodipodi:role="line"
         x="956.72522"
         y="1659.095"
         id="tspan872">Ja, no er det</tspan><tspan
         style="font-style:normal;font-variant:normal;font-weight:normal;font-stretch:normal;font-size:56px;font-family:Drukah;-inkscape-font-specification:Drukah;fill:#ffffff"
         sodipodi:role="line"
         x="956.72522"
         y="1730.0093"
         id="tspan878">ikkje lenge att.</tspan></text>
    <text
       xml:space="preserve"
       style="font-style:normal;font-variant:normal;font-weight:normal;font-stretch:normal;font-size:56px;line-height:1.25;font-family:Lavi;-inkscape-font-specification:Lavi;text-align:center;letter-spacing:0px;word-spacing:0px;text-anchor:middle;fill:#000000;fill-opacity:1;stroke:none"
       x="1751.521"
       y="1651.1854"
       id="text4246-3-2-2-3-3"><tspan
         style="font-style:normal;font-variant:normal;font-weight:normal;font-stretch:normal;font-size:56px;font-family:Drukah;-inkscape-font-specification:Drukah;fill:#ffffff"
         sodipodi:role="line"
         x="1751.521"
         y="1651.1854"
         id="tspan929">Snart er</tspan><tspan
         style="font-style:normal;font-variant:normal;font-weight:normal;font-stretch:normal;font-size:56px;font-family:Drukah;-inkscape-font-specification:Drukah;fill:#ffffff"
         sodipodi:role="line"
         x="1751.521"
         y="1722.0997"
         id="tspan865">ho heilt tom</tspan><tspan
         style="font-style:normal;font-variant:normal;font-weight:normal;font-stretch:normal;font-size:56px;font-family:Drukah;-inkscape-font-specification:Drukah;fill:#ffffff"
         sodipodi:role="line"
         x="1751.521"
         y="1793.014"
         id="tspan891">for kraft.</tspan></text>
    <text
       xml:space="preserve"
       style="font-style:normal;font-variant:normal;font-weight:normal;font-stretch:normal;font-size:45px;line-height:1.25;font-family:Lavi;-inkscape-font-specification:Lavi;text-align:center;letter-spacing:0px;word-spacing:0px;text-anchor:middle;fill:#000000;fill-opacity:1;stroke:none"
       x="2192.7717"
       y="1637.8433"
       id="text4246-3-2-2-3-5"><tspan
         style="font-size:45px"
         sodipodi:role="line"
         x="2192.7717"
         y="1637.8433"
         id="tspan1044">Og då går</tspan><tspan
         style="font-size:45px"
         sodipodi:role="line"
         x="2192.7717"
         y="1694.0933"
         id="tspan898">me til åtak!</tspan></text>
  </g>
</svg>
