<?xml version="1.0" encoding="UTF-8" standalone="no"?>
<svg
   xmlns:dc="http://purl.org/dc/elements/1.1/"
   xmlns:cc="http://creativecommons.org/ns#"
   xmlns:rdf="http://www.w3.org/1999/02/22-rdf-syntax-ns#"
   xmlns:svg="http://www.w3.org/2000/svg"
   xmlns="http://www.w3.org/2000/svg"
   xmlns:xlink="http://www.w3.org/1999/xlink"
   xmlns:sodipodi="http://sodipodi.sourceforge.net/DTD/sodipodi-0.dtd"
   xmlns:inkscape="http://www.inkscape.org/namespaces/inkscape"
   id="svg2"
   version="1.1"
   inkscape:version="1.0.2 (e86c870879, 2021-01-15)"
   width="2481"
   height="3503"
   sodipodi:docname="E35P07.svg">
  <metadata
     id="metadata8">
    <rdf:RDF>
      <cc:Work
         rdf:about="">
        <dc:format>image/svg+xml</dc:format>
        <dc:type
           rdf:resource="http://purl.org/dc/dcmitype/StillImage" />
        <dc:title />
      </cc:Work>
    </rdf:RDF>
  </metadata>
  <defs
     id="defs6">
    <filter
       style="color-interpolation-filters:sRGB"
       id="filter4375-4-1-1-1-9-5-8-8-5-5-3-8"
       inkscape:label="soundFX1"
       x="-0.044353127"
       y="-0.0023842071"
       width="1.0467294"
       height="1.0447156">
      <feFlood
         id="feFlood4377-7-9-0-8-1-7-3-1-2-7-6-7"
         flood-opacity="1"
         flood-color="rgb(255,255,255)"
         result="flood" />
      <feComposite
         id="feComposite4379-3-8-8-2-77-4-1-0-6-4-7-9"
         in2="SourceGraphic"
         in="flood"
         operator="in"
         result="composite1"
         baseFrequency="0.053999999999999999 0.053999999999999999" />
      <feMorphology
         id="feMorphology4393-1-0-49-8-9-3-0-1-9-9-5-2"
         operator="dilate"
         radius="2.9756367599225957"
         result="result3" />
      <feComposite
         id="feComposite4385-9-5-7-0-8-8-7-5-4-9-3-0"
         in2="result3"
         in="SourceGraphic"
         operator="over"
         result="fbSourceGraphic" />
      <feColorMatrix
         result="fbSourceGraphicAlpha"
         in="fbSourceGraphic"
         values="0 0 0 -1 0 0 0 0 -1 0 0 0 0 -1 0 0 0 0 1 0"
         id="feColorMatrix4544-9-4-4-5-2" />
      <feTurbulence
         id="feTurbulence4546-3-6-5-6-3"
         type="fractalNoise"
         numOctaves="5"
         seed="174"
         baseFrequency="0.053999999999999999 0.054054054054054057"
         result="turbulence" />
      <feDisplacementMap
         id="feDisplacementMap4548-8-0-9-2-7"
         in2="turbulence"
         in="fbSourceGraphic"
         scale="6.6"
         yChannelSelector="G"
         xChannelSelector="R"
         result="fbSourceGraphic" />
      <feColorMatrix
         result="fbSourceGraphicAlpha"
         in="fbSourceGraphic"
         values="0 0 0 -1 0 0 0 0 -1 0 0 0 0 -1 0 0 0 0 1 0"
         id="feColorMatrix4670-7-7-3-9-5" />
      <feFlood
         id="feFlood4672-4-4-5-1-9"
         flood-opacity="1"
         flood-color="rgb(255,255,255)"
         result="flood"
         in="fbSourceGraphic" />
      <feComposite
         id="feComposite4674-8-3-7-2-22"
         in2="fbSourceGraphic"
         in="flood"
         operator="in"
         result="composite1" />
      <feGaussianBlur
         id="feGaussianBlur4676-3-7-08-7-8"
         in="composite1"
         stdDeviation="0"
         result="blur" />
      <feOffset
         id="feOffset4678-6-9-1-0-9"
         dx="-6.3258232761971414"
         dy="6"
         result="offset" />
      <feComposite
         id="feComposite4680-4-0-9-9-7"
         in2="offset"
         in="fbSourceGraphic"
         operator="over"
         result="composite2" />
    </filter>
  </defs>
  <sodipodi:namedview
     pagecolor="#ffffff"
     bordercolor="#666666"
     borderopacity="1"
     objecttolerance="10"
     gridtolerance="10"
     guidetolerance="10"
     inkscape:pageopacity="0"
     inkscape:pageshadow="2"
     inkscape:window-width="1920"
     inkscape:window-height="967"
     id="namedview4"
     showgrid="false"
     inkscape:zoom="0.46261216"
     inkscape:cx="1447.4584"
     inkscape:cy="2741.9619"
     inkscape:window-x="0"
     inkscape:window-y="72"
     inkscape:window-maximized="1"
     inkscape:current-layer="layer1"
     inkscape:document-rotation="0"
     inkscape:snap-global="false"
     inkscape:pagecheckerboard="0" />
  <g
     inkscape:groupmode="layer"
     id="layer2"
     inkscape:label="artwork"
     sodipodi:insensitive="true">
    <image
       sodipodi:absref="/felles/omsetting/pepper-carrot/webcomics/new-ep35_The-Reflection/lang/gfx_Pepper-and-Carrot_by-David-Revoy_E35P07.png"
       xlink:href="../gfx_Pepper-and-Carrot_by-David-Revoy_E35P07.png"
       y="0"
       x="0"
       id="image10"
       height="3503"
       width="2481" />
  </g>
  <g
     inkscape:groupmode="layer"
     id="layer3"
     inkscape:label="speechbubbles">
    <path
       style="fill:#ffffff;stroke:none;stroke-width:1.04404"
       d="m 2002.5651,250.83196 c -32.5417,0.66199 -65.5252,11.76573 -89.5255,33.91394 -23.0608,21.56967 -37.3283,50.86084 -44.8257,81.0217 -5.0753,19.93554 -7.8064,41.3202 -1.8053,61.37227 7.223,23.31492 25.1288,42.20812 46.1222,54.40003 31.0899,18.42387 68.0485,25.23016 103.9755,24.09212 37.636,-0.89839 75.5844,-4.05341 111.8808,-14.43223 18.6693,-5.99454 36.7731,-16.70079 47.218,-33.5767 9.7761,-15.69004 12.2171,-34.7043 10.9567,-52.79397 -1.0941,-30.46121 -10.3351,-60.51152 -26.2824,-86.59037 -11.5019,-19.22286 -25.8098,-37.71642 -45.4938,-49.33865 -16.9714,-10.23985 -36.9956,-13.5021 -56.4609,-15.5448 -18.5019,-2.09736 -37.15,-2.57597 -55.7596,-2.52334 z"
       id="path3280-8"
       inkscape:connector-curvature="0"
       sodipodi:nodetypes="csssc" />
    <path
       style="fill:#ffffff;fill-rule:evenodd;stroke:none;stroke-width:0.934796px;stroke-linecap:butt;stroke-linejoin:miter;stroke-opacity:1"
       d="m 1937.2471,432.07438 c -6.2176,11.12141 -85.6078,33.31577 -108.1931,83.17757 30.1276,-36.25015 118.0705,-48.01797 132.9745,-62.07815 51.3058,-16.19189 -3.5494,-23.72277 -24.7814,-21.09942 z"
       id="path4186"
       inkscape:connector-curvature="0"
       sodipodi:nodetypes="cccc" />
    <path
       style="fill:#ffffff;fill-rule:evenodd;stroke:none;stroke-width:1px;stroke-linecap:butt;stroke-linejoin:miter;stroke-opacity:1"
       d="m 1557.7613,1692.8906 134.1326,-31.6108 -24.0947,-23.8017 91.2177,-24.1969 -16.3502,-24.7111 -106.501,38.013 26.5589,28.0558 z"
       id="path4667"
       inkscape:connector-curvature="0" />
    <path
       style="color:#000000;display:inline;overflow:visible;visibility:visible;fill:#ffffff;fill-opacity:1;fill-rule:nonzero;stroke:none;stroke-width:1.12843px;marker:none;enable-background:accumulate"
       d="m 537.01811,3142.7454 c -7.36326,19.3195 -52.95789,10.681 -68.24623,6.2827 30.81771,22.7092 29.74331,36.2511 -12.09844,37.1823 67.81375,34.6782 29.67653,44.0393 8.17153,38.7863 34.76994,18.3783 24.21187,26.3932 -11.1527,34.8521 63.32743,2.3561 47.99678,15.7824 24.02109,35.0493 28.03876,-12.2675 71.29139,-20.4403 72.82603,13.7358 46.84977,-37.1275 53.63758,-36.1821 76.27805,6.623 11.82016,-38.6486 54.05723,-37.7865 70.03514,-1.3474 13.76398,-49.6568 62.87536,-34.6956 92.1096,-13.3082 -16.41074,-14.9756 -5.22012,-38.5615 50.72993,-32.1567 -4.50346,-13.432 2.57868,-30.0267 30.83284,-27.0156 -32.54529,-8.9507 -38.5432,-17.41 21.886,-24.6342 -45.98309,-2.1535 -88.86268,-5.1262 -34.9145,-34.0358 -16.925,-1.2116 -59.68538,31.7921 -40.96292,-41.9768 -49.56974,20.515 -99.05391,21.5067 -96.49119,-24.4384 -18.42868,24.3728 -50.39281,35.7915 -64.29887,4.3113 -11.47944,28.7197 -46.34687,15.5793 -64.45989,-4.7518 -11.96817,19.3352 -19.83806,54.6507 -54.26547,26.8421 z"
       id="path3549-3-7-8"
       inkscape:connector-curvature="0"
       sodipodi:nodetypes="ccccccccccccccccccc" />
    <path
       style="color:#000000;display:inline;overflow:visible;visibility:visible;fill:#ffffff;fill-opacity:1;fill-rule:nonzero;stroke:none;stroke-width:1.09607px;marker:none;enable-background:accumulate"
       d="m 390.77193,2961.1951 c 53.59695,48.507 -53.96659,31.6355 -74.59851,24.9477 53.92518,17.0719 41.83481,45.5187 -14.0621,54.4424 96.5071,46.7186 20.81775,62.2766 1.76402,62.9598 64.03833,19.6846 50.01603,34.7715 38.61497,59.1589 76.58285,-17.4677 39.04118,14.442 39.15804,46.9219 6.23998,-14.6096 78.38686,-65.6262 34.33732,33.5341 48.6859,-47.2482 109.49076,-87.3129 114.14703,-4.6284 19.61637,-41.5965 39.17385,-59.1765 37.66813,-9.5644 48.6032,-64.5269 119.09768,-47.53 163.03324,-29.2923 -57.04536,-48.9968 -22.2804,-45.3472 41.09583,-31.7144 -73.73689,-33.5986 -67.47596,-48.9394 18.14042,-44.8936 -37.82752,-11.6609 -44.79903,-23.6892 25.43824,-36.6332 -53.97733,-2.1104 -113.26077,-19.9476 -40.5813,-47.9601 -27.37307,2.4576 -129.70788,-3.4044 -44.58486,-72.0292 -66.80817,25.8247 -135.58248,36.2653 -115.1788,-18.7323 -56.95068,33.4008 -62.92278,53.6518 -74.7348,8.8753 -20.14297,38.8598 -46.30527,14.7906 -74.92201,-4.2675 20.82349,30.383 -25.68971,48.2973 -74.73486,8.8753 z"
       id="path3549-3-7"
       inkscape:connector-curvature="0"
       sodipodi:nodetypes="ccccccccccccccccccc" />
    <path
       style="fill:#ffffff;fill-rule:evenodd;stroke:none;stroke-width:1.61403px;stroke-linecap:butt;stroke-linejoin:miter;stroke-opacity:1"
       d="m 559.65143,2966.4499 c 7.81388,-49.8207 8.23157,-62.9667 6.02019,-75.0728 -2.2114,-12.106 -16.03862,-8.1385 -26.02653,-3.643 -6.53887,2.9161 -28.34548,24.9309 -13.34891,-11.2886 14.99673,-36.2194 33.04009,-86.6247 37.65555,-102.5126 -15.5946,27.8024 -42.45502,71.0937 -50.25242,84.9947 -7.79723,13.9012 -19.54665,39.459 -22.39666,47.151 -3.46707,9.3577 -1.1372,19.0591 14.63013,17.8664 24.66487,-3.6362 41.86312,-37.8298 13.23772,21.5203 -28.62567,59.3501 4.95095,150.5651 4.95095,150.5651 z"
       id="path1089"
       inkscape:connector-curvature="0"
       sodipodi:nodetypes="csccccscccc" />
    <path
       style="color:#000000;display:inline;overflow:visible;visibility:visible;fill:#ffffff;fill-opacity:1;fill-rule:nonzero;stroke:none;stroke-width:1.1687px;marker:none;enable-background:accumulate"
       d="m 1772.0968,1460.613 c -2.8101,42.4013 -56.0529,14.9583 -81.3365,4.1643 30.1352,23.8911 53.0108,55.7832 -13.3982,53.7795 74.5743,42.3426 24.7195,40.2711 12.6994,51.0071 58.5546,14.5925 41.7263,33.2792 4.1418,43.4454 67.3027,0.621 51.0098,15.5245 25.529,36.9709 29.799,-14.0409 75.7666,-24.1377 77.3977,12.5733 43.1762,-32.0702 65.4531,-31.4455 81.0663,4.819 13.042,-31.271 57.4506,-37.2893 74.4316,-3.5648 14.628,-45.6414 77.1784,-26.0267 108.2477,-3.9069 -17.4408,-15.6111 -15.9037,-41.3316 43.5586,-36.1332 -4.7862,-14.3106 2.7405,-45.5466 32.7683,-43.1615 -34.5884,-8.6437 -40.9627,-17.5607 23.2599,-27.156 -48.8697,-0.9271 -94.4411,-2.8291 -37.1063,-35.552 -17.9874,-0.7918 -60.6648,26.5131 -40.767,-53.3932 -52.6814,23.5617 -108.0393,35.6068 -105.3157,-13.8861 -19.5856,26.7705 -53.5562,40.0171 -68.3352,6.5794 -12.2001,31.2357 -49.2564,18.156 -68.5064,-3.1634 -12.7194,21.1572 -31.7465,35.447 -68.335,6.5782 z"
       id="path3549-3-7-8-6"
       inkscape:connector-curvature="0"
       sodipodi:nodetypes="ccccccccccccccccccc" />
  </g>
  <g
     inkscape:groupmode="layer"
     id="layer1"
     inkscape:label="txt">
    <text
       xml:space="preserve"
       style="font-style:normal;font-variant:normal;font-weight:normal;font-stretch:normal;font-size:45px;line-height:1.25;font-family:Lavi;-inkscape-font-specification:Lavi;text-align:center;letter-spacing:0px;word-spacing:0px;text-anchor:middle;fill:#000000;fill-opacity:1;stroke:none"
       x="2024.6541"
       y="339.76151"
       id="text4246-3-2-2"><tspan
         style="font-size:45px"
         sodipodi:role="line"
         x="2024.6541"
         y="339.76151"
         id="tspan886">Perfekt!</tspan><tspan
         style="font-size:45px"
         sodipodi:role="line"
         x="2024.6541"
         y="396.01151"
         id="tspan9003">Dei følgjer</tspan><tspan
         style="font-size:45px"
         sodipodi:role="line"
         x="2024.6541"
         y="452.26151"
         id="tspan9005">etter oss!</tspan></text>
    <text
       xml:space="preserve"
       style="font-style:normal;font-variant:normal;font-weight:normal;font-stretch:normal;font-size:45px;line-height:1.25;font-family:Lavi;-inkscape-font-specification:Lavi;text-align:center;letter-spacing:0px;word-spacing:0px;text-anchor:middle;fill:#000000;fill-opacity:1;stroke:none"
       x="1915.7687"
       y="1541.3466"
       id="text4246-3-2-2-3"><tspan
         style="font-size:45px"
         sodipodi:role="line"
         x="1915.7687"
         y="1541.3466"
         id="tspan922">No er me</tspan><tspan
         style="font-size:45px"
         sodipodi:role="line"
         x="1915.7687"
         y="1597.5966"
         id="tspan9013">snart kvitt dei.</tspan></text>
    <text
       xml:space="preserve"
       style="font-style:normal;font-variant:normal;font-weight:normal;font-stretch:normal;font-size:50.2786px;line-height:1.25;font-family:Lavi;-inkscape-font-specification:Lavi;text-align:center;letter-spacing:0px;word-spacing:0px;text-anchor:middle;fill:#000000;fill-opacity:1;stroke:none;stroke-width:1.1173"
       x="544.3728"
       y="3067.8958"
       id="text4246-3-2-2-3-3"><tspan
         style="font-style:normal;font-variant:normal;font-weight:bold;font-stretch:normal;font-size:50.2786px;font-family:Lavi;-inkscape-font-specification:'Lavi Bold';stroke-width:1.1173"
         sodipodi:role="line"
         x="544.3728"
         y="3067.8958"
         id="tspan896">Og det vert</tspan><tspan
         style="font-style:normal;font-variant:normal;font-weight:bold;font-stretch:normal;font-size:50.2786px;font-family:Lavi;-inkscape-font-specification:'Lavi Bold';stroke-width:1.1173"
         sodipodi:role="line"
         x="544.3728"
         y="3130.7439"
         id="tspan9017">litt av eit syn!</tspan></text>
    <text
       xml:space="preserve"
       style="font-style:normal;font-variant:normal;font-weight:normal;font-stretch:normal;font-size:57.3248px;line-height:1.25;font-family:Lavi;-inkscape-font-specification:Lavi;text-align:center;letter-spacing:0px;word-spacing:0px;text-anchor:middle;fill:#000000;fill-opacity:1;stroke:none;stroke-width:1.27388"
       x="659.26379"
       y="3238.7009"
       id="text4246-3-2-2-3-3-3"><tspan
         style="font-style:normal;font-variant:normal;font-weight:bold;font-stretch:normal;font-size:57.3248px;font-family:Lavi;-inkscape-font-specification:'Lavi Bold';stroke-width:1.27388"
         sodipodi:role="line"
         x="659.26379"
         y="3238.7009"
         id="tspan1015">Muhahaha!</tspan></text>
    <text
       xml:space="preserve"
       style="font-style:normal;font-variant:normal;font-weight:normal;font-stretch:normal;font-size:105.817px;line-height:1.25;font-family:Lavi;-inkscape-font-specification:Lavi;letter-spacing:0px;word-spacing:0px;fill:#000000;fill-opacity:1;stroke:#030303;stroke-width:0.716208;stroke-miterlimit:4;stroke-dasharray:none;stroke-opacity:1;filter:url(#filter4375-4-1-1-1-9-5-8-8-5-5-3-8)"
       x="787.65729"
       y="1584.5073"
       id="text4580-6-0-0-0-9-3-36"
       transform="matrix(1.0545214,-0.26714456,-0.41513081,1.2309466,1890.7199,857.1408)"><tspan
         style="font-size:195.17px;fill:#000000;fill-opacity:1;stroke:#030303;stroke-width:0.716208;stroke-miterlimit:4;stroke-dasharray:none;stroke-opacity:1"
         sodipodi:role="line"
         id="tspan876-6-1"
         x="787.65729"
         y="1584.5073">!<tspan
   style="font-size:173.821px;fill:#000000;stroke:#030303;stroke-opacity:1"
   id="tspan1317">!</tspan><tspan
   id="tspan1322"
   style="font-size:152.472px;fill:#000000;stroke:#030303;stroke-opacity:1">!</tspan></tspan></text>
  </g>
</svg>
