<?xml version="1.0" encoding="UTF-8" standalone="no"?>
<svg
   xmlns:dc="http://purl.org/dc/elements/1.1/"
   xmlns:cc="http://creativecommons.org/ns#"
   xmlns:rdf="http://www.w3.org/1999/02/22-rdf-syntax-ns#"
   xmlns:svg="http://www.w3.org/2000/svg"
   xmlns="http://www.w3.org/2000/svg"
   xmlns:xlink="http://www.w3.org/1999/xlink"
   xmlns:sodipodi="http://sodipodi.sourceforge.net/DTD/sodipodi-0.dtd"
   xmlns:inkscape="http://www.inkscape.org/namespaces/inkscape"
   sodipodi:docname="E33P05.svg"
   height="3503"
   width="2481"
   inkscape:version="0.92.2 (5c3e80d, 2017-08-06)"
   version="1.1"
   id="svg2">
  <metadata
     id="metadata8">
    <rdf:RDF>
      <cc:Work
         rdf:about="">
        <dc:format>image/svg+xml</dc:format>
        <dc:type
           rdf:resource="http://purl.org/dc/dcmitype/StillImage" />
        <dc:title />
      </cc:Work>
    </rdf:RDF>
  </metadata>
  <defs
     id="defs6">
    <filter
       style="color-interpolation-filters:sRGB"
       id="filter4375-4-1-1-1-9-5-8-8-3-3"
       inkscape:label="magic-numbers_cyan"
       height="1.3800000000000001"
       width="1.22"
       x="-0.14000000000000001">
      <feFlood
         id="feFlood4377-7-9-0-8-1-7-3-1-6-61"
         flood-opacity="1"
         flood-color="rgb(15,126,119)"
         result="flood"
         radius="5.0999999999999996" />
      <feComposite
         id="feComposite4379-3-8-8-2-77-4-1-0-7-2"
         in2="SourceGraphic"
         in="flood"
         operator="in"
         result="composite1"
         baseFrequency="0.053999999999999999 0.053999999999999999" />
      <feMorphology
         id="feMorphology4393-1-0-49-8-9-3-0-1-5-9"
         operator="dilate"
         radius="0.96959439099754563"
         result="result3" />
      <feComposite
         id="feComposite4385-9-5-7-0-8-8-7-5-3-3"
         in2="result3"
         in="SourceGraphic"
         operator="over"
         result="fbSourceGraphic"
         numOctaves="4" />
      <feColorMatrix
         result="fbSourceGraphicAlpha"
         in="fbSourceGraphic"
         values="0 0 0 -1 0 0 0 0 -1 0 0 0 0 -1 0 0 0 0 1 0"
         id="feColorMatrix4544-9-5-1" />
      <feTurbulence
         id="feTurbulence4546-3-6-9"
         type="fractalNoise"
         numOctaves="4.4123222748815163"
         seed="172"
         baseFrequency="0.062 0.054054054054054057"
         result="turbulence" />
      <feDisplacementMap
         id="feDisplacementMap4548-8-2-4"
         in2="turbulence"
         in="fbSourceGraphic"
         scale="11.642079049496099"
         yChannelSelector="G"
         xChannelSelector="R"
         result="fbSourceGraphic" />
      <feColorMatrix
         result="fbSourceGraphicAlpha"
         in="fbSourceGraphic"
         values="0 0 0 -1 0 0 0 0 -1 0 0 0 0 -1 0 0 0 0 1 0"
         id="feColorMatrix4670-7-9-7"
         scale="10.800000000000001" />
      <feComposite
         id="feComposite4674-8-2-4"
         in2="fbSourceGraphic"
         in="flood"
         operator="in"
         result="composite1" />
      <feGaussianBlur
         id="feGaussianBlur4676-3-7-50"
         in="composite1"
         stdDeviation="1.5865199271065846"
         result="blur" />
      <feOffset
         id="feOffset4678-6-0-3"
         dx="-0.42771311737301687"
         dy="5.2374444725016502"
         result="offset" />
      <feComposite
         id="feComposite4680-4-9-6"
         in2="offset"
         in="fbSourceGraphic"
         operator="over"
         result="composite2" />
      <feGaussianBlur
         id="feGaussianBlur58"
         stdDeviation="0.01" />
      <feOffset
         id="feOffset60"
         dy="0"
         dx="0" />
    </filter>
    <filter
       x="-0.11"
       width="1.4000000000000001"
       height="1.3900000000000001"
       inkscape:label="magic-numbers-distant_cyan"
       id="filter4375-4-1-1-1-9-5-8-8-3-3-3"
       style="color-interpolation-filters:sRGB"
       y="-0.12869298">
      <feFlood
         radius="5.0999999999999996"
         result="flood"
         flood-color="rgb(15,126,119)"
         flood-opacity="1"
         id="feFlood4377-7-9-0-8-1-7-3-1-6-61-6" />
      <feComposite
         baseFrequency="0.053999999999999999 0.053999999999999999"
         result="composite1"
         operator="in"
         in="flood"
         in2="SourceGraphic"
         id="feComposite4379-3-8-8-2-77-4-1-0-7-2-7" />
      <feMorphology
         result="result3"
         radius="0.96959439099754563"
         operator="dilate"
         id="feMorphology4393-1-0-49-8-9-3-0-1-5-9-5" />
      <feComposite
         numOctaves="4"
         result="fbSourceGraphic"
         operator="over"
         in="SourceGraphic"
         in2="result3"
         id="feComposite4385-9-5-7-0-8-8-7-5-3-3-3" />
      <feColorMatrix
         id="feColorMatrix4544-9-5-1-5"
         values="0 0 0 -1 0 0 0 0 -1 0 0 0 0 -1 0 0 0 0 1 0"
         in="fbSourceGraphic"
         result="fbSourceGraphicAlpha" />
      <feTurbulence
         result="turbulence"
         baseFrequency="0.062 0.054054054054054057"
         seed="172"
         numOctaves="4.4123222748815163"
         type="fractalNoise"
         id="feTurbulence4546-3-6-9-6" />
      <feDisplacementMap
         result="fbSourceGraphic"
         xChannelSelector="R"
         yChannelSelector="G"
         scale="11.642079"
         in="fbSourceGraphic"
         in2="turbulence"
         id="feDisplacementMap4548-8-2-4-2" />
      <feColorMatrix
         scale="10.800000000000001"
         id="feColorMatrix4670-7-9-7-9"
         values="0 0 0 -1 0 0 0 0 -1 0 0 0 0 -1 0 0 0 0 1 0"
         in="fbSourceGraphic"
         result="fbSourceGraphicAlpha" />
      <feComposite
         result="composite1"
         operator="in"
         in="flood"
         in2="fbSourceGraphic"
         id="feComposite4674-8-2-4-1" />
      <feGaussianBlur
         result="blur"
         stdDeviation="2.8009584"
         in="composite1"
         id="feGaussianBlur4676-3-7-50-2" />
      <feOffset
         result="offset"
         dy="5.2374444725016502"
         dx="-0.42771311737301687"
         id="feOffset4678-6-0-3-7" />
      <feComposite
         result="composite2"
         operator="over"
         in="fbSourceGraphic"
         in2="offset"
         id="feComposite4680-4-9-6-0" />
      <feGaussianBlur
         stdDeviation="3.2907475062779015"
         id="feGaussianBlur58-9" />
      <feOffset
         dx="0"
         dy="0"
         id="feOffset60-3" />
    </filter>
    <filter
       width="1.1899999999999999"
       style="color-interpolation-filters:sRGB"
       id="filter4375-4-1-1-1-9-5-8-6"
       inkscape:label="soundFX">
      <feFlood
         id="feFlood4377-7-9-0-8-1-7-3-7"
         flood-opacity="1"
         flood-color="rgb(46,52,54)"
         result="flood" />
      <feComposite
         id="feComposite4379-3-8-8-2-77-4-1-5"
         in2="SourceGraphic"
         in="flood"
         operator="in"
         result="composite1" />
      <feMorphology
         id="feMorphology4393-1-0-49-8-9-3-0-3"
         operator="dilate"
         radius="6.2000000000000002"
         result="result3" />
      <feComposite
         id="feComposite4385-9-5-7-0-8-8-7-56"
         in2="result3"
         in="SourceGraphic"
         operator="over"
         result="fbSourceGraphic" />
      <feColorMatrix
         result="fbSourceGraphicAlpha"
         in="fbSourceGraphic"
         values="0 0 0 -1 0 0 0 0 -1 0 0 0 0 -1 0 0 0 0 1 0"
         id="feColorMatrix4544-2" />
      <feTurbulence
         id="feTurbulence4546-9"
         type="fractalNoise"
         numOctaves="3"
         seed="37"
         baseFrequency="0.129 0.0050000000000000001"
         result="turbulence" />
      <feDisplacementMap
         id="feDisplacementMap4548-1"
         in2="turbulence"
         in="fbSourceGraphic"
         scale="10"
         yChannelSelector="A"
         xChannelSelector="B"
         result="fbSourceGraphic" />
      <feColorMatrix
         result="fbSourceGraphicAlpha"
         in="fbSourceGraphic"
         values="0 0 0 -1 0 0 0 0 -1 0 0 0 0 -1 0 0 0 0 1 0"
         id="feColorMatrix4670-2" />
      <feFlood
         id="feFlood4672-7"
         flood-opacity="1"
         flood-color="rgb(17,52,65)"
         result="flood"
         in="fbSourceGraphic" />
      <feComposite
         id="feComposite4674-0"
         in2="fbSourceGraphic"
         in="flood"
         operator="in"
         result="composite1" />
      <feComposite
         id="feComposite4680-6"
         in2="composite1"
         in="fbSourceGraphic"
         operator="over"
         result="composite2" />
    </filter>
    <filter
       height="1.0509601"
       y="-0.025480046"
       x="-0.018012271"
       inkscape:label="soundFX-background"
       id="filter4375-4-1-1-1-9-5-8-6-4"
       style="color-interpolation-filters:sRGB"
       width="1.0360245">
      <feFlood
         result="flood"
         flood-color="rgb(46,52,54)"
         flood-opacity="1"
         id="feFlood4377-7-9-0-8-1-7-3-7-8" />
      <feComposite
         result="composite1"
         operator="in"
         in="flood"
         in2="SourceGraphic"
         id="feComposite4379-3-8-8-2-77-4-1-5-1" />
      <feMorphology
         result="result3"
         radius="6.2000000000000002"
         operator="dilate"
         id="feMorphology4393-1-0-49-8-9-3-0-3-2" />
      <feComposite
         result="fbSourceGraphic"
         operator="over"
         in="SourceGraphic"
         in2="result3"
         id="feComposite4385-9-5-7-0-8-8-7-56-9" />
      <feColorMatrix
         id="feColorMatrix4544-2-3"
         values="0 0 0 -1 0 0 0 0 -1 0 0 0 0 -1 0 0 0 0 1 0"
         in="fbSourceGraphic"
         result="fbSourceGraphicAlpha" />
      <feTurbulence
         result="turbulence"
         baseFrequency="0.129 0.0050000000000000001"
         seed="37"
         numOctaves="3"
         type="fractalNoise"
         id="feTurbulence4546-9-9" />
      <feDisplacementMap
         result="fbSourceGraphic"
         xChannelSelector="B"
         yChannelSelector="A"
         scale="10"
         in="fbSourceGraphic"
         in2="turbulence"
         id="feDisplacementMap4548-1-0" />
      <feColorMatrix
         id="feColorMatrix4670-2-8"
         values="0 0 0 -1 0 0 0 0 -1 0 0 0 0 -1 0 0 0 0 1 0"
         in="fbSourceGraphic"
         result="fbSourceGraphicAlpha" />
      <feFlood
         in="fbSourceGraphic"
         result="flood"
         flood-color="rgb(17,52,65)"
         flood-opacity="1"
         id="feFlood4672-7-8" />
      <feComposite
         result="composite1"
         operator="in"
         in="flood"
         in2="fbSourceGraphic"
         id="feComposite4674-0-5" />
      <feComposite
         result="composite2"
         operator="over"
         in="fbSourceGraphic"
         in2="composite1"
         id="feComposite4680-6-0" />
      <feGaussianBlur
         id="feGaussianBlur1513"
         stdDeviation="2.7123312" />
    </filter>
    <filter
       inkscape:label="army-sound_background"
       height="1.0467198"
       y="-0.023359915"
       width="1.0228578"
       x="-0.011428907"
       id="filter987"
       style="color-interpolation-filters:sRGB"
       inkscape:collect="always">
      <feGaussianBlur
         id="feGaussianBlur989"
         stdDeviation="1.3999999999999999"
         inkscape:collect="always" />
    </filter>
    <filter
       style="color-interpolation-filters:sRGB"
       id="filter4375-4-1-1-1-9-5-8-8-3-3-3-0"
       inkscape:label="magic-numbers-distant_orange"
       height="1.49"
       width="1.4300000000000002"
       x="-0.22000000000000008"
       y="-0.23000000000000009">
      <feFlood
         id="feFlood4377-7-9-0-8-1-7-3-1-6-61-6-6"
         flood-opacity="1"
         flood-color="rgb(195,47,14)"
         result="flood"
         radius="5.0999999999999996" />
      <feComposite
         id="feComposite4379-3-8-8-2-77-4-1-0-7-2-7-2"
         in2="SourceGraphic"
         in="flood"
         operator="in"
         result="composite1"
         baseFrequency="0.053999999999999999 0.053999999999999999" />
      <feMorphology
         id="feMorphology4393-1-0-49-8-9-3-0-1-5-9-5-6"
         operator="dilate"
         radius="0.96959439099754563"
         result="result3" />
      <feComposite
         id="feComposite4385-9-5-7-0-8-8-7-5-3-3-3-1"
         in2="result3"
         in="SourceGraphic"
         operator="over"
         result="fbSourceGraphic"
         numOctaves="4" />
      <feColorMatrix
         result="fbSourceGraphicAlpha"
         in="fbSourceGraphic"
         values="0 0 0 -1 0 0 0 0 -1 0 0 0 0 -1 0 0 0 0 1 0"
         id="feColorMatrix4544-9-5-1-5-8" />
      <feTurbulence
         id="feTurbulence4546-3-6-9-6-7"
         type="fractalNoise"
         numOctaves="4.4123222748815163"
         seed="172"
         baseFrequency="0.062 0.054054054054054057"
         result="turbulence" />
      <feDisplacementMap
         id="feDisplacementMap4548-8-2-4-2-9"
         in2="turbulence"
         in="fbSourceGraphic"
         scale="11.642079"
         yChannelSelector="G"
         xChannelSelector="R"
         result="fbSourceGraphic" />
      <feColorMatrix
         result="fbSourceGraphicAlpha"
         in="fbSourceGraphic"
         values="0 0 0 -1 0 0 0 0 -1 0 0 0 0 -1 0 0 0 0 1 0"
         id="feColorMatrix4670-7-9-7-9-2"
         scale="10.800000000000001" />
      <feComposite
         id="feComposite4674-8-2-4-1-0"
         in2="fbSourceGraphic"
         in="flood"
         operator="in"
         result="composite1" />
      <feGaussianBlur
         id="feGaussianBlur4676-3-7-50-2-2"
         in="composite1"
         stdDeviation="2.5512148821149552"
         result="blur" />
      <feOffset
         id="feOffset4678-6-0-3-7-3"
         dx="-0.42771311737301687"
         dy="5.2374444725016502"
         result="offset" />
      <feComposite
         id="feComposite4680-4-9-6-0-7"
         in2="offset"
         in="fbSourceGraphic"
         operator="over"
         result="composite2" />
      <feGaussianBlur
         id="feGaussianBlur58-9-5"
         stdDeviation="3.2907475062779015" />
      <feOffset
         id="feOffset60-3-9"
         dy="0"
         dx="0" />
    </filter>
    <filter
       x="-0.14"
       width="1.22"
       height="1.38"
       inkscape:label="magic-numbers_orange"
       id="filter4375-4-1-1-1-9-5-8-8-3-3-3-6-1"
       style="color-interpolation-filters:sRGB">
      <feFlood
         radius="5.0999999999999996"
         result="flood"
         flood-color="rgb(216,88,33)"
         flood-opacity="1"
         id="feFlood4377-7-9-0-8-1-7-3-1-6-61-6-2-0" />
      <feComposite
         baseFrequency="0.053999999999999999 0.053999999999999999"
         result="composite1"
         operator="in"
         in="flood"
         in2="SourceGraphic"
         id="feComposite4379-3-8-8-2-77-4-1-0-7-2-7-6-6" />
      <feMorphology
         result="result3"
         radius="0.96959439099754563"
         operator="dilate"
         id="feMorphology4393-1-0-49-8-9-3-0-1-5-9-5-1-3" />
      <feComposite
         numOctaves="4"
         result="fbSourceGraphic"
         operator="over"
         in="SourceGraphic"
         in2="result3"
         id="feComposite4385-9-5-7-0-8-8-7-5-3-3-3-8-2" />
      <feColorMatrix
         id="feColorMatrix4544-9-5-1-5-7-0"
         values="0 0 0 -1 0 0 0 0 -1 0 0 0 0 -1 0 0 0 0 1 0"
         in="fbSourceGraphic"
         result="fbSourceGraphicAlpha" />
      <feTurbulence
         result="turbulence"
         baseFrequency="0.062 0.054054054054054057"
         seed="172"
         numOctaves="4.4123222748815163"
         type="fractalNoise"
         id="feTurbulence4546-3-6-9-6-9-6" />
      <feDisplacementMap
         result="fbSourceGraphic"
         xChannelSelector="R"
         yChannelSelector="G"
         scale="11.642079"
         in="fbSourceGraphic"
         in2="turbulence"
         id="feDisplacementMap4548-8-2-4-2-2-1" />
      <feColorMatrix
         scale="10.800000000000001"
         id="feColorMatrix4670-7-9-7-9-0-5"
         values="0 0 0 -1 0 0 0 0 -1 0 0 0 0 -1 0 0 0 0 1 0"
         in="fbSourceGraphic"
         result="fbSourceGraphicAlpha" />
      <feComposite
         result="composite1"
         operator="in"
         in="flood"
         in2="fbSourceGraphic"
         id="feComposite4674-8-2-4-1-2-5" />
      <feGaussianBlur
         result="blur"
         stdDeviation="0.01"
         in="composite1"
         id="feGaussianBlur4676-3-7-50-2-3-4" />
      <feOffset
         result="offset"
         dy="5.2374444725016502"
         dx="-0.42771311737301687"
         id="feOffset4678-6-0-3-7-7-7" />
      <feComposite
         result="composite2"
         operator="over"
         in="fbSourceGraphic"
         in2="offset"
         id="feComposite4680-4-9-6-0-5-6" />
      <feGaussianBlur
         stdDeviation="0.01"
         id="feGaussianBlur58-9-9-5" />
      <feOffset
         dx="0"
         dy="0"
         id="feOffset60-3-2-6" />
    </filter>
    <filter
       y="-0.12869298"
       style="color-interpolation-filters:sRGB"
       id="filter4375-4-1-1-1-9-5-8-8-3-3-3-6"
       inkscape:label="magic-numbers-distant_cyan"
       height="1.39"
       width="1.4"
       x="-0.11">
      <feFlood
         id="feFlood4377-7-9-0-8-1-7-3-1-6-61-6-3"
         flood-opacity="1"
         flood-color="rgb(15,126,119)"
         result="flood"
         radius="5.0999999999999996" />
      <feComposite
         id="feComposite4379-3-8-8-2-77-4-1-0-7-2-7-7"
         in2="SourceGraphic"
         in="flood"
         operator="in"
         result="composite1"
         baseFrequency="0.053999999999999999 0.053999999999999999" />
      <feMorphology
         id="feMorphology4393-1-0-49-8-9-3-0-1-5-9-5-9"
         operator="dilate"
         radius="0.96959439099754563"
         result="result3" />
      <feComposite
         id="feComposite4385-9-5-7-0-8-8-7-5-3-3-3-7"
         in2="result3"
         in="SourceGraphic"
         operator="over"
         result="fbSourceGraphic"
         numOctaves="4" />
      <feColorMatrix
         result="fbSourceGraphicAlpha"
         in="fbSourceGraphic"
         values="0 0 0 -1 0 0 0 0 -1 0 0 0 0 -1 0 0 0 0 1 0"
         id="feColorMatrix4544-9-5-1-5-4" />
      <feTurbulence
         id="feTurbulence4546-3-6-9-6-9"
         type="fractalNoise"
         numOctaves="4.4123222748815163"
         seed="172"
         baseFrequency="0.062 0.054054054054054057"
         result="turbulence" />
      <feDisplacementMap
         id="feDisplacementMap4548-8-2-4-2-1"
         in2="turbulence"
         in="fbSourceGraphic"
         scale="11.642079"
         yChannelSelector="G"
         xChannelSelector="R"
         result="fbSourceGraphic" />
      <feColorMatrix
         result="fbSourceGraphicAlpha"
         in="fbSourceGraphic"
         values="0 0 0 -1 0 0 0 0 -1 0 0 0 0 -1 0 0 0 0 1 0"
         id="feColorMatrix4670-7-9-7-9-7"
         scale="10.800000000000001" />
      <feComposite
         id="feComposite4674-8-2-4-1-06"
         in2="fbSourceGraphic"
         in="flood"
         operator="in"
         result="composite1" />
      <feGaussianBlur
         id="feGaussianBlur4676-3-7-50-2-0"
         in="composite1"
         stdDeviation="2.8009584"
         result="blur" />
      <feOffset
         id="feOffset4678-6-0-3-7-8"
         dx="-0.42771311737301687"
         dy="5.2374444725016502"
         result="offset" />
      <feComposite
         id="feComposite4680-4-9-6-0-5"
         in2="offset"
         in="fbSourceGraphic"
         operator="over"
         result="composite2" />
      <feGaussianBlur
         id="feGaussianBlur58-9-3"
         stdDeviation="3.2907475062779015" />
      <feOffset
         id="feOffset60-3-94"
         dy="0"
         dx="0" />
    </filter>
  </defs>
  <sodipodi:namedview
     inkscape:snap-global="false"
     inkscape:document-rotation="0"
     inkscape:current-layer="layer3"
     inkscape:window-maximized="0"
     inkscape:window-y="-3"
     inkscape:window-x="777"
     inkscape:cy="2458.4086"
     inkscape:cx="1285.3545"
     inkscape:zoom="0.3478261"
     showgrid="false"
     id="namedview4"
     inkscape:window-height="1017"
     inkscape:window-width="1138"
     inkscape:pageshadow="2"
     inkscape:pageopacity="0"
     guidetolerance="10"
     gridtolerance="10"
     objecttolerance="10"
     borderopacity="1"
     bordercolor="#666666"
     pagecolor="#ffffff" />
  <g
     sodipodi:insensitive="true"
     inkscape:label="artwork"
     id="layer2"
     inkscape:groupmode="layer">
    <image
       sodipodi:absref="C:\Users\Kari\Documents\Pepper and Carrot\Episode 33\fi\../lang/en/./../gfx_Pepper-and-Carrot_by-David-Revoy_E33P05.png"
       xlink:href="../gfx_Pepper-and-Carrot_by-David-Revoy_E33P05.png"
       y="0"
       x="0"
       id="image10"
       height="3503"
       width="2481" />
  </g>
  <g
     style="display:inline"
     inkscape:label="speechbubbles"
     id="layer3"
     inkscape:groupmode="layer">
    <path
       sodipodi:nodetypes="cccccccc"
       inkscape:connector-curvature="0"
       id="path1111-3-3"
       d="m 1815.8768,325.14948 -46.0792,-55.52226 -13.7817,0.70893 0.6536,18.70421 c -131.6193,-131.29614 -126.8843,-86.11443 1.5039,13.46556 l 8.1074,2.02383 -1.0679,-22.69636 c 12.1118,6.60691 32.9214,27.47606 50.6639,43.31609 z"
       style="fill:#ffffff;fill-rule:evenodd;stroke:none;stroke-width:0.999998px;stroke-linecap:butt;stroke-linejoin:miter;stroke-opacity:1" />
    <path
       sodipodi:nodetypes="ccccccccccccccccccc"
       inkscape:connector-curvature="0"
       id="path3549-3-7-9-6-9"
       d="m 1701.781,138.04149 c -41.9065,70.30133 49.6239,17.31695 69.5535,7.8929 -51.998,31.34554 -65.4987,55.67936 1.6713,41.28681 -67.981,34.13663 -24.017,35.41057 1.1267,35.1322 -52.8571,12.19514 -55.8424,15.28288 -31.5175,48.50995 -49.4837,-22.19197 -44.4837,19.66224 -37.9857,34.91449 -10.3959,-9.08233 -54.0069,-52.92812 -30.6543,-5.10091 -20.1014,-12.83043 -37.9631,-49.90486 -98.4785,-5.22781 2.2274,-22.58309 -17.7779,-26.9276 -38.0408,4.52237 -13.3463,-57.47335 -66.3553,-29.47788 -97.0464,-11.96457 18.9112,-20.70581 -9.5318,-28.52405 -40.2541,-24.00618 4.6864,-11.27069 -5.3638,-18.8236 -28.5161,-23.05804 31.2235,-7.22211 37.1822,-14.28875 -20.0782,-20.96398 43.8011,-1.36552 84.6749,-3.45092 34.2295,-28.33002 16.1343,-0.8543 53.6013,19.97211 38.0059,-42.35133 33.1523,21.19864 100.1857,41.4614 94.7239,-12.25212 23.5622,31.25727 51.1117,37.27505 61.028,4.25929 14.4538,40.72374 29.5996,26.58369 61.4532,-3.37342 3.3995,54.35517 25.4062,32.39568 60.7796,0.11037 z"
       style="color:#000000;display:inline;overflow:visible;visibility:visible;fill:#ffffff;fill-opacity:1;fill-rule:nonzero;stroke:none;stroke-width:1.08747649px;marker:none;enable-background:accumulate" />
    <path
       style="fill:#ffffff;fill-rule:evenodd;stroke:none;stroke-width:0.999999px;stroke-linecap:butt;stroke-linejoin:miter;stroke-opacity:1"
       d="m 623.91062,304.12883 46.45072,-55.52226 13.89284,0.70893 -0.65893,18.70421 c 132.6802,-131.29614 127.90716,-86.11443 -1.51601,13.46556 l -8.17279,2.02383 1.07647,-22.69636 c -12.20932,6.60691 -33.18669,27.47606 -51.0723,43.31609 z"
       id="path1111-3"
       inkscape:connector-curvature="0"
       sodipodi:nodetypes="cccccccc" />
    <path
       style="color:#000000;display:inline;overflow:visible;visibility:visible;fill:#ffffff;fill-opacity:1;fill-rule:nonzero;stroke:none;stroke-width:1.04946256px;marker:none;enable-background:accumulate"
       d="m 742.45391,130.45773 c 39.07757,71.19575 -46.27396,17.53726 -64.85827,7.99331 48.48798,31.74434 61.07729,56.38775 -1.55817,41.81209 63.39164,34.57094 22.39561,35.86109 -1.05085,35.57918 49.28902,12.35029 52.07266,15.47732 29.38985,49.12712 46.14321,-22.47431 41.48087,19.9124 35.42144,35.3587 9.69414,-9.19788 50.3611,-53.60151 28.58495,-5.16581 18.74448,-12.99366 35.40031,-50.53978 91.83064,-5.29432 -2.07713,-22.87041 16.5779,-27.27019 35.47288,4.57991 12.44526,-58.20457 61.87595,-29.85292 90.49516,-12.11679 -17.6347,-20.96925 8.88826,-28.88696 37.53656,-24.31161 -4.3699,-11.41408 5.0017,-19.06308 26.5912,-23.3514 -29.1157,-7.31399 -34.672,-14.47054 18.7228,-21.23069 -40.8443,-1.3829 -78.95878,-3.49483 -31.9188,-28.69046 -15.0451,-0.86517 -49.98284,20.22621 -35.4402,-42.89015 -30.91438,21.46834 -93.42268,41.9889 -88.32959,-12.408 -21.97158,31.65495 -47.66132,37.74929 -56.90825,4.31348 -13.4782,41.24185 -27.60141,26.92191 -57.30452,-3.41634 -3.17015,55.04671 -23.6912,32.80784 -56.67683,0.11178 z"
       id="path3549-3-7-9-6"
       inkscape:connector-curvature="0"
       sodipodi:nodetypes="ccccccccccccccccccc" />
    <path
       sodipodi:nodetypes="ccccccscccc"
       inkscape:connector-curvature="0"
       id="path1089-1"
       d="m 600.97887,2342.1232 c 29.8969,26.7866 37.2773,34.1333 42.5785,41.8297 -7.9225,4.3829 -11.6275,5.6013 -13.3275,6.181 -9.431,1.1997 -21.3698,-4.6239 4.367,12.4763 25.7368,17.1 60.3394,41.6179 70.7857,49.619 -21.5097,-12.0858 -56.1102,-30.248 -66.8651,-36.2908 -10.7547,-6.0429 -29.3347,-17.9327 -34.739,-21.529 -15.2598,-10.1548 -10.6416,-10.7191 -3.2329,-14.0475 12.0014,-4.5155 38.1359,11.185 -5.7775,-15.8034 -43.9135,-26.9882 -78.0812,-88.2308 -78.0812,-88.2308 z"
       style="fill:#ffffff;fill-rule:evenodd;stroke:none;stroke-width:1px;stroke-linecap:butt;stroke-linejoin:miter;stroke-opacity:1" />
    <path
       sodipodi:nodetypes="cccccccccccc"
       inkscape:connector-curvature="0"
       id="path1087-8"
       d="m 635.14879,2283.5654 c -11.66295,10.1824 -20.48392,37.4406 8.68534,57.8922 -31.29957,-1.6809 -32.05618,18.5793 -26.41826,35.4689 -15.87672,-5.6073 -31.47147,-9.3485 -42.23181,18.9028 -15.08969,-17.2749 -31.79721,-12.5455 -49.72573,8.7877 7.14198,-32.3874 7.85778,-57.6721 -32.01879,-38.0909 26.27973,-26.6417 20.44894,-55.6876 -16.38174,-47.4009 25.21966,-14.5261 37.7415,-19.3738 7.59586,-50.502 28.70569,9.0852 48.5461,14.4837 33.55515,-23.03 26.16464,11.811 36.87369,12.3899 35.02984,-25.1361 20.71686,43.3301 39.77859,32.5355 54.06674,16.2475 -15.48857,34.192 24.08814,55.3397 27.8434,46.8608 z"
       style="fill:#ffffff;fill-rule:evenodd;stroke:none;stroke-width:0.999997px;stroke-linecap:butt;stroke-linejoin:miter;stroke-opacity:1" />
    <path
       style="fill:#ffffff;fill-rule:evenodd;stroke:none;stroke-width:1px;stroke-linecap:butt;stroke-linejoin:miter;stroke-opacity:1"
       d="m 1897.4029,2397.907 c -29.8969,26.7866 -37.2773,34.1333 -42.5785,41.8297 7.9225,4.3829 11.6275,5.6013 13.3275,6.181 9.431,1.1997 21.3698,-4.6239 -4.367,12.4763 -25.7368,17.1 -60.3394,41.6179 -70.7857,49.619 21.5097,-12.0858 56.1102,-30.248 66.8651,-36.2908 10.7547,-6.0429 29.3347,-17.9327 34.739,-21.529 15.2598,-10.1548 10.6416,-10.7191 3.2329,-14.0475 -12.0014,-4.5155 -38.1359,11.185 5.7775,-15.8034 43.9135,-26.9882 78.0812,-88.2308 78.0812,-88.2308 z"
       id="path1089"
       inkscape:connector-curvature="0"
       sodipodi:nodetypes="ccccccscccc" />
    <path
       style="fill:#ffffff;fill-rule:evenodd;stroke:none;stroke-width:1px;stroke-linecap:butt;stroke-linejoin:miter;stroke-opacity:1"
       d="m 1937.8658,2443.9308 c -2.0612,-17.5917 -20.8314,-40.2202 -56.0868,-18.1137 19.9964,-33.3817 2.6139,-43.8667 -15.5853,-45.7612 14.3275,-14.6662 26.8461,-29.914 8.3492,-55.134 24.1301,-8.2443 29.8524,-28.7456 21.6847,-58.496 24.2775,23.2401 46.106,36.0759 52.4648,-16.8093 7.8988,41.4017 36.9104,48.8809 51.4071,4.7067 -2.1364,34.4681 -5.2783,50.4545 39.9508,32.3716 -24.978,27.019 -41.4669,46.1135 0.4162,47.6256 -25.8737,22.9443 -32.4844,38.9229 -5.5692,45.7354 -43.282,5.9825 -37.4678,34.4558 -39.319,55.8065 -20.9277,-33.2159 -62.9528,-0.075 -57.7125,8.0684 z"
       id="path1087"
       inkscape:connector-curvature="0"
       sodipodi:nodetypes="cccccccccccc" />
  </g>
  <g
     inkscape:groupmode="layer"
     inkscape:label="txt"
     id="layer1">
    <text
       inkscape:label="kingA-1"
       xml:space="preserve"
       style="font-style:normal;font-variant:normal;font-weight:normal;font-stretch:normal;font-size:11.75049973px;line-height:0%;font-family:Lavi;-inkscape-font-specification:Lavi;text-align:center;letter-spacing:0px;word-spacing:0px;text-anchor:middle;fill:#000000;fill-opacity:1;stroke:none;stroke-width:1.92823994"
       x="928.74103"
       y="225.57608"
       id="text4246-1-44-7"
       transform="matrix(0.96784556,0,-0.20410544,1.0332227,0,0)"><tspan
         sodipodi:role="line"
         style="font-style:normal;font-variant:normal;font-weight:bold;font-stretch:normal;font-size:44.06430054px;line-height:1.25;font-family:Lavi;-inkscape-font-specification:'Lavi Bold';stroke-width:1.92823994"
         x="928.74103"
         y="225.57608"
         id="tspan1013-76-5"><tspan
           style="font-size:58.17129898px;stroke-width:1.92823994"
           id="tspan867-1-3">Jaaaaa!!!</tspan><tspan
           id="tspan885-1-5"
           style="font-size:85.72640228px;stroke-width:1.92823994"><tspan
             style="font-size:90.46569824px;stroke-width:1.92823994"
             id="tspan48-8-6" /></tspan></tspan></text>
    <text
       inkscape:label="kingB-1"
       transform="matrix(0.96784556,0,-0.20410544,1.0332227,0,0)"
       id="text4246-1-44-7-6"
       y="233.74915"
       x="1671.9733"
       style="font-style:normal;font-variant:normal;font-weight:normal;font-stretch:normal;font-size:11.75049973px;line-height:0%;font-family:Lavi;-inkscape-font-specification:Lavi;text-align:center;letter-spacing:0px;word-spacing:0px;text-anchor:middle;fill:#000000;fill-opacity:1;stroke:none;stroke-width:1.92823994"
       xml:space="preserve"><tspan
         id="tspan1013-76-5-8"
         y="233.74915"
         x="1671.9733"
         style="font-style:normal;font-variant:normal;font-weight:bold;font-stretch:normal;font-size:44.06430054px;line-height:1.25;font-family:Lavi;-inkscape-font-specification:'Lavi Bold';stroke-width:1.92823994"
         sodipodi:role="line"><tspan
           id="tspan867-1-3-0"
           style="font-size:58.17129898px;stroke-width:1.92823994">Juuuurr!!!</tspan><tspan
           style="font-size:85.72640228px;stroke-width:1.92823994"
           id="tspan885-1-5-2"><tspan
             id="tspan48-8-6-1"
             style="font-size:90.46569824px;stroke-width:1.92823994" /></tspan></tspan></text>
    <text
       inkscape:label="swordFX1"
       transform="matrix(1.2349476,0.24165126,-0.74540704,1.7548505,355.45315,-1213.8058)"
       id="text4580-6-0-06-5"
       y="1584.5073"
       x="787.65729"
       style="font-style:normal;font-variant:normal;font-weight:normal;font-stretch:normal;line-height:0%;font-family:Lavi;-inkscape-font-specification:Lavi;letter-spacing:0px;word-spacing:0px;fill:#ffffff;fill-opacity:1;stroke:#98b9ca;stroke-width:0.533692;stroke-miterlimit:4;stroke-dasharray:none;stroke-opacity:1;filter:url(#filter4375-4-1-1-1-9-5-8-6)"
       xml:space="preserve"><tspan
         style="font-size:70px;line-height:1.25;fill:#ffffff;fill-opacity:1;stroke:#98b9ca;stroke-width:0.533692;stroke-opacity:1"
         y="1584.5073"
         x="787.65729"
         id="tspan4582-1-1-2-6"
         sodipodi:role="line"><tspan
           id="tspan4315-8-6-3"
           style="font-size:93.14949799px;fill:#ffffff;fill-opacity:1;stroke:#98b9ca;stroke-width:0.533692;stroke-opacity:1">Swiiing !</tspan><tspan
           id="tspan4313-2-1-9"
           style="font-size:114.73200226px;fill:#ffffff;fill-opacity:1;stroke:#98b9ca;stroke-width:0.533692;stroke-opacity:1">!</tspan></tspan></text>
    <text
       inkscape:label="swordFX2"
       xml:space="preserve"
       style="font-style:normal;font-variant:normal;font-weight:normal;font-stretch:normal;line-height:0%;font-family:Lavi;-inkscape-font-specification:Lavi;letter-spacing:0px;word-spacing:0px;fill:#ffffff;fill-opacity:1;stroke:#98b9ca;stroke-width:0.513205;stroke-miterlimit:4;stroke-dasharray:none;stroke-opacity:1;filter:url(#filter4375-4-1-1-1-9-5-8-6)"
       x="787.65729"
       y="1584.5073"
       id="text4580-6-0-06"
       transform="matrix(1.0917186,-0.81214925,0.2049858,2.1726739,721.64144,-894.32735)"><tspan
         sodipodi:role="line"
         id="tspan4582-1-1-2"
         x="787.65729"
         y="1584.5073"
         style="font-size:70px;line-height:1.25;fill:#ffffff;fill-opacity:1;stroke:#98b9ca;stroke-width:0.513205;stroke-opacity:1"><tspan
           style="font-size:93.1495px;fill:#ffffff;fill-opacity:1;stroke:#98b9ca;stroke-width:0.513205;stroke-opacity:1"
           id="tspan4315-8-6">Swoosh !</tspan><tspan
           style="font-size:114.732px;fill:#ffffff;fill-opacity:1;stroke:#98b9ca;stroke-width:0.513205;stroke-opacity:1"
           id="tspan4313-2-1">!</tspan></tspan></text>
    <text
       inkscape:label="scoreKINGB"
       xml:space="preserve"
       style="font-style:normal;font-variant:normal;font-weight:normal;font-stretch:normal;line-height:0%;font-family:Lavi;-inkscape-font-specification:Lavi;letter-spacing:2.67495px;word-spacing:0px;fill:#b5ffe1;fill-opacity:1;stroke:#316983;stroke-width:0.669718;stroke-miterlimit:4;stroke-dasharray:none;stroke-opacity:1;filter:url(#filter4375-4-1-1-1-9-5-8-8-3-3)"
       x="787.65729"
       y="1584.5073"
       id="text4580-6-0-0-3"
       transform="matrix(1.814082,-0.08449027,-0.02723088,2.0243467,-617.68262,-986.30826)"><tspan
         sodipodi:role="line"
         id="tspan4582-1-1-0-6"
         x="787.65729"
         y="1584.5073"
         style="font-style:normal;font-variant:normal;font-weight:bold;font-stretch:normal;font-size:69.5991px;line-height:1.25;font-family:Drukah;-inkscape-font-specification:'Drukah Bold';fill:#b5ffe1;fill-opacity:1;stroke:#316983;stroke-width:0.669718;stroke-miterlimit:4;stroke-dasharray:none;stroke-opacity:1">12</tspan></text>
    <text
       inkscape:label="kingB-2"
       transform="matrix(0.90601679,0,-0.15337572,1.1037323,0,0)"
       id="text4246-3-5-2"
       y="2125.5259"
       x="976.34076"
       style="font-style:normal;font-variant:normal;font-weight:normal;font-stretch:normal;font-size:20.0964px;line-height:0%;font-family:Lavi;-inkscape-font-specification:Lavi;text-align:center;letter-spacing:0px;word-spacing:0px;text-anchor:middle;fill:#000000;fill-opacity:1;stroke:none;stroke-width:0.999997"
       xml:space="preserve"><tspan
         id="tspan872-2-8"
         y="2125.5259"
         x="976.34076"
         style="font-size:75.3614px;line-height:1.2;stroke-width:0.999997"
         sodipodi:role="line">?!!</tspan></text>
    <text
       inkscape:label="score-KING"
       xml:space="preserve"
       style="font-style:normal;font-variant:normal;font-weight:normal;font-stretch:normal;line-height:0%;font-family:Lavi;-inkscape-font-specification:Lavi;letter-spacing:3.03024px;word-spacing:0px;fill:#fff4b7;fill-opacity:1;stroke:#aa7640;stroke-width:0.624954;stroke-miterlimit:4;stroke-dasharray:none;stroke-opacity:1;filter:url(#filter4375-4-1-1-1-9-5-8-8-3-3-3-6-1)"
       x="787.65729"
       y="1584.5073"
       id="text4580-6-0-0-3-3"
       transform="matrix(2.1325536,0.04015823,-0.0320114,1.9757164,-5.2736713,-1006.2438)"><tspan
         sodipodi:role="line"
         id="tspan4582-1-1-0-6-9"
         x="787.65729"
         y="1584.5073"
         style="font-style:normal;font-variant:normal;font-weight:bold;font-stretch:normal;font-size:64.9472px;line-height:1.25;font-family:Drukah;-inkscape-font-specification:'Drukah Bold';fill:#fff4b7;fill-opacity:1;stroke:#aa7640;stroke-width:0.624954;stroke-miterlimit:4;stroke-dasharray:none;stroke-opacity:1">8</tspan></text>
    <text
       inkscape:label="kingA-2"
       xml:space="preserve"
       style="font-style:normal;font-variant:normal;font-weight:normal;font-stretch:normal;font-size:20.0964px;line-height:0%;font-family:Lavi;-inkscape-font-specification:Lavi;text-align:center;letter-spacing:0px;word-spacing:0px;text-anchor:middle;fill:#000000;fill-opacity:1;stroke:none;stroke-width:0.999997"
       x="2514.2615"
       y="2158.531"
       id="text4246-3-5"
       transform="matrix(0.90601678,0,-0.15337572,1.1037323,0,0)"><tspan
         sodipodi:role="line"
         style="font-size:75.3614px;line-height:1.2;stroke-width:0.999997"
         x="2514.2615"
         y="2158.531"
         id="tspan872-2">?!!</tspan></text>
    <text
       inkscape:label="scoreA3"
       transform="matrix(0.78984833,0.01727471,-0.01185628,0.84988613,-74.785087,1883.0619)"
       id="text4580-6-0-0-3-3-6-1"
       y="1584.5073"
       x="787.65729"
       style="font-style:normal;font-variant:normal;font-weight:normal;font-stretch:normal;line-height:0%;font-family:Lavi;-inkscape-font-specification:Lavi;letter-spacing:3.03024px;word-spacing:0px;opacity:0.664725;fill:#b5ffe1;fill-opacity:1;stroke:#316983;stroke-width:1.5657;stroke-miterlimit:4;stroke-dasharray:none;stroke-opacity:1;filter:url(#filter4375-4-1-1-1-9-5-8-8-3-3-3-6)"
       xml:space="preserve"><tspan
         style="font-style:normal;font-variant:normal;font-weight:bold;font-stretch:normal;font-size:70px;line-height:1.25;font-family:Drukah;-inkscape-font-specification:'Drukah Bold';fill:#b5ffe1;fill-opacity:1;stroke:#316983;stroke-width:1.5657;stroke-miterlimit:4;stroke-dasharray:none;stroke-opacity:1"
         y="1584.5073"
         x="787.65729"
         id="tspan4582-1-1-0-6-9-0-54"
         sodipodi:role="line">64</tspan></text>
    <text
       inkscape:label="scoreB2"
       transform="matrix(0.56045965,0.01352725,-0.00841296,0.66551744,-84.106476,2231.2358)"
       id="text4580-6-0-0-3-3-6-2-6"
       y="1584.5073"
       x="787.65729"
       style="font-style:normal;font-variant:normal;font-weight:normal;font-stretch:normal;line-height:0%;font-family:Lavi;-inkscape-font-specification:Lavi;letter-spacing:3.03024px;word-spacing:0px;opacity:0.808568;fill:#fff890;fill-opacity:1;stroke:#a5813e;stroke-width:2.10043;stroke-miterlimit:4;stroke-dasharray:none;stroke-opacity:1;filter:url(#filter4375-4-1-1-1-9-5-8-8-3-3-3-0)"
       xml:space="preserve"><tspan
         style="font-style:normal;font-variant:normal;font-weight:bold;font-stretch:normal;font-size:70px;line-height:1.25;font-family:Drukah;-inkscape-font-specification:'Drukah Bold';fill:#fff890;fill-opacity:1;stroke:#a5813e;stroke-width:2.10043;stroke-miterlimit:4;stroke-dasharray:none;stroke-opacity:1"
         y="1584.5073"
         x="787.65729"
         id="tspan4582-1-1-0-6-9-0-8-4"
         sodipodi:role="line">32</tspan></text>
    <text
       inkscape:label="scoreA-6"
       xml:space="preserve"
       style="font-style:normal;font-variant:normal;font-weight:normal;font-stretch:normal;line-height:0%;font-family:Lavi;-inkscape-font-specification:Lavi;letter-spacing:3.03024px;word-spacing:0px;fill:#b5ffe1;fill-opacity:1;stroke:#316983;stroke-width:1.45781;stroke-miterlimit:4;stroke-dasharray:none;stroke-opacity:1;filter:url(#filter4375-4-1-1-1-9-5-8-8-3-3-3)"
       x="787.65729"
       y="1584.5073"
       id="text4580-6-0-0-3-3-6"
       transform="matrix(0.84709426,0.01857964,-0.01271559,0.91408647,1455.8628,1748.9925)"><tspan
         sodipodi:role="line"
         id="tspan4582-1-1-0-6-9-0"
         x="787.65729"
         y="1584.5073"
         style="font-style:normal;font-variant:normal;font-weight:bold;font-stretch:normal;font-size:70px;line-height:1.25;font-family:Drukah;-inkscape-font-specification:'Drukah Bold';fill:#b5ffe1;fill-opacity:1;stroke:#316983;stroke-width:1.45781;stroke-miterlimit:4;stroke-dasharray:none;stroke-opacity:1">72</tspan></text>
    <text
       inkscape:label="scoreA-5"
       transform="matrix(0.48575224,0.01192459,-0.00729155,0.58666961,43.319366,2296.087)"
       id="text4580-6-0-0-3-3-6-4"
       y="1584.5073"
       x="787.65729"
       style="font-style:normal;font-variant:normal;font-weight:normal;font-stretch:normal;line-height:0%;font-family:Lavi;-inkscape-font-specification:Lavi;letter-spacing:3.03024px;word-spacing:0px;opacity:0.327763;fill:#b5ffe1;fill-opacity:1;stroke:#316983;stroke-width:2.40302;stroke-miterlimit:4;stroke-dasharray:none;stroke-opacity:1;filter:url(#filter4375-4-1-1-1-9-5-8-8-3-3-3)"
       xml:space="preserve"><tspan
         style="font-style:normal;font-variant:normal;font-weight:bold;font-stretch:normal;font-size:70px;line-height:1.25;font-family:Drukah;-inkscape-font-specification:'Drukah Bold';fill:#b5ffe1;fill-opacity:1;stroke:#316983;stroke-width:2.40302;stroke-miterlimit:4;stroke-dasharray:none;stroke-opacity:1"
         y="1584.5073"
         x="787.65729"
         id="tspan4582-1-1-0-6-9-0-5"
         sodipodi:role="line">0</tspan></text>
    <text
       inkscape:label="scoreA-1"
       transform="matrix(0.61924273,0.01356418,-0.00929534,0.66733427,-350.81232,2204.4928)"
       id="text4580-6-0-0-3-3-6-2-0-1"
       y="1584.5073"
       x="787.65729"
       style="font-style:normal;font-variant:normal;font-weight:normal;font-stretch:normal;line-height:0%;font-family:Lavi;-inkscape-font-specification:Lavi;letter-spacing:3.03024px;word-spacing:0px;opacity:0.386704;fill:#b5ffe1;fill-opacity:1;stroke:#316983;stroke-width:1.99553;stroke-miterlimit:4;stroke-dasharray:none;stroke-opacity:1;filter:url(#filter4375-4-1-1-1-9-5-8-8-3-3-3)"
       xml:space="preserve"><tspan
         style="font-style:normal;font-variant:normal;font-weight:bold;font-stretch:normal;font-size:70px;line-height:1.25;font-family:Drukah;-inkscape-font-specification:'Drukah Bold';fill:#b5ffe1;fill-opacity:1;stroke:#316983;stroke-width:1.99553;stroke-miterlimit:4;stroke-dasharray:none;stroke-opacity:1"
         y="1584.5073"
         x="787.65729"
         id="tspan4582-1-1-0-6-9-0-8-3-4"
         sodipodi:role="line">64</tspan></text>
    <text
       inkscape:label="scoreB6"
       transform="matrix(0.72322138,0.01582032,-0.01085615,0.77833243,1456.2154,2029.6998)"
       id="text4580-6-0-0-3-3-6-2-08"
       y="1584.5073"
       x="787.65729"
       style="font-style:normal;font-variant:normal;font-weight:normal;font-stretch:normal;line-height:0%;font-family:Lavi;-inkscape-font-specification:Lavi;letter-spacing:3.03024px;word-spacing:0px;opacity:0.808568;fill:#fff890;fill-opacity:1;stroke:#a5813e;stroke-width:1.70979;stroke-miterlimit:4;stroke-dasharray:none;stroke-opacity:1;filter:url(#filter4375-4-1-1-1-9-5-8-8-3-3-3-0)"
       xml:space="preserve"><tspan
         style="font-style:normal;font-variant:normal;font-weight:bold;font-stretch:normal;font-size:70px;line-height:1.25;font-family:Drukah;-inkscape-font-specification:'Drukah Bold';fill:#fff890;fill-opacity:1;stroke:#a5813e;stroke-width:1.70979;stroke-miterlimit:4;stroke-dasharray:none;stroke-opacity:1"
         y="1584.5073"
         x="787.65729"
         id="tspan4582-1-1-0-6-9-0-8-5"
         sodipodi:role="line">0</tspan></text>
    <text
       inkscape:label="scoreB7"
       xml:space="preserve"
       style="font-style:normal;font-variant:normal;font-weight:normal;font-stretch:normal;line-height:0%;font-family:Lavi;-inkscape-font-specification:Lavi;letter-spacing:3.03024px;word-spacing:0px;opacity:0.808568;fill:#fff890;fill-opacity:1;stroke:#a5813e;stroke-width:1.70979;stroke-miterlimit:4;stroke-dasharray:none;stroke-opacity:1;filter:url(#filter4375-4-1-1-1-9-5-8-8-3-3-3-0)"
       x="787.65729"
       y="1584.5073"
       id="text4580-6-0-0-3-3-6-2"
       transform="matrix(0.72322138,0.01582032,-0.01085615,0.77833243,1719.1919,2003.1251)"><tspan
         sodipodi:role="line"
         id="tspan4582-1-1-0-6-9-0-8"
         x="787.65729"
         y="1584.5073"
         style="font-style:normal;font-variant:normal;font-weight:bold;font-stretch:normal;font-size:70px;line-height:1.25;font-family:Drukah;-inkscape-font-specification:'Drukah Bold';fill:#fff890;fill-opacity:1;stroke:#a5813e;stroke-width:1.70979;stroke-miterlimit:4;stroke-dasharray:none;stroke-opacity:1">56</tspan></text>
    <text
       inkscape:label="warrior7"
       transform="matrix(0.62150246,-0.22544799,-0.05567631,0.81288668,1592.4006,1987.9926)"
       id="use4516-8-2-7-1-1-1-5"
       y="1954.6715"
       x="1302.3322"
       style="font-style:normal;font-variant:normal;font-weight:normal;font-stretch:normal;font-size:8.2448px;line-height:0%;font-family:Lavi;-inkscape-font-specification:Lavi;letter-spacing:1.83751px;word-spacing:0px;display:inline;opacity:0.369456;fill:#b3cfde;fill-opacity:1;stroke:#302820;stroke-width:9.68807;stroke-miterlimit:4;stroke-dasharray:none;stroke-opacity:1;paint-order:stroke fill markers;filter:url(#filter987)"
       xml:space="preserve"><tspan
         style="font-style:normal;font-variant:normal;font-weight:normal;font-stretch:normal;font-size:48.0947px;line-height:1.25;font-family:Lavi;-inkscape-font-specification:Lavi;fill:#ded5c0;fill-opacity:1;stroke:#302820;stroke-width:9.68807;stroke-miterlimit:4;stroke-dasharray:none;stroke-opacity:1;paint-order:stroke fill markers"
         y="1954.6715"
         x="1302.3322"
         id="tspan4370-3-6-5-2-5-1-8"
         sodipodi:role="line">Yrrr!</tspan></text>
    <text
       inkscape:label="warrior2"
       xml:space="preserve"
       style="font-style:normal;font-variant:normal;font-weight:normal;font-stretch:normal;font-size:8.2448px;line-height:0%;font-family:Lavi;-inkscape-font-specification:Lavi;letter-spacing:1.83751px;word-spacing:0px;display:inline;opacity:0.369456;fill:#b3cfde;fill-opacity:1;stroke:#302820;stroke-width:9.05009;stroke-miterlimit:4;stroke-dasharray:none;stroke-opacity:1;paint-order:stroke fill markers;filter:url(#filter987)"
       x="1302.3322"
       y="1954.6715"
       id="use4516-8-2-7-6"
       transform="matrix(0.56771561,-0.24568407,-0.10480868,1.0398096,-319.77203,1677.9902)"><tspan
         sodipodi:role="line"
         id="tspan4370-3-6-5-4"
         x="1302.3322"
         y="1954.6715"
         style="font-style:normal;font-variant:normal;font-weight:normal;font-stretch:normal;font-size:48.0947px;line-height:1.25;font-family:Lavi;-inkscape-font-specification:Lavi;fill:#ded5c0;fill-opacity:1;stroke:#302820;stroke-width:9.05009;stroke-miterlimit:4;stroke-dasharray:none;stroke-opacity:1;paint-order:stroke fill markers">Yurr!</tspan></text>
    <text
       inkscape:label="warrior5"
       xml:space="preserve"
       style="font-style:normal;font-variant:normal;font-weight:normal;font-stretch:normal;font-size:8.2448px;line-height:0%;font-family:Lavi;-inkscape-font-specification:Lavi;letter-spacing:1.83751px;word-spacing:0px;display:inline;opacity:0.369456;fill:#b3cfde;fill-opacity:1;stroke:#302820;stroke-width:9.68807;stroke-miterlimit:4;stroke-dasharray:none;stroke-opacity:1;paint-order:stroke fill markers;filter:url(#filter987)"
       x="1302.3322"
       y="1954.6715"
       id="use4516-8-2-7-1-1-1"
       transform="matrix(0.55079318,-0.22544799,0.19927667,0.81288668,944.73645,1979.7359)"><tspan
         sodipodi:role="line"
         id="tspan4370-3-6-5-2-5-1"
         x="1302.3322"
         y="1954.6715"
         style="font-style:normal;font-variant:normal;font-weight:normal;font-stretch:normal;font-size:48.0947px;line-height:1.25;font-family:Lavi;-inkscape-font-specification:Lavi;fill:#ded5c0;fill-opacity:1;stroke:#302820;stroke-width:9.68807;stroke-miterlimit:4;stroke-dasharray:none;stroke-opacity:1;paint-order:stroke fill markers">Grrr!</tspan></text>
    <text
       inkscape:label="warrior4"
       transform="matrix(0.61484212,-0.26849201,-0.11350893,0.9680884,1567.4977,1826.5092)"
       id="use4516-8-2-7-1-1"
       y="1954.6715"
       x="1302.3322"
       style="font-style:normal;font-variant:normal;font-weight:normal;font-stretch:normal;font-size:8.2448px;line-height:0%;font-family:Lavi;-inkscape-font-specification:Lavi;letter-spacing:1.83751px;word-spacing:0px;display:inline;opacity:0.369456;fill:#b3cfde;fill-opacity:1;stroke:#302820;stroke-width:9.04866;stroke-miterlimit:4;stroke-dasharray:none;stroke-opacity:1;paint-order:stroke fill markers;filter:url(#filter987)"
       xml:space="preserve"><tspan
         style="font-style:normal;font-variant:normal;font-weight:normal;font-stretch:normal;font-size:48.0947px;line-height:1.25;font-family:Lavi;-inkscape-font-specification:Lavi;fill:#ded5c0;fill-opacity:1;stroke:#302820;stroke-width:9.04866;stroke-miterlimit:4;stroke-dasharray:none;stroke-opacity:1;paint-order:stroke fill markers"
         y="1954.6715"
         x="1302.3322"
         id="tspan4370-3-6-5-2-5"
         sodipodi:role="line">Yaaah!</tspan></text>
    <text
       inkscape:label="warrior3"
       xml:space="preserve"
       style="font-style:normal;font-variant:normal;font-weight:normal;font-stretch:normal;font-size:8.2448px;line-height:0%;font-family:Lavi;-inkscape-font-specification:Lavi;letter-spacing:1.83751px;word-spacing:0px;display:inline;opacity:0.369456;fill:#b3cfde;fill-opacity:1;stroke:#302820;stroke-width:11.0314;stroke-miterlimit:4;stroke-dasharray:none;stroke-opacity:1;paint-order:stroke fill markers;filter:url(#filter987)"
       x="1302.3322"
       y="1954.6715"
       id="use4516-8-2-7-1"
       transform="matrix(0.5072002,-0.13363987,-0.09363665,0.77383734,26.323316,2045.1896)"><tspan
         sodipodi:role="line"
         id="tspan4370-3-6-5-2"
         x="1302.3322"
         y="1954.6715"
         style="font-style:normal;font-variant:normal;font-weight:normal;font-stretch:normal;font-size:48.0947px;line-height:1.25;font-family:Lavi;-inkscape-font-specification:Lavi;fill:#ded5c0;fill-opacity:1;stroke:#302820;stroke-width:11.0314;stroke-miterlimit:4;stroke-dasharray:none;stroke-opacity:1;paint-order:stroke fill markers">Yeaaah!</tspan></text>
    <text
       inkscape:label="warrior2"
       transform="matrix(0.56771561,-0.24568407,-0.10480868,1.0398096,-147.99375,1566.3023)"
       id="use4516-8-2-7"
       y="1954.6715"
       x="1302.3322"
       style="font-style:normal;font-variant:normal;font-weight:normal;font-stretch:normal;font-size:8.2448px;line-height:0%;font-family:Lavi;-inkscape-font-specification:Lavi;letter-spacing:1.83751px;word-spacing:0px;display:inline;opacity:0.369456;fill:#b3cfde;fill-opacity:1;stroke:#302820;stroke-width:9.05009;stroke-miterlimit:4;stroke-dasharray:none;stroke-opacity:1;paint-order:stroke fill markers;filter:url(#filter987)"
       xml:space="preserve"><tspan
         style="font-style:normal;font-variant:normal;font-weight:normal;font-stretch:normal;font-size:48.0947px;line-height:1.25;font-family:Lavi;-inkscape-font-specification:Lavi;fill:#ded5c0;fill-opacity:1;stroke:#302820;stroke-width:9.05009;stroke-miterlimit:4;stroke-dasharray:none;stroke-opacity:1;paint-order:stroke fill markers"
         y="1954.6715"
         x="1302.3322"
         id="tspan4370-3-6-5"
         sodipodi:role="line">Yaawww!</tspan></text>
    <text
       inkscape:label="warrior9"
       transform="matrix(0.41702379,-0.01840445,0.07830218,0.68808865,1813.3895,2274.8198)"
       id="text4580-6-0-06-9-3-7"
       y="1584.5073"
       x="787.65729"
       style="font-style:normal;font-variant:normal;font-weight:normal;font-stretch:normal;line-height:0%;font-family:Lavi;-inkscape-font-specification:Lavi;letter-spacing:0px;word-spacing:0px;opacity:0.681493;fill:#ffffff;fill-opacity:1;stroke:#98b9ca;stroke-width:1.52259;stroke-miterlimit:4;stroke-dasharray:none;stroke-opacity:1;filter:url(#filter4375-4-1-1-1-9-5-8-6-4)"
       xml:space="preserve"><tspan
         style="font-size:70px;line-height:1.25;fill:#ffffff;fill-opacity:1;stroke:#98b9ca;stroke-width:1.52259;stroke-opacity:1"
         y="1584.5073"
         x="787.65729"
         id="tspan4582-1-1-2-63-0-5"
         sodipodi:role="line"><tspan
           id="tspan4315-8-6-8-9-4"
           style="font-size:93.1495px;fill:#ffffff;fill-opacity:1;stroke:#98b9ca;stroke-width:1.52259;stroke-opacity:1">Sshing</tspan></tspan></text>
    <text
       inkscape:label="warrior10"
       xml:space="preserve"
       style="font-style:normal;font-variant:normal;font-weight:normal;font-stretch:normal;line-height:0%;font-family:Lavi;-inkscape-font-specification:Lavi;letter-spacing:0px;word-spacing:0px;opacity:0.681493;fill:#ffffff;fill-opacity:1;stroke:#98b9ca;stroke-width:1.52259;stroke-miterlimit:4;stroke-dasharray:none;stroke-opacity:1;filter:url(#filter4375-4-1-1-1-9-5-8-6-4)"
       x="787.65729"
       y="1584.5073"
       id="text4580-6-0-06-9-3"
       transform="matrix(0.41702379,-0.01840445,0.07830218,0.68808865,1520.818,2270.2175)"><tspan
         sodipodi:role="line"
         id="tspan4582-1-1-2-63-0"
         x="787.65729"
         y="1584.5073"
         style="font-size:70px;line-height:1.25;fill:#ffffff;fill-opacity:1;stroke:#98b9ca;stroke-width:1.52259;stroke-opacity:1"><tspan
           style="font-size:93.1495px;fill:#ffffff;fill-opacity:1;stroke:#98b9ca;stroke-width:1.52259;stroke-opacity:1"
           id="tspan4315-8-6-8-9">Fffchh</tspan></tspan></text>
    <text
       inkscape:label="warrior11"
       xml:space="preserve"
       style="font-style:normal;font-variant:normal;font-weight:normal;font-stretch:normal;line-height:0%;font-family:Lavi;-inkscape-font-specification:Lavi;letter-spacing:0px;word-spacing:0px;opacity:0.681493;fill:#ffffff;fill-opacity:1;stroke:#98b9ca;stroke-width:1.55259;stroke-miterlimit:4;stroke-dasharray:none;stroke-opacity:1;filter:url(#filter4375-4-1-1-1-9-5-8-6-4)"
       x="787.65729"
       y="1584.5073"
       id="text4580-6-0-06-9-4-4-3"
       transform="matrix(0.41318462,-0.14766241,0.07758133,0.64352874,-330.70741,2436.9469)"><tspan
         sodipodi:role="line"
         id="tspan4582-1-1-2-63-4-1-3"
         x="787.65729"
         y="1584.5073"
         style="font-size:70px;line-height:1.25;fill:#ffffff;fill-opacity:1;stroke:#98b9ca;stroke-width:1.55259;stroke-opacity:1"><tspan
           style="font-size:93.1495px;fill:#ffffff;fill-opacity:1;stroke:#98b9ca;stroke-width:1.55259;stroke-opacity:1"
           id="tspan4315-8-6-8-4-8-3">wiizz </tspan></tspan></text>
    <text
       inkscape:label="warrior12"
       transform="matrix(0.41318462,-0.03646636,0.07758133,0.66440739,-145.11522,2336.8187)"
       id="text4580-6-0-06-9-4-4"
       y="1584.5073"
       x="787.65729"
       style="font-style:normal;font-variant:normal;font-weight:normal;font-stretch:normal;line-height:0%;font-family:Lavi;-inkscape-font-specification:Lavi;letter-spacing:0px;word-spacing:0px;opacity:0.681493;fill:#ffffff;fill-opacity:1;stroke:#98b9ca;stroke-width:1.55259;stroke-miterlimit:4;stroke-dasharray:none;stroke-opacity:1;filter:url(#filter4375-4-1-1-1-9-5-8-6-4)"
       xml:space="preserve"><tspan
         style="font-size:70px;line-height:1.25;fill:#ffffff;fill-opacity:1;stroke:#98b9ca;stroke-width:1.55259;stroke-opacity:1"
         y="1584.5073"
         x="787.65729"
         id="tspan4582-1-1-2-63-4-1"
         sodipodi:role="line"><tspan
           id="tspan4315-8-6-8-4-8"
           style="font-size:93.1495px;fill:#ffffff;fill-opacity:1;stroke:#98b9ca;stroke-width:1.55259;stroke-opacity:1">Swoosh </tspan></tspan></text>
    <text
       inkscape:label="warrior13"
       xml:space="preserve"
       style="font-style:normal;font-variant:normal;font-weight:normal;font-stretch:normal;line-height:0%;font-family:Lavi;-inkscape-font-specification:Lavi;letter-spacing:0px;word-spacing:0px;opacity:0.681493;fill:#ffffff;fill-opacity:1;stroke:#98b9ca;stroke-width:1.55259;stroke-miterlimit:4;stroke-dasharray:none;stroke-opacity:1;filter:url(#filter4375-4-1-1-1-9-5-8-6-4)"
       x="787.65729"
       y="1584.5073"
       id="text4580-6-0-06-9-4"
       transform="matrix(0.41318462,-0.14766241,0.07758133,0.64352874,22.910926,2436.4821)"><tspan
         sodipodi:role="line"
         id="tspan4582-1-1-2-63-4"
         x="787.65729"
         y="1584.5073"
         style="font-size:70px;line-height:1.25;fill:#ffffff;fill-opacity:1;stroke:#98b9ca;stroke-width:1.55259;stroke-opacity:1"><tspan
           style="font-size:93.1495px;fill:#ffffff;fill-opacity:1;stroke:#98b9ca;stroke-width:1.55259;stroke-opacity:1"
           id="tspan4315-8-6-8-4">Chklong </tspan></tspan></text>
    <text
       inkscape:label="warrior14"
       transform="matrix(0.4846781,-0.21938343,0.09100525,0.73302223,1588.8866,2326.2436)"
       id="text4580-6-0-06-9"
       y="1584.5073"
       x="787.65729"
       style="font-style:normal;font-variant:normal;font-weight:normal;font-stretch:normal;line-height:0%;font-family:Lavi;-inkscape-font-specification:Lavi;letter-spacing:0px;word-spacing:0px;opacity:0.681493;fill:#ffffff;fill-opacity:1;stroke:#98b9ca;stroke-width:1.3348;stroke-miterlimit:4;stroke-dasharray:none;stroke-opacity:1;filter:url(#filter4375-4-1-1-1-9-5-8-6-4)"
       xml:space="preserve"><tspan
         style="font-size:70px;line-height:1.25;fill:#ffffff;fill-opacity:1;stroke:#98b9ca;stroke-width:1.3348;stroke-opacity:1"
         y="1584.5073"
         x="787.65729"
         id="tspan4582-1-1-2-63"
         sodipodi:role="line"><tspan
           id="tspan4315-8-6-8"
           style="font-size:93.1495px;fill:#ffffff;fill-opacity:1;stroke:#98b9ca;stroke-width:1.3348;stroke-opacity:1">Chkilng</tspan></tspan></text>
  </g>
</svg>
