<?xml version="1.0" encoding="UTF-8" standalone="no"?>
<!-- Created with Inkscape (http://www.inkscape.org/) -->

<svg
   xmlns:dc="http://purl.org/dc/elements/1.1/"
   xmlns:cc="http://creativecommons.org/ns#"
   xmlns:rdf="http://www.w3.org/1999/02/22-rdf-syntax-ns#"
   xmlns:svg="http://www.w3.org/2000/svg"
   xmlns="http://www.w3.org/2000/svg"
   xmlns:xlink="http://www.w3.org/1999/xlink"
   xmlns:sodipodi="http://sodipodi.sourceforge.net/DTD/sodipodi-0.dtd"
   xmlns:inkscape="http://www.inkscape.org/namespaces/inkscape"
   id="svg2"
   version="1.1"
   inkscape:version="0.92.3 (2405546, 2018-03-11)"
   width="2481"
   height="3503"
   sodipodi:docname="E32P02.svg">
  <metadata
     id="metadata8">
    <rdf:RDF>
      <cc:Work
         rdf:about="">
        <dc:format>image/svg+xml</dc:format>
        <dc:type
           rdf:resource="http://purl.org/dc/dcmitype/StillImage" />
        <dc:title />
      </cc:Work>
    </rdf:RDF>
  </metadata>
  <defs
     id="defs6" />
  <sodipodi:namedview
     pagecolor="#ffffff"
     bordercolor="#666666"
     borderopacity="1"
     objecttolerance="10"
     gridtolerance="10"
     guidetolerance="10"
     inkscape:pageopacity="0"
     inkscape:pageshadow="2"
     inkscape:window-width="1920"
     inkscape:window-height="1022"
     id="namedview4"
     showgrid="false"
     inkscape:zoom="0.46000001"
     inkscape:cx="2668.4052"
     inkscape:cy="67.180875"
     inkscape:window-x="0"
     inkscape:window-y="0"
     inkscape:window-maximized="1"
     inkscape:current-layer="layer3"
     inkscape:snap-global="false" />
  <g
     inkscape:groupmode="layer"
     id="layer2"
     inkscape:label="artwork"
     sodipodi:insensitive="true">
    <image
       sodipodi:absref="/home/peppercarrot/webcomics/"
       xlink:href="../gfx_Pepper-and-Carrot_by-David-Revoy_E32P02.png"
       width="2481"
       height="3503"
       id="image10"
       x="0"
       y="0" />
  </g>
  <g
     inkscape:groupmode="layer"
     id="layer3"
     inkscape:label="speechbubbles"
     style="display:inline">
    <path
       style="color:#000000;display:inline;overflow:visible;visibility:visible;fill:#ffffff;fill-opacity:1;fill-rule:nonzero;stroke:none;stroke-width:1.05193126px;marker:none;enable-background:accumulate"
       d="m 282.52336,194.81717 c 7.62631,-9.84717 25.18396,-3.18173 36.56596,-0.31372 -21.55883,-13.03105 36.73392,-17.00995 69.18213,-15.95432 -50.12479,-24.2405 -10.38439,-29.69039 -0.67167,-34.33541 -41.09222,-9.94891 -20.41105,-17.52007 -11.17227,-25.81744 -48.73356,-3.57048 -19.31096,-3.54657 -19.22102,-14.92366 -5.14347,4.99722 -40.92644,11.28243 -38.69465,-6.674139 -35.52983,14.894769 -54.21619,26.383269 -51.60234,-3.671747 -15.87087,14.144816 -44.65026,33.457806 -41.00051,-5.905552 -36.66626,21.135598 -56.33116,30.795668 -84.96614,2.277944 0.23128,35.725004 -23.47478,17.259414 -47.738288,13.070764 2.138968,7.20104 -7.131475,11.43184 -26.544475,13.01264 24.270943,5.88864 28.062955,10.53994 -19.387835,12.09458 35.341918,2.8249 68.202098,5.96323 23.593844,19.11443 12.966354,1.25912 49.519174,6.94369 39.191494,37.20466 24.80229,-10.95561 14.68362,-23.91492 39.70217,4.18919 16.68831,-12.08538 35.63007,-11.50721 43.23426,5.494 5.17659,-6.68411 12.41964,-18.21691 26.03541,-17.62587 10.86398,1.5716 15.55507,17.97637 20.25974,23.26136 11.18882,-9.68584 19.39409,-20.33234 43.23419,-4.49771 z"
       id="path3549-3-7-5"
       inkscape:connector-curvature="0"
       sodipodi:nodetypes="cccccccccccccccccccc" />
    <path
       style="color:#000000;display:inline;overflow:visible;visibility:visible;fill:#ffffff;fill-opacity:1;fill-rule:nonzero;stroke:none;stroke-width:0.9182713px;marker:none;enable-background:accumulate"
       d="m 488.02539,123.05766 c -43.36645,1.44288 -87.07806,9.89685 -126.39412,29.51286 -27.16622,14.54841 -45.41393,44.22462 -49.09939,75.49737 -4.40338,29.36893 -0.12028,60.73801 14.89077,86.32937 10.22415,14.39631 25.81988,22.84613 40.31304,31.74496 23.89633,14.88256 49.69504,27.69259 77.52826,31.78135 31.47768,5.40846 63.53486,4.17643 95.26928,2.6935 28.57369,-2.2265 57.49759,-9.38699 81.77996,-25.76604 26.47283,-17.46085 47.47006,-44.90157 55.02079,-76.82743 6.77172,-28.0497 7.21355,-68.40491 -7.16976,-93.49847 -11.58634,-19.92527 -21.0334,-29.71107 -41.56665,-38.06296 -34.97126,-14.78872 -84.77907,-21.08034 -122.68481,-23.18391 -5.95564,-0.32987 -11.92611,-0.44422 -17.88737,-0.2206 z"
       id="path3970-3"
       inkscape:connector-curvature="0"
       sodipodi:nodetypes="cccscsccccccc" />
    <path
       style="color:#000000;display:inline;overflow:visible;visibility:visible;fill:#ffffff;fill-opacity:1;fill-rule:nonzero;stroke:none;stroke-width:1px;marker:none;enable-background:accumulate"
       d="m 577.63531,484.51204 c 24.15675,-46.43871 15.15598,-67.79787 10.19676,-83.83511 -5.04081,0.18752 -14.08073,-1.23448 -14.08073,-1.23448 0,0 -7.00281,-32.37916 -13.50272,-43.8635 -6.49993,-11.48435 -19.9552,-4.33851 -19.9552,-4.33851 0,0 12.13026,63.2638 10.96525,77.57434 13.78917,-1.09946 20.70461,0.20644 25.45323,-2.31613 5.66701,8.19382 8.96155,41.29633 0.92341,58.01339 z"
       id="path4456-8"
       inkscape:connector-curvature="0" />
    <path
       style="color:#000000;display:inline;overflow:visible;visibility:visible;opacity:1;fill:#ffffff;fill-opacity:1;fill-rule:nonzero;stroke:none;stroke-width:0.87971938px;marker:none;enable-background:accumulate"
       d="m 823.74046,621.38181 c 29.98241,-40.53081 211.10564,-53.25678 259.88224,11.9378 33.9925,45.43358 25.2073,116.98471 -8.2566,155.24259 -32.4266,37.07182 -169.802,29.06981 -209.78173,17.51858 -35.95194,-10.38622 -73.68877,-32.74349 -75.67834,-92.24837 -0.81192,-24.28571 3.85204,-51.91979 33.83443,-92.4506 z"
       id="path4040-5"
       inkscape:connector-curvature="0"
       sodipodi:nodetypes="zssssz" />
    <path
       style="color:#000000;display:inline;overflow:visible;visibility:visible;fill:#ffffff;fill-opacity:1;fill-rule:nonzero;stroke:none;stroke-width:1px;marker:none;enable-background:accumulate"
       d="m 1172.2087,638.16525 c -22.426,10.78245 -21.9205,17.27525 -23.5228,31.76828 -1.6032,14.49315 -6.5002,31.6111 -27.1248,48.30404 -30.1996,17.58679 -94.1328,69.98654 -71.7029,5.83439 5.3345,-23.46958 48.5109,-22.99772 64.4153,-32.38817 15.9045,-9.39055 14.6245,-34.55514 25.6984,-44.48017 11.0738,-9.92492 18.2375,-9.80409 32.2368,-9.03837 z"
       id="path4538-0"
       inkscape:connector-curvature="0"
       sodipodi:nodetypes="ccccccc" />
    <path
       style="fill:#ffffff;stroke:none;stroke-width:1.09133959"
       d="m 756.36218,530.38172 c -10.12144,-38.80164 17.41628,-88.11058 140.99949,-88.14796 129.78643,-0.0389 153.75413,25.32295 155.24303,89.39769 1.8992,81.72984 -71.27489,84.82282 -147.92283,86.44662 -117.75744,2.49471 -147.68558,-30.03767 -148.31969,-87.69635 z"
       id="path3280-10"
       inkscape:connector-curvature="0"
       sodipodi:nodetypes="csssc" />
    <path
       style="display:inline;fill:#ffffff;fill-rule:evenodd;stroke:none;stroke-width:1px;stroke-linecap:butt;stroke-linejoin:miter;stroke-opacity:1"
       d="m 1429.8027,2558.7383 c 1.1434,83.556 -36.7936,98.1743 -103.3945,62.2285 20.3927,50.8236 10.3375,81.9349 -41.9275,44.0584 33.8277,46.1464 24.1461,75.4407 -23.7713,62.9334 42.5069,42.4785 41.8502,74.5474 0.9141,93.3101 27.441,0.6495 55.744,1.3798 72.6792,6.9149 -28.428,12.3695 -52.3396,11.9323 -52.3396,11.9323 0,0 27.3548,9.4949 39.7534,21.61 4.7218,8.6293 -1.1772,19.5993 -26.1846,2.4279 0,0 7.0745,10.8395 10.0571,16.8816 -7.9985,-1.392 -14.6267,-6.5084 -36.7706,-22.5706 25.3177,27.9782 37.8533,49.5137 1.5957,46.461 17.3253,20.7761 4.96,23.3642 -14.8868,21.3652 33.0219,15.2284 19.269,15.952 24.2862,21.3235 72.5223,31.8037 -4.4126,37.921 -20.3895,47.3478 118.4803,13.8785 34.2111,37.8424 25.6507,52.5517 56.2569,-4.1188 -3.2609,43.6827 -21.4211,81.7694 42.8312,-34.7278 72.6377,-57.5369 55.0847,-10.0041 46.3778,-42.059 38.4046,-22.1564 25.4648,3.4082 26.6358,-22.9597 34.4251,-13.5217 11.3262,49.0117 34.528,-50.0042 68.1244,-34.7481 75.5137,11.6421 38.7413,-23.0015 69.2836,-37.1744 72.8564,-25.6502 65.406,-24.759 18.6989,2.3993 22.8778,11.1886 14.0937,-1.1098 25.6045,-20.8852 31.239,17.2566 21.7205,-28.2308 61.9178,-58.9271 100.6656,-15.9217 15.0852,-46.7456 41.8548,-52.4109 66.1665,6.1049 3.3968,-89.1587 23.598,-105.9951 86.2689,-64.134 -17.0421,-55.2759 -28.9133,-62.5172 19.7461,-19.3574 -30.3275,-51.0007 -58.8766,-87.2262 -13.0667,-71.3489 -38.945,-47.5497 -0.6801,-33.8028 40.0437,-51.6397 -21.0809,-1.7028 -63.5439,-8.6772 -78.0853,-13.2902 -0.8763,-2.69 59.983,-19.811 81.3904,-22.8063 -30.0305,0 -26.8763,-4.1096 -25.2958,-14.0612 2.3979,-9.9516 13.9011,-7.4757 50.4235,-0.9377 -21.3034,-14.4681 -62.0546,-30.8829 -17.1961,-33.9063 -23.437,-12.7672 -15.0264,-37.4375 39.1789,-5.5331 -27.4807,-24.8715 -41.4857,-44.3728 -4.0547,-43.3711 -18.8904,-18.5446 -0.9345,-25.4383 19.5716,-24.5832 -34.7377,-12.554 -5.7756,-18.5416 -11.2124,-23.3087 -40.5797,-40.7819 25.7437,-16.7135 41.6776,-26.3462 -71.5171,-25.5409 -20.5673,-58.6598 -12.5322,-72.8537 -57.617,6.7273 -40.0825,-53.6698 -7.0945,-101.8184 -65.9476,65.1359 -106.8034,96.2647 -91.2304,50.9141 -45.489,41.7047 -38.3283,22.6848 -26.3555,-1.8848 -26.1875,22.8335 -34.6856,14.4049 -14.1914,-45.2578 -32.8945,48.5294 -65.004,93.9211 -75.0117,50.9141 -38.6297,23.4915 -44.3843,14.3665 -48.6563,3.7715 -65.949,26.498 -49.6241,6.6097 -54.3769,-1.3965 -14.4305,1.7582 -31.1058,16.037 -38.8809,-19.3457 -20.8606,27.512 -47.1353,38.2388 -89.2031,0 -13.0772,44.4881 -35.1274,24.2932 -66.9024,-66 z"
       id="path4508-2"
       inkscape:connector-curvature="0"
       sodipodi:nodetypes="ccccccccccccccccccccccccccccccccccccccccccccccccccc" />
    <path
       style="color:#000000;display:inline;overflow:visible;visibility:visible;fill:#ffffff;fill-opacity:1;fill-rule:nonzero;stroke:none;stroke-width:0.99999988px;marker:none;enable-background:accumulate"
       d="m 1159.215,2912.3636 c 24.9289,15.9696 53.0046,32.3355 73.7186,51.7212 l -4.4671,-22.5612 c 12.3017,3.6243 20.5576,9.2984 29.8695,16.4802 l 0.282,-14.4184 c 28.8782,8.8394 47.895,25.3613 71.6781,38.17 l -1.1627,-32.9839 c -26.1704,-10.6456 -58.8089,-18.5611 -82.5747,-33.2158 l 0.2558,18.7223 c -9.1838,-4.1156 -21.518,-9.7867 -29.518,-15.5652 l 2.2339,19.9359 z"
       id="path4032-7"
       inkscape:connector-curvature="0"
       sodipodi:nodetypes="cccccccccccc" />
    <path
       style="fill:#ffffff;fill-rule:evenodd;stroke:none;stroke-width:1px;stroke-linecap:butt;stroke-linejoin:miter;stroke-opacity:1"
       d="m 1753.7087,204.34351 c 1.185,-20.50278 15.4056,-58.09068 36.7365,-64.92493 21.3308,-6.83426 80.5831,-6.83426 92.4336,-3.41661 11.8505,3.41661 30.8112,28.4752 35.5515,38.72712 4.7402,10.25086 17.7757,46.69954 -3.5551,61.50728 -21.3309,14.80774 -42.6617,26.19782 -65.1777,25.0586 -22.5159,-1.13922 -67.5477,-9.1127 -78.2131,-22.78016 -10.6654,-13.66852 -17.7757,-34.1713 -17.7757,-34.1713 z"
       id="path1355"
       inkscape:connector-curvature="0" />
    <path
       style="fill:#ffffff;stroke:none"
       d="m 1847.3696,354.09054 c -13.8328,-28.3217 -7.9502,-36.13851 -0.501,-44.49778 7.4497,-8.36018 15.1632,-15.13458 14.5125,-22.36198 -0.6506,-7.22728 -5.6372,-15.60621 -10.1839,-21.34253 -4.5468,-5.73632 4.0413,-9.66514 7.9076,-16.31667 3.8657,-6.6508 10.7042,-47.80659 10.7042,-47.80659 0,0 -26.0852,17.5715 -32.236,25.43439 -6.1509,7.86277 -8.4405,10.70667 -10.0173,14.51431 -1.5759,3.80696 -4.0646,13.75357 -0.9533,20.82655 3.1118,7.07218 9.494,12.21912 13.0595,17.0376 3.5649,4.81933 -1.3116,12.15392 -5.5827,19.6909 -4.2712,7.53691 -6.1414,13.7099 -2.3508,27.83912 3.2494,12.11102 15.6412,26.98268 15.6412,26.98268 z"
       id="path3023-4"
       inkscape:connector-curvature="0"
       sodipodi:nodetypes="csssscssssssc" />
    <path
       style="color:#000000;display:inline;overflow:visible;visibility:visible;fill:#ffffff;fill-opacity:1;fill-rule:nonzero;stroke:none;stroke-width:1px;marker:none;enable-background:accumulate"
       d="m 1776.3464,1315.529 c 3.2527,-11.321 20.627,-46.387 25.7118,-9.291 37.4381,-49.672 83.6395,-32.169 93.8806,-24.931 -4.7258,-14.705 4.8022,-41.137 32.0153,-34.638 -5.1706,-14.206 2.6362,-24.873 22.022,-32.381 -27.4731,-6.646 -33.2796,-15.291 15.0553,-28.938 -37.6389,2.046 -72.8702,2.901 -32.2408,-33.757 -13.9008,0.297 -43.8343,30.571 -36.8893,-51.608 -21.0909,27.809 -44.9596,44.128 -82.345,-7.637 -7.5628,22.215 -20.6761,37.852 -51.7969,10.837 -3.8196,21.757 -37.5549,26.216 -50.4824,22.884 27.6128,21.802 28.2717,36.657 -5.6527,41.671 61.708,38.345 14.2263,35.6 6.113,47.213 46.5049,11.207 28.2717,31.183 22.1502,50.136 51.7672,-3.483 37.8708,27.229 42.4589,50.44 z"
       id="path3549-3-8"
       inkscape:connector-curvature="0"
       sodipodi:nodetypes="ccccccccccccccc" />
    <path
       style="color:#000000;display:inline;overflow:visible;visibility:visible;fill:#ffffff;fill-opacity:1;fill-rule:nonzero;stroke:none;stroke-width:1px;marker:none;enable-background:accumulate"
       d="m 1862.3291,1246.0499 c 14.3861,24.2296 28.6134,53.9163 31.3484,61.3263 -9.104,1.8541 -16.3446,4.7584 -22.9617,5.3139 6.2417,13.3724 31.8119,68.3466 45.0873,79.3414 -33.7825,-25.8525 -61.563,-70.2493 -70.1237,-92.8544 8.499,-2.3387 14.007,-2.5569 18.4447,-3.9047 -3.7254,-11.4708 -23.6989,-46.1206 -23.6989,-46.1206 z"
       id="path5066-8"
       inkscape:connector-curvature="0"
       sodipodi:nodetypes="cccccccc" />
    <path
       style="fill:#ffffff;stroke:none;stroke-width:0.84431088"
       d="m 617.64445,1492.6353 c -1.07971,-24.6381 18.27922,-86.3187 112.71124,-81.6796 94.43208,4.6391 123.9878,31.7415 126.7551,75.5366 4.37765,69.2829 -45.30293,87.7974 -116.63982,92.9297 -73.54056,5.2899 -123.96786,-42.2678 -122.82652,-86.7867 z"
       id="path3280-7"
       inkscape:connector-curvature="0"
       sodipodi:nodetypes="csssc" />
    <path
       style="color:#000000;display:inline;overflow:visible;visibility:visible;fill:#ffffff;fill-opacity:1;fill-rule:nonzero;stroke:none;stroke-width:1px;marker:none;enable-background:accumulate"
       d="m 869.08895,1636.9955 c -67.24677,1.2844 -93.00504,-48.0053 -100.0269,-87.4546 -9.92573,-55.7646 -2.09042,-31.0329 -2.09042,-31.0329 l -33.99104,26.0816 c -4.43616,0.2077 36.58553,127.7062 136.10836,92.4059 z"
       id="path3072-12"
       inkscape:connector-curvature="0"
       sodipodi:nodetypes="csccc" />
    <path
       style="fill:#ffffff;fill-rule:evenodd;stroke:none;stroke-width:1.14152551px;stroke-linecap:butt;stroke-linejoin:miter;stroke-opacity:1"
       d="m 518.92609,1378.9971 c 1.40836,-19.455 18.30906,-55.122 43.66023,-61.607 25.35104,-6.485 95.77068,-6.485 109.85463,-3.242 14.08396,3.242 36.61826,27.02 42.25187,36.748 5.63361,9.727 21.12593,44.313 -4.22511,58.364 -25.35117,14.051 -50.70221,24.859 -77.46175,23.778 -26.75954,-1.081 -80.27849,-8.647 -92.95394,-21.616 -12.67559,-12.97 -21.12593,-32.425 -21.12593,-32.425 z"
       id="path1355-3"
       inkscape:connector-curvature="0" />
  </g>
  <g
     inkscape:groupmode="layer"
     id="layer1"
     inkscape:label="txt">
    <text
       xml:space="preserve"
       style="font-style:normal;font-variant:normal;font-weight:normal;font-stretch:normal;line-height:0%;font-family:Lavi;-inkscape-font-specification:Lavi;text-align:center;letter-spacing:0px;word-spacing:0px;text-anchor:middle;fill:#000000;fill-opacity:1;stroke:none"
       x="219.87317"
       y="156.54718"
       id="text4246-3-3"><tspan
         sodipodi:role="line"
         style="font-style:normal;font-variant:normal;font-weight:bold;font-stretch:normal;font-size:45px;line-height:1.25;font-family:Lavi;-inkscape-font-specification:'Lavi Bold'"
         x="219.87317"
         y="156.54718"
         id="tspan67">	A thànaiste!</tspan><tspan
         sodipodi:role="line"
         style="font-style:normal;font-variant:normal;font-weight:bold;font-stretch:normal;font-size:45px;line-height:1.25;font-family:Lavi;-inkscape-font-specification:'Lavi Bold'"
         x="219.87317"
         y="175.05417"
         id="tspan852" /></text>
    <text
       xml:space="preserve"
       style="font-style:normal;font-variant:normal;font-weight:normal;font-stretch:normal;line-height:0%;font-family:Lavi;-inkscape-font-specification:Lavi;text-align:center;letter-spacing:0px;word-spacing:0px;text-anchor:middle;fill:#000000;fill-opacity:1;stroke:none"
       x="498.49622"
       y="198.7603"
       id="text4246-3-5-9"><tspan
         sodipodi:role="line"
         style="font-size:45px;line-height:1.25"
         x="505.52747"
         y="198.7603"
         id="tspan868">An do thrus thu </tspan><tspan
         sodipodi:role="line"
         style="font-size:45px;line-height:1.25"
         x="505.52747"
         y="255.0103"
         id="tspan62">bana-bhuidseach </tspan><tspan
         sodipodi:role="line"
         style="font-size:45px;line-height:1.25"
         x="505.52747"
         y="311.26031"
         id="tspan64">mar a dh’iarr </tspan><tspan
         sodipodi:role="line"
         style="font-size:45px;line-height:1.25"
         x="498.49622"
         y="367.51031"
         id="tspan91">mi ort?</tspan></text>
    <text
       xml:space="preserve"
       style="font-style:normal;font-variant:normal;font-weight:normal;font-stretch:normal;line-height:0%;font-family:Lavi;-inkscape-font-specification:Lavi;text-align:center;letter-spacing:0px;word-spacing:0px;text-anchor:middle;fill:#000000;fill-opacity:1;stroke:none"
       x="907.4093"
       y="509.67288"
       id="text4246-1-6"><tspan
         sodipodi:role="line"
         style="font-style:normal;font-variant:normal;font-weight:normal;font-stretch:normal;font-size:45px;line-height:1.25;font-family:Lavi;-inkscape-font-specification:Lavi"
         x="914.44055"
         y="509.67288"
         id="tspan915">Thrus, </tspan><tspan
         sodipodi:role="line"
         style="font-style:normal;font-variant:normal;font-weight:normal;font-stretch:normal;font-size:45px;line-height:1.25;font-family:Lavi;-inkscape-font-specification:Lavi"
         x="907.4093"
         y="565.92285"
         id="tspan68">a thighearna!</tspan></text>
    <text
       xml:space="preserve"
       style="font-style:normal;font-variant:normal;font-weight:normal;font-stretch:normal;line-height:0%;font-family:Lavi;-inkscape-font-specification:Lavi;text-align:center;letter-spacing:0px;word-spacing:0px;text-anchor:middle;display:inline;fill:#000000;fill-opacity:1;stroke:none"
       x="945.81696"
       y="664.9931"
       id="text4246-7-6-1-7-6-3-5"><tspan
         sodipodi:role="line"
         style="font-size:45px;line-height:1.25"
         x="952.84821"
         y="664.9931"
         id="tspan931">Tha i ’na </tspan><tspan
         sodipodi:role="line"
         style="font-size:45px;line-height:1.25"
         x="952.84821"
         y="721.2431"
         id="tspan75">seasamh </tspan><tspan
         sodipodi:role="line"
         style="font-size:45px;line-height:1.25"
         x="945.81696"
         y="777.4931"
         id="tspan77">ri ’r taobh.</tspan></text>
    <text
       xml:space="preserve"
       style="font-style:normal;font-variant:normal;font-weight:normal;font-stretch:normal;font-size:15.90748692px;line-height:0%;font-family:Lavi;-inkscape-font-specification:Lavi;text-align:center;letter-spacing:0px;word-spacing:0px;text-anchor:middle;fill:#000000;fill-opacity:1;stroke:none;stroke-width:0.99999988"
       x="1859.6963"
       y="214.15907"
       id="text4246-86-3-3"
       transform="scale(0.98795945,1.0121873)"><tspan
         sodipodi:role="line"
         style="font-size:59.65306854px;line-height:1.20000005;stroke-width:0.99999988"
         x="1859.6963"
         y="214.15907"
         id="tspan1044-3"><tspan
           style="font-style:normal;font-variant:normal;font-weight:bold;font-stretch:normal;font-family:Lavi;-inkscape-font-specification:'Lavi Bold';stroke-width:0.99999988"
           id="tspan1046-9">...?</tspan></tspan></text>
    <text
       xml:space="preserve"
       style="font-style:normal;font-variant:normal;font-weight:normal;font-stretch:normal;line-height:0%;font-family:Lavi;-inkscape-font-specification:Lavi;text-align:center;letter-spacing:0px;word-spacing:0px;text-anchor:middle;fill:#000000;fill-opacity:1;stroke:none"
       x="622.40643"
       y="1389.9771"
       id="text4246-3-7-7-6-7-2-9-6-1-4"><tspan
         sodipodi:role="line"
         style="font-size:45px;line-height:1.20000005"
         x="622.40643"
         y="1389.9771"
         id="tspan1183-0">Sin sibh!</tspan></text>
    <text
       xml:space="preserve"
       style="font-style:normal;font-variant:normal;font-weight:normal;font-stretch:normal;line-height:0%;font-family:Lavi;-inkscape-font-specification:Lavi;text-align:center;letter-spacing:0px;word-spacing:0px;text-anchor:middle;fill:#000000;fill-opacity:1;stroke:none"
       x="740.13556"
       y="1480.2469"
       id="text4246-7-5"><tspan
         sodipodi:role="line"
         style="font-size:45px;line-height:1.25"
         x="747.16681"
         y="1480.2469"
         id="tspan1089">Is mise </tspan><tspan
         sodipodi:role="line"
         style="font-size:45px;line-height:1.25"
         x="740.13556"
         y="1536.4969"
         id="tspan81">Peab…</tspan></text>
    <text
       xml:space="preserve"
       style="font-style:normal;font-variant:normal;font-weight:normal;font-stretch:normal;line-height:0%;font-family:Lavi;-inkscape-font-specification:Lavi;text-align:center;letter-spacing:0px;word-spacing:0px;text-anchor:middle;display:inline;fill:#000000;fill-opacity:1;stroke:none"
       x="2271.7188"
       y="1112.7358"
       id="text4246-2-3-1-3-9-9-7"
       transform="matrix(0.89365154,0,-0.19329856,1.1190044,0,0)"><tspan
         sodipodi:role="line"
         style="font-size:104.29582214px;line-height:1.25;letter-spacing:-5px"
         x="2269.2188"
         y="1112.7358"
         id="tspan4161-6">?!!</tspan></text>
    <text
       xml:space="preserve"
       style="font-style:normal;font-variant:normal;font-weight:normal;font-stretch:normal;font-size:28.73172379px;line-height:0%;font-family:Lavi;-inkscape-font-specification:Lavi;text-align:center;letter-spacing:29.10897446px;word-spacing:0px;text-anchor:middle;fill:#000000;fill-opacity:1;stroke:none;stroke-width:1"
       x="2299.6943"
       y="2623.665"
       id="text4246-6-6-3-6"
       transform="matrix(0.94427779,0,-0.21829887,1.0590104,0,0)"><tspan
         sodipodi:role="line"
         style="font-style:normal;font-variant:normal;font-weight:bold;font-stretch:normal;font-size:107.74396515px;line-height:1.20000005;font-family:Lavi;-inkscape-font-specification:'Lavi Bold';letter-spacing:4px;stroke-width:1"
         x="2301.6943"
         y="2623.665"
         id="tspan4252-00-4-7-3">AMADAIN!!!</tspan></text>
    <text
       xml:space="preserve"
       style="font-style:normal;font-variant:normal;font-weight:normal;font-stretch:normal;font-size:14.11471462px;line-height:0%;font-family:Lavi;-inkscape-font-specification:Lavi;text-align:center;letter-spacing:14.30004215px;word-spacing:0px;text-anchor:middle;fill:#000000;fill-opacity:1;stroke:none;stroke-width:1"
       x="1660.5546"
       y="2714.4756"
       id="text4246-6-3"
       transform="scale(0.94973823,1.0529217)"><tspan
         sodipodi:role="line"
         style="font-style:normal;font-variant:normal;font-weight:bold;font-stretch:normal;font-size:52.9301796px;line-height:1.20000005;font-family:Lavi;-inkscape-font-specification:'Lavi Bold';letter-spacing:0.90000004px;stroke-width:1"
         x="1669.725"
         y="2714.4756"
         id="tspan1117">Carson an do thrus </tspan><tspan
         sodipodi:role="line"
         style="font-style:normal;font-variant:normal;font-weight:bold;font-stretch:normal;font-size:52.9301796px;line-height:1.20000005;font-family:Lavi;-inkscape-font-specification:'Lavi Bold';letter-spacing:0.90000004px;stroke-width:1"
         x="1661.0045"
         y="2777.9917"
         id="tspan85">thu an leanabh ud?!</tspan></text>
    <text
       xml:space="preserve"
       style="font-style:normal;font-variant:normal;font-weight:normal;font-stretch:normal;font-size:14.11471462px;line-height:0%;font-family:Lavi;-inkscape-font-specification:Lavi;text-align:center;letter-spacing:14.30004215px;word-spacing:0px;text-anchor:middle;fill:#000000;fill-opacity:1;stroke:none;stroke-width:1"
       x="1640.3445"
       y="2842.5552"
       id="text4246-6-3-4"
       transform="scale(0.94973823,1.0529217)"><tspan
         sodipodi:role="line"
         style="font-style:normal;font-variant:normal;font-weight:bold;font-stretch:normal;font-size:52.9301796px;line-height:1.20000005;font-family:Lavi;-inkscape-font-specification:'Lavi Bold';letter-spacing:0.90000004px;stroke-width:1"
         x="1640.7944"
         y="2842.5552"
         id="tspan89">Feumaidh mi</tspan><tspan
         sodipodi:role="line"
         style="font-style:normal;font-variant:normal;font-weight:bold;font-stretch:normal;font-size:52.9301796px;line-height:1.20000005;font-family:Lavi;-inkscape-font-specification:'Lavi Bold';letter-spacing:0.90000004px;stroke-width:1"
         x="1649.5148"
         y="2906.0713"
         id="tspan97">bana-bhuidseach </tspan><tspan
         sodipodi:role="line"
         style="font-style:normal;font-variant:normal;font-weight:bold;font-stretch:normal;font-size:52.9301796px;line-height:1.20000005;font-family:Lavi;-inkscape-font-specification:'Lavi Bold';letter-spacing:0.90000004px;stroke-width:1"
         x="1640.7944"
         y="2969.5876"
         id="tspan63">catha cheart!</tspan></text>
  </g>
</svg>
