<?xml version="1.0" encoding="UTF-8" standalone="no"?>
<svg
   id="svg2"
   version="1.1"
   inkscape:version="1.1.1 (3bf5ae0d25, 2021-09-20, custom)"
   width="2481"
   height="3503"
   sodipodi:docname="E34P05.svg"
   xmlns:inkscape="http://www.inkscape.org/namespaces/inkscape"
   xmlns:sodipodi="http://sodipodi.sourceforge.net/DTD/sodipodi-0.dtd"
   xmlns:xlink="http://www.w3.org/1999/xlink"
   xmlns="http://www.w3.org/2000/svg"
   xmlns:svg="http://www.w3.org/2000/svg"
   xmlns:rdf="http://www.w3.org/1999/02/22-rdf-syntax-ns#"
   xmlns:cc="http://creativecommons.org/ns#"
   xmlns:dc="http://purl.org/dc/elements/1.1/">
  <metadata
     id="metadata8">
    <rdf:RDF>
      <cc:Work
         rdf:about="">
        <dc:format>image/svg+xml</dc:format>
        <dc:type
           rdf:resource="http://purl.org/dc/dcmitype/StillImage" />
        <dc:title />
      </cc:Work>
    </rdf:RDF>
  </metadata>
  <defs
     id="defs6">
    <filter
       style="color-interpolation-filters:sRGB"
       id="filter4375-4-1-1-1-9-5-8-8-5-5-3-3"
       inkscape:label="soundFX1"
       x="-0.018563278"
       y="-0.0005652505"
       width="1.0192004"
       height="1.0017254">
      <feFlood
         id="feFlood4377-7-9-0-8-1-7-3-1-2-7-6-6"
         flood-opacity="1"
         flood-color="rgb(52,52,52)"
         result="flood" />
      <feComposite
         id="feComposite4379-3-8-8-2-77-4-1-0-6-4-7-7"
         in2="SourceGraphic"
         in="flood"
         operator="in"
         result="composite1"
         baseFrequency="0.053999999999999999 0.053999999999999999" />
      <feMorphology
         id="feMorphology4393-1-0-49-8-9-3-0-1-9-9-5-5"
         operator="dilate"
         radius="4.0330969769021738"
         result="result3" />
      <feComposite
         id="feComposite4385-9-5-7-0-8-8-7-5-4-9-3-3"
         in2="result3"
         in="SourceGraphic"
         operator="over"
         result="fbSourceGraphic" />
      <feColorMatrix
         result="fbSourceGraphicAlpha"
         in="fbSourceGraphic"
         values="0 0 0 -1 0 0 0 0 -1 0 0 0 0 -1 0 0 0 0 1 0"
         id="feColorMatrix4544-9-4-4-5-5" />
      <feTurbulence
         id="feTurbulence4546-3-6-5-6-6"
         type="fractalNoise"
         numOctaves="4"
         seed="147"
         baseFrequency="0.053999999999999999 0.054054054054054057"
         result="turbulence" />
      <feDisplacementMap
         id="feDisplacementMap4548-8-0-9-2-2"
         in2="turbulence"
         in="fbSourceGraphic"
         scale="10.561763"
         yChannelSelector="G"
         xChannelSelector="R"
         result="fbSourceGraphic" />
      <feColorMatrix
         result="fbSourceGraphicAlpha"
         in="fbSourceGraphic"
         values="0 0 0 -1 0 0 0 0 -1 0 0 0 0 -1 0 0 0 0 1 0"
         id="feColorMatrix4670-7-7-3-9-9" />
      <feFlood
         id="feFlood4672-4-4-5-1-1"
         flood-opacity="1"
         flood-color="rgb(28,28,28)"
         result="flood"
         in="fbSourceGraphic" />
      <feComposite
         id="feComposite4674-8-3-7-2-2"
         in2="fbSourceGraphic"
         in="flood"
         operator="in"
         result="composite1" />
      <feGaussianBlur
         id="feGaussianBlur4676-3-7-08-7-7"
         in="composite1"
         stdDeviation="0"
         result="blur" />
      <feOffset
         id="feOffset4678-6-9-1-0-0"
         dx="-10.48377497279229"
         dy="0.39217365321829334"
         result="offset" />
      <feComposite
         id="feComposite4680-4-0-9-9-9"
         in2="offset"
         in="fbSourceGraphic"
         operator="over"
         result="composite2" />
    </filter>
    <filter
       inkscape:collect="always"
       style="color-interpolation-filters:sRGB"
       id="filter1624"
       x="-0.066465525"
       width="1.132931"
       y="-0.12921094"
       height="1.2584219">
      <feGaussianBlur
         inkscape:collect="always"
         stdDeviation="4.7367523"
         id="feGaussianBlur1626" />
    </filter>
    <filter
       inkscape:collect="always"
       style="color-interpolation-filters:sRGB"
       id="filter1624-1"
       x="-0.066465525"
       width="1.132931"
       y="-0.12921094"
       height="1.2584219">
      <feGaussianBlur
         inkscape:collect="always"
         stdDeviation="4.7367523"
         id="feGaussianBlur1626-9" />
    </filter>
    <filter
       inkscape:collect="always"
       style="color-interpolation-filters:sRGB"
       id="filter1624-1-7"
       x="-0.066465525"
       width="1.132931"
       y="-0.12921094"
       height="1.2584219">
      <feGaussianBlur
         inkscape:collect="always"
         stdDeviation="4.7367523"
         id="feGaussianBlur1626-9-8" />
    </filter>
  </defs>
  <sodipodi:namedview
     pagecolor="#ffffff"
     bordercolor="#666666"
     borderopacity="1"
     objecttolerance="10"
     gridtolerance="10"
     guidetolerance="10"
     inkscape:pageopacity="0"
     inkscape:pageshadow="2"
     inkscape:window-width="1888"
     inkscape:window-height="1146"
     id="namedview4"
     showgrid="false"
     inkscape:zoom="0.3740595"
     inkscape:cx="1255.1479"
     inkscape:cy="2380.6373"
     inkscape:window-x="32"
     inkscape:window-y="0"
     inkscape:window-maximized="1"
     inkscape:current-layer="layer3"
     inkscape:document-rotation="0"
     inkscape:snap-global="false"
     borderlayer="true"
     inkscape:pagecheckerboard="0" />
  <g
     inkscape:groupmode="layer"
     id="layer2"
     inkscape:label="artwork"
     sodipodi:insensitive="true">
    <image
       xlink:href="../gfx_Pepper-and-Carrot_by-David-Revoy_E34P05.png"
       y="0"
       x="0"
       id="image10"
       height="3503"
       width="2481" />
  </g>
  <g
     inkscape:groupmode="layer"
     id="layer3"
     inkscape:label="speechbubbles"
     style="display:inline">
    <path
       style="display:inline;fill:#ffffff;fill-rule:evenodd;stroke:none;stroke-width:1.0585px;stroke-linecap:butt;stroke-linejoin:miter;stroke-opacity:1"
       d="m 2138.5075,864.26977 c -28.121,0.0371 -56.2114,1.45391 -84.1864,3.71313 -14.8906,0.95191 -29.2543,4.59431 -43.4062,8.25816 -13.2357,3.62662 -26.4512,7.53358 -38.7545,12.94455 -15.9319,7.21982 -30.2048,17.8469 -37.3998,31.66414 -6.0431,11.07462 -9.5966,22.92364 -12.3673,34.78089 -4.1479,22.9715 2.7716,47.60196 21.0821,65.73076 20.9071,21.1483 53.963,33.6126 87.2724,34.1318 70.2666,5.2851 141.429,7.3604 211.5074,-0.7087 23.4774,-2.7677 47.1341,-8.6446 65.968,-20.72 20.6279,-13.4174 31.6859,-35.0348 31.5234,-56.23649 0.1009,-20.10866 -10.0444,-39.64603 -25.7041,-55.0361 -18.6406,-18.77193 -44.407,-32.13333 -71.7701,-41.10607 -26.5712,-9.05355 -54.7251,-15.59964 -83.6129,-16.97841 -6.7065,-0.36874 -13.431,-0.49807 -20.152,-0.43766 z"
       id="path1076"
       inkscape:connector-curvature="0" />
    <path
       style="color:#000000;display:inline;overflow:visible;visibility:visible;fill:#ffffff;fill-opacity:1;fill-rule:nonzero;stroke:none;stroke-width:1.25412px;marker:none;enable-background:accumulate"
       d="m 1408.5095,65.1201 c -14.4455,0.841529 -28.061,9.181431 -42.7441,6.813582 -11.2366,-1.266907 -23.725,-1.245743 -33.22,6.306672 -8.4305,7.106971 -12.8065,18.366511 -15.0819,29.347136 -2.2841,12.33492 -2.3104,24.97637 -3.0892,37.48478 -1.9152,49.47977 2.9966,98.83255 4.8223,148.22485 0.9269,20.50228 1.8152,41.29509 7.1511,61.11954 2.1982,5.81374 6.9946,9.94055 11.5753,13.55309 8.2552,5.90516 17.5461,9.81592 26.5378,14.19037 27.7948,12.1908 57.8775,16.14626 87.5129,19.35747 39.428,3.36949 78.6793,-3.63758 117.8588,-7.32065 22.511,-2.5115 45.7085,-5.549 66.0068,-17.10258 19.4593,-11.91603 32.7452,-32.58908 41.8462,-54.13585 13.0847,-30.46641 18.5702,-65.55385 11.3974,-98.55306 -5.947,-29.67963 -15.8832,-59.43076 -34.6354,-82.62594 -12.3424,-15.06157 -28.8888,-25.72005 -46.6615,-31.53841 -18.6217,-6.88309 -37.6046,-12.653754 -55.8988,-20.542286 -21.0557,-8.328065 -42.8962,-14.730407 -65.2864,-16.959432 -18.8954,-2.247367 -37.8509,-3.900354 -56.712,-6.47449 -7.1049,-0.735597 -14.2387,-1.222377 -21.3793,-1.144792 z"
       id="path4546-6-5-5"
       inkscape:connector-curvature="0"
       sodipodi:nodetypes="cssssccccccccccccc" />
    <path
       style="color:#000000;display:inline;overflow:visible;visibility:visible;fill:#ffffff;fill-opacity:1;fill-rule:nonzero;stroke:none;stroke-width:0.542176px;marker:none;enable-background:accumulate"
       d="m 667.51477,777.0449 c -11.24452,0.85864 -22.75041,3.21907 -32.293,9.3435 -7.56143,5.34984 -14.33742,11.71977 -20.41299,18.62168 -6.05916,7.05466 -11.38814,14.85179 -14.7535,23.4794 -2.87622,9.34511 -1.23608,19.34708 1.63252,28.49294 2.5857,7.98326 7.02309,15.90669 14.43183,20.53512 6.3498,3.69228 14.01687,3.88174 21.19762,3.53829 8.65396,-0.26054 17.58768,0.24054 25.61184,3.69461 8.27192,3.05447 16.65801,6.88655 25.7097,6.62063 12.59369,-0.3204 24.46737,-5.40024 35.08871,-11.65849 13.47969,-8.0904 24.50492,-20.68595 28.83609,-35.66973 2.59783,-8.92754 2.26204,-18.5757 -0.76882,-27.36099 -2.75508,-8.27686 -7.29911,-16.113 -13.71852,-22.21749 -5.25135,-4.82961 -12.06218,-7.75698 -19.08179,-9.16965 -9.83872,-2.14561 -20.03917,-2.29978 -29.78514,-4.91446 -7.14024,-1.48036 -14.29633,-3.96116 -21.69455,-3.33536 z"
       id="path4040-41"
       inkscape:connector-curvature="0"
       sodipodi:nodetypes="zssssz" />
    <path
       style="color:#000000;display:inline;overflow:visible;visibility:visible;fill:#ffffff;fill-opacity:1;fill-rule:nonzero;stroke:none;stroke-width:0.850923px;marker:none;enable-background:accumulate"
       d="m 544.15208,281.73047 c -22.65669,0.58464 -45.54602,1.33234 -67.72205,11.13181 -6.52119,2.76644 -12.88995,7.79406 -17.97569,16.18704 -4.84685,7.65082 -8.77899,18.32449 -9.34145,30.52962 -0.62425,11.05785 0.35542,22.14468 1.30462,33.02937 1.28013,11.85354 4.11985,23.76516 9.39378,31.0669 6.53051,9.59196 14.53228,14.28488 22.1759,19.62342 15.59268,9.92201 32.1908,11.87419 48.52057,11.85055 25.53395,0.26988 51.10833,-2.29509 76.40864,-8.9856 11.5743,-3.89265 22.46425,-16.62233 28.85027,-35.54499 3.87136,-12.01275 5.33375,-27.09329 3.16349,-40.71753 -3.80285,-27.95495 -16.44019,-50.04204 -30.99754,-57.2354 -9.56627,-4.96783 -19.4985,-6.36063 -29.31559,-8.47159 -11.45676,-1.95361 -22.96596,-2.54596 -34.46495,-2.4636 z"
       id="path4040-4-5-3-6"
       inkscape:connector-curvature="0"
       sodipodi:nodetypes="zssssz" />
    <path
       style="fill:#ffffff;fill-rule:evenodd;stroke:none;stroke-width:0.95208px;stroke-linecap:butt;stroke-linejoin:miter;stroke-opacity:1"
       d="m 560.97087,136.84607 c -25.77051,0.0518 -51.4625,2.43342 -77.22042,2.96262 -24.25709,0.73056 -48.63753,1.16829 -72.63838,5.10791 -17.49622,2.71195 -32.52744,5.08128 -46.97404,14.24688 -7.06151,4.23221 -15.56294,9.13583 -21.64448,17.92792 -5.70457,6.87646 -9.54915,21.07129 -12.85587,29.43641 -5.11339,13.75449 -5.14411,29.05646 -1.67022,43.20379 3.09692,11.6676 10.25842,22.14905 19.94752,29.32021 10.98314,8.35763 24.16836,13.24943 37.44091,16.57105 20.12641,4.70006 40.9078,4.6822 61.43822,5.71198 63.50504,2.41362 127.06748,0.25207 190.52828,-2.39269 29.09381,-1.89801 58.46042,-4.10071 86.62101,-12.13394 13.19366,-5.9968 23.60557,-16.86034 31.36249,-28.91422 6.78159,-12.17821 7.90673,-26.6424 6.50078,-40.28233 -1.50103,-17.88193 -9.98537,-35.29774 -23.94749,-46.70168 -18.19935,-16.3263 -41.90717,-25.65041 -65.99325,-28.57347 -17.31406,-2.49731 -34.74581,-4.40384 -52.23983,-4.89463 -17.05011,-0.0136 -34.09562,-0.43611 -51.14405,-0.59097 -2.5037,-0.0198 -5.00747,-0.007 -7.51118,-0.006 z"
       id="path1299"
       inkscape:connector-curvature="0"
       sodipodi:nodetypes="cccccccccccccccccccc" />
    <path
       style="color:#000000;display:inline;overflow:visible;visibility:visible;fill:#ffffff;fill-opacity:1;fill-rule:nonzero;stroke:none;stroke-width:1px;marker:none;enable-background:accumulate"
       d="m 601.64274,401.13421 c -14.17455,40.88456 44.77094,72.82978 100.67006,54.05497 -23.16137,8.79652 -79.7912,49.66875 -144.52484,-46.85819 -30.03766,-44.79037 28.99451,-4.6799 28.99451,-4.6799 z"
       id="path4035-4"
       inkscape:connector-curvature="0"
       sodipodi:nodetypes="ccscc" />
    <path
       style="color:#000000;display:inline;overflow:visible;visibility:visible;fill:#ffffff;fill-opacity:1;fill-rule:nonzero;stroke:none;stroke-width:0.65663px;marker:none;enable-background:accumulate"
       d="m 611.41244,701.29174 c 17.11413,0.19349 18.72502,1.92575 19.18724,12.28702 0.46185,10.36191 -1.67076,26.02679 10.09463,35.89667 11.76506,9.87056 19.1963,13.36617 25.49665,11.79439 -5.19491,13.1306 -2.83584,31.62853 -10.75775,36.51466 -7.9219,4.88611 26.05967,-2.07377 26.05967,-2.07377 0,0 9.21399,-27.86213 6.82755,-44.34007 -2.3864,-16.4779 -28.23087,-11.38908 -37.42309,-16.46871 -9.19219,-5.07958 -7.20814,-26.722 -13.49221,-32.72081 -6.28377,-5.99953 -17.59228,-2.98484 -25.99269,-0.88938 z"
       id="path4538-7"
       inkscape:connector-curvature="0"
       sodipodi:nodetypes="ccscccsscc" />
    <path
       style="color:#000000;display:inline;overflow:visible;visibility:visible;fill:#ffffff;fill-opacity:1;fill-rule:nonzero;stroke:none;stroke-width:1.01366px;marker:none;enable-background:accumulate"
       d="m 1573.436,541.45174 c 14.1467,-11.40413 29.0076,-23.09483 38.4486,-39.96949 2.5984,-4.85383 4.9981,-10.05752 6.0756,-15.49957 0.016,-5.8546 -3.8969,-10.34151 -8.4908,-12.17778 -6.4361,-3.18874 -14.5628,-3.42982 -19.4026,-9.63069 -3.4195,-4.61758 -1.8272,-11.14779 -0.9156,-16.72114 2.5699,-14.17326 6.8395,-28.1699 7.4104,-42.5769 1.5793,-16.24635 2.1988,-33.38893 -3.7408,-48.10801 -2.4394,-5.7727 -5.7341,-11.37091 -10.8601,-14.41865 -12.7918,-8.51566 -30.6307,-8.53627 -43.8564,1.70558 -7.9407,7.39354 -10.3193,22.05002 -3.5557,30.23691 3.5085,4.38614 9.2515,5.18736 14.4155,4.19228 9.6748,0.1491 18.2991,6.65319 22.6959,15.89335 3.7428,7.54995 5.2552,16.51182 4.6927,25.40135 2.0644,12.09608 -3.5504,23.92983 -6.6517,35.52848 -1.3509,5.3164 -2.467,11.0518 -1.4466,16.34944 3.0779,7.03972 10.5313,8.927 17.0498,9.68941 6.6944,0.98385 14.6099,1.26357 18.9566,7.63463 3.5752,3.9219 -0.1424,9.62907 -1.3852,14.17636 -5.6681,14.18394 -15.0865,26.49538 -26.0468,36.02362 -1.0987,0.82439 -2.2436,1.54861 -3.3927,2.27078 z"
       id="path4496-9"
       inkscape:connector-curvature="0"
       inkscape:transform-center-x="21.004464"
       inkscape:transform-center-y="-25.902749" />
    <path
       style="color:#000000;display:inline;overflow:visible;visibility:visible;fill:#ffffff;fill-opacity:1;fill-rule:nonzero;stroke:none;stroke-width:1.03729px;marker:none;enable-background:accumulate"
       d="m 2109.8825,770.51885 c -20.4103,6.10083 -40.0468,16.85113 -53.8,33.41265 -10.7709,14.46078 -16.5835,31.98514 -19.9326,49.53175 -1.4068,8.93082 -2.2092,18.35818 0.5,27.10829 3.2554,6.18918 11.8987,8.09797 17.7559,4.53442 7.5966,-3.5917 11.8306,-12.98928 9.3278,-21.03888 -1.6093,-16.53808 1.3652,-33.26989 6.7533,-48.89003 5.7833,-15.14652 16.5635,-28.06938 29.7192,-37.41611 3.7487,-2.79439 7.6932,-5.31046 11.6413,-7.81045 -0.655,0.18946 -1.3099,0.37891 -1.9649,0.56836 z"
       id="path5010-4"
       inkscape:connector-curvature="0"
       sodipodi:nodetypes="ccsc" />
    <path
       style="fill:#ffffff;stroke:none;stroke-width:0.861797"
       d="m 1678.5496,1502.8373 c -39.8558,1.5885 -79.1832,19.4982 -103.0041,49.2517 -9.1221,11.7159 -13.2026,26.1222 -14.1494,40.3603 -2.3441,21.6595 -1.9891,43.4598 -2.3739,65.1939 0.7471,15.2341 6.4379,30.8735 18.6902,41.5427 15.2714,14.483 36.6064,22.0851 57.8899,25.3409 33.5387,5.8381 67.8422,4.7054 101.7683,3.5602 26.6738,-1.3571 54.0928,-6.8172 76.2431,-21.2263 18.2912,-11.7586 31.6932,-30.4614 34.1619,-51.0741 2.7198,-19.3023 -0.7263,-38.701 -3.4358,-57.8298 -3.2596,-19.7885 -8.927,-40.0277 -22.3431,-56.1893 -16.6808,-19.9434 -42.7837,-31.909 -69.5275,-35.4557 -24.4208,-3.5822 -49.2598,-3.5738 -73.9196,-3.4745 z"
       id="path3280-10"
       inkscape:connector-curvature="0"
       sodipodi:nodetypes="csssc" />
    <path
       style="color:#000000;display:inline;overflow:visible;visibility:visible;fill:#ffffff;fill-opacity:1;fill-rule:nonzero;stroke:none;stroke-width:0.730994px;marker:none;enable-background:accumulate"
       d="m 1701.3359,1182.3633 c -23.6044,0.4972 -47.5014,8.2194 -65.537,23.7485 -16.8972,15.2472 -21.3862,42.7399 -9.3936,62.2553 7.3737,12.546 20.5403,20.6735 34.317,24.5048 22.0738,8.2236 45.7993,10.6274 69.1919,11.348 21.8322,0.47 44.2156,-1.001 64.7362,-9.0519 13.7438,-5.6802 26.0669,-16.1754 31.5122,-30.2834 6.1857,-15.1026 4.6669,-33.4624 -5.1548,-46.703 -9.4277,-13.4338 -24.3106,-21.9676 -39.6896,-26.8896 -23.7701,-7.8332 -49.0614,-8.7336 -73.8752,-8.9512 -2.0358,-7e-4 -4.0715,-0.013 -6.1071,0.023 z"
       id="path4546-6-89"
       inkscape:connector-curvature="0"
       sodipodi:nodetypes="cssssc" />
    <path
       style="fill:#ffffff;fill-rule:evenodd;stroke:none;stroke-width:0.479277px;stroke-linecap:butt;stroke-linejoin:miter;stroke-opacity:1"
       d="m 850.76454,1613.0131 c 26.36542,-14.1706 52.1596,-25.6935 69.24911,-29.7493 -2.6401,10.4395 -4.10093,16.7425 -12.6203,26.2418 24.37756,-0.2584 68.67786,-25.1714 92.30696,-39.5132 -33.31084,8.7847 -58.82577,17.4358 -69.30066,19.7852 4.2156,-8.767 5.65236,-15.0936 7.70849,-24.6257 -14.74767,4.9446 -69.30634,18.2694 -82.68325,16.8592 -13.37703,-1.4104 -4.66035,31.002 -4.66035,31.002 z"
       id="path1305"
       inkscape:connector-curvature="0"
       sodipodi:nodetypes="ccccccsc" />
    <path
       style="fill:#ffffff;fill-opacity:1;fill-rule:evenodd;stroke:none;stroke-width:0.946256px;stroke-linecap:butt;stroke-linejoin:miter;stroke-opacity:1"
       d="m 469.18609,1689.8615 c 25.07204,-9.3991 21.12199,25.9845 6.15313,78.3417 17.22484,-38.1703 50.90576,-48.7526 21.44659,23.8327 46.31311,-54.2198 79.34542,-76.6019 72.08262,-2.3857 61.41597,-71.067 64.82965,-37.9564 60.49923,9.063 24.38943,-67.5589 47.39604,-74.9602 68.72631,-9.4329 -6.0197,-69.7523 26.8812,-67.8724 97.00453,2.5145 -31.32913,-73.6356 7.48508,-47.3993 46.68241,-20.6175 -32.95152,-63.0296 12.39801,-28.0699 30.18438,-27.6037 -66.31897,-97.319 -9.75045,-60.5152 25.95746,-46.4792 -34.27324,-27.4685 -50.92716,-52.7623 8.58136,-61.4166 -52.76057,-10.766 -30.5936,-34.0312 21.05327,-60.9392 -28.18403,4.5545 -82.1813,-13.7084 10.60681,-40.5594 -36.09544,4.8264 -71.50204,-11.4856 -30.35836,-30.6342 -13.55527,4.22 -60.99763,-2.5537 -0.21787,-26.6313 -37.59816,4.9671 -78.36897,2.0587 5.94269,-29.7663 -130.87969,27.674 -35.82407,-14.876 -12.90518,-35.0048 -54.06244,16.2563 -145.42585,68.5142 -68.09745,-42.0429 -107.77576,110.2651 -95.12018,44.2016 -89.0849,-12.1692 -37.14189,88.431 -50.09356,76.4168 -53.28105,23.8588 -17.34505,33.8783 -19.61289,9.4667 -21.51198,-16.3704 -17.30519,48.6982 -34.11602,74.9821 -48.61752,-3.4347 -7.97477,90.6305 -36.13501,73.0053 -68.73767,31.5554 5.87992,32.0414 -12.53625,17.1011 -39.17776,-13.7446 21.97059,81.8003 -20.53285,62.4646 -35.32379,40.3522 11.72318,31.34 16.87143,51.1859 -2.12536,28.8214 11.53113,43.3008 12.75865,69.9218 -7.05376,62.4822 23.29036,35.1495 15.79182,31.5549 6.91381,26.2242 8.74283,16.7968 6.70289,35.2809 -9.12756,44.7936 8.26162,15.442 24.20865,28.4716 3.37354,53.0477 18.02765,-3.1391 19.63603,2.3641 0.9775,18.5348 25.63117,-18.8706 14.68954,5.8967 -0.56543,35.8104 z"
       id="path1798"
       sodipodi:nodetypes="cccccccccccccccccccccccccccccccc" />
    <path
       style="fill:#ffffff;fill-rule:evenodd;stroke:none;stroke-width:0.960637px;stroke-linecap:butt;stroke-linejoin:miter;stroke-opacity:1"
       d="m 1778.0933,1289.0282 c 0,0 -3.9407,28.9212 8.0996,38.6226 12.0408,9.7023 15.4867,13.5023 36.0798,21.9048 -30.1647,-5.7228 -44.5902,-13.4046 -52.5226,-23.226 -7.9325,-9.8214 -20.0355,-30.3233 -22.8091,-36.2438 -2.7736,-5.9205 31.1523,-1.0576 31.1523,-1.0576 z"
       id="path1359"
       inkscape:connector-curvature="0" />
    <path
       style="fill:#ffffff;fill-rule:evenodd;stroke:none;stroke-width:1.51642px;stroke-linecap:butt;stroke-linejoin:miter;stroke-opacity:1"
       d="m 1843.2527,1601.6526 c 0,0 29.1528,33.6868 52.9454,28.1474 23.7942,-5.5388 31.7815,-6.1077 63.0487,-23.7148 -38.2213,32.3304 -62.191,42.8809 -81.8135,43.1241 -19.6227,0.2433 -55.9116,-4.864 -65.6341,-7.2483 -9.7228,-2.3842 31.4535,-40.3084 31.4535,-40.3084 z"
       id="path1359-6"
       inkscape:connector-curvature="0" />
    <path
       style="fill:#ffffff;fill-rule:evenodd;stroke:none;stroke-width:1.04628px;stroke-linecap:butt;stroke-linejoin:miter;stroke-opacity:1;filter:url(#filter1624-1-7)"
       d="m 304.54727,1936.8855 c 5.39109,-32.111 32.34599,-42.814 51.75368,-46.025 19.40768,-3.211 83.0216,-3.211 100.27283,9.633 17.25112,12.844 22.6421,36.392 16.17294,43.884 -6.46926,7.493 -15.09476,29.97 -38.81515,31.04 -23.7206,1.071 -74.39599,5.352 -94.88185,-6.422 -20.48586,-11.774 -36.6588,-14.985 -34.50245,-32.11 z"
       id="path1285-4-4"
       inkscape:connector-curvature="0"
       transform="matrix(1.2257744,0,0,1.060297,78.802093,-33.662704)" />
    <path
       style="fill:#ffffff;fill-rule:evenodd;stroke:none;stroke-width:1.04628px;stroke-linecap:butt;stroke-linejoin:miter;stroke-opacity:1;filter:url(#filter1624-1)"
       d="m 304.54727,1936.8855 c 5.39109,-32.111 32.34599,-42.814 51.75368,-46.025 19.40768,-3.211 83.0216,-3.211 100.27283,9.633 17.25112,12.844 22.6421,36.392 16.17294,43.884 -6.46926,7.493 -15.09476,29.97 -38.81515,31.04 -23.7206,1.071 -74.39599,5.352 -94.88185,-6.422 -20.48586,-11.774 -36.6588,-14.985 -34.50245,-32.11 z"
       id="path1285-4"
       inkscape:connector-curvature="0"
       transform="matrix(1.1958956,0,0,0.97870713,-64.882445,39.800192)" />
    <path
       style="fill:#ffffff;fill-rule:evenodd;stroke:none;stroke-width:1.04628px;stroke-linecap:butt;stroke-linejoin:miter;stroke-opacity:1;filter:url(#filter1624)"
       d="m 115.7959,1883.6103 c 5.39109,-32.111 32.34599,-42.814 51.75368,-46.025 19.40768,-3.211 83.0216,-3.211 100.27283,9.633 17.25112,12.844 22.6421,36.392 16.17294,43.884 -6.46926,7.493 -15.09476,29.97 -38.81515,31.04 -23.7206,1.071 -74.39599,5.352 -94.88185,-6.422 -20.48586,-11.774 -36.6588,-14.985 -34.50245,-32.11 z"
       id="path1285"
       inkscape:connector-curvature="0"
       transform="matrix(1.1112416,0,0,0.98766497,-18.160448,23.187308)" />
    <path
       style="color:#000000;display:inline;overflow:visible;visibility:visible;fill:#ffffff;fill-opacity:1;fill-rule:nonzero;stroke:none;stroke-width:0.921112px;marker:none;enable-background:accumulate"
       d="m 1274.0762,2408.0934 c -36.2286,-32.2998 -77.602,-59.113 -107.8532,-97.7871 l 6.9677,43.9112 c -17.7743,-7.7018 -29.1706,-25.5756 -42.7328,-39.995 l -0.057,27.888 c -41.735,-18.7232 -69.4761,-51.7603 -103.981,-77.8792 l 3.6604,48.6148 c 37.885,22.0665 78.758,37.3542 113.282,67.0437 l 2.7503,-27.2332 c 13.303,8.4793 26.3021,17.5344 37.9439,29.1641 l 0.5073,-34.5085 z"
       id="path4032-8"
       inkscape:connector-curvature="0"
       sodipodi:nodetypes="cccccccccccc" />
    <path
       style="opacity:1;fill:#ffffff;fill-rule:evenodd;stroke:none;stroke-width:1.08764px;stroke-linecap:butt;stroke-linejoin:miter;stroke-opacity:1"
       d="m 670.78656,2148.748 c 67.87299,-3.4897 68.08591,-21.1031 20.77948,-48.6355 34.28305,0.1283 22.62648,-17.0487 -1.6509,-38.9799 90.56615,27.0057 106.39379,-19.2838 80.81504,-72.9491 72.92056,63.1811 73.78132,26.714 100.3487,-49.9019 15.15959,28.1936 35.21945,115.5171 120.2348,39.8887 -14.65845,62.9478 31.28902,19.3894 68.00672,-2.5576 6.5851,9.0685 -59.54588,61.3972 36.7256,-3.4696 -69.4782,85.9906 37.8443,15.2181 71.1162,-8.6048 -34.5771,40.6694 -110.4973,101.6236 -8.6814,78.1924 -74.0413,47.0504 -8.5777,29.3433 24.396,27.1895 -41.8192,19.5626 -43.4697,38.9413 -0.8373,31.1068 -62.1546,36.6106 -13.7762,39.6795 16.1717,40.7699 -23.2917,2.8029 -80.6512,18.8805 -6.6526,22.1761 -51.1398,11.6898 -36.1229,42.8572 -28.8054,55.6065 -56.5687,-4.4379 -16.4171,38.2508 4.6587,65.759 -39.0612,-11.7799 -99.9648,-42.2023 -56.9099,11.5209 -95.7813,-32.1124 -58.0211,0.6319 -36.6745,39.5341 -70.3025,-32.5992 -81.08503,-48.4686 -102.64628,-21.499 -23.77381,-22.6729 -27.99903,-2.8041 -35.31337,21.2553 -14.65057,-48.6298 -39.56191,-19.0596 -66.03207,10.3783 -13.71583,-50.6696 -40.74197,-29.3929 -66.06135,-15.6872 0.10117,-58.2171 -34.04636,-44.0809 -103.06221,-0.8437 54.19679,-40.6858 83.87068,-80.9865 -6.02167,-57.1904 28.87403,-11.8408 55.81371,-47.471 17.3436,-34.5255 17.17485,-8.9938 33.33058,-29.4414 -17.6549,-23.6252 47.46957,-12.4736 41.7765,-22.5492 -9.78892,-30.5555 88.77592,-11.1733 49.08183,-23.2115 -13.80377,-34.3526 z"
       id="path523"
       sodipodi:nodetypes="cccccccccccccccccccccccccccc" />
  </g>
  <g
     inkscape:groupmode="layer"
     id="layer1"
     inkscape:label="txt">
    <text
       xml:space="preserve"
       style="font-style:normal;font-variant:normal;font-weight:normal;font-stretch:normal;font-size:45px;line-height:1.25;font-family:Lavi;-inkscape-font-specification:Lavi;text-align:center;letter-spacing:0px;word-spacing:0px;text-anchor:middle;fill:#000000;fill-opacity:1;stroke:none"
       x="545.22974"
       y="200.44676"
       id="text4246-3-2-2-6-3-7-9-3"><tspan
         style="font-size:45px"
         sodipodi:role="line"
         x="545.22974"
         y="200.44676"
         id="tspan919">Oprosti Pepper,</tspan><tspan
         style="font-size:45px"
         sodipodi:role="line"
         x="545.22974"
         y="256.69675"
         id="tspan94">ampak oditi moraš.</tspan></text>
    <text
       xml:space="preserve"
       style="font-style:normal;font-variant:normal;font-weight:normal;font-stretch:normal;font-size:45px;line-height:1.25;font-family:Lavi;-inkscape-font-specification:Lavi;text-align:center;letter-spacing:0px;word-spacing:0px;text-anchor:middle;fill:#000000;fill-opacity:1;stroke:none"
       x="545.53973"
       y="341.91757"
       id="text4246-3-2-2-6-3-7-9-3-3"><tspan
         style="font-size:45px"
         sodipodi:role="line"
         x="545.53973"
         y="341.91757"
         id="tspan96">In to</tspan><tspan
         style="font-size:45px"
         sodipodi:role="line"
         x="545.53973"
         y="398.16757"
         id="tspan10867">zdaj.</tspan></text>
    <text
       xml:space="preserve"
       style="font-style:normal;font-variant:normal;font-weight:normal;font-stretch:normal;font-size:45px;line-height:1.25;font-family:Lavi;-inkscape-font-specification:Lavi;text-align:center;letter-spacing:0px;word-spacing:0px;text-anchor:middle;fill:#000000;fill-opacity:1;stroke:none"
       x="676.57495"
       y="846.57025"
       id="text4246-3-2-2-6-3-7-9-3-3-5"><tspan
         style="font-size:45px"
         sodipodi:role="line"
         x="676.57495"
         y="846.57025"
         id="tspan27-7-3">He?</tspan></text>
    <text
       xml:space="preserve"
       style="font-style:normal;font-variant:normal;font-weight:normal;font-stretch:normal;font-size:45px;line-height:1.25;font-family:Lavi;-inkscape-font-specification:Lavi;text-align:center;letter-spacing:0px;word-spacing:0px;text-anchor:middle;fill:#000000;fill-opacity:1;stroke:none"
       x="1504.052"
       y="179.43707"
       id="text4246-3-2-2-6-3-7-9-3-3-56"><tspan
         style="font-size:45px"
         sodipodi:role="line"
         x="1504.052"
         y="179.43707"
         id="tspan109">Hej hej hej, </tspan><tspan
         style="font-size:45px"
         sodipodi:role="line"
         x="1504.052"
         y="235.68707"
         id="tspan942">Samo trenutek!</tspan><tspan
         style="font-size:45px"
         sodipodi:role="line"
         x="1504.052"
         y="291.93707"
         id="tspan25800">To je zagotovo</tspan><tspan
         style="font-size:45px"
         sodipodi:role="line"
         x="1504.052"
         y="348.18707"
         id="tspan30954">nesporazum.</tspan></text>
    <text
       xml:space="preserve"
       style="font-style:normal;font-variant:normal;font-weight:normal;font-stretch:normal;font-size:45px;line-height:1.25;font-family:Lavi;-inkscape-font-specification:Lavi;text-align:center;letter-spacing:0px;word-spacing:0px;text-anchor:middle;fill:#000000;fill-opacity:1;stroke:none"
       x="2129.2078"
       y="944.56903"
       id="text4246-3-2-2-6-3-7-9-3-3-56-9"><tspan
         style="font-size:45px"
         sodipodi:role="line"
         x="2129.2078"
         y="944.56903"
         id="tspan946">Pepper, prosim,</tspan><tspan
         style="font-size:45px"
         sodipodi:role="line"
         x="2129.2078"
         y="1000.819"
         id="tspan113">ne otežuj zadeve.</tspan></text>
    <text
       xml:space="preserve"
       style="font-style:normal;font-variant:normal;font-weight:normal;font-stretch:normal;font-size:45px;line-height:1.25;font-family:Lavi;-inkscape-font-specification:Lavi;text-align:center;letter-spacing:0px;word-spacing:0px;text-anchor:middle;fill:#000000;fill-opacity:1;stroke:none"
       x="676.42975"
       y="1481.2166"
       id="text4246-3-2-2-6-3-7-9-3-3-56-9-3"><tspan
         style="font-size:45px"
         sodipodi:role="line"
         x="676.42975"
         y="1481.2166"
         id="tspan143">Hej! Vi tam na</tspan><tspan
         style="font-size:45px"
         sodipodi:role="line"
         x="676.42975"
         y="1537.4666"
         id="tspan59989">prestolu. Če imate</tspan><tspan
         style="font-size:45px"
         sodipodi:role="line"
         x="676.42975"
         y="1593.7166"
         id="tspan60037">problem z menoj,</tspan><tspan
         style="font-size:45px"
         sodipodi:role="line"
         x="676.42975"
         y="1649.9666"
         id="tspan61263">mi pridite to </tspan><tspan
         style="font-size:45px"
         sodipodi:role="line"
         x="676.42975"
         y="1706.2166"
         id="tspan63745">sami povedat!</tspan></text>
    <text
       xml:space="preserve"
       style="font-style:normal;font-variant:normal;font-weight:normal;font-stretch:normal;font-size:52.7307px;line-height:1.25;font-family:Lavi;-inkscape-font-specification:Lavi;text-align:center;letter-spacing:0px;word-spacing:0px;text-anchor:middle;fill:#000000;fill-opacity:1;stroke:none;stroke-width:1.17179"
       x="1726.7211"
       y="1258.5393"
       id="text4246-3-2-2-6-3-7-9-3-3-56-9-3-2"><tspan
         style="font-size:52.7307px;stroke-width:1.17179"
         sodipodi:role="line"
         x="1726.7211"
         y="1258.5393"
         id="tspan222-9">Tsss...</tspan></text>
    <text
       xml:space="preserve"
       style="font-style:normal;font-variant:normal;font-weight:normal;font-stretch:normal;font-size:45px;line-height:1.25;font-family:Lavi;-inkscape-font-specification:Lavi;text-align:center;letter-spacing:0px;word-spacing:0px;text-anchor:middle;fill:#000000;fill-opacity:1;stroke:none"
       x="1706.7081"
       y="1577.1074"
       id="text4246-3-2-2-6-3-7-9-3-3-56-9-3-20"><tspan
         style="font-size:45px"
         sodipodi:role="line"
         x="1706.7081"
         y="1577.1074"
         id="tspan222-92">Shichimi, </tspan><tspan
         style="font-size:45px"
         sodipodi:role="line"
         x="1706.7081"
         y="1633.3574"
         id="tspan155">imaš deset</tspan><tspan
         style="font-size:45px"
         sodipodi:role="line"
         x="1706.7081"
         y="1689.6074"
         id="tspan71809">sekund...</tspan></text>
    <text
       xml:space="preserve"
       style="font-style:normal;font-variant:normal;font-weight:normal;font-stretch:normal;font-size:45px;line-height:1.25;font-family:Lavi;-inkscape-font-specification:Lavi;text-align:center;letter-spacing:0px;word-spacing:0px;text-anchor:middle;fill:#000000;fill-opacity:1;stroke:none"
       x="210.39514"
       y="1889.5347"
       id="text4246-3-2-2-6-3-7-9-3-3-56-9-3-20-2"><tspan
         style="font-size:45px"
         sodipodi:role="line"
         x="210.39514"
         y="1889.5347"
         id="tspan334-7">devet...</tspan></text>
    <text
       xml:space="preserve"
       style="font-style:normal;font-variant:normal;font-weight:normal;font-stretch:normal;font-size:45px;line-height:1.25;font-family:Lavi;-inkscape-font-specification:Lavi;text-align:center;letter-spacing:0px;word-spacing:0px;text-anchor:middle;fill:#000000;fill-opacity:1;stroke:none"
       x="399.80328"
       y="1942.1443"
       id="text4246-3-2-2-6-3-7-9-3-3-56-9-3-20-2-3"><tspan
         style="font-size:45px"
         sodipodi:role="line"
         x="399.80328"
         y="1942.1443"
         id="tspan334-7-6">osem...</tspan></text>
    <text
       xml:space="preserve"
       style="font-style:normal;font-variant:normal;font-weight:normal;font-stretch:normal;font-size:45px;line-height:1.25;font-family:Lavi;-inkscape-font-specification:Lavi;text-align:center;letter-spacing:0px;word-spacing:0px;text-anchor:middle;fill:#000000;fill-opacity:1;stroke:none"
       x="560.51343"
       y="2028.3048"
       id="text4246-3-2-2-6-3-7-9-3-3-56-9-3-20-2-3-1"><tspan
         style="font-size:45px"
         sodipodi:role="line"
         x="560.51343"
         y="2028.3048"
         id="tspan334-7-6-2">sedem...</tspan></text>
    <text
       xml:space="preserve"
       style="font-style:normal;font-variant:normal;font-weight:normal;font-stretch:normal;font-size:55.953px;line-height:1.25;font-family:Lavi;-inkscape-font-specification:Lavi;text-align:center;letter-spacing:0px;word-spacing:0px;text-anchor:middle;fill:#000000;fill-opacity:1;stroke:none;stroke-width:0.902468"
       x="1126.5292"
       y="2105.6052"
       id="text4246-3-2-2-6-3-7-9-3-3-56-9-3-20-2-3-1-9"
       transform="skewX(-4.8400228)"><tspan
         style="font-style:normal;font-variant:normal;font-weight:bold;font-stretch:normal;font-size:55.953px;font-family:Lavi;-inkscape-font-specification:'Lavi Bold';stroke-width:0.902468"
         sodipodi:role="line"
         x="1126.5292"
         y="2105.6052"
         id="tspan451">DOVOLJ, </tspan><tspan
         style="font-style:normal;font-variant:normal;font-weight:bold;font-stretch:normal;font-size:55.953px;font-family:Lavi;-inkscape-font-specification:'Lavi Bold';stroke-width:0.902468"
         sodipodi:role="line"
         x="1126.5292"
         y="2175.5464"
         id="tspan457">PEPPER!</tspan><tspan
         style="font-style:normal;font-variant:normal;font-weight:bold;font-stretch:normal;font-size:55.953px;font-family:Lavi;-inkscape-font-specification:'Lavi Bold';stroke-width:0.902468"
         sodipodi:role="line"
         x="1126.5292"
         y="2245.4878"
         id="tspan918">IZGINI!!!</tspan></text>
    <text
       xml:space="preserve"
       style="font-style:normal;font-variant:normal;font-weight:normal;font-stretch:normal;font-size:180px;line-height:1.25;font-family:Lavi;-inkscape-font-specification:Lavi;letter-spacing:0px;word-spacing:0px;fill:#ffffff;fill-opacity:1;stroke:#ffffff;stroke-width:0.74524;stroke-miterlimit:4;stroke-dasharray:none;stroke-opacity:1;filter:url(#filter4375-4-1-1-1-9-5-8-8-5-5-3-3)"
       id="text4580-6-0-0-0-9-3-3"
       transform="matrix(0.88341196,-0.53750677,0,1.1213027,-74.551071,722.92786)"
       x="418.61386"
       y="279.76691"><textPath
         xlink:href="#path974"
         id="textPath2837"
         style="font-size:180px;stroke-width:0.74524"><tspan
           style="font-size:180px;fill:#ffffff;fill-opacity:1;stroke:#ffffff;stroke-width:0.74524;stroke-miterlimit:4;stroke-dasharray:none;stroke-opacity:1"
           id="tspan876-6-6"
           rotate="325 325 325 325 325 325 325 325 325 0">ZZZZIiii!</tspan></textPath></text>
    <path
       style="fill:none;fill-rule:evenodd;stroke:none;stroke-width:1.13654px;stroke-linecap:butt;stroke-linejoin:miter;stroke-opacity:1"
       d="m 2062.1793,2191.5476 c 235.3161,220.1206 417.0174,422.7368 620.7004,632.5297"
       id="path974"
       sodipodi:nodetypes="cc" />
  </g>
</svg>
