<?xml version="1.0" encoding="UTF-8" standalone="no"?>
<svg
   id="svg2"
   version="1.1"
   inkscape:version="1.1.1 (3bf5ae0d25, 2021-09-20, custom)"
   width="2481"
   height="3503"
   sodipodi:docname="E34P06.svg"
   xmlns:inkscape="http://www.inkscape.org/namespaces/inkscape"
   xmlns:sodipodi="http://sodipodi.sourceforge.net/DTD/sodipodi-0.dtd"
   xmlns:xlink="http://www.w3.org/1999/xlink"
   xmlns="http://www.w3.org/2000/svg"
   xmlns:svg="http://www.w3.org/2000/svg"
   xmlns:rdf="http://www.w3.org/1999/02/22-rdf-syntax-ns#"
   xmlns:cc="http://creativecommons.org/ns#"
   xmlns:dc="http://purl.org/dc/elements/1.1/">
  <metadata
     id="metadata8">
    <rdf:RDF>
      <cc:Work
         rdf:about="">
        <dc:format>image/svg+xml</dc:format>
        <dc:type
           rdf:resource="http://purl.org/dc/dcmitype/StillImage" />
        <dc:title />
      </cc:Work>
    </rdf:RDF>
  </metadata>
  <defs
     id="defs6">
    <filter
       style="color-interpolation-filters:sRGB"
       id="filter4375-4-1-1-1-9-5-8-8-5-5-3-3"
       inkscape:label="soundFX1"
       x="-0.014032675"
       y="-0.00071497849"
       width="1.0145121"
       height="1.002186">
      <feFlood
         id="feFlood4377-7-9-0-8-1-7-3-1-2-7-6-6"
         flood-opacity="1"
         flood-color="rgb(52,52,52)"
         result="flood" />
      <feComposite
         id="feComposite4379-3-8-8-2-77-4-1-0-6-4-7-7"
         in2="SourceGraphic"
         in="flood"
         operator="in"
         result="composite1"
         baseFrequency="0.053999999999999999 0.053999999999999999" />
      <feMorphology
         id="feMorphology4393-1-0-49-8-9-3-0-1-9-9-5-5"
         operator="dilate"
         radius="4.366144675354084"
         result="result3" />
      <feComposite
         id="feComposite4385-9-5-7-0-8-8-7-5-4-9-3-3"
         in2="result3"
         in="SourceGraphic"
         operator="over"
         result="fbSourceGraphic" />
      <feColorMatrix
         result="fbSourceGraphicAlpha"
         in="fbSourceGraphic"
         values="0 0 0 -1 0 0 0 0 -1 0 0 0 0 -1 0 0 0 0 1 0"
         id="feColorMatrix4544-9-4-4-5-5" />
      <feTurbulence
         id="feTurbulence4546-3-6-5-6-6"
         type="fractalNoise"
         numOctaves="4"
         seed="147"
         baseFrequency="0.053999999999999999 0.054054054054054057"
         result="turbulence" />
      <feDisplacementMap
         id="feDisplacementMap4548-8-0-9-2-2"
         in2="turbulence"
         in="fbSourceGraphic"
         scale="10.561763"
         yChannelSelector="G"
         xChannelSelector="R"
         result="fbSourceGraphic" />
      <feColorMatrix
         result="fbSourceGraphicAlpha"
         in="fbSourceGraphic"
         values="0 0 0 -1 0 0 0 0 -1 0 0 0 0 -1 0 0 0 0 1 0"
         id="feColorMatrix4670-7-7-3-9-9" />
      <feFlood
         id="feFlood4672-4-4-5-1-1"
         flood-opacity="1"
         flood-color="rgb(28,28,28)"
         result="flood"
         in="fbSourceGraphic" />
      <feComposite
         id="feComposite4674-8-3-7-2-2"
         in2="fbSourceGraphic"
         in="flood"
         operator="in"
         result="composite1" />
      <feGaussianBlur
         id="feGaussianBlur4676-3-7-08-7-7"
         in="composite1"
         stdDeviation="0"
         result="blur" />
      <feOffset
         id="feOffset4678-6-9-1-0-0"
         dx="-10.48377497279229"
         dy="0.39217365321829334"
         result="offset" />
      <feComposite
         id="feComposite4680-4-0-9-9-9"
         in2="offset"
         in="fbSourceGraphic"
         operator="over"
         result="composite2" />
    </filter>
    <filter
       style="color-interpolation-filters:sRGB"
       id="filter4375-4-1-1-1-9-5-8-8-5-5-3-3-3"
       inkscape:label="soundFX1"
       x="-0.027948216"
       y="-0.0040729708"
       width="1.0288121"
       height="1.0129228">
      <feFlood
         id="feFlood4377-7-9-0-8-1-7-3-1-2-7-6-6-5"
         flood-opacity="1"
         flood-color="rgb(52,52,52)"
         result="flood" />
      <feComposite
         id="feComposite4379-3-8-8-2-77-4-1-0-6-4-7-7-6"
         in2="SourceGraphic"
         in="flood"
         operator="in"
         result="composite1"
         baseFrequency="0.053999999999999999 0.053999999999999999" />
      <feMorphology
         id="feMorphology4393-1-0-49-8-9-3-0-1-9-9-5-5-2"
         operator="dilate"
         radius="4.0330969769021738"
         result="result3" />
      <feComposite
         id="feComposite4385-9-5-7-0-8-8-7-5-4-9-3-3-9"
         in2="result3"
         in="SourceGraphic"
         operator="over"
         result="fbSourceGraphic" />
      <feColorMatrix
         result="fbSourceGraphicAlpha"
         in="fbSourceGraphic"
         values="0 0 0 -1 0 0 0 0 -1 0 0 0 0 -1 0 0 0 0 1 0"
         id="feColorMatrix4544-9-4-4-5-5-1" />
      <feTurbulence
         id="feTurbulence4546-3-6-5-6-6-2"
         type="fractalNoise"
         numOctaves="4"
         seed="147"
         baseFrequency="0.046080819231719368"
         result="turbulence" />
      <feDisplacementMap
         id="feDisplacementMap4548-8-0-9-2-2-7"
         in2="turbulence"
         in="fbSourceGraphic"
         scale="13.203259801572088"
         yChannelSelector="G"
         xChannelSelector="R"
         result="fbSourceGraphic" />
      <feColorMatrix
         result="fbSourceGraphicAlpha"
         in="fbSourceGraphic"
         values="0 0 0 -1 0 0 0 0 -1 0 0 0 0 -1 0 0 0 0 1 0"
         id="feColorMatrix4670-7-7-3-9-9-0" />
      <feFlood
         id="feFlood4672-4-4-5-1-1-9"
         flood-opacity="1"
         flood-color="rgb(28,28,28)"
         result="flood"
         in="fbSourceGraphic" />
      <feComposite
         id="feComposite4674-8-3-7-2-2-3"
         in2="fbSourceGraphic"
         in="flood"
         operator="in"
         result="composite1" />
      <feGaussianBlur
         id="feGaussianBlur4676-3-7-08-7-7-6"
         in="composite1"
         stdDeviation="0"
         result="blur" />
      <feOffset
         id="feOffset4678-6-9-1-0-0-0"
         dx="-10.48377497279229"
         dy="0.39217365321829334"
         result="offset" />
      <feComposite
         id="feComposite4680-4-0-9-9-9-6"
         in2="offset"
         in="fbSourceGraphic"
         operator="over"
         result="composite2" />
    </filter>
    <filter
       style="color-interpolation-filters:sRGB"
       id="filter4375-4-1-1-1-9-5-8-8-5-5-3-3-3-7"
       inkscape:label="soundFX1">
      <feFlood
         id="feFlood4377-7-9-0-8-1-7-3-1-2-7-6-6-5-9"
         flood-opacity="1"
         flood-color="rgb(52,52,52)"
         result="flood" />
      <feComposite
         id="feComposite4379-3-8-8-2-77-4-1-0-6-4-7-7-6-2"
         in2="SourceGraphic"
         in="flood"
         operator="in"
         result="composite1"
         baseFrequency="0.053999999999999999 0.053999999999999999" />
      <feMorphology
         id="feMorphology4393-1-0-49-8-9-3-0-1-9-9-5-5-2-0"
         operator="dilate"
         radius="4.0330969769021738"
         result="result3" />
      <feComposite
         id="feComposite4385-9-5-7-0-8-8-7-5-4-9-3-3-9-2"
         in2="result3"
         in="SourceGraphic"
         operator="over"
         result="fbSourceGraphic" />
      <feColorMatrix
         result="fbSourceGraphicAlpha"
         in="fbSourceGraphic"
         values="0 0 0 -1 0 0 0 0 -1 0 0 0 0 -1 0 0 0 0 1 0"
         id="feColorMatrix4544-9-4-4-5-5-1-3" />
      <feTurbulence
         id="feTurbulence4546-3-6-5-6-6-2-7"
         type="fractalNoise"
         numOctaves="4"
         seed="147"
         baseFrequency="0.053999999999999999 0.054054054054054057"
         result="turbulence" />
      <feDisplacementMap
         id="feDisplacementMap4548-8-0-9-2-2-7-5"
         in2="turbulence"
         in="fbSourceGraphic"
         scale="10.561763"
         yChannelSelector="G"
         xChannelSelector="R"
         result="fbSourceGraphic" />
      <feColorMatrix
         result="fbSourceGraphicAlpha"
         in="fbSourceGraphic"
         values="0 0 0 -1 0 0 0 0 -1 0 0 0 0 -1 0 0 0 0 1 0"
         id="feColorMatrix4670-7-7-3-9-9-0-9" />
      <feFlood
         id="feFlood4672-4-4-5-1-1-9-2"
         flood-opacity="1"
         flood-color="rgb(28,28,28)"
         result="flood"
         in="fbSourceGraphic" />
      <feComposite
         id="feComposite4674-8-3-7-2-2-3-2"
         in2="fbSourceGraphic"
         in="flood"
         operator="in"
         result="composite1" />
      <feGaussianBlur
         id="feGaussianBlur4676-3-7-08-7-7-6-8"
         in="composite1"
         stdDeviation="0"
         result="blur" />
      <feOffset
         id="feOffset4678-6-9-1-0-0-0-9"
         dx="-10.48377497279229"
         dy="0.39217365321829334"
         result="offset" />
      <feComposite
         id="feComposite4680-4-0-9-9-9-6-7"
         in2="offset"
         in="fbSourceGraphic"
         operator="over"
         result="composite2" />
    </filter>
    <filter
       style="color-interpolation-filters:sRGB"
       id="filter4375-4-1-1-1-9-5-8-8-5-5-3-3-3-4"
       inkscape:label="soundFX1"
       x="-0.019843001"
       y="-0.0032600041"
       width="1.0209502"
       height="1.0103434">
      <feFlood
         id="feFlood4377-7-9-0-8-1-7-3-1-2-7-6-6-5-5"
         flood-opacity="1"
         flood-color="rgb(52,52,52)"
         result="flood" />
      <feComposite
         id="feComposite4379-3-8-8-2-77-4-1-0-6-4-7-7-6-0"
         in2="SourceGraphic"
         in="flood"
         operator="in"
         result="composite1"
         baseFrequency="0.053999999999999999 0.053999999999999999" />
      <feMorphology
         id="feMorphology4393-1-0-49-8-9-3-0-1-9-9-5-5-2-3"
         operator="dilate"
         radius="1.8999624943387681"
         result="result3" />
      <feComposite
         id="feComposite4385-9-5-7-0-8-8-7-5-4-9-3-3-9-6"
         in2="result3"
         in="SourceGraphic"
         operator="over"
         result="fbSourceGraphic" />
      <feColorMatrix
         result="fbSourceGraphicAlpha"
         in="fbSourceGraphic"
         values="0 0 0 -1 0 0 0 0 -1 0 0 0 0 -1 0 0 0 0 1 0"
         id="feColorMatrix4544-9-4-4-5-5-1-1" />
      <feTurbulence
         id="feTurbulence4546-3-6-5-6-6-2-0"
         type="fractalNoise"
         numOctaves="3"
         seed="88"
         baseFrequency="0.03818384303719944"
         result="turbulence" />
      <feDisplacementMap
         id="feDisplacementMap4548-8-0-9-2-2-7-6"
         in2="turbulence"
         in="fbSourceGraphic"
         scale="9.636552494727761"
         yChannelSelector="G"
         xChannelSelector="R"
         result="fbSourceGraphic" />
      <feColorMatrix
         result="fbSourceGraphicAlpha"
         in="fbSourceGraphic"
         values="0 0 0 -1 0 0 0 0 -1 0 0 0 0 -1 0 0 0 0 1 0"
         id="feColorMatrix4670-7-7-3-9-9-0-3" />
      <feFlood
         id="feFlood4672-4-4-5-1-1-9-20"
         flood-opacity="1"
         flood-color="rgb(28,28,28)"
         result="flood"
         in="fbSourceGraphic" />
      <feComposite
         id="feComposite4674-8-3-7-2-2-3-6"
         in2="fbSourceGraphic"
         in="flood"
         operator="in"
         result="composite1" />
      <feGaussianBlur
         id="feGaussianBlur4676-3-7-08-7-7-6-1"
         in="composite1"
         stdDeviation="0"
         result="blur" />
      <feOffset
         id="feOffset4678-6-9-1-0-0-0-5"
         dx="-5.6583689219916096"
         dy="0.39217365321829334"
         result="offset" />
      <feComposite
         id="feComposite4680-4-0-9-9-9-6-5"
         in2="offset"
         in="fbSourceGraphic"
         operator="over"
         result="composite2" />
    </filter>
    <filter
       style="color-interpolation-filters:sRGB"
       id="filter4375-4-1-1-1-9-5-8-8-5-5-3-3-3-4-9"
       inkscape:label="soundFX1"
       x="-0.019843001"
       y="-0.0032600041"
       width="1.0209502"
       height="1.0103434">
      <feFlood
         id="feFlood4377-7-9-0-8-1-7-3-1-2-7-6-6-5-5-3"
         flood-opacity="1"
         flood-color="rgb(52,52,52)"
         result="flood" />
      <feComposite
         id="feComposite4379-3-8-8-2-77-4-1-0-6-4-7-7-6-0-7"
         in2="SourceGraphic"
         in="flood"
         operator="in"
         result="composite1"
         baseFrequency="0.053999999999999999 0.053999999999999999" />
      <feMorphology
         id="feMorphology4393-1-0-49-8-9-3-0-1-9-9-5-5-2-3-4"
         operator="dilate"
         radius="1.8999624943387681"
         result="result3" />
      <feComposite
         id="feComposite4385-9-5-7-0-8-8-7-5-4-9-3-3-9-6-5"
         in2="result3"
         in="SourceGraphic"
         operator="over"
         result="fbSourceGraphic" />
      <feColorMatrix
         result="fbSourceGraphicAlpha"
         in="fbSourceGraphic"
         values="0 0 0 -1 0 0 0 0 -1 0 0 0 0 -1 0 0 0 0 1 0"
         id="feColorMatrix4544-9-4-4-5-5-1-1-2" />
      <feTurbulence
         id="feTurbulence4546-3-6-5-6-6-2-0-5"
         type="fractalNoise"
         numOctaves="3"
         seed="88"
         baseFrequency="0.03818384303719944"
         result="turbulence" />
      <feDisplacementMap
         id="feDisplacementMap4548-8-0-9-2-2-7-6-4"
         in2="turbulence"
         in="fbSourceGraphic"
         scale="9.6365525"
         yChannelSelector="G"
         xChannelSelector="R"
         result="fbSourceGraphic" />
      <feColorMatrix
         result="fbSourceGraphicAlpha"
         in="fbSourceGraphic"
         values="0 0 0 -1 0 0 0 0 -1 0 0 0 0 -1 0 0 0 0 1 0"
         id="feColorMatrix4670-7-7-3-9-9-0-3-7" />
      <feFlood
         id="feFlood4672-4-4-5-1-1-9-20-4"
         flood-opacity="1"
         flood-color="rgb(28,28,28)"
         result="flood"
         in="fbSourceGraphic" />
      <feComposite
         id="feComposite4674-8-3-7-2-2-3-6-4"
         in2="fbSourceGraphic"
         in="flood"
         operator="in"
         result="composite1" />
      <feGaussianBlur
         id="feGaussianBlur4676-3-7-08-7-7-6-1-3"
         in="composite1"
         stdDeviation="0"
         result="blur" />
      <feOffset
         id="feOffset4678-6-9-1-0-0-0-5-0"
         dx="-5.6583689219916096"
         dy="0.39217365321829334"
         result="offset" />
      <feComposite
         id="feComposite4680-4-0-9-9-9-6-5-7"
         in2="offset"
         in="fbSourceGraphic"
         operator="over"
         result="composite2" />
    </filter>
    <filter
       style="color-interpolation-filters:sRGB"
       id="filter4375-4-1-1-1-9-5-8-8-5-5-3-3-3-4-9-6"
       inkscape:label="soundFX1"
       x="-0.021275529"
       y="-0.0032681797"
       width="1.0224627"
       height="1.0103693">
      <feFlood
         id="feFlood4377-7-9-0-8-1-7-3-1-2-7-6-6-5-5-3-8"
         flood-opacity="1"
         flood-color="rgb(52,52,52)"
         result="flood" />
      <feComposite
         id="feComposite4379-3-8-8-2-77-4-1-0-6-4-7-7-6-0-7-8"
         in2="SourceGraphic"
         in="flood"
         operator="in"
         result="composite1"
         baseFrequency="0.053999999999999999 0.053999999999999999" />
      <feMorphology
         id="feMorphology4393-1-0-49-8-9-3-0-1-9-9-5-5-2-3-4-4"
         operator="dilate"
         radius="1.8999624943387681"
         result="result3" />
      <feComposite
         id="feComposite4385-9-5-7-0-8-8-7-5-4-9-3-3-9-6-5-3"
         in2="result3"
         in="SourceGraphic"
         operator="over"
         result="fbSourceGraphic" />
      <feColorMatrix
         result="fbSourceGraphicAlpha"
         in="fbSourceGraphic"
         values="0 0 0 -1 0 0 0 0 -1 0 0 0 0 -1 0 0 0 0 1 0"
         id="feColorMatrix4544-9-4-4-5-5-1-1-2-1" />
      <feTurbulence
         id="feTurbulence4546-3-6-5-6-6-2-0-5-4"
         type="fractalNoise"
         numOctaves="3"
         seed="88"
         baseFrequency="0.03818384303719944"
         result="turbulence" />
      <feDisplacementMap
         id="feDisplacementMap4548-8-0-9-2-2-7-6-4-9"
         in2="turbulence"
         in="fbSourceGraphic"
         scale="9.6365525"
         yChannelSelector="G"
         xChannelSelector="R"
         result="fbSourceGraphic" />
      <feColorMatrix
         result="fbSourceGraphicAlpha"
         in="fbSourceGraphic"
         values="0 0 0 -1 0 0 0 0 -1 0 0 0 0 -1 0 0 0 0 1 0"
         id="feColorMatrix4670-7-7-3-9-9-0-3-7-2" />
      <feFlood
         id="feFlood4672-4-4-5-1-1-9-20-4-0"
         flood-opacity="1"
         flood-color="rgb(28,28,28)"
         result="flood"
         in="fbSourceGraphic" />
      <feComposite
         id="feComposite4674-8-3-7-2-2-3-6-4-6"
         in2="fbSourceGraphic"
         in="flood"
         operator="in"
         result="composite1" />
      <feGaussianBlur
         id="feGaussianBlur4676-3-7-08-7-7-6-1-3-8"
         in="composite1"
         stdDeviation="0"
         result="blur" />
      <feOffset
         id="feOffset4678-6-9-1-0-0-0-5-0-9"
         dx="-5.6583689219916096"
         dy="0.39217365321829334"
         result="offset" />
      <feComposite
         id="feComposite4680-4-0-9-9-9-6-5-7-2"
         in2="offset"
         in="fbSourceGraphic"
         operator="over"
         result="composite2" />
    </filter>
    <filter
       style="color-interpolation-filters:sRGB"
       id="filter4375-4-1-1-1-9-5-8-8-5-5-3-3-3-4-9-64"
       inkscape:label="soundFX1"
       x="-0.021275529"
       y="-0.0032681797"
       width="1.0224627"
       height="1.0103693">
      <feFlood
         id="feFlood4377-7-9-0-8-1-7-3-1-2-7-6-6-5-5-3-9"
         flood-opacity="1"
         flood-color="rgb(52,52,52)"
         result="flood" />
      <feComposite
         id="feComposite4379-3-8-8-2-77-4-1-0-6-4-7-7-6-0-7-5"
         in2="SourceGraphic"
         in="flood"
         operator="in"
         result="composite1"
         baseFrequency="0.053999999999999999 0.053999999999999999" />
      <feMorphology
         id="feMorphology4393-1-0-49-8-9-3-0-1-9-9-5-5-2-3-4-0"
         operator="dilate"
         radius="1.8999624943387681"
         result="result3" />
      <feComposite
         id="feComposite4385-9-5-7-0-8-8-7-5-4-9-3-3-9-6-5-4"
         in2="result3"
         in="SourceGraphic"
         operator="over"
         result="fbSourceGraphic" />
      <feColorMatrix
         result="fbSourceGraphicAlpha"
         in="fbSourceGraphic"
         values="0 0 0 -1 0 0 0 0 -1 0 0 0 0 -1 0 0 0 0 1 0"
         id="feColorMatrix4544-9-4-4-5-5-1-1-2-8" />
      <feTurbulence
         id="feTurbulence4546-3-6-5-6-6-2-0-5-7"
         type="fractalNoise"
         numOctaves="3"
         seed="88"
         baseFrequency="0.03818384303719944"
         result="turbulence" />
      <feDisplacementMap
         id="feDisplacementMap4548-8-0-9-2-2-7-6-4-1"
         in2="turbulence"
         in="fbSourceGraphic"
         scale="9.6365525"
         yChannelSelector="G"
         xChannelSelector="R"
         result="fbSourceGraphic" />
      <feColorMatrix
         result="fbSourceGraphicAlpha"
         in="fbSourceGraphic"
         values="0 0 0 -1 0 0 0 0 -1 0 0 0 0 -1 0 0 0 0 1 0"
         id="feColorMatrix4670-7-7-3-9-9-0-3-7-7" />
      <feFlood
         id="feFlood4672-4-4-5-1-1-9-20-4-2"
         flood-opacity="1"
         flood-color="rgb(28,28,28)"
         result="flood"
         in="fbSourceGraphic" />
      <feComposite
         id="feComposite4674-8-3-7-2-2-3-6-4-7"
         in2="fbSourceGraphic"
         in="flood"
         operator="in"
         result="composite1" />
      <feGaussianBlur
         id="feGaussianBlur4676-3-7-08-7-7-6-1-3-2"
         in="composite1"
         stdDeviation="0"
         result="blur" />
      <feOffset
         id="feOffset4678-6-9-1-0-0-0-5-0-2"
         dx="-5.6583689219916096"
         dy="0.39217365321829334"
         result="offset" />
      <feComposite
         id="feComposite4680-4-0-9-9-9-6-5-7-6"
         in2="offset"
         in="fbSourceGraphic"
         operator="over"
         result="composite2" />
    </filter>
    <filter
       style="color-interpolation-filters:sRGB"
       id="filter4375-4-1-1-1-9-5-8-8-5-5-3-3-3-0"
       inkscape:label="soundFX1"
       x="-0.031755366"
       y="-0.0054401129"
       width="1.0329722"
       height="1.0361403">
      <feFlood
         id="feFlood4377-7-9-0-8-1-7-3-1-2-7-6-6-5-96"
         flood-opacity="1"
         flood-color="rgb(52,52,52)"
         result="flood" />
      <feComposite
         id="feComposite4379-3-8-8-2-77-4-1-0-6-4-7-7-6-3"
         in2="SourceGraphic"
         in="flood"
         operator="in"
         result="composite1"
         baseFrequency="0.053999999999999999 0.053999999999999999" />
      <feMorphology
         id="feMorphology4393-1-0-49-8-9-3-0-1-9-9-5-5-2-8"
         operator="dilate"
         radius="2.5856550817276021"
         result="result3" />
      <feComposite
         id="feComposite4385-9-5-7-0-8-8-7-5-4-9-3-3-9-5"
         in2="result3"
         in="SourceGraphic"
         operator="over"
         result="fbSourceGraphic" />
      <feColorMatrix
         result="fbSourceGraphicAlpha"
         in="fbSourceGraphic"
         values="0 0 0 -1 0 0 0 0 -1 0 0 0 0 -1 0 0 0 0 1 0"
         id="feColorMatrix4544-9-4-4-5-5-1-6" />
      <feTurbulence
         id="feTurbulence4546-3-6-5-6-6-2-1"
         type="fractalNoise"
         numOctaves="4"
         seed="147"
         baseFrequency="0.046080819231719368"
         result="turbulence" />
      <feDisplacementMap
         id="feDisplacementMap4548-8-0-9-2-2-7-1"
         in2="turbulence"
         in="fbSourceGraphic"
         scale="13.20326"
         yChannelSelector="G"
         xChannelSelector="R"
         result="fbSourceGraphic" />
      <feColorMatrix
         result="fbSourceGraphicAlpha"
         in="fbSourceGraphic"
         values="0 0 0 -1 0 0 0 0 -1 0 0 0 0 -1 0 0 0 0 1 0"
         id="feColorMatrix4670-7-7-3-9-9-0-5" />
      <feFlood
         id="feFlood4672-4-4-5-1-1-9-9"
         flood-opacity="1"
         flood-color="rgb(28,28,28)"
         result="flood"
         in="fbSourceGraphic" />
      <feComposite
         id="feComposite4674-8-3-7-2-2-3-8"
         in2="fbSourceGraphic"
         in="flood"
         operator="in"
         result="composite1" />
      <feGaussianBlur
         id="feGaussianBlur4676-3-7-08-7-7-6-4"
         in="composite1"
         stdDeviation="0"
         result="blur" />
      <feOffset
         id="feOffset4678-6-9-1-0-0-0-8"
         dx="-8.3919392296330813"
         dy="1.5526614972014983"
         result="offset" />
      <feComposite
         id="feComposite4680-4-0-9-9-9-6-1"
         in2="offset"
         in="fbSourceGraphic"
         operator="over"
         result="composite2" />
    </filter>
  </defs>
  <sodipodi:namedview
     pagecolor="#ffffff"
     bordercolor="#666666"
     borderopacity="1"
     objecttolerance="10"
     gridtolerance="10"
     guidetolerance="10"
     inkscape:pageopacity="0"
     inkscape:pageshadow="2"
     inkscape:window-width="1888"
     inkscape:window-height="1146"
     id="namedview4"
     showgrid="false"
     inkscape:zoom="0.60835003"
     inkscape:cx="1509.8216"
     inkscape:cy="1864.8803"
     inkscape:window-x="32"
     inkscape:window-y="0"
     inkscape:window-maximized="1"
     inkscape:current-layer="layer1"
     inkscape:document-rotation="0"
     inkscape:snap-global="false"
     borderlayer="true"
     inkscape:pagecheckerboard="0" />
  <g
     inkscape:groupmode="layer"
     id="layer2"
     inkscape:label="artwork"
     sodipodi:insensitive="true">
    <image
       xlink:href="../gfx_Pepper-and-Carrot_by-David-Revoy_E34P06.png"
       y="0"
       x="0"
       id="image10"
       height="3503"
       width="2481" />
  </g>
  <g
     inkscape:groupmode="layer"
     id="layer3"
     inkscape:label="speechbubbles"
     style="display:inline">
    <path
       style="fill:#ffffff;fill-rule:evenodd;stroke:none;stroke-width:0.899411px;stroke-linecap:butt;stroke-linejoin:miter;stroke-opacity:1"
       d="M 1774.549,328.95397 C 1692.5239,277.18712 1590.5635,208.8837 1566.9348,205.55728 l 56.4745,-7.22201 c 42.4559,21.927 100.5568,86.52553 151.1397,130.6187 z"
       id="path1850"
       sodipodi:nodetypes="cccc" />
    <path
       style="fill:#ffffff;fill-rule:evenodd;stroke:none;stroke-width:1px;stroke-linecap:butt;stroke-linejoin:miter;stroke-opacity:1"
       d="m 1208.6571,373.31112 c 49.2583,-39.41021 79.5827,-88.63993 56.7328,11.30305 43.5899,-53.16195 74.9624,-79.96469 53.6466,6.90924 21.0485,-34.68204 40.9389,-50.17029 58.6798,-30.03589 13.8889,-41.69188 27.7779,-23.30306 41.6668,-22.75955 9.0195,-57.38393 24.9916,-25.34862 40.233,-2.71166 10.04,-40.60661 19.7002,-83.14603 52.339,-8.73776 8.9038,-54.35637 21.7662,-71.42177 39.8843,-38.97549 6.5704,-45.27682 21.7225,-42.0923 39.948,-21.55204 -6.8593,-31.9811 -0.6362,-42.75291 14.3963,-39.24298 -0.6494,-9.83447 -5.2827,-31.50661 36.497,-1.46579 -11.4648,-18.23482 -11.7074,-28.12277 37.0688,-1.5511 -5.0613,-17.97129 -6.6232,-33.5816 32.1668,-21.96776 -0.8245,-9.51745 -10.8612,-25.96844 32.0277,-2.58493 -13.5325,-18.87138 -28.996,-38.20897 13.0416,-43.66447 -21.3754,-14.12459 -15.7779,-33.9611 29.6581,-62.233995 -100.3754,18.857585 -88.1145,-32.60424 -83.6548,-58.605799 l -412.4389,20.916798 2.0938,39.699792 c 28.0429,49.282364 1.4803,39.805324 -23.4228,12.019114 27.1622,43.61495 14.143,37.80231 -35.8941,18.85704 40.6065,65.68161 6.663,51.17259 -23.0445,55.5494 73.8121,36.39964 26.0245,51.10118 7.4079,60.79237 82.0515,-2.67503 34.8642,21.33521 1.969,45.3434 52.7746,-15.93514 45.1137,-4.71021 -11.0022,84.69901 z"
       id="path1848"
       sodipodi:nodetypes="ccccccccccccccccccccccccc" />
    <path
       style="display:inline;fill:#ffffff;fill-rule:evenodd;stroke:none;stroke-width:0.79001px;stroke-linecap:butt;stroke-linejoin:miter;stroke-opacity:1"
       d="m 252.04848,352.03135 c 0,0 -30.47195,-8.96799 -30.36473,-21.57651 0.10659,-12.60804 19.47778,-31.53529 19.47778,-31.53529 0,0 -27.19912,-7.93017 -20.96854,-41.08551 6.23063,-33.15529 48.41779,-53.27632 41.72857,-30.9357 -6.68916,22.34068 -34.94236,61.24183 25.28223,67.01061 -46.69326,28.81415 -37.08762,29.19956 -36.52905,34.12009 0.55795,4.92111 23.67543,11.36179 32.73328,13.29229 -35.24944,26.26432 -32.25349,41.2194 -23.98301,65.37595 -15.29097,-15.1862 -27.68266,-29.20986 -7.37653,-54.66593 z"
       id="path4394-0"
       inkscape:connector-curvature="0"
       sodipodi:nodetypes="cscsscsccc" />
    <path
       style="display:inline;fill:#ffffff;stroke:none;stroke-width:0.984173"
       d="m 231.5918,82.380859 c -34.12266,-0.275006 -67.5539,14.977314 -91.19915,39.310201 -16.1991,16.68247 -29.34134,37.36368 -33.30751,60.57714 -4.1003,25.85889 1.47811,52.83735 13.97517,75.70252 12.22301,21.69677 32.7174,38.78795 56.65991,45.95986 15.25358,4.83986 31.12244,7.48872 46.99503,9.27753 26.98286,2.54093 54.1145,0.71255 81.08991,-0.96236 19.95216,-1.57235 39.84893,-5.57739 58.28818,-13.52226 16.26541,-6.76278 31.91101,-15.92895 43.99422,-28.9113 11.61293,-14.03417 15.55705,-32.94098 14.57039,-50.79415 -0.17856,-23.32686 -3.5409,-47.39364 -15.15278,-67.9883 C 392.39369,124.07484 365.21498,105.3267 335.86667,96.850893 302.08914,86.884856 266.82154,81.817526 231.5918,82.380859 Z"
       id="path3280-5-9"
       inkscape:connector-curvature="0"
       sodipodi:nodetypes="csssc" />
    <path
       style="fill:#ffffff;fill-rule:evenodd;stroke:none;stroke-width:0.888009px;stroke-linecap:butt;stroke-linejoin:miter;stroke-opacity:1"
       d="m 1242.7901,1591.969 c -9.3238,-96.0029 -16.1288,-211.0629 -37.9472,-212.5388 l 27.7377,-22.3318 c 17.3035,11.4648 12.8237,161.6834 10.2095,234.8706 z"
       id="path1881"
       sodipodi:nodetypes="cccc" />
    <path
       style="display:inline;fill:#ffffff;fill-rule:evenodd;stroke:none;stroke-width:0.888165px;stroke-linecap:butt;stroke-linejoin:miter;stroke-opacity:1"
       d="m 1348.7856,1243.5756 c -27.377,21.6922 -26.0874,30.0875 5.0946,24.6181 -29.0263,15.1067 -21.5271,17.5597 -5.5088,17.0604 -31.6365,45.327 -15.9131,63.7715 0.9244,81.5836 -44.0786,2.2943 -41.5922,21.6774 -49.3034,37.3186 -14.9717,-22.4049 -15.9301,-4.9758 -12.9784,23.568 -16.8573,-29.6628 -24.0278,-30.3253 -22.3671,-4.5425 -13.6743,-17.8921 -27.1241,-22.3805 -40.3148,-11.4623 -32.1491,-11.0373 -36.611,18.1812 -50.0215,34.3886 -11.7454,-19.4535 -24.5858,-16.4119 -37.7749,-6.1973 -9.2025,-6.9999 -17.7754,-18.5819 -31.3274,6.0849 -8.7297,-16.3422 -14.8502,-1.205 -21.7728,4.2584 6.8899,-12.6966 -10.2157,-10.7598 -54.9229,8.0079 16.4907,-10.3768 13.3319,-16.8429 -13.019,-18.6936 24.4418,-17.0076 21.3784,-27.7675 3.8657,-35.2454 26.1354,-26.3258 -8.8867,-34.2476 -28.6486,-46.7613 33.1829,-0.9276 59.8051,-0.8575 58.7516,-28.1441 41.5227,12.477 40.69,-10.0419 33.6426,-18.2749 35.5668,15.6183 28.3385,-5.0467 33.8538,-14.9071 88.098,6.4838 77.2421,-22.99 89.5359,-44.0517 15.7587,32.8159 29.1395,14.6063 42.5107,-3.814 7.1229,29.5113 9.992,17.5561 17.9639,6.9653 4.6308,12.2882 20.6782,13.6516 40.0928,-0.9071 -12.7081,14.7697 -2.6927,13.8415 41.7236,-10.8525 z"
       id="path4289-9-3"
       inkscape:connector-curvature="0"
       sodipodi:nodetypes="cccccccccccccccccccccccc" />
    <path
       style="display:inline;fill:#ffffff;fill-rule:evenodd;stroke:none;stroke-width:1.00123px;stroke-linecap:butt;stroke-linejoin:miter;stroke-opacity:1"
       d="m 844.51405,1199.689 c 38.97797,10.9127 41.84791,20.1218 7.06695,27.5552 37.38173,3.4213 30.90025,9.0999 14.18757,15.3039 55.16719,33.5288 48.22458,59.1685 39.82119,84.6226 46.44921,-16.1217 51.96099,1.8339 51.72532,19.3872 13.37162,-24.832 30.03838,-11.4934 28.84939,10.1039 13.84023,-25.0164 33.09943,-37.8515 34.58273,-12.8649 17.2666,-20.1053 16.6927,-28.4464 35.7061,-22.7069 27.5261,-24.8824 46.7136,3.4141 68.596,14.5225 2.3499,-25.0127 17.0669,-27.2587 35.7268,-22.2449 5.9601,-11.0876 8.9831,-26.6424 35.2382,-6.8588 0.8053,-20.5354 14.6606,-7.4738 24.5058,-4.7368 -13.4263,-10.219 5.1222,-15.3948 60.4499,-14.7715 -22.1344,-3.7963 -35.1462,-23.0474 3.9492,-42.0915 -53.8612,11.9744 -35.7596,-2.3728 -21.4976,-17.4401 -40.0175,-16.2178 -7.9818,-39.0884 6.0752,-60.2987 -34.5679,12.9621 -63.7337,15.722 -76.2873,-12.8931 -50.6991,28.5488 -44.999,15.1809 -41.8704,3.724 -28.7491,31.0459 -31.6473,6.6771 -42.2437,-1.1901 -87.3042,43.6508 -90.8763,8.6652 -114.037,-7.9237 0.20349,40.4929 -22.64908,27.3046 -45.59708,13.8949 7.42745,33.4583 -6.50535,24.9904 -19.99156,17.3994 1.38173,14.6302 -9.42045,20.0975 -36.64995,13.2098 20.4422,9.9188 9.68496,13.1619 -48.30576,6.2976 z"
       id="path4289-9"
       inkscape:connector-curvature="0"
       sodipodi:nodetypes="cccccccccccccccccccccccc" />
    <path
       style="color:#000000;display:inline;overflow:visible;visibility:visible;fill:#ffffff;fill-opacity:1;fill-rule:nonzero;stroke:none;stroke-width:1.2407px;marker:none;enable-background:accumulate"
       d="m 1979.2312,1252.5744 c 20.5975,39.6636 -7.8825,70.3911 -59.5656,43.5327 30.348,25.4616 29.29,41.2818 -11.914,43.7371 69.0999,45.8896 12.6323,38.9454 1.4946,50.5808 54.2561,15.8148 36.2729,39.7837 1.4473,50.8016 62.3622,0.673 47.2652,16.825 23.6549,40.0679 27.6115,-15.2172 70.2048,-26.1597 71.7162,13.6266 40.0066,-34.7567 60.6482,-34.0797 75.1154,5.2227 12.0845,-33.8906 53.2332,-40.413 68.9677,-3.8634 13.5541,-49.4649 61.917,-42.5009 90.7056,-18.528 -16.1607,-16.9189 -5.1405,-44.7777 49.9567,-39.1438 -4.4348,-15.5094 2.5394,-35.0846 30.3629,-32.4997 -32.0492,-9.3678 -37.9557,-19.0317 21.5525,-29.4309 -45.2823,-1.0048 -87.5083,-3.0661 -34.3824,-38.5302 -16.667,-0.8581 -51.8489,20.8301 -33.4119,-65.7701 -48.8142,25.5356 -93.2178,31.0965 -90.6942,-22.5425 -18.1478,29.013 -77.6047,51.5336 -64.947,6.3843 -43.3729,22.1493 -76.3589,-15.0196 -90.7017,-36.4094 -11.7858,22.9296 -15.4543,64.0515 -49.357,32.7643 z"
       id="path3549-3-7-8"
       inkscape:connector-curvature="0"
       sodipodi:nodetypes="ccccccccccccccccccc" />
    <path
       style="color:#000000;display:inline;overflow:visible;visibility:visible;fill:#ffffff;fill-opacity:1;fill-rule:nonzero;stroke:none;stroke-width:1.3701px;marker:none;enable-background:accumulate"
       d="m 1954.9496,1295.8772 c 5.3865,-7.3631 29.602,-29.7745 28.1983,-4.8001 39.2537,-32.5067 70.0607,-20.7651 101.3476,-11.5389 9.5476,-9.8141 4.6465,-18.4047 31.6967,-14.844 -2.7885,-9.7374 14.7304,-22.9124 36.0812,-26.8672 -27.1588,-5.9059 -31.6006,-11.9767 20.7238,-18.4567 -39.2072,-0.6663 -64.5998,-1.4446 -16.1009,-24.7384 -14.3978,-0.5512 -56.7166,11.1564 -39.9312,-35.829 -34.1741,25.9741 -54.3064,26.9588 -83.6046,-9.5251 -11.787,14.3845 -32.1406,33.5207 -65.5984,8.7849 14.9093,25.9401 -33.2488,11.0699 -45.9915,8.1541 24.5854,16.0066 22.602,25.9326 -13.3043,27.4417 56.8036,28.8595 8.2978,24.4721 -2.1566,31.7665 45.9803,9.969 23.5839,22.288 13.8687,34.5781 54.0443,0.4714 34.1981,20.1717 34.7712,35.8741 z"
       id="path3549-3-3"
       inkscape:connector-curvature="0"
       sodipodi:nodetypes="ccccccccccccccc" />
    <path
       style="color:#000000;display:inline;overflow:visible;visibility:visible;fill:#ffffff;fill-opacity:1;fill-rule:nonzero;stroke:none;stroke-width:1.13059px;marker:none;enable-background:accumulate"
       d="m 2012.8502,1556.8314 c 33.1432,-3.0765 49.5177,-14.1302 63.502,-25.1622 -3.323,-3.6585 -10.9443,-10.8992 -10.9443,-10.8992 8.4132,3.9856 33.6455,-29.1076 31.128,-43.087 -2.0588,-11.4328 -17.8962,-22.9534 -17.8962,-22.9534 7.496,5.5512 -16.0011,59.4398 -34.2248,60.7508 9.5209,9.7065 5.5967,8.6357 10.4496,10.8775 -2.4355,8.428 -25.6395,23.8921 -42.0143,30.4735 z"
       id="path4456-8"
       inkscape:connector-curvature="0"
       sodipodi:nodetypes="cccscccc" />
    <path
       style="color:#000000;display:inline;overflow:visible;visibility:visible;fill:#ffffff;fill-opacity:1;fill-rule:nonzero;stroke:none;stroke-width:0.596963px;marker:none;enable-background:accumulate"
       d="m 1768.0708,2692.063 c -24.1124,0.4606 -47.4229,12.645 -56.9911,30.4657 -6.7295,10.1882 -7.1807,22.3918 -3.5587,33.3812 3.6867,13.7323 14.0598,26.6826 29.6555,33.5235 16.8388,7.8901 36.7339,9.9629 55.9317,10.1766 22.1369,0.5188 44.522,0.1032 66.2338,-3.6889 17.4814,-3.8819 33.0423,-13.9029 40.1511,-27.413 10.2713,-18.0619 5.8474,-40.8982 -11.2715,-55.3416 -10.1608,-8.6862 -24.8248,-13.0089 -39.3115,-14.4372 -19.9681,-2.7512 -40.1346,-4.4502 -60.2803,-6.1048 -6.8391,-0.4195 -13.6995,-0.6315 -20.559,-0.5615 z"
       id="path4546-6-9"
       inkscape:connector-curvature="0"
       sodipodi:nodetypes="cssssc" />
    <path
       style="color:#000000;display:inline;overflow:visible;visibility:visible;fill:#ffffff;fill-opacity:1;fill-rule:nonzero;stroke:none;stroke-width:0.831571px;marker:none;enable-background:accumulate"
       d="m 1882.8059,2633.5176 c -37.8791,-2.1495 -48.7859,13.5857 -57.5579,23.9044 1.7547,4.1191 3.7627,12.1857 3.7627,12.1857 0,0 -18.6852,18.3302 -24.0116,28.1718 -5.3264,9.8414 3.6574,18.2697 3.6574,18.2697 0,0 37.0115,-34.5243 46.6498,-39.0836 -5.179,-11.0415 -6.5739,-17.2965 -9.745,-20.2713 3.4665,-7.8768 23.822,-23.4035 37.2446,-23.1767 z"
       id="path4456-3"
       inkscape:connector-curvature="0" />
    <path
       style="fill:#ffffff;fill-rule:evenodd;stroke:none;stroke-width:1px;stroke-linecap:butt;stroke-linejoin:miter;stroke-opacity:1"
       d="m 631.53381,3261.5261 c -58.9868,-9.4133 -80.78839,-18.6204 -93.41016,-25.1553 25.55708,-9.175 30.6775,-11.6456 27.58924,-18.0461 -3.08825,-6.4005 -197.64668,-94.0082 -197.64668,-94.0082 l 45.28017,47.5817 c 0,0 69.61686,26.446 87.95416,33.3793 18.33743,6.9334 39.02055,15.9874 39.02055,15.9874 0,0 -18.8787,3.4283 -22.43255,7.5102 -3.55385,4.082 -7.0453,26.282 113.64527,32.751 z"
       id="path891"
       inkscape:connector-curvature="0"
       sodipodi:nodetypes="ccsccscsc" />
    <path
       style="display:inline;fill:#ffffff;fill-rule:evenodd;stroke:none;stroke-width:1.36319px;stroke-linecap:butt;stroke-linejoin:miter;stroke-opacity:1"
       d="m 219.40225,2979.209 c -3.99311,0.079 -7.9468,0.641 -11.92132,0.9492 4.60578,0.8574 9.21155,1.7148 13.81731,2.5723 -2.43761,0.7632 -3.78844,3.8914 -2.08984,5.8144 1.41465,-0.2071 0.94537,2.2424 -0.32169,1.6973 -14.13889,2.501 -28.04044,9.0012 -36.42889,20.0243 -15.11863,18.5092 -24.92349,40.0615 -33.29116,61.7211 -1.74928,4.0589 -4.40694,8.4682 -2.78658,12.927 2.0768,4.4764 7.29278,7.6372 7.50178,12.8198 0.1303,7.8795 -3.86811,15.1497 -4.65851,22.9235 -1.32106,8.3836 -3.15874,16.6874 -4.69922,25.0357 -0.55572,2.9917 -0.48357,6.0442 0.0591,9.0263 0.23004,3.3063 -1.65767,6.6229 -4.89129,8.1675 -3.51445,2.1011 -7.77766,2.9539 -11.09069,5.3665 -0.39985,3.0073 3.43397,4.7888 6.26743,4.5762 1.90377,-0.199 4.58194,-0.1743 5.21147,1.9039 1.16293,2.6263 -1.07824,5.7858 -4.09022,6.1056 -5.41859,2.3791 -11.28457,3.6868 -16.8942,5.6116 -0.0851,3.4002 4.00287,5.4787 7.33705,5.099 20.12469,3.427 40.45484,6.0558 60.2306,11.0064 -15.02504,3.3432 -30.54082,4.3263 -45.75309,6.5118 4.55012,1.0505 9.27988,1.7466 13.88586,2.7144 42.76009,8.307 85.21101,18.5629 128.75152,22.9294 36.75622,1.159 73.28234,-4.6549 108.89056,-12.5149 5.96123,-2.9844 8.73963,-9.1225 14.05506,-12.8039 6.66951,-6.6742 11.38295,-15.041 19.54579,-20.4037 6.52296,-4.988 12.76762,-10.5786 16.59844,-17.631 8.5516,-12.9198 14.67483,-27.7941 14.01923,-43.1043 -0.70877,-10.213 -6.45619,-19.4734 -7.31464,-29.6534 -0.22729,-7.3973 3.60588,-14.3362 8.59396,-19.9455 8.11776,-10.1649 18.04286,-18.9572 26.65819,-28.7457 1.41211,-0.9595 1.92746,-2.7521 0.93128,-4.1295 -1.87987,-4.2192 -7.10948,-6.2436 -11.83266,-6.0898 -7.18503,-0.9663 -14.39903,-1.9172 -21.40519,-3.7139 12.74026,-5.9012 27.47429,-6.8428 40.10346,-12.9922 1.67548,0.1634 1.45553,-2.5951 -0.18133,-2.3188 -5.87159,-2.0978 -11.7076,-4.2777 -17.55153,-6.439 3.07831,-4.1518 8.3243,-6.104 12.63924,-8.9317 1.72804,-0.01 1.24225,-2.8039 -0.3792,-2.457 -10.88616,-3.8649 -23.25671,-3.5576 -33.46747,-9.125 -1.72506,-1.7733 0.23233,-4.3771 2.385,-4.8378 1.94313,-1.0375 4.13997,-1.6499 5.96162,-2.8829 -4.66491,-1.1505 -9.55728,-0.7919 -14.31832,-1.3147 -47.91852,-2.5378 -95.62681,4.2941 -143.51214,4.3877 -18.15222,-0.034 -36.32621,-2.0921 -53.84069,-6.5062 -10.09267,-2.0002 -20.3709,-3.4692 -30.72407,-3.35 z"
       id="path4197-1"
       inkscape:connector-curvature="0"
       sodipodi:nodetypes="ccccccccccccccccccccccccccccccccccccccccccccc" />
    <path
       style="display:inline;fill:#ffffff;fill-rule:evenodd;stroke:none;stroke-width:0.930706px;stroke-linecap:butt;stroke-linejoin:miter;stroke-opacity:1"
       d="m 376.45418,2875.0541 c -28.26931,2.7364 -57.00392,4.7883 -84.05499,12.8916 -4.5074,1.4057 -9.00856,2.8261 -13.50427,4.2593 -2.94987,6.6359 -10.43116,10.9067 -13.04485,17.7019 -1.45319,2.7318 -4.37367,4.4905 -7.07338,6.2208 -9.5579,7.607 -14.44586,23.8536 -16.35374,29.4972 -1.42233,5.4955 1.60216,11.1939 -2.44576,16.5456 -3.76907,5.4449 -12.09793,9.9603 -16.32464,15.3142 -0.83456,0.9343 -1.17527,2.1154 0.64627,2.8742 2.38,1.2614 6.21503,1.6777 9.27651,2.3316 1.68908,0.509 1.64837,1.7392 -0.7108,1.9629 -4.06447,0.7591 -9.26083,0.6994 -12.41558,2.0906 -2.32367,0.8042 -4.07967,2.3604 -1.55522,3.3541 1.7001,0.6225 4.67717,1.2013 4.07232,2.2668 -0.40356,0.5246 -1.52176,0.9568 -2.88619,1.1301 12.09075,1.4611 24.66339,2.215 37.12371,3.0646 18.42563,1.1135 37.30486,1.2529 55.76259,0.1609 18.53293,-0.8016 37.03305,-1.7206 55.45215,-2.8398 -3.07937,-0.3923 -6.15875,-0.7846 -9.23812,-1.1769 0.69102,-0.704 1.38201,-1.4081 2.07303,-2.1119 -1.28168,-0.2643 -2.56336,-0.5284 -3.84504,-0.7926 12.43591,-2.4971 25.6589,-4.4561 34.98875,-9.3246 9.74608,-5.5509 18.14542,-11.5453 25.90829,-17.6808 2.27348,-0.7568 4.59112,-1.4962 6.63476,-2.3784 -4.23215,-2.1446 -5.90879,-5.4386 -2.82995,-8.0433 4.1757,-5.5791 4.83896,-15.9823 4.37994,-27.2342 0.33228,-2.9539 3.88653,-5.1753 3.26243,-8.2449 -0.99834,-2.2877 -4.46638,-3.887 -3.56845,-6.6532 0.47214,-3.5116 6.08196,-4.4971 6.0555,-8.1488 -0.0321,-2.5181 -2.91685,-3.8507 -5.02492,-5.1084 -3.84916,-1.9564 -8.21131,-3.0263 -12.12336,-4.8581 -1.10063,-0.048 -1.25026,-1.0568 -0.33132,-1.4433 3.65562,-3.6345 9.12797,-5.1509 13.86032,-7.4424 0.85285,-1.4445 -1.30004,-2.346 -2.67145,-2.3617 -7.76219,-2.3279 -16.07759,-2.5287 -24.05297,-4.0578 -8.41751,-1.0905 -16.91849,-1.8726 -25.44157,-1.7653 z"
       id="path4197"
       inkscape:connector-curvature="0"
       sodipodi:nodetypes="cccccccccccccccccccccccccccccccccccc" />
    <path
       style="fill:#ffffff;fill-rule:evenodd;stroke:none;stroke-width:1.10353px;stroke-linecap:butt;stroke-linejoin:miter;stroke-opacity:1"
       d="m 824.62806,2128.3429 c 174.95583,0.5219 363.90564,5.6959 488.33944,2.8279 -24.7538,0.7912 -21.2862,27.4401 22.7621,9.6506 -23.9332,33.5203 -4.206,35.2074 66.8334,39.5445 -56.7185,9.4282 -85.4701,41.436 -27.1994,55.3708 -31.4601,9.3677 -64.2484,20.7875 -22.3613,37.0506 -63.1074,-17.0449 -61.1793,2.6489 -47.6185,20.7372 -10.3835,0.8624 -29.2641,-14.0416 -26.1505,11.8642 -29.0641,-14.9009 -57.2022,-35.9494 -35.5992,20.672 -48.985,-48.844 -49.1681,-22.8898 -52.1465,-8.3691 -54.3542,-45.8997 -43.4305,-25.6909 -37.8726,-2.2896 -15.8551,-17.2035 -42.8558,-21.7192 -39.3487,-2.0109 -15.3087,-20.2745 -28.7909,-27.6924 -37.5916,-2.1572 -9.534,-11.0952 -19.0682,-27.024 -28.6023,-2.1571 -13.0376,-12.6096 -26.4809,-17.1897 -41.6776,12.9428 -7.52872,-17.3298 -27.19441,-35.1939 -70.0122,-17.7889 15.00495,-25.4453 -0.12233,-30.1796 -36.05681,-7.7719 14.55819,-16.8637 19.64595,-42.2408 -21.36292,-5.1491 20.53936,-25.3176 1.89017,-23.0297 -23.34379,-17.8832 24.81244,-38.0185 9.72407,-28.9377 -23.7348,-26.0834 43.81378,-25.3119 18.94701,-29.33 -23.25408,-26.7082 28.11741,-26.8471 27.77896,-28.8366 6.53772,-37.7496 21.01252,-10.3526 57.10956,-9.725 -2.45166,-21.5712 68.63334,-6.7094 20.43229,-21.4118 11.9118,-32.9712 z"
       id="path4656"
       inkscape:connector-curvature="0"
       sodipodi:nodetypes="cccccccccccccccccccccccc" />
    <path
       style="color:#000000;display:inline;overflow:visible;visibility:visible;fill:#ffffff;fill-opacity:1;fill-rule:nonzero;stroke:none;stroke-width:0.937697px;marker:none;enable-background:accumulate"
       d="m 967.89989,2272.9045 c -21.93532,9.6253 -54.38701,29.5889 -58.62353,35.4743 7.65037,3.4334 13.95567,8.1772 18.92328,11.7669 -8.6586,10.0195 -66.94384,33.9255 -80.07482,33.1337 32.085,3.8238 91.45067,-12.2157 104.5459,-30.0725 -5.9168,-6.1766 -10.12106,-8.9291 -13.17409,-12.2766 6.16567,-9.3462 41.71559,-19.3924 41.71559,-19.3924 z"
       id="path5066-9"
       inkscape:connector-curvature="0"
       sodipodi:nodetypes="cccccccc" />
    <path
       style="fill:#ffffff;stroke:none;stroke-width:0.677622"
       d="m 1355.8022,2522.4576 c -0.9059,-19.9758 15.3381,-69.9827 94.5763,-66.2216 79.2384,3.7612 104.0386,25.734 106.3608,61.2407 3.6732,56.171 -38.014,71.1822 -97.873,75.3425 -61.7081,4.2891 -104.0218,-34.2683 -103.0641,-70.3616 z"
       id="path3280-8-90"
       inkscape:connector-curvature="0"
       sodipodi:nodetypes="csssc" />
    <path
       style="color:#000000;display:inline;overflow:visible;visibility:visible;fill:#ffffff;fill-opacity:1;fill-rule:nonzero;stroke:none;stroke-width:1px;marker:none;enable-background:accumulate"
       d="m 1327.707,2590.6993 c 51.9208,7.0854 82.4162,-5.7476 93.871,-59.3544 10.0989,-47.2601 31.6187,-39.1416 31.6187,-39.1416 l 8.3834,32.7178 c 0,0 -40.4124,109.7129 -133.8731,65.7782 z"
       id="path3072-5-5"
       inkscape:connector-curvature="0"
       sodipodi:nodetypes="csccc" />
  </g>
  <g
     inkscape:groupmode="layer"
     id="layer1"
     inkscape:label="txt"
     style="display:inline">
    <text
       xml:space="preserve"
       style="font-style:normal;font-variant:normal;font-weight:normal;font-stretch:normal;font-size:131.375px;line-height:1.25;font-family:Lavi;-inkscape-font-specification:Lavi;letter-spacing:0px;word-spacing:0px;fill:#ffffff;fill-opacity:1;stroke:#ffffff;stroke-width:0.668774;stroke-miterlimit:4;stroke-dasharray:none;stroke-opacity:1;filter:url(#filter4375-4-1-1-1-9-5-8-8-5-5-3-3-3-4-9-6)"
       id="text4580-6-0-0-0-9-3-3-2-4-8-6"
       transform="matrix(0.45061052,-0.08588961,-0.18791098,0.54548663,2283.9528,764.65175)"
       x="-607.91235"
       y="1245.0809">PAF!</text>
    <text
       xml:space="preserve"
       style="font-style:normal;font-variant:normal;font-weight:normal;font-stretch:normal;font-size:45px;line-height:1.25;font-family:Lavi;-inkscape-font-specification:Lavi;text-align:center;letter-spacing:0px;word-spacing:0px;text-anchor:middle;fill:#000000;fill-opacity:1;stroke:none"
       x="265.4985"
       y="174.20363"
       id="text4246-3-2-2-6-3-7-9-3"><tspan
         style="font-size:45px"
         sodipodi:role="line"
         x="265.4985"
         y="174.20363"
         id="tspan852">Shichimi, </tspan><tspan
         style="font-size:45px"
         sodipodi:role="line"
         x="265.4985"
         y="230.45363"
         id="tspan859">umiri</tspan><tspan
         style="font-size:45px"
         sodipodi:role="line"
         x="265.4985"
         y="286.70361"
         id="tspan861"> s...</tspan></text>
    <text
       xml:space="preserve"
       style="font-style:normal;font-variant:normal;font-weight:normal;font-stretch:normal;font-size:179.149px;line-height:1.25;font-family:Lavi;-inkscape-font-specification:Lavi;letter-spacing:0px;word-spacing:0px;fill:#ffffff;fill-opacity:1;stroke:#ffffff;stroke-width:0.741719;stroke-miterlimit:4;stroke-dasharray:none;stroke-opacity:1;filter:url(#filter4375-4-1-1-1-9-5-8-8-5-5-3-3)"
       id="text4580-6-0-0-0-9-3-3"
       transform="matrix(0.81079821,-0.712007,0.28741856,1.0365543,1066.0427,-12.598858)"
       x="181.50571"
       y="435.11505"><textPath
         xlink:href="#path974"
         id="textPath2837"
         style="font-size:179.149px;stroke-width:0.741719"><tspan
   style="font-size:228.21px"
   id="tspan936">B</tspan>ADuuM!</textPath></text>
    <text
       xml:space="preserve"
       style="font-style:normal;font-variant:normal;font-weight:normal;font-stretch:normal;font-size:69.3333px;line-height:1.25;font-family:Lavi;-inkscape-font-specification:Lavi;text-align:center;letter-spacing:0px;word-spacing:0px;text-anchor:middle;fill:#000000;fill-opacity:1;stroke:none;stroke-width:1.22222"
       x="1781.6746"
       y="564.77777"
       id="text4246-3-2-2-6-3-7-9-3-3-56-9-3-20-2-3-1-9"
       transform="matrix(0.86584416,-0.24971873,-0.07331608,1.1760874,0,0)"><tspan
         style="font-style:normal;font-variant:normal;font-weight:bold;font-stretch:normal;font-size:69.3333px;font-family:Lavi;-inkscape-font-specification:'Lavi Bold';stroke-width:1.22222"
         sodipodi:role="line"
         x="1781.6746"
         y="564.77777"
         id="tspan1348">POJDI STRAN!!!</tspan></text>
    <path
       style="fill:none;fill-rule:evenodd;stroke:none;stroke-width:1.13654px;stroke-linecap:butt;stroke-linejoin:miter;stroke-opacity:1"
       d="M -686.67373,0.90523332 C -568.76657,-0.73394668 -204.63364,132.58339 -16.133022,353.49759"
       id="path974"
       sodipodi:nodetypes="cc" />
    <text
       xml:space="preserve"
       style="font-style:normal;font-variant:normal;font-weight:normal;font-stretch:normal;font-size:58.1184px;line-height:1.25;font-family:Lavi;-inkscape-font-specification:Lavi;text-align:center;letter-spacing:0px;word-spacing:0px;text-anchor:middle;fill:#000000;fill-opacity:1;stroke:none;stroke-width:0.937388"
       x="1347.8438"
       y="1263.5707"
       id="text4246-3-2-2-6-3-7-9-3-3-56-9-3-20-2-3-1-9-3"
       transform="matrix(0.86635975,-0.14936714,-0.07335974,1.1669027,0,0)"><tspan
         style="font-style:normal;font-variant:normal;font-weight:bold;font-stretch:normal;font-size:58.1184px;font-family:Lavi;-inkscape-font-specification:'Lavi Bold';stroke-width:0.937388"
         sodipodi:role="line"
         x="1347.8438"
         y="1263.5707"
         id="tspan1348-6">POJDI ŽE!!!</tspan></text>
    <text
       xml:space="preserve"
       style="font-style:normal;font-variant:normal;font-weight:normal;font-stretch:normal;font-size:45.3333px;line-height:1.25;font-family:Lavi;-inkscape-font-specification:Lavi;text-align:center;letter-spacing:0px;word-spacing:0px;text-anchor:middle;fill:#000000;fill-opacity:1;stroke:none;stroke-width:0.813831"
       x="1461.1517"
       y="1383.9796"
       id="text4246-3-2-2-6-3-7-9-3-3-56-9-3-20-2-3-1-9-3-7"
       transform="matrix(0.87716024,-0.14752798,-0.07427428,1.1525346,0,0)"><tspan
         style="font-style:normal;font-variant:normal;font-weight:bold;font-stretch:normal;font-size:45.3333px;font-family:Lavi;-inkscape-font-specification:'Lavi Bold';stroke-width:0.813831"
         sodipodi:role="line"
         x="1461.1517"
         y="1383.9796"
         id="tspan1348-6-5">SAMO POJDI!!!</tspan></text>
    <text
       xml:space="preserve"
       style="font-style:normal;font-variant:normal;font-weight:normal;font-stretch:normal;font-size:80px;line-height:1.25;font-family:Lavi;-inkscape-font-specification:Lavi;letter-spacing:0px;word-spacing:0px;fill:#ffffff;fill-opacity:1;stroke:#ffffff;stroke-width:0.668774;stroke-miterlimit:4;stroke-dasharray:none;stroke-opacity:1;filter:url(#filter4375-4-1-1-1-9-5-8-8-5-5-3-3-3)"
       id="text4580-6-0-0-0-9-3-3-2"
       transform="matrix(0.98036614,-0.39223296,-0.53756803,0.90481848,1667.7584,648.06357)"
       x="-607.91235"
       y="1245.0809"><tspan
         style="font-size:110px"
         id="tspan1073">K</tspan><tspan
         id="tspan1510"
         style="font-size:99.052px">R</tspan><tspan
         id="tspan1514"
         style="font-size:88.104px">E</tspan><tspan
         id="tspan1518"
         style="font-size:77.156px">I</tspan><tspan
         id="tspan1526"
         style="font-size:55.26px">Š</tspan><tspan
         id="tspan1530"
         style="font-size:44.312px">Š!</tspan><tspan
         id="tspan1534"
         style="font-size:61.3371px">!!</tspan></text>
    <text
       xml:space="preserve"
       style="font-style:normal;font-variant:normal;font-weight:normal;font-stretch:normal;font-size:56.9751px;line-height:1.25;font-family:Lavi;-inkscape-font-specification:Lavi;text-align:center;letter-spacing:0px;word-spacing:0px;text-anchor:middle;fill:#000000;fill-opacity:1;stroke:none;stroke-width:1.26611"
       x="2114.8765"
       y="1192.864"
       id="text4246-3-2-2-6-3-7-9-3-3"
       transform="scale(0.96063492,1.0409782)"><tspan
         style="font-size:56.9751px;stroke-width:1.26611"
         sodipodi:role="line"
         x="2114.8765"
         y="1192.864"
         id="tspan861-4">Auu!</tspan></text>
    <text
       xml:space="preserve"
       style="font-style:normal;font-variant:normal;font-weight:normal;font-stretch:normal;font-size:45px;line-height:1.25;font-family:Lavi;-inkscape-font-specification:Lavi;text-align:center;letter-spacing:0px;word-spacing:0px;text-anchor:middle;fill:#000000;fill-opacity:1;stroke:none;stroke-width:0.965425"
       x="2422.3325"
       y="1291.8102"
       id="text4246-3-2-2-6-3-7-9-3-3-7"
       transform="matrix(0.96542494,0,-0.15822218,1.0358133,0,0)"><tspan
         style="font-size:45px;stroke-width:0.965425"
         sodipodi:role="line"
         x="2422.3325"
         y="1291.8102"
         id="tspan861-4-8">He! To pa...</tspan><tspan
         style="font-size:45px;stroke-width:0.965425"
         sodipodi:role="line"
         x="2422.3325"
         y="1348.0602"
         id="tspan1234">n-NI... Auu...</tspan><tspan
         style="font-size:45px;stroke-width:0.965425"
         sodipodi:role="line"
         x="2422.3325"
         y="1404.3102"
         id="tspan1236">lepo!</tspan></text>
    <text
       xml:space="preserve"
       style="font-style:normal;font-variant:normal;font-weight:normal;font-stretch:normal;font-size:131.375px;line-height:1.25;font-family:Lavi;-inkscape-font-specification:Lavi;letter-spacing:0px;word-spacing:0px;fill:#ffffff;fill-opacity:1;stroke:#ffffff;stroke-width:0.668774;stroke-miterlimit:4;stroke-dasharray:none;stroke-opacity:1;filter:url(#filter4375-4-1-1-1-9-5-8-8-5-5-3-3-3-4)"
       id="text4580-6-0-0-0-9-3-3-2-4"
       transform="matrix(0.52711832,-0.15981063,-0.17435696,0.64729748,2672.6758,794.5647)"
       x="-607.91235"
       y="1245.0809">POF!</text>
    <text
       xml:space="preserve"
       style="font-style:normal;font-variant:normal;font-weight:normal;font-stretch:normal;font-size:131.375px;line-height:1.25;font-family:Lavi;-inkscape-font-specification:Lavi;letter-spacing:0px;word-spacing:0px;fill:#ffffff;fill-opacity:1;stroke:#ffffff;stroke-width:0.668774;stroke-miterlimit:4;stroke-dasharray:none;stroke-opacity:1;filter:url(#filter4375-4-1-1-1-9-5-8-8-5-5-3-3-3-4-9)"
       id="text4580-6-0-0-0-9-3-3-2-4-8"
       transform="matrix(0.53051157,-0.11435771,-0.18857697,0.63128406,1994.6316,826.53325)"
       x="-607.91235"
       y="1245.0809">POF!</text>
    <text
       xml:space="preserve"
       style="font-style:normal;font-variant:normal;font-weight:normal;font-stretch:normal;font-size:131.375px;line-height:1.25;font-family:Lavi;-inkscape-font-specification:Lavi;letter-spacing:0px;word-spacing:0px;fill:#ffffff;fill-opacity:1;stroke:#ffffff;stroke-width:0.668774;stroke-miterlimit:4;stroke-dasharray:none;stroke-opacity:1;filter:url(#filter4375-4-1-1-1-9-5-8-8-5-5-3-3-3-4-9-64)"
       id="text4580-6-0-0-0-9-3-3-2-4-8-1"
       transform="matrix(0.55959564,-0.12001132,-0.19891527,0.6787384,2053.839,1100.5323)"
       x="-607.91235"
       y="1245.0809">PAF!</text>
    <text
       xml:space="preserve"
       style="font-style:normal;font-variant:normal;font-weight:normal;font-stretch:normal;font-size:44.5368px;line-height:1.25;font-family:Lavi;-inkscape-font-specification:Lavi;text-align:center;letter-spacing:0px;word-spacing:0px;text-anchor:middle;fill:#000000;fill-opacity:1;stroke:none;stroke-width:0.989704"
       x="1451.5535"
       y="2154.0356"
       id="text4246-3-2-2-6-3-7-9-3-3-56-9-3-20-3-3"
       transform="matrix(0.99902872,0.04406384,-0.16900523,0.99351797,0,0)"><tspan
         style="font-style:normal;font-variant:normal;font-weight:bold;font-stretch:normal;font-size:44.5368px;font-family:Lavi;-inkscape-font-specification:'Lavi Bold';stroke-width:0.989704"
         sodipodi:role="line"
         x="1451.5535"
         y="2154.0356"
         id="tspan1341">SHICHIMI! PEPPER!</tspan><tspan
         style="font-style:normal;font-variant:normal;font-weight:bold;font-stretch:normal;font-size:44.5368px;font-family:Lavi;-inkscape-font-specification:'Lavi Bold';stroke-width:0.989704"
         sodipodi:role="line"
         x="1451.5535"
         y="2209.7065"
         id="tspan1024">PROSIM NEHAJTA!</tspan></text>
    <text
       xml:space="preserve"
       style="font-style:normal;font-variant:normal;font-weight:normal;font-stretch:normal;font-size:45px;line-height:1.25;font-family:Lavi;-inkscape-font-specification:Lavi;text-align:center;letter-spacing:0px;word-spacing:0px;text-anchor:middle;fill:#000000;fill-opacity:1;stroke:none"
       x="1454.755"
       y="2537.0627"
       id="text4246-3-2-2-6-3-7-9-3-3-56-9-3-20-3-36"><tspan
         style="font-size:45px"
         sodipodi:role="line"
         x="1454.755"
         y="2537.0627"
         id="tspan1032">Čakaj.</tspan></text>
    <text
       xml:space="preserve"
       style="font-style:normal;font-variant:normal;font-weight:normal;font-stretch:normal;font-size:45px;line-height:1.25;font-family:Lavi;-inkscape-font-specification:Lavi;text-align:center;letter-spacing:0px;word-spacing:0px;text-anchor:middle;fill:#000000;fill-opacity:1;stroke:none;stroke-width:0.965425"
       x="2300.9597"
       y="2665.2209"
       id="text4246-3-2-2-6-3-7-9-3-3-7-0"
       transform="matrix(0.96542494,0,-0.15822218,1.0358133,0,0)"><tspan
         style="font-size:45px;stroke-width:0.965425"
         sodipodi:role="line"
         x="2300.9597"
         y="2665.2209"
         id="tspan1573">Hmm!</tspan></text>
    <text
       xml:space="preserve"
       style="font-style:normal;font-variant:normal;font-weight:normal;font-stretch:normal;font-size:45px;line-height:1.25;font-family:Lavi;-inkscape-font-specification:Lavi;text-align:center;letter-spacing:0px;word-spacing:0px;text-anchor:middle;fill:#000000;fill-opacity:1;stroke:none"
       x="340.67804"
       y="2949.8245"
       id="text4246-3-2-2-6-3-7-9-3-9"><tspan
         style="font-size:45px"
         sodipodi:role="line"
         x="340.67804"
         y="2949.8245"
         id="tspan1611">Grrr!</tspan></text>
    <text
       xml:space="preserve"
       style="font-style:normal;font-variant:normal;font-weight:normal;font-stretch:normal;font-size:49.6053px;line-height:1.25;font-family:Lavi;-inkscape-font-specification:Lavi;text-align:center;letter-spacing:0px;word-spacing:0px;text-anchor:middle;fill:#000000;fill-opacity:1;stroke:none;stroke-width:1.10234"
       x="292.64859"
       y="3054.9656"
       id="text4246-3-2-2-6-3-7-9-3-9-9"><tspan
         style="font-size:49.6053px;stroke-width:1.10234"
         sodipodi:role="line"
         x="292.64859"
         y="3054.9656"
         id="tspan1641">No prav, </tspan><tspan
         style="font-size:49.6053px;stroke-width:1.10234"
         sodipodi:role="line"
         x="292.64859"
         y="3116.9722"
         id="tspan1031">sama si</tspan><tspan
         style="font-size:49.6053px;stroke-width:1.10234"
         sodipodi:role="line"
         x="292.64859"
         y="3178.9788"
         id="tspan27024">tako hotela!</tspan></text>
    <text
       xml:space="preserve"
       style="font-style:normal;font-variant:normal;font-weight:normal;font-stretch:normal;font-size:80px;line-height:1.25;font-family:Lavi;-inkscape-font-specification:Lavi;letter-spacing:0px;word-spacing:0px;fill:#ffffff;fill-opacity:1;stroke:#ffffff;stroke-width:0.668774;stroke-miterlimit:4;stroke-dasharray:none;stroke-opacity:1;filter:url(#filter4375-4-1-1-1-9-5-8-8-5-5-3-3-3-0)"
       id="text4580-6-0-0-0-9-3-3-2-0"
       transform="matrix(1.4640851,-0.3812188,-0.80280752,2.6992234,3645.3529,-405.18199)"
       x="-607.91235"
       y="1245.0809"><tspan
         id="tspan1534-6"
         style="font-size:61.3371px"><tspan
   style="font-size:66.5743px"
   id="tspan1814"><tspan
   style="font-size:71.8115px"
   id="tspan1818"><tspan
   style="font-size:82.2859px"
   id="tspan1822">B</tspan>R</tspan>U</tspan>ZZ!!</tspan></text>
  </g>
</svg>
