<?xml version="1.0" encoding="UTF-8" standalone="no"?>
<!-- Created with Inkscape (http://www.inkscape.org/) -->

<svg
   xmlns:dc="http://purl.org/dc/elements/1.1/"
   xmlns:cc="http://creativecommons.org/ns#"
   xmlns:rdf="http://www.w3.org/1999/02/22-rdf-syntax-ns#"
   xmlns:svg="http://www.w3.org/2000/svg"
   xmlns="http://www.w3.org/2000/svg"
   xmlns:xlink="http://www.w3.org/1999/xlink"
   xmlns:sodipodi="http://sodipodi.sourceforge.net/DTD/sodipodi-0.dtd"
   xmlns:inkscape="http://www.inkscape.org/namespaces/inkscape"
   id="svg2"
   version="1.1"
   inkscape:version="0.92.3 (2405546, 2018-03-11)"
   width="2481"
   height="3503"
   sodipodi:docname="E19P05.svg">
  <sodipodi:namedview
     pagecolor="#ffffff"
     bordercolor="#666666"
     inkscape:pageopacity="0"
     inkscape:pageshadow="2"
     inkscape:window-width="1813"
     inkscape:window-height="955"
     id="namedview70"
     showgrid="false"
     inkscape:zoom="0.4"
     inkscape:cx="1535.4198"
     inkscape:cy="210.86246"
     inkscape:current-layer="layer3"
     inkscape:window-x="0"
     inkscape:window-y="0"
     inkscape:window-maximized="0" />
  <metadata
     id="metadata8">
    <rdf:RDF>
      <cc:Work
         rdf:about="">
        <dc:format>image/svg+xml</dc:format>
        <dc:type
           rdf:resource="http://purl.org/dc/dcmitype/StillImage" />
        <dc:title />
      </cc:Work>
    </rdf:RDF>
  </metadata>
  <defs
     id="defs6">
    <filter
       inkscape:collect="always"
       style="color-interpolation-filters:sRGB"
       id="filter4436"
       x="-0.009420248"
       width="1.0188405"
       y="-0.0097332714"
       height="1.0194665">
      <feGaussianBlur
         inkscape:collect="always"
         stdDeviation="0.80032609"
         id="feGaussianBlur4438" />
    </filter>
    <filter
       style="color-interpolation-filters:sRGB"
       id="filter4375-4-1-1-1-9"
       inkscape:label="deevad outline effect">
      <feFlood
         id="feFlood4377-7-9-0-8-1"
         flood-opacity="1"
         flood-color="rgb(0,0,0)"
         result="flood" />
      <feComposite
         id="feComposite4379-3-8-8-2-77"
         in2="SourceGraphic"
         in="flood"
         operator="in"
         result="composite1" />
      <feMorphology
         id="feMorphology4393-1-0-49-8-9"
         operator="dilate"
         radius="4"
         result="result3" />
      <feComposite
         id="feComposite4385-9-5-7-0-8"
         in2="result3"
         in="SourceGraphic"
         operator="over"
         result="composite2" />
    </filter>
  </defs>
  <sodipodi:namedview
     pagecolor="#ffffff"
     bordercolor="#666666"
     borderopacity="1"
     objecttolerance="10"
     gridtolerance="10"
     guidetolerance="10"
     inkscape:pageopacity="0"
     inkscape:pageshadow="2"
     inkscape:window-width="1920"
     inkscape:window-height="1025"
     id="namedview4"
     showgrid="false"
     inkscape:zoom="0.34350663"
     inkscape:cx="1492.3002"
     inkscape:cy="1051.3698"
     inkscape:window-x="0"
     inkscape:window-y="26"
     inkscape:window-maximized="1"
     inkscape:current-layer="layer1" />
  <g
     inkscape:groupmode="layer"
     id="layer2"
     inkscape:label="artwork"
     sodipodi:insensitive="true">
    <image
       xlink:href="../gfx_Pepper-and-Carrot_by-David-Revoy_E19P05.png"
       y="0"
       x="0"
       id="image10"
       height="3503"
       width="2481" />
  </g>
  <g
     inkscape:groupmode="layer"
     id="layer3"
     inkscape:label="speechbubbles">
    <path
       style="color:#000000;display:inline;overflow:visible;visibility:visible;fill:#ffffff;fill-opacity:1;fill-rule:nonzero;stroke:none;stroke-width:1.14040256px;marker:none;enable-background:accumulate"
       d="m 174.50239,216.86635 c 7.81125,-64.66659 86.18848,-112.01846 286.88371,-99.96433 107.50318,6.45679 229.64669,10.66322 219.45278,105.39452 -10.19402,94.73121 -185.84115,92.39331 -222.16592,94.62858 -36.32478,2.23538 -225.01204,-7.59381 -257.29527,-39.79827 -20.20854,-20.15913 -27.93687,-40.23367 -26.8753,-60.2605 z"
       id="path4546"
       inkscape:connector-curvature="0"
       sodipodi:nodetypes="cssssc" />
    <path
       style="color:#000000;display:inline;overflow:visible;visibility:visible;fill:#ffffff;fill-opacity:1;fill-rule:nonzero;stroke:none;stroke-width:1px;marker:none;enable-background:accumulate"
       d="m 292.57324,401.75525 c 4.18222,-71.19865 110.69164,-76.35068 149.23628,-77.6029 19.02617,0.36932 128.41405,-6.49317 221.01318,-2.64655 92.59911,3.84661 169.13847,13.86324 174.15595,65.77999 8.66098,89.61659 -58.66785,74.49677 -139.67586,81.3127 -81.00799,6.81593 -174.69746,1.14928 -217.76006,2.24528 -84.93083,2.16159 -193.23943,6.22324 -186.96949,-69.08852 z"
       id="path3145"
       inkscape:connector-curvature="0"
       sodipodi:nodetypes="ccssssc" />
    <path
       style="color:#000000;display:inline;overflow:visible;visibility:visible;fill:#ffffff;fill-opacity:1;fill-rule:nonzero;stroke:none;stroke-width:1px;marker:none;enable-background:accumulate"
       d="m 446.27152,308.25044 c 18.72085,42.63412 151.10363,129.12034 165.81283,143.73771 14.70919,14.61736 73.7025,51.80706 97.77206,55.46145 24.06968,3.65429 34.61383,-5.53274 55.60142,-7.98778 12.78199,-1.49519 17.18619,22.92918 50.77997,17.07051 -42.14888,-6.98958 -22.50416,-29.88571 -64.91129,-24.54594 -12.88206,1.62207 -29.12682,8.03372 -50.16944,-3.7592 -55.77193,-31.25628 -135.87479,-117.85288 -157.27,-121.50717 -21.39521,-3.6544 -71.63519,-52.34757 -71.63519,-68.18304 0,-15.83557 -25.98036,9.71346 -25.98036,9.71346 z"
       id="path4562"
       inkscape:connector-curvature="0"
       sodipodi:nodetypes="cssscssssc" />
    <path
       style="color:#000000;display:inline;overflow:visible;visibility:visible;fill:#ffffff;fill-opacity:1;fill-rule:nonzero;stroke:none;stroke-width:1.10201192px;marker:none;enable-background:accumulate"
       d="m 1814.6106,517.7331 c 9.9096,-67.32211 40.0449,-109.96233 199.3789,-106.2597 204.6767,4.75631 313.7139,-24.33022 315.8468,102.41855 1.6692,99.19595 -189.3884,118.83916 -227.3757,119.99988 -37.9873,1.16084 -236.775,-4.78193 -265.5163,-38.67656 -19.0976,-22.52195 -23.9855,-56.58901 -22.3337,-77.48217 z"
       id="path4546-6"
       inkscape:connector-curvature="0"
       sodipodi:nodetypes="cssssc" />
    <path
       style="color:#000000;display:inline;overflow:visible;visibility:visible;fill:#ffffff;fill-opacity:1;fill-rule:nonzero;stroke:none;stroke-width:1px;marker:none;enable-background:accumulate"
       d="m 1701.8598,502.58041 c 34.2355,-19.71173 54.3987,3.34417 62.5308,8.32687 8.132,4.9827 37.4163,23.21994 64.0425,5.43127 26.6264,-17.78869 62.8269,-3.31025 62.8269,-3.31025 l -39.1174,27.48072 c 0,0 -38.4369,7.20044 -59.7592,-0.984 -21.3223,-8.18441 -44.9876,-30.85789 -56.2316,-33.04337 -11.2438,-2.1855 -22.2733,-7.94404 -34.292,-3.90124 z"
       id="path4018"
       inkscape:connector-curvature="0" />
    <path
       style="fill:#ffffff;fill-rule:evenodd;stroke:none;stroke-width:1px;stroke-linecap:butt;stroke-linejoin:miter;stroke-opacity:1"
       d="m 588.40376,914.65231 c 3.19663,-13.63689 11.80483,-23.98359 21.17352,-30.89066 4.45851,-3.33465 9.55466,-5.77835 14.76954,-5.13556 5.18067,0.38408 10.24092,2.67713 15.47891,1.88067 6.36924,-0.26307 12.85031,-1.41081 19.14642,0.2292 5.59702,1.78949 11.36355,2.71628 17.13927,2.77002 4.07461,-1.13586 7.80313,1.89157 11.44199,3.70231 3.26677,1.95593 6.60351,4.00801 9.3474,7.03352 2.52795,4.24716 5.55485,7.9421 8.11232,12.15145 1.67342,2.30123 1.51263,5.47984 1.43554,8.42157 -0.21734,6.02406 -0.58538,12.14319 -1.95147,17.94685 -0.81749,3.68454 -3.8391,4.90391 -6.16085,6.59704 -5.49361,3.57416 -11.32711,6.28455 -16.57007,10.49061 -5.19427,2.15366 -10.71435,1.1463 -16.04131,0.82083 -4.46364,-0.64109 -8.95383,-1.53507 -13.45583,-0.78954 -5.72997,0.54557 -11.44255,1.95821 -17.19303,1.77726 -7.20377,-1.24165 -14.10302,-4.29889 -21.08408,-6.75135 -6.26328,-2.16161 -11.97173,-6.2263 -17.44914,-10.57451 -2.92584,-2.46919 -6.02317,-5.33924 -7.05575,-9.88965 -0.84645,-3.13334 -1.04589,-6.48839 -1.08338,-9.79006 z"
       id="path4365"
       inkscape:connector-curvature="0" />
    <path
       style="fill:#ffffff;stroke:none"
       d="m 585.80257,1016.9897 c 25.0585,-22.43253 22.34002,-27.88279 18.28192,-33.62356 -4.05789,-5.74087 -9.0117,-10.26487 -5.47683,-15.76954 3.53471,-5.50448 11.83641,-12.20928 18.64507,-16.88605 6.80865,-4.67676 -0.15106,-6.98609 -1.33267,-11.71084 -1.18153,-4.72486 8.47495,-35.26533 8.47495,-35.26533 0,0 18.8861,11.27031 21.85273,16.73523 2.96681,5.46474 4.10423,7.43623 4.14842,10.18949 0.044,2.75343 -1.45956,10.07055 -7.37678,15.64632 -5.91727,5.57568 -12.97777,12.61891 -18.44474,16.52839 -5.46711,3.90944 -14.50851,8.27169 -13.27858,13.63411 1.23003,5.36237 10.23798,8.00805 0.82597,18.96164 -8.0678,9.38924 -26.31946,21.56014 -26.31946,21.56014 z"
       id="path3023-2"
       inkscape:connector-curvature="0"
       sodipodi:nodetypes="csssscssssssc" />
    <path
       style="fill:#ffffff;stroke:none;stroke-width:1.46239328"
       d="m 828.12063,888.38152 c -1.20754,-16.47336 37.76319,-62.04816 204.79267,-56.80467 167.0293,5.24349 218.5741,24.00836 222.2216,53.30904 5.7703,46.35286 -82.7023,57.58421 -209.1281,59.38885 -130.33127,1.86043 -210.75844,-14.22681 -217.88617,-55.89322 z"
       id="path3280"
       inkscape:connector-curvature="0"
       sodipodi:nodetypes="csssc" />
    <path
       style="color:#000000;display:inline;overflow:visible;visibility:visible;fill:#ffffff;fill-opacity:1;fill-rule:nonzero;stroke:none;stroke-width:1.08073807px;marker:none;enable-background:accumulate"
       d="m 1156.4281,928.17596 c 98.8228,1.53084 201.5932,10.8463 227.7986,30.0277 53.0956,38.86388 28.6921,107.73924 -28.1499,129.33404 -56.8418,21.5949 -240.691,28.6536 -319.4781,20.699 -71.95211,-7.2646 -138.30313,-28.2038 -144.37891,-90.4942 16.25374,-109.19987 189.90341,-90.54479 264.20831,-89.56654 z"
       id="path4040-6"
       inkscape:connector-curvature="0"
       sodipodi:nodetypes="cssscc" />
    <path
       style="color:#000000;display:inline;overflow:visible;visibility:visible;fill:#ffffff;fill-opacity:1;fill-rule:nonzero;stroke:none;stroke-width:1px;marker:none;enable-background:accumulate"
       d="m 1290.3321,1173.7871 c 19.4758,-56.0536 -15.5086,-73.6442 -35.8993,-79.8259 -46.2488,-14.0212 -31.454,-39.2745 -31.454,-39.2745 l 33.7545,-1.1746 c 0,0 85.1517,57.8008 33.5988,120.275 z"
       id="path3072"
       inkscape:connector-curvature="0"
       sodipodi:nodetypes="csccc" />
    <path
       inkscape:connector-curvature="0"
       style="color:#000000;display:inline;overflow:visible;visibility:visible;fill:#ffffff;fill-opacity:1;fill-rule:nonzero;stroke:none;stroke-width:1.03424799px;marker:none;enable-background:accumulate"
       d="m 2366.6919,1903.5728 -65.1948,50.0148 -1.0281,-17.0185 -21.3281,12.2319 c -86.6777,-20.1217 -198.0523,-21.224 -285.5991,-12.9028 l -23.7486,-12.858 -4.1822,15.928 c -3.9965,0.5027 -7.9497,1.0189 -11.801,1.5607 l -25.7076,-15.8009 2.491,19.4565 c -0.4804,0.084 -0.9531,0.1695 -1.4302,0.2545 l -35.8247,-17.7368 5.7601,24.0485 c -1.725,0.428 -3.4142,0.8595 -5.0614,1.2965 l -45.2911,-37.3559 16.9913,47.0596 c -2.8142,1.3209 -5.2517,2.661 -7.3334,4.0173 l -27.2455,-15.5007 14.6125,26.3302 c -2.7637,2.5695 -5.3785,5.0836 -7.8878,7.5596 l -21.4302,-4.4825 10.2394,14.1323 c -20.7902,24.0564 -31.787,50.0336 -31.3655,74.5144 0.084,4.9138 0.4278,9.6851 0.9984,14.3298 l -12.715,5.2014 15.9594,11.6442 c 1.4671,5.5114 4.7192,22.9859 6.8973,28.1023 l -16.2357,9.335 19.3911,10.4677 -21.7171,16.1052 45.398,-6.9869 c 0.6311,0.6336 1.2798,1.2567 1.9247,1.8827 l -55.6587,34.0115 73.7326,-10.9656 -36.1686,35.8764 71.8934,-19.1316 -20.5296,23.3585 54.5948,-8.3816 4.1167,0.1059 c 12.1945,4.8705 27.3695,5.0676 40.5319,9.3835 89.5207,8.4396 198.7975,19.3387 293.4125,2.254 l 45.5797,20.9342 -18.7576,-26.2934 c 1.0007,-0.2246 6.6847,-1.4376 7.6717,-1.6641 l 47.3726,31.1386 -9.4038,-24.1543 45.9012,22.2513 -27.7449,-41.8847 25.4753,12.9284 -17.4537,-21.2283 c 2.1919,-1.1125 4.376,-2.282 6.5511,-3.5062 l 23.795,6.5855 -14.4027,-12.2671 c 3.6301,-2.3491 7.2053,-4.8421 10.6955,-7.4815 l 37.0221,10.9219 -19.4185,-26.2213 c 2.1387,-2.1373 4.2204,-4.3286 6.2238,-6.5785 l 28.3791,1.1612 -12.0378,-23.6639 c 19.9365,-34.7699 21.2828,-77.7036 -18.7086,-120.4433 l -20.0962,-35.4277 -18.6974,3.1431 16.5956,-26.1209 -30.9118,12.1531 11.3271,-29.9977 -33.3009,19.5499 z"
       id="path4040-0"
       sodipodi:nodetypes="ccccccccccccccccccccccccccccccccccccccccccccccccccccccccccccccccccc" />
    <path
       style="fill:#ffffff;fill-rule:evenodd;stroke:none;stroke-width:1px;stroke-linecap:butt;stroke-linejoin:miter;stroke-opacity:1"
       d="m 1731.8549,2318.594 120.8192,-66.2832 -29.5759,-16.5028 85.742,-43.3793 -33.6402,-26.9702 -85.496,68.298 33.0867,19.9442 z"
       id="path4667"
       inkscape:connector-curvature="0"
       sodipodi:nodetypes="cccccccc" />
    <path
       style="color:#000000;display:inline;overflow:visible;visibility:visible;fill:#ffffff;fill-opacity:1;fill-rule:nonzero;stroke:none;stroke-width:1.31576431px;marker:none;enable-background:accumulate"
       d="m 197.56461,3001.1829 c -7.77876,-21.0444 12.96459,-76.9436 172.42983,-72.3401 159.46508,4.6035 185.3945,30.9089 189.28381,38.8005 3.88945,7.8917 38.3227,67.2789 -86.86307,64.4485 -255.71072,-5.7816 -264.70659,0.9441 -274.85057,-30.9089 z"
       id="path3525-3"
       inkscape:connector-curvature="0"
       sodipodi:nodetypes="cscsc" />
    <path
       style="color:#000000;display:inline;overflow:visible;visibility:visible;fill:#ffffff;fill-opacity:1;fill-rule:nonzero;stroke:none;stroke-width:1.1626122px;marker:none;enable-background:accumulate"
       d="m 372.54589,3080.207 c -7.67367,-23.6599 12.78946,-86.5065 170.10058,-81.3308 157.311,5.1755 182.89013,34.7504 186.72691,43.6228 3.83691,8.8725 37.7706,69.386 -85.6897,72.4585 -233.40444,5.8087 -260.8942,-15.7394 -271.13779,-34.7505 z"
       id="path3525"
       inkscape:connector-curvature="0"
       sodipodi:nodetypes="cccsc" />
    <path
       style="fill:#ffffff;stroke:none"
       d="m 776.83633,3175.8359 c -44.62498,5.3378 -48.87324,-16.857 -54.0967,-32.1561 -5.22349,-15.2991 -11.0824,-20.5456 -20.74361,-24.9442 -9.6612,-4.3986 -33.88162,-7.782 -44.47409,-6.2556 -10.5926,1.5264 -4.87351,-12.4886 -10.52472,-22.0949 -5.65131,-9.6062 -47.54922,-52.2623 -47.54922,-52.2623 0,0 3.4134,45.1382 8.94731,58.4623 5.5339,13.3241 7.48813,18.2238 11.18512,22.9303 3.69708,4.7066 14.53763,14.9729 25.78771,16.1963 11.25004,1.2234 22.42429,-3.0138 31.13833,-3.9792 8.71399,-0.9656 20.03664,6.8038 26.52017,17.5528 6.48353,10.749 24.88779,32.9147 43.24472,32.9979 18.35692,0.083 30.56498,-6.4473 30.56498,-6.4473 z"
       id="path3023"
       inkscape:connector-curvature="0"
       sodipodi:nodetypes="csssscssssssc" />
    <path
       style="color:#000000;display:inline;overflow:visible;visibility:visible;fill:#ffffff;fill-opacity:1;fill-rule:nonzero;stroke:none;stroke-width:0.97111249px;marker:none;enable-background:accumulate"
       d="m 1833.5888,3172.3987 c 29.1683,-29.1978 273.8757,-58.4655 359.381,3.3625 85.5053,61.828 32.8784,134.2548 -16.5857,156.9272 -49.4638,22.6726 -194.7315,46.4676 -260.7996,25.7995 -66.0684,-20.6681 -117.4325,-51.0234 -120.3761,-112.0152 -1.2014,-24.8931 9.2119,-44.876 38.3804,-74.074 z"
       id="path4040"
       inkscape:connector-curvature="0"
       sodipodi:nodetypes="zssssz" />
    <path
       style="fill:#ffffff;stroke:none"
       d="m 1803.2098,3259.0845 c -28.7477,21.3713 -48.9321,0.5936 -66.1006,0.6993 -17.1685,0.1058 -34.6307,29.0733 -44.0708,33.857 -9.363,3.7909 -22.9631,-0.7489 -45.2644,-13.4008 36.8449,37.5971 46.7017,28.1197 55.3791,24.5656 11.9288,-4.8858 18.0056,-23.3478 33.4687,-20.4624 14.978,2.7947 62.9102,19.4669 85.0019,10.1395 22.0918,-9.3272 25.641,-6.4328 25.641,-6.4328 z"
       id="path3282"
       inkscape:connector-curvature="0"
       sodipodi:nodetypes="csccssscc" />
  </g>
  <g
     inkscape:groupmode="layer"
     id="layer1"
     inkscape:label="txt">
    <text
       xml:space="preserve"
       style="font-style:normal;font-variant:normal;font-weight:normal;font-stretch:normal;line-height:0%;font-family:Lavi;-inkscape-font-specification:Lavi;text-align:center;letter-spacing:0px;word-spacing:0px;text-anchor:middle;fill:#000000;fill-opacity:1;stroke:none"
       x="434.37378"
       y="178.50937"
       id="text4246-3-3-2"><tspan
         sodipodi:role="line"
         style="font-size:45px;line-height:1.25"
         x="441.40503"
         y="178.50937"
         id="tspan3752">Chan eil tè beò </tspan><tspan
         sodipodi:role="line"
         style="font-size:45px;line-height:1.25"
         x="441.40503"
         y="234.75937"
         id="tspan73">nach do dh’fhairtlich </tspan><tspan
         sodipodi:role="line"
         style="font-size:45px;line-height:1.25"
         x="434.37378"
         y="291.00937"
         id="tspan75">oirre a-riamh.</tspan></text>
    <text
       xml:space="preserve"
       style="font-style:normal;font-variant:normal;font-weight:normal;font-stretch:normal;line-height:0%;font-family:Lavi;-inkscape-font-specification:Lavi;text-align:center;letter-spacing:0px;word-spacing:0px;text-anchor:middle;fill:#000000;fill-opacity:1;stroke:none"
       x="566.86279"
       y="383.82779"
       id="text4246-3-3-2-3"><tspan
         sodipodi:role="line"
         style="font-size:45px;line-height:1.25"
         x="573.89404"
         y="383.82779"
         id="tspan4173">Cha mhise a’ Chìob </tspan><tspan
         sodipodi:role="line"
         style="font-size:45px;line-height:1.25"
         x="566.86279"
         y="440.07779"
         id="tspan79">a sgrìobh sin tuilleadh.</tspan></text>
    <text
       xml:space="preserve"
       style="font-style:normal;font-variant:normal;font-weight:normal;font-stretch:normal;line-height:0%;font-family:Lavi;-inkscape-font-specification:Lavi;text-align:center;letter-spacing:0px;word-spacing:0px;text-anchor:middle;fill:#000000;fill-opacity:1;stroke:none"
       x="2075.3848"
       y="490.67374"
       id="text4246-3-3-2-3-5"><tspan
         sodipodi:role="line"
         style="font-size:45px;line-height:1.25"
         x="2075.3848"
         y="490.67374"
         id="tspan86">Cha deach an leabhar-</tspan><tspan
         sodipodi:role="line"
         style="font-size:45px;line-height:1.25"
         x="2082.416"
         y="546.92371"
         id="tspan92">latha seo adhlacadh </tspan><tspan
         sodipodi:role="line"
         style="font-size:45px;line-height:1.25"
         x="2075.3848"
         y="603.17371"
         id="tspan88">gun adhbhar.</tspan></text>
    <text
       xml:space="preserve"
       style="font-style:normal;font-variant:normal;font-weight:normal;font-stretch:normal;line-height:0%;font-family:Lavi;-inkscape-font-specification:Lavi;text-align:center;letter-spacing:0px;word-spacing:0px;text-anchor:middle;fill:#000000;fill-opacity:1;stroke:none"
       x="649.6814"
       y="918.87958"
       id="text4246-3-3-2-3-5-6"><tspan
         sodipodi:role="line"
         style="font-size:45px;line-height:1.25"
         x="649.6814"
         y="918.87958"
         id="tspan4208-1">...</tspan></text>
    <text
       xml:space="preserve"
       style="font-style:normal;font-variant:normal;font-weight:normal;font-stretch:normal;line-height:0%;font-family:Lavi;-inkscape-font-specification:Lavi;text-align:center;letter-spacing:0px;word-spacing:0px;text-anchor:middle;fill:#000000;fill-opacity:1;stroke:none"
       x="1038.2921"
       y="902.67383"
       id="text4246-3-3-2-3-5-6-2"><tspan
         sodipodi:role="line"
         style="font-size:45px;line-height:1.25"
         x="1038.2921"
         y="902.67383"
         id="tspan4208-1-7">Tha mi a’ tuigsinn!</tspan></text>
    <text
       xml:space="preserve"
       style="font-style:normal;font-variant:normal;font-weight:normal;font-stretch:normal;line-height:0%;font-family:Lavi;-inkscape-font-specification:Lavi;text-align:center;letter-spacing:0px;word-spacing:0px;text-anchor:middle;fill:#000000;fill-opacity:1;stroke:none"
       x="1153.8596"
       y="1007.8734"
       id="text4246-3-3-2-3-5-6-2-0"><tspan
         sodipodi:role="line"
         style="font-size:45px;line-height:1.25"
         x="1160.8909"
         y="1007.8734"
         id="tspan3735">Ach dè ur beachd air </tspan><tspan
         sodipodi:role="line"
         style="font-size:45px;line-height:1.25"
         x="1153.8596"
         y="1064.1234"
         id="tspan96">an leabhar seo ma-thà</tspan></text>
    <text
       id="text4178-6-5-9-0-7-0-4"
       style="font-style:normal;font-variant:normal;font-weight:normal;font-stretch:normal;line-height:0%;font-family:Lavi;-inkscape-font-specification:Lavi;text-align:center;letter-spacing:0px;word-spacing:0px;text-anchor:middle;opacity:0.64099995;fill:#241c1c;fill-opacity:1;stroke:none;filter:url(#filter4436)"
       xml:space="preserve"
       y="3129.8394"
       x="1318.7137"
       transform="matrix(0.68323005,-0.18026525,0.27547669,0.60843919,-261.43744,-182.58505)"><tspan
         y="3129.8394"
         x="1318.7137"
         style="font-style:normal;font-variant:normal;font-weight:normal;font-stretch:normal;font-size:31.27252018px;line-height:1.25;font-family:Fondamento;-inkscape-font-specification:Fondamento;fill:#241c1c;fill-opacity:1"
         sodipodi:role="line"
         id="tspan4293-1-6-3-5-0-2">COIMEASGA</tspan><tspan
         y="3173.8164"
         x="1318.7137"
         style="font-style:normal;font-variant:normal;font-weight:normal;font-stretch:normal;font-size:39.09065023px;line-height:1.25;font-family:Fondamento;-inkscape-font-specification:Fondamento;fill:#241c1c;fill-opacity:1"
         sodipodi:role="line"
         id="tspan4422">SUTRA</tspan><tspan
         y="3215.134"
         x="1318.7137"
         style="font-style:normal;font-variant:normal;font-weight:normal;font-stretch:normal;font-size:32.06008911px;line-height:1.25;font-family:Fondamento;-inkscape-font-specification:Fondamento;fill:#241c1c;fill-opacity:1"
         sodipodi:role="line"
         id="tspan4426">le</tspan><tspan
         y="3255.2092"
         x="1318.7137"
         style="font-style:normal;font-variant:normal;font-weight:normal;font-stretch:normal;font-size:32.06008911px;line-height:1.25;font-family:Fondamento;-inkscape-font-specification:Fondamento;fill:#241c1c;fill-opacity:1"
         sodipodi:role="line"
         id="tspan4430">Tìom</tspan></text>
    <text
       xml:space="preserve"
       style="font-style:normal;font-variant:normal;font-weight:normal;font-stretch:normal;line-height:0%;font-family:Lavi;-inkscape-font-specification:Lavi;text-align:center;letter-spacing:0px;word-spacing:0px;text-anchor:middle;fill:#000000;fill-opacity:1;stroke:none"
       x="2108.282"
       y="2030.4532"
       id="text4246-3-3-2-3-5-6-2-0-3"><tspan
         sodipodi:role="line"
         style="font-size:45px;line-height:1.25"
         x="2115.3132"
         y="2030.4532"
         id="tspan3721">Chan e seo ach mearachd </tspan><tspan
         sodipodi:role="line"
         style="font-size:45px;line-height:1.25"
         x="2115.3132"
         y="2086.7031"
         id="tspan107">m’ òige agus chan eil e </tspan><tspan
         sodipodi:role="line"
         style="font-size:45px;line-height:1.25"
         x="2115.3132"
         y="2142.9531"
         id="tspan109">iomchaidh dha d’ aois </tspan><tspan
         sodipodi:role="line"
         style="font-size:45px;line-height:1.25"
         x="2108.282"
         y="2199.2031"
         id="tspan115">air dòigh sam bith!</tspan></text>
    <use
       x="0"
       y="0"
       xlink:href="#text4178-6-5-9-0-7-0-4"
       id="use4440"
       transform="matrix(1.7191858,0.78546962,-0.89078499,2.0163672,807.20751,-1621.7765)"
       width="100%"
       height="100%" />
    <text
       xml:space="preserve"
       style="font-style:normal;font-variant:normal;font-weight:normal;font-stretch:normal;line-height:0%;font-family:Lavi;-inkscape-font-specification:Lavi;text-align:center;letter-spacing:0px;word-spacing:0px;text-anchor:middle;fill:#000000;fill-opacity:1;stroke:none"
       x="386.74265"
       y="3004.217"
       id="text4246-3-3-2-3-5-6-2-0-3-6"><tspan
         sodipodi:role="line"
         style="font-size:45px;line-height:1.25"
         x="386.74265"
         y="3004.217"
         id="tspan4328-8">Cò shaoileadh...</tspan></text>
    <text
       xml:space="preserve"
       style="font-style:normal;font-variant:normal;font-weight:normal;font-stretch:normal;line-height:0%;font-family:Lavi;-inkscape-font-specification:Lavi;text-align:center;letter-spacing:0px;word-spacing:0px;text-anchor:middle;fill:#000000;fill-opacity:1;stroke:none"
       x="553.45013"
       y="3073.6917"
       id="text4246-3-3-2-3-5-6-2-0-3-6-7"><tspan
         sodipodi:role="line"
         style="font-size:45px;line-height:1.25"
         x="553.45013"
         y="3073.6917"
         id="tspan4328-8-9">Tha mi agaibh...</tspan></text>
    <text
       xml:space="preserve"
       style="font-style:normal;font-variant:normal;font-weight:normal;font-stretch:normal;line-height:0%;font-family:Lavi;-inkscape-font-specification:Lavi;text-align:center;letter-spacing:0px;word-spacing:0px;text-anchor:middle;fill:#000000;fill-opacity:1;stroke:none"
       x="2019.0325"
       y="3199.3425"
       id="text4246-3-3-2-3-5-6-2-0-3-6-7-2"><tspan
         sodipodi:role="line"
         style="font-size:45px;line-height:1.25"
         x="2019.0325"
         y="3199.3425"
         id="tspan128">Cha chuir</tspan><tspan
         sodipodi:role="line"
         style="font-size:45px;line-height:1.25"
         x="2019.0325"
         y="3255.5925"
         id="tspan647">gin sam bith dheth</tspan><tspan
         sodipodi:role="line"
         style="font-size:45px;line-height:1.25"
         x="2019.0325"
         y="3311.8425"
         id="tspan649">nàire oirbh idir...</tspan></text>
  </g>
</svg>
