<?xml version="1.0" encoding="UTF-8" standalone="no"?>
<!-- Created with Inkscape (http://www.inkscape.org/) -->

<svg
   id="svg2"
   version="1.1"
   inkscape:version="1.2.1 (9c6d41e410, 2022-07-14)"
   width="2481"
   height="3503"
   sodipodi:docname="E37P01.svg"
   xmlns:inkscape="http://www.inkscape.org/namespaces/inkscape"
   xmlns:sodipodi="http://sodipodi.sourceforge.net/DTD/sodipodi-0.dtd"
   xmlns:xlink="http://www.w3.org/1999/xlink"
   xmlns="http://www.w3.org/2000/svg"
   xmlns:svg="http://www.w3.org/2000/svg"
   xmlns:rdf="http://www.w3.org/1999/02/22-rdf-syntax-ns#"
   xmlns:cc="http://creativecommons.org/ns#"
   xmlns:dc="http://purl.org/dc/elements/1.1/">
  <metadata
     id="metadata8">
    <rdf:RDF>
      <cc:Work
         rdf:about="">
        <dc:format>image/svg+xml</dc:format>
        <dc:type
           rdf:resource="http://purl.org/dc/dcmitype/StillImage" />
        <dc:title />
      </cc:Work>
    </rdf:RDF>
  </metadata>
  <defs
     id="defs6" />
  <sodipodi:namedview
     pagecolor="#ffffff"
     bordercolor="#666666"
     borderopacity="1"
     objecttolerance="10"
     gridtolerance="10"
     guidetolerance="10"
     inkscape:pageopacity="0"
     inkscape:pageshadow="2"
     inkscape:window-width="1366"
     inkscape:window-height="703"
     id="namedview4"
     showgrid="false"
     inkscape:zoom="0.45720279"
     inkscape:cx="1281.707"
     inkscape:cy="3283.0071"
     inkscape:window-x="0"
     inkscape:window-y="0"
     inkscape:window-maximized="1"
     inkscape:current-layer="layer1"
     inkscape:pagecheckerboard="0"
     inkscape:showpageshadow="0"
     inkscape:deskcolor="#d1d1d1"
     showguides="false" />
  <g
     inkscape:groupmode="layer"
     id="layer2"
     inkscape:label="artwork"
     sodipodi:insensitive="true">
    <image
       xlink:href="../gfx_Pepper-and-Carrot_by-David-Revoy_E37P01.png"
       y="0"
       x="0"
       id="image10"
       height="3503"
       width="2481" />
  </g>
  <g
     inkscape:groupmode="layer"
     id="layer3"
     inkscape:label="speechbubbles">
    <path
       style="color:#000000;display:inline;overflow:visible;visibility:visible;fill:#ffffff;fill-opacity:1;fill-rule:nonzero;stroke:none;stroke-width:0.999998px;marker:none;enable-background:accumulate"
       d="m 1941.6629,2333.1087 c 15.8896,4.7552 27.218,-10.2594 36.5884,-10.1737 9.3705,0.085 20.4858,-1.4767 31.5776,-11.7728 11.8207,-15.5362 46.6253,-47.4088 4.9039,-39.2982 -15.2177,1.3778 -15.6011,25.3088 -21.9093,33.4823 -6.3081,8.1734 -14.6485,3.6312 -21.2243,9.0949 -6.5758,5.4636 -12.6894,16.2295 -29.9363,18.6675 z"
       id="path4538-0"
       inkscape:connector-curvature="0"
       sodipodi:nodetypes="ccccccc" />
    <path
       style="color:#000000;display:inline;overflow:visible;visibility:visible;fill:#ffffff;fill-opacity:1;fill-rule:nonzero;stroke:none;stroke-width:1px;marker:none;enable-background:accumulate"
       d="m 2249.24,3145.8561 c 34.555,29.8645 38.7386,62.8188 5.9526,98.2544 -21.168,42.3886 0.4462,38.3212 0.4462,38.3212 l 34.145,-19.6238 c 0,0 46.2012,-75.3554 -40.5438,-116.9518 z"
       id="path3072-56-6"
       inkscape:connector-curvature="0"
       sodipodi:nodetypes="ccccc" />
    <path
       style="color:#000000;display:inline;overflow:visible;visibility:visible;fill:#ffffff;fill-opacity:1;fill-rule:nonzero;stroke:none;stroke-width:1.24776px;marker:none;enable-background:accumulate"
       d="m 851.84819,2234.3704 c -24.08907,0.667 -48.64138,0.5678 -71.44925,10.1173 -13.38889,5.5745 -26.03121,16.2146 -33.40061,33.3187 -8.61737,19.5988 -8.34975,46.2069 -1.91657,68.9801 3.01672,10.567 7.19152,20.6616 12.45656,29.4264 5.71832,9.3324 13.22454,16.4797 21.37964,19.6119 23.63857,11.5633 48.22855,14.3241 72.35303,15.485 25.22819,0.8973 50.34836,-0.3057 75.2669,-3.0891 21.00936,-2.7804 42.11376,-7.7974 60.78378,-20.6774 11.27296,-8.1013 21.66463,-20.3565 26.19273,-37.8994 6.3193,-24.2539 2.2153,-55.3961 -11.4113,-75.8136 -10.89115,-15.6635 -25.64997,-23.2508 -39.86872,-27.8613 -23.48148,-7.4778 -47.20752,-8.8065 -70.77232,-10.5704 -13.22542,-0.8334 -26.46568,-1.5798 -39.61387,-1.0282 z"
       id="path4546-6-21-1"
       inkscape:connector-curvature="0"
       sodipodi:nodetypes="cssssc" />
    <path
       style="color:#000000;display:inline;overflow:visible;visibility:visible;fill:#ffffff;fill-opacity:1;fill-rule:nonzero;stroke:none;stroke-width:1.24776px;marker:none;enable-background:accumulate"
       d="m 849.18072,2151.1293 c -18.14856,0.3855 -36.60784,0.3282 -54.22804,5.8465 -10.34202,3.2213 -20.37079,9.3697 -26.75086,19.2536 -7.4408,11.3254 -8.54323,26.7013 -4.82103,39.861 1.75096,6.1063 4.39595,11.9396 7.92602,17.0045 3.84313,5.3928 9.13788,9.5229 15.11734,11.3329 17.21046,6.682 35.56772,8.2774 53.65329,8.9483 18.9285,0.5184 37.87868,-0.1767 56.75468,-1.7852 15.93601,-1.6067 32.05304,-4.5058 46.7246,-11.9486 8.8747,-4.6815 17.29002,-11.7632 21.55478,-21.9007 5.94067,-14.0154 4.38006,-32.0113 -4.86713,-43.8099 -7.42318,-9.0513 -18.15062,-13.4357 -28.61755,-16.0999 -17.29268,-4.3212 -35.07036,-5.089 -52.70551,-6.1083 -9.90514,-0.4816 -19.8257,-0.9129 -29.74059,-0.5942 z"
       id="path4546-6-21-1-7"
       inkscape:connector-curvature="0"
       sodipodi:nodetypes="cssssc" />
    <path
       style="color:#000000;display:inline;overflow:visible;visibility:visible;fill:#ffffff;fill-opacity:1;fill-rule:nonzero;stroke:none;stroke-width:0.999999px;marker:none;enable-background:accumulate"
       d="m 1112.0298,2244.6942 c -36.4729,-14.2248 -66.2411,-6.7142 -86.7414,26.8513 -30.09489,27.8109 -33.25183,11.7546 -33.25183,11.7546 l 6.41738,-29.5186 c 0,0 50.85485,-55.2993 113.57585,-9.0873 z"
       id="path3072-56"
       inkscape:connector-curvature="0"
       sodipodi:nodetypes="ccccc" />
    <path
       style="fill:#ffffff;stroke:none;stroke-width:1.0817"
       d="m 2091.1693,2130.2279 c -31.6517,0.9777 -64.6,5.2613 -92.6823,24.8618 -35.014,27.7239 -47.738,90.412 -27.7053,135.5706 8.7525,20.5497 24.041,36.04 41.5383,43.8806 21.3097,10.1073 44.2278,12.6358 66.5603,17.2667 58.3486,9.7562 118.4614,7.8399 175.5669,-10.8534 16.6748,-5.2657 34.4388,-15.5933 41.726,-36.2958 8.7049,-25.774 8.3075,-55.0872 3.2388,-81.9227 -5.4006,-26.2009 -16.5977,-51.5128 -34.1745,-67.977 -19.9669,-16.2325 -44.5569,-17.478 -67.5372,-20.7167 -35.411,-3.9956 -71.0083,-3.8796 -106.531,-3.8141 z"
       id="path3280-10"
       inkscape:connector-curvature="0"
       sodipodi:nodetypes="csssc" />
    <path
       style="color:#000000;display:inline;overflow:visible;visibility:visible;fill:#ffffff;fill-opacity:1;fill-rule:nonzero;stroke:none;stroke-width:1.23568px;marker:none;enable-background:accumulate"
       d="m 2106.6856,2518.166 c -37.1812,0.9363 -74.9926,1.7668 -110.8564,12.0113 -25.2862,6.8578 -50.4138,12.1693 -65.4846,32.7028 -18.5423,23.5737 -30.3232,60.1367 -32.3738,89.5922 -1.6382,23.694 2.8702,47.952 14.1325,69.295 7.9597,14.9518 20.4295,28.0601 36.443,35.7008 17.283,8.629 36.8952,11.8881 56.2258,13.3455 24.8929,2.3581 49.8281,4.3135 74.7053,6.8204 57.7535,5.2663 115.8571,9.2286 173.8989,6.4035 38.9713,-1.3068 77.9609,-2.0736 116.9475,-2.801 20.2164,-0.7449 40.7241,-1.8946 60.1565,-7.5533 12.8959,-5.4078 20.5306,-18.7912 20.2537,-31.7639 2.0429,-24.2364 -5.8427,-48.1727 -16.966,-69.7861 -10.332,-20.2484 -21.943,-39.9024 -32.1004,-60.2308 -10.4093,-19.2648 -23.1325,-38.313 -42.1132,-51.1448 -22.9724,-15.8932 -50.9437,-23.6852 -78.669,-28.6034 -46.5077,-8.3198 -93.8732,-11.0345 -141.0678,-13.459 -11.0379,-0.4069 -22.0855,-0.5958 -33.132,-0.5292 z"
       id="path4546-6-21-1-2"
       inkscape:connector-curvature="0"
       sodipodi:nodetypes="cssssccccccccccccc" />
    <path
       style="color:#000000;display:inline;overflow:visible;visibility:visible;fill:#ffffff;fill-opacity:1;fill-rule:nonzero;stroke:none;stroke-width:0.999994px;marker:none;enable-background:accumulate"
       d="m 2072.4015,2461.8063 c 23.2757,17.8081 28.2898,43.1252 10.979,76.5719 -9.716,36.9964 3.1402,30.1775 3.1402,30.1775 l 19.3218,-21.1913 c 0,0 22.491,-67.2 -33.441,-85.5581 z"
       id="path3072-56-7"
       inkscape:connector-curvature="0"
       sodipodi:nodetypes="ccccc" />
    <path
       style="color:#000000;display:inline;overflow:visible;visibility:visible;fill:#ffffff;fill-opacity:1;fill-rule:nonzero;stroke:none;stroke-width:0.911218px;marker:none;enable-background:accumulate"
       d="m 2153.6661,3221.6447 c -38.2119,0.8969 -77.1037,5.9031 -111.1862,19.6335 -25.1164,9.6608 -43.5662,27.9981 -50.9703,48.4978 -9.4425,23.0221 -11.0887,48.6774 0.8219,71.3727 9.9095,18.7117 30.823,33.1483 54.7363,41.3679 32.1594,11.6076 67.2413,17.6647 102.3072,21.5819 51.7976,5.3987 104.6017,5.3301 156.3643,-0.256 29.2947,-3.6883 58.8466,-10.9734 81.8212,-25.7609 24.8695,-16.0986 38.1844,-41.5616 35.4692,-66.2288 -1.974,-28.3039 -18.2614,-56.3979 -46.7223,-75.0584 -22.9464,-15.4701 -52.5438,-24.1007 -82.4851,-28.0085 -46.1379,-6.7074 -93.3494,-7.0468 -140.1562,-7.1412 z"
       id="path4040-40"
       inkscape:connector-curvature="0"
       sodipodi:nodetypes="zssssz" />
  </g>
  <g
     inkscape:groupmode="layer"
     id="layer1"
     inkscape:label="txt"
     style="display:inline">
    <text
       xml:space="preserve"
       style="font-style:normal;font-variant:normal;font-weight:normal;font-stretch:normal;font-size:45.3333px;line-height:125%;font-family:Lavi;-inkscape-font-specification:Lavi;text-align:center;letter-spacing:0px;word-spacing:0px;text-anchor:middle;fill:#000000;fill-opacity:1;stroke:none"
       x="870.99451"
       y="2214.8057"
       id="text4246-70-2-2-2-7-4-9-9-6-1-2-3-9"><tspan
         sodipodi:role="line"
         style="font-size:45.3333px"
         x="870.99451"
         y="2214.8057"
         id="tspan2979">Puh ...</tspan></text>
    <text
       xml:space="preserve"
       style="font-style:normal;font-variant:normal;font-weight:normal;font-stretch:normal;font-size:45.3333px;line-height:125%;font-family:Lavi;-inkscape-font-specification:Lavi;text-align:center;letter-spacing:0px;word-spacing:0px;text-anchor:middle;fill:#000000;fill-opacity:1;stroke:none"
       x="874.24341"
       y="2311.0212"
       id="text4246-70-2-2-2-7-4-9-9-6-1-2-3-9-3"><tspan
         sodipodi:role="line"
         style="font-size:45.3333px"
         x="874.24341"
         y="2311.0212"
         id="tspan982">Endeleg</tspan><tspan
         sodipodi:role="line"
         style="font-size:45.3333px"
         x="874.24341"
         y="2367.688"
         id="tspan297">framme!</tspan></text>
    <text
       xml:space="preserve"
       style="font-style:normal;font-variant:normal;font-weight:normal;font-stretch:normal;font-size:45.3333px;line-height:125%;font-family:Lavi;-inkscape-font-specification:Lavi;text-align:center;letter-spacing:0px;word-spacing:0px;text-anchor:middle;fill:#000000;fill-opacity:1;stroke:none"
       x="2134.1968"
       y="2201.2505"
       id="text4246-70-2-2-2-7-4-9-9-6-1-2-3-9-3-5"><tspan
         sodipodi:role="line"
         style="font-size:45.3333px"
         x="2134.1968"
         y="2201.2505"
         id="tspan1026">Det er visst</tspan><tspan
         sodipodi:role="line"
         style="font-size:45.3333px"
         x="2134.1968"
         y="2257.9172"
         id="tspan348">marknads-</tspan><tspan
         sodipodi:role="line"
         style="font-size:45.3333px"
         x="2134.1968"
         y="2314.5837"
         id="tspan385">dag i dag.</tspan></text>
    <text
       xml:space="preserve"
       style="font-style:normal;font-variant:normal;font-weight:normal;font-stretch:normal;font-size:45.3333px;line-height:125%;font-family:Lavi;-inkscape-font-specification:Lavi;text-align:center;letter-spacing:0px;word-spacing:0px;text-anchor:middle;fill:#000000;fill-opacity:1;stroke:none"
       x="2146.6697"
       y="2602.6836"
       id="text4246-70-2-2-2-7-4-9-9-6-1-2-3-9-3-5-2"><tspan
         sodipodi:role="line"
         style="font-size:45.3333px"
         x="2146.6697"
         y="2602.6836"
         id="tspan436">La oss få oss ein</tspan><tspan
         sodipodi:role="line"
         style="font-size:45.3333px"
         x="2146.6697"
         y="2659.3503"
         id="tspan442">matbit før me går</tspan><tspan
         sodipodi:role="line"
         style="font-size:45.3333px"
         x="2146.6697"
         y="2716.0168"
         id="tspan444">opp på vulkanen.</tspan></text>
    <text
       xml:space="preserve"
       style="font-style:normal;font-variant:normal;font-weight:normal;font-stretch:normal;font-size:45.3333px;line-height:125%;font-family:Lavi;-inkscape-font-specification:Lavi;text-align:center;letter-spacing:0px;word-spacing:0px;text-anchor:middle;fill:#000000;fill-opacity:1;stroke:none"
       x="2197.4114"
       y="3301.9041"
       id="text4246-70-2-2-2-7-4-9-9-6-1-2-3-9-3-5-2-0"><tspan
         sodipodi:role="line"
         style="font-style:normal;font-variant:normal;font-weight:normal;font-stretch:normal;font-size:45.3333px;font-family:Lavi;-inkscape-font-specification:Lavi"
         x="2197.4114"
         y="3301.9041"
         id="tspan1238">Eg <tspan
   style="font-style:italic;font-variant:normal;font-weight:normal;font-stretch:normal;font-family:Lavi;-inkscape-font-specification:'Lavi Italic'"
   id="tspan295">tenkte</tspan> du ville</tspan><tspan
         sodipodi:role="line"
         style="font-style:normal;font-variant:normal;font-weight:normal;font-stretch:normal;font-size:45.3333px;font-family:Lavi;-inkscape-font-specification:Lavi"
         x="2197.4114"
         y="3358.5708"
         id="tspan450">lika den planen!</tspan></text>
  </g>
</svg>
