<?xml version="1.0" encoding="UTF-8" standalone="no"?>
<!-- Created with Inkscape (http://www.inkscape.org/) -->

<svg
   id="svg2"
   version="1.1"
   inkscape:version="1.2.1 (9c6d41e410, 2022-07-14)"
   width="2481"
   height="3503"
   sodipodi:docname="E36P04.svg"
   xmlns:inkscape="http://www.inkscape.org/namespaces/inkscape"
   xmlns:sodipodi="http://sodipodi.sourceforge.net/DTD/sodipodi-0.dtd"
   xmlns:xlink="http://www.w3.org/1999/xlink"
   xmlns="http://www.w3.org/2000/svg"
   xmlns:svg="http://www.w3.org/2000/svg"
   xmlns:rdf="http://www.w3.org/1999/02/22-rdf-syntax-ns#"
   xmlns:cc="http://creativecommons.org/ns#"
   xmlns:dc="http://purl.org/dc/elements/1.1/">
  <metadata
     id="metadata8">
    <rdf:RDF>
      <cc:Work
         rdf:about="">
        <dc:format>image/svg+xml</dc:format>
        <dc:type
           rdf:resource="http://purl.org/dc/dcmitype/StillImage" />
        <dc:title />
      </cc:Work>
    </rdf:RDF>
  </metadata>
  <defs
     id="defs6">
    <filter
       inkscape:collect="always"
       style="color-interpolation-filters:sRGB"
       id="filter827"
       x="-0.0066091408"
       y="-0.0039292999"
       width="1.0132183"
       height="1.0078586">
      <feGaussianBlur
         inkscape:collect="always"
         stdDeviation="5.1724067"
         id="feGaussianBlur829" />
    </filter>
    <filter
       style="color-interpolation-filters:sRGB"
       id="filter5561-1"
       inkscape:label="deevad outline effect"
       x="-0.0040729675"
       y="-0.015367663"
       width="1.0081459"
       height="1.0307353">
      <feFlood
         id="feFlood5563-9"
         flood-opacity="1"
         flood-color="rgb(0,0,0)"
         result="flood" />
      <feComposite
         id="feComposite5565-0"
         in2="SourceGraphic"
         in="flood"
         operator="in"
         result="composite1" />
      <feMorphology
         id="feMorphology5567-7"
         operator="dilate"
         radius="1.8999999999999999 6.0999999999999996"
         result="result3" />
      <feComposite
         id="feComposite5569-2"
         in2="result3"
         in="SourceGraphic"
         operator="over"
         result="composite2" />
    </filter>
  </defs>
  <sodipodi:namedview
     pagecolor="#1e1e1e"
     bordercolor="#111111"
     borderopacity="1"
     objecttolerance="10"
     gridtolerance="10"
     guidetolerance="10"
     inkscape:pageopacity="0"
     inkscape:pageshadow="2"
     inkscape:window-width="1261"
     inkscape:window-height="1388"
     id="namedview4"
     showgrid="false"
     inkscape:zoom="0.46000002"
     inkscape:cx="1264.1304"
     inkscape:cy="1161.9565"
     inkscape:window-x="1283"
     inkscape:window-y="36"
     inkscape:window-maximized="1"
     inkscape:current-layer="layer1"
     inkscape:pagecheckerboard="0"
     inkscape:snap-global="false"
     inkscape:showpageshadow="2"
     inkscape:deskcolor="#1e1e1e" />
  <g
     inkscape:groupmode="layer"
     id="layer2"
     inkscape:label="artwork"
     sodipodi:insensitive="true">
    <image
       xlink:href="../gfx_Pepper-and-Carrot_by-David-Revoy_E36P04.png"
       y="0"
       x="0"
       id="image10"
       height="3503"
       width="2481" />
  </g>
  <g
     inkscape:groupmode="layer"
     id="layer4"
     inkscape:label="speechbubbles-whisper"
     style="display:inline;opacity:0.7;mix-blend-mode:screen;filter:url(#filter827)">
    <path
       style="fill:#cdf0ff;stroke:none;stroke-width:0.621054;fill-opacity:1"
       d="m 134.0738,247.09704 c 6.74235,-68.81109 70.48818,-147.794543 220.04571,-136.42536 149.55753,11.36857 206.56101,60.43373 202.27043,154.37602 -4.29059,93.94223 -85.19876,130.44205 -210.8516,125.05683 C 219.88551,384.71933 126.71852,346.42442 134.0738,247.09704 Z"
       id="path3274"
       inkscape:connector-curvature="0" />
    <path
       style="color:#000000;display:inline;overflow:visible;visibility:visible;fill:#cdf0ff;fill-opacity:1;fill-rule:nonzero;stroke:none;stroke-width:1.2829px;marker:none;enable-background:accumulate"
       d="m 242.60168,349.60676 c -56.00074,50.85065 -65.64194,103.14191 -28.27365,140.37761 -72.25173,-48.27906 -39.24342,-137.06385 -13.64787,-157.65108 25.06142,-20.15755 41.92152,17.27347 41.92152,17.27347 z"
       id="path5010-4"
       inkscape:connector-curvature="0"
       sodipodi:nodetypes="ccsc" />
    <path
       style="fill:#cdf0ff;stroke:none;stroke-width:0.87571;fill-opacity:1"
       d="m 123.9912,1045.3126 c -0.5816,-57.69455 12.13659,-107.02719 146.25945,-107.07259 140.85516,-0.0473 168.96982,30.75687 175.35052,108.59059 9.00438,109.8391 -70.70911,104.727 -153.90397,105.006 -116.53812,0.3897 -160.25369,0.4823 -167.706,-106.524 z"
       id="path3280-10"
       inkscape:connector-curvature="0"
       sodipodi:nodetypes="csssc" />
    <path
       style="opacity:1;fill:#cdf0ff;fill-opacity:1;stroke:none;stroke-width:0.770809"
       d="m 392.77761,1139.5355 c -0.57357,-45.3262 11.96892,-84.083 144.23889,-84.1187 138.90925,-0.037 166.63551,24.1633 172.92806,85.3112 8.88,86.2921 -69.73227,82.2759 -151.7778,82.4951 -114.92815,0.3061 -158.0398,0.3789 -165.38915,-83.6876 z"
       id="path3280-10-9"
       inkscape:connector-curvature="0"
       sodipodi:nodetypes="csssc" />
    <path
       style="fill:#cdf0ff;stroke:none;stroke-width:0.9001;fill-opacity:1"
       d="m 414.45801,1041.2033 c 1.8259,-28.5636 11.25884,-52.98674 91.14989,-53.00954 83.90114,-0.027 99.48767,15.22754 100.35756,53.76114 1.22784,54.3791 -46.06047,51.8485 -95.62547,51.9869 -69.4297,0.1929 -95.47205,0.2384 -95.88198,-52.7385 z"
       id="path3280-1"
       inkscape:connector-curvature="0"
       sodipodi:nodetypes="csssc" />
    <path
       inkscape:connector-curvature="0"
       id="path1082-6"
       d="m 298.8264,1007.8278 c -1.05852,1.1484 -2.23987,0.5097 -1.98486,-0.6816 0.46134,-10.29186 -2.14669,-20.41664 -9.6319,-26.29325 -10.13751,-7.29069 -22.77075,-12.21022 -29.84045,-22.59504 -5.75745,-8.74427 -5.01971,-21.18698 -1.49413,-32.91007 4.31252,-14.84587 13.38648,-30.0739 26.78068,-41.34485 6.19451,-5.09695 13.0206,-9.28731 19.6858,-13.63981 1.70647,-1.09332 3.42181,-2.16912 5.1321,-3.25498 -15.98365,14.17836 -28.18362,32.92468 -31.66564,51.29818 -0.83521,11.52515 5.1122,20.58777 12.46283,27.38858 8.74595,8.67863 19.87856,15.63077 24.72663,27.4867 2.05504,6.07335 3.77199,13.18731 -0.0119,20.5838 -3.32768,5.64168 -9.09749,9.69894 -14.15911,13.96234 z"
       style="display:inline;fill:#cdf0ff;fill-rule:evenodd;stroke:none;stroke-width:0.863514px;stroke-linecap:butt;stroke-linejoin:miter;stroke-opacity:1;fill-opacity:1" />
    <path
       style="fill:#cdf0ff;stroke:none;stroke-width:1.20172;fill-opacity:1"
       d="m 1596.399,240.23054 c -1.6504,-34.4871 27.9413,-120.82185 172.2881,-114.32836 144.347,6.49349 189.5252,44.42853 193.7553,105.72908 6.6915,96.97681 -69.2492,122.89292 -178.2933,130.07548 -112.4126,7.40497 -189.4947,-59.16262 -187.7501,-121.4762 z"
       id="path3280-8-90"
       inkscape:connector-curvature="0"
       sodipodi:nodetypes="csssc" />
    <path
       style="color:#000000;display:inline;overflow:visible;visibility:visible;fill:#cdf0ff;fill-opacity:1;fill-rule:nonzero;stroke:none;stroke-width:1.45931px;marker:none;enable-background:accumulate"
       d="m 1908.1685,471.54009 c -46.1767,7.90205 -92.9576,-47.05578 -88.8324,-112.54776 3.657,-73.69663 3.0894,-80.88495 3.0894,-80.88495 l -54.9358,5.52485 c 0,0 25.8928,219.92306 140.6788,187.90786 z"
       id="path3072-5"
       inkscape:connector-curvature="0"
       inkscape:transform-center-x="-4.9958775"
       inkscape:transform-center-y="26.227202"
       sodipodi:nodetypes="ccccc" />
    <path
       style="color:#000000;display:inline;overflow:visible;visibility:visible;fill:#cdf0ff;fill-opacity:1;fill-rule:nonzero;stroke:none;stroke-width:1.41602px;marker:none;enable-background:accumulate"
       d="m 1566.0291,1157.0027 c 1.2117,-56.169 24.8132,-109.2868 234.0368,-107.4486 156.8766,1.3775 198.6538,44.6547 202.1294,101.43 2.4496,40.0113 -82.4217,77.0466 -217.2059,75.0841 -128.8277,-1.8752 -209.5389,-26.2301 -218.9603,-69.0655 z"
       id="path5026-3"
       inkscape:connector-curvature="0"
       sodipodi:nodetypes="csssc" />
    <path
       style="fill:#cdf0ff;fill-rule:evenodd;stroke:none;stroke-width:1.78217px;stroke-linecap:butt;stroke-linejoin:miter;stroke-opacity:1;fill-opacity:1"
       d="m 1876.9024,1072.4564 c 28.2335,-6.4279 93.4241,-58.729 105.0673,-115.8066 2.8219,25.56546 -15.0538,86.6026 -55.5282,133.1516 -63.168,72.6485 -68.303,-6.7555 -68.303,-6.7555 z"
       id="path4248"
       inkscape:connector-curvature="0"
       sodipodi:nodetypes="ccscc" />
    <path
       style="fill:#cdf0ff;fill-rule:evenodd;stroke:none;stroke-width:1.22277px;stroke-linecap:butt;stroke-linejoin:miter;stroke-opacity:1;fill-opacity:1"
       d="m 1099.1618,1799.6189 c 55.0256,-83.383 172.3793,-75.3048 263.4952,-78.5144 133.1051,-3.9315 261.657,-25.7446 380.1586,34.0416 37.278,18.8074 49.5467,172.9067 -40.0173,178.8734 -118.7218,15.7986 -239.5241,16.6831 -359.3327,15.71 -71.1739,-4.8814 -149.8532,-8.1169 -210.2451,-46.3633 -29.0631,-26.2994 -42.7255,-66.785 -34.0587,-103.7473 z"
       id="path4246"
       inkscape:connector-curvature="0"
       sodipodi:nodetypes="sssssss" />
    <path
       style="fill:#cdf0ff;fill-opacity:1;stroke:none;stroke-width:0.942262"
       d="m 1458.3702,1974.2092 c -35.6791,0.5372 -72.0236,3.5404 -105.5723,16.2358 -20.0817,7.8725 -38.581,21.894 -47.6883,41.4679 -12.0195,24.9986 -12.4913,54.0913 -5.5079,80.5172 5.7699,21.6271 19.3385,41.4657 38.6102,53.7665 23.1936,15.6968 51.5599,22.6844 79.5206,23.472 29.796,1.3468 59.6255,0.084 89.4365,0.4071 29.8603,-0.087 60.2513,-0.4216 89.1614,-8.5707 25.4826,-7.8444 47.3293,-26.8965 57.1541,-51.2808 7.4549,-17.5628 9.0387,-36.931 7.6871,-55.7392 -1.0696,-18.3476 -4.0037,-37.3497 -14.0258,-53.265 -7.6836,-12.2052 -19.4249,-21.6758 -32.7585,-27.5224 -24.5212,-11.3332 -51.8299,-14.6113 -78.5312,-17.2244 -25.7549,-2.2882 -51.6455,-2.4114 -77.4859,-2.264 z"
       id="path3280-10-5"
       inkscape:connector-curvature="0"
       sodipodi:nodetypes="csssc" />
    <path
       style="fill:#cdf0ff;fill-rule:evenodd;stroke:none;stroke-width:0.982814px;stroke-linecap:butt;stroke-linejoin:miter;stroke-opacity:1;fill-opacity:1"
       d="m 1452.8701,2063.1977 c 20.0222,-118.9472 -38.8836,-176.8263 -112.6674,-203.8912 -73.7839,-27.0648 -408.44801,-122.5007 -586.75006,31.3 164.14364,-172.6923 505.87416,-84.1291 578.34696,-59.2455 72.4727,24.8835 165.149,62.928 159.016,232.4228 -6.133,169.4949 -37.9455,-0.5861 -37.9455,-0.5861 z"
       id="path98507" />
    <path
       style="color:#000000;display:inline;overflow:visible;visibility:visible;fill:#cdf0ff;fill-opacity:1;fill-rule:nonzero;stroke:none;stroke-width:0.623202px;marker:none;enable-background:accumulate"
       d="m 172.21239,2845.2025 c 24.56093,-36.8211 160.75651,-31.1896 203.11889,-21.7058 46.23086,10.3497 60.46466,25.0144 62.53193,57.1557 0.63857,9.9277 -3.10093,54.9473 -25.84151,63.8101 -22.74053,8.8622 -87.8611,13.2936 -110.60169,13.2936 -22.74052,0 -95.33332,-5.6406 -113.70286,-18.6115 -17.57221,-12.407 -40.06575,-57.1216 -15.50476,-93.9421 z"
       id="path3330-0"
       inkscape:connector-curvature="0"
       sodipodi:nodetypes="zsssssz" />
    <path
       style="color:#000000;display:inline;overflow:visible;visibility:visible;fill:#cdf0ff;fill-opacity:1;fill-rule:nonzero;stroke:none;stroke-width:1.55948px;marker:none;enable-background:accumulate"
       d="m 323.60003,3051.8498 c -2.05351,-115.0646 87.84955,-185.1517 334.55529,-166.1056 127.97515,9.8801 283.67372,21.2323 262.53314,193.9855 -18.63249,152.2592 -227.66079,129.7142 -269.93346,131.511 -42.2733,1.7966 -261.21024,-6.8621 -297.7478,-60.5701 -22.87148,-33.6209 -31.24504,-66.4795 -29.40717,-98.8208 z"
       id="path4546-6-5-3"
       inkscape:connector-curvature="0"
       sodipodi:nodetypes="cssssc" />
    <path
       style="color:#000000;display:inline;overflow:visible;visibility:visible;fill:#cdf0ff;fill-opacity:1;fill-rule:nonzero;stroke:none;stroke-width:1.06676px;marker:none;enable-background:accumulate"
       d="m 1059.4241,3031.4021 c -31.7426,0.4629 -63.82137,0.5658 -94.96707,7.174 -26.819,5.6237 -52.59972,16.6822 -73.79726,33.5106 -12.97252,10.2347 -24.48611,22.4808 -31.98223,36.9825 -8.65758,16.389 -12.95318,35.2451 -10.27782,53.5462 2.83669,15.5432 12.63051,28.7187 22.16209,41.1824 10.48829,13.7584 23.26237,26.3903 39.26124,34.2353 24.14478,12.4138 51.41158,17.5024 78.27158,21.3038 47.07677,6.8164 94.75837,10.7343 142.39447,9.1815 40.1594,-1.715 80.6495,-6.0283 118.9016,-18.3981 20.9755,-6.9544 41.6889,-16.4878 57.4597,-31.772 13.4349,-13.0205 22.8714,-29.9038 25.9345,-48.0156 5.1072,-25.4808 0.8233,-53.2416 -14.665,-74.8724 -14.9907,-21.0812 -38.3727,-35.7223 -63.4763,-43.5645 -26.5228,-8.5362 -54.5043,-11.5254 -82.1962,-14.3508 -29.4961,-2.6646 -59.0743,-4.4763 -88.6671,-5.7919 -8.1154,-0.2633 -16.2363,-0.361 -24.3562,-0.351 z"
       id="path4546-1"
       inkscape:connector-curvature="0"
       sodipodi:nodetypes="cssssc" />
    <path
       style="fill:#cdf0ff;fill-opacity:1;fill-rule:evenodd;stroke:none;stroke-width:1.08846px;stroke-linecap:butt;stroke-linejoin:miter;stroke-opacity:1"
       d="m 1485.2712,3242.9136 c -62.4888,14.7786 -146.7823,-2.3573 -187.4145,-59.5185 -40.6322,-57.1607 -3.3047,41.0404 -3.3047,41.0404 0,0 74.1982,70.9176 190.7192,18.4781 z"
       id="path914"
       inkscape:connector-curvature="0"
       sodipodi:nodetypes="cscc" />
  </g>
  <g
     inkscape:groupmode="layer"
     id="layer3"
     inkscape:label="speechbubbles"
     style="display:inline">
    <path
       style="color:#000000;display:inline;overflow:visible;visibility:visible;fill:#ffffff;fill-opacity:1;fill-rule:nonzero;stroke:none;stroke-width:0.71132px;marker:none;enable-background:accumulate"
       d="m 1253.1339,1984.1813 c -16.2442,13.729 -15.6781,22.2591 6.3773,23.5835 -36.9873,24.7437 -6.7617,20.9995 -0.8,27.2737 -29.0418,8.5275 -18.2681,19.6601 -10.8777,29.704 -36.1048,-16.2682 -23.797,6.1339 -21.3047,20.7092 -10.1282,-9.8963 -26.5629,-19.7481 -19.6416,5.932 -22.0793,-20.467 -41.0865,-38.8367 -43.1981,-3.0184 -8.8961,-18.0193 -31.5894,-21.3996 -30.9065,0.092 -18.3475,-25.3028 -37.2615,-26.7823 -55.5377,-9.0768 0.627,-11.3625 21.5876,-35.0922 -22.7736,-18.3608 18.1824,-15.8217 5.1657,-18.1254 -16.2524,-17.5242 17.1551,-5.0513 20.3167,-10.2617 -11.5363,-15.8687 24.2383,-0.5427 46.8406,-1.6541 18.4038,-20.7759 8.9215,-0.4632 50.1218,15.3065 9.0763,-44.3656 15.3409,14.9491 44.9986,24.5281 40.5625,-8.6629 24.5686,27.3868 35.2073,13.7711 42.5374,-5.7696 17.3092,28.718 25.581,23.0011 42.9402,2.0703 1.319,13.2814 20.795,30.3795 43.1735,12.8593 -12.1889,21.0674 9.5344,26.7445 29.7576,21.1989 z"
       id="path3549-3-7-3"
       inkscape:connector-curvature="0"
       sodipodi:nodetypes="ccccccccccccccccccc" />
    <path
       style="color:#000000;display:inline;overflow:visible;visibility:visible;fill:#ffffff;fill-opacity:1;fill-rule:nonzero;stroke:none;stroke-width:0.837149px;marker:none;enable-background:accumulate"
       d="m 966.36472,2000.5771 c 42.82178,-22.7004 91.81268,-11.0807 106.41908,-4.0321 46.7932,22.5812 18.1866,37.5471 18.1866,37.5471 0.4518,-0.4935 -62.6742,-53.459 -124.60568,-33.515 z"
       id="path5002-7"
       inkscape:connector-curvature="0"
       sodipodi:nodetypes="cscc" />
  </g>
  <g
     inkscape:groupmode="layer"
     id="layer1"
     inkscape:label="txt"
     style="display:inline">
    <text
       id="text4246-4-2-7"
       y="181.32578"
       x="350.25876"
       style="font-style:normal;font-variant:normal;font-weight:normal;font-stretch:normal;line-height:0%;font-family:Lavi;-inkscape-font-specification:Lavi;text-align:center;letter-spacing:0px;word-spacing:0px;text-anchor:middle;fill:#000000;fill-opacity:1;stroke:none"
       xml:space="preserve"><tspan
         y="181.32578"
         x="350.25876"
         style="font-size:45px;line-height:1.25"
         sodipodi:role="line"
         id="tspan6111">Sorr...</tspan><tspan
         y="237.57578"
         x="350.25876"
         style="font-size:45px;line-height:1.25"
         sodipodi:role="line"
         id="tspan355">het spijt me voor</tspan><tspan
         y="293.82574"
         x="350.25876"
         style="font-size:45px;line-height:1.25"
         sodipodi:role="line"
         id="tspan363">wat er gebeurd</tspan><tspan
         y="350.07574"
         x="357.29001"
         style="font-size:45px;line-height:1.25"
         sodipodi:role="line"
         id="tspan379">is... </tspan></text>
    <text
       id="text4246-4-2-7-3"
       y="1005.3795"
       x="282.38058"
       style="font-style:normal;font-variant:normal;font-weight:normal;font-stretch:normal;line-height:0%;font-family:Lavi;-inkscape-font-specification:Lavi;text-align:center;letter-spacing:0px;word-spacing:0px;text-anchor:middle;fill:#000000;fill-opacity:1;stroke:none"
       xml:space="preserve"><tspan
         y="1005.3795"
         x="282.38058"
         style="font-size:45px;line-height:1.25"
         sodipodi:role="line"
         id="tspan472">...je weet</tspan><tspan
         y="1061.6295"
         x="282.38058"
         style="font-size:45px;line-height:1.25"
         sodipodi:role="line"
         id="tspan476">wel, voor ons</tspan><tspan
         y="1117.8795"
         x="282.38058"
         style="font-size:45px;line-height:1.25"
         sodipodi:role="line"
         id="tspan478">gevecht.</tspan></text>
    <text
       id="text4246-4-2-7-3-1"
       y="1055.1818"
       x="511.82285"
       style="font-style:normal;font-variant:normal;font-weight:normal;font-stretch:normal;line-height:0%;font-family:Lavi;-inkscape-font-specification:Lavi;text-align:center;letter-spacing:0px;word-spacing:0px;text-anchor:middle;fill:#000000;fill-opacity:1;stroke:none"
       xml:space="preserve"><tspan
         y="1055.1818"
         x="511.82285"
         style="font-size:45px;line-height:1.25"
         sodipodi:role="line"
         id="tspan37052-0">Ik...</tspan></text>
    <text
       id="text4246-4-2-7-3-5"
       y="1126.2975"
       x="558.13489"
       style="font-style:normal;font-variant:normal;font-weight:normal;font-stretch:normal;line-height:0%;font-family:Lavi;-inkscape-font-specification:Lavi;text-align:center;letter-spacing:0px;word-spacing:0px;text-anchor:middle;fill:#000000;fill-opacity:1;stroke:none"
       xml:space="preserve"><tspan
         y="1126.2975"
         x="558.13489"
         style="font-size:45px;line-height:1.25"
         sodipodi:role="line"
         id="tspan491">Ik kon</tspan><tspan
         y="1182.5475"
         x="558.13489"
         style="font-size:45px;line-height:1.25"
         sodipodi:role="line"
         id="tspan580">niet anders.</tspan></text>
    <text
       id="text4246-4-2-7-9"
       y="205.05074"
       x="1779.386"
       style="font-style:normal;font-variant:normal;font-weight:normal;font-stretch:normal;line-height:0%;font-family:Lavi;-inkscape-font-specification:Lavi;text-align:center;letter-spacing:0px;word-spacing:0px;text-anchor:middle;fill:#000000;fill-opacity:1;stroke:none"
       xml:space="preserve"><tspan
         y="205.05074"
         x="1779.386"
         style="font-size:45px;line-height:1.25"
         sodipodi:role="line"
         id="tspan66776">Maak je geen</tspan><tspan
         y="261.30072"
         x="1779.386"
         style="font-size:45px;line-height:1.25"
         sodipodi:role="line"
         id="tspan672">zorgen. Ik</tspan><tspan
         y="317.55072"
         x="1779.386"
         style="font-size:45px;line-height:1.25"
         sodipodi:role="line"
         id="tspan674">snap het.</tspan></text>
    <text
       id="text4246-4-2-7-9-2"
       y="1117.2592"
       x="1783.5726"
       style="font-style:normal;font-variant:normal;font-weight:normal;font-stretch:normal;line-height:0%;font-family:Lavi;-inkscape-font-specification:Lavi;text-align:center;letter-spacing:0px;word-spacing:0px;text-anchor:middle;fill:#000000;fill-opacity:1;stroke:none"
       xml:space="preserve"><tspan
         y="1117.2592"
         x="1783.5726"
         style="font-size:45px;line-height:1.25"
         sodipodi:role="line"
         id="tspan71640">Bedankt dat</tspan><tspan
         y="1173.5092"
         x="1783.5726"
         style="font-size:45px;line-height:1.25"
         sodipodi:role="line"
         id="tspan678">je gekomen bent.</tspan></text>
    <text
       id="text4246-4-2-7-9-2-7"
       y="1780.9009"
       x="1444.6887"
       style="font-style:normal;font-variant:normal;font-weight:normal;font-stretch:normal;line-height:0%;font-family:Lavi;-inkscape-font-specification:Lavi;text-align:center;letter-spacing:0px;word-spacing:0px;text-anchor:middle;fill:#000000;fill-opacity:1;stroke:none"
       xml:space="preserve"><tspan
         y="1780.9009"
         x="1444.6887"
         style="font-size:45px;line-height:1.25"
         sodipodi:role="line"
         id="tspan93883">Deze magische cel</tspan><tspan
         y="1837.1509"
         x="1444.6887"
         style="font-size:45px;line-height:1.25"
         sodipodi:role="line"
         id="tspan855">is <tspan
   style="font-style:italic"
   id="tspan857">écht</tspan> krachtig. Ze hebben </tspan><tspan
         y="1893.4009"
         x="1444.6887"
         style="font-size:45px;line-height:1.25"
         sodipodi:role="line"
         id="tspan859">alles uit de kast getrokken!</tspan></text>
    <text
       xml:space="preserve"
       style="font-style:normal;font-variant:normal;font-weight:normal;font-stretch:normal;line-height:0%;font-family:Lavi;-inkscape-font-specification:Lavi;text-align:center;letter-spacing:0px;word-spacing:0px;text-anchor:middle;display:inline;fill:#000000;fill-opacity:1;stroke:none"
       x="1153.2969"
       y="2036.3838"
       id="text4246-97"><tspan
         sodipodi:role="line"
         style="font-style:normal;font-variant:normal;font-weight:bold;font-stretch:normal;font-size:45px;line-height:1.25;font-family:Lavi;-inkscape-font-specification:'Lavi Bold'"
         x="1153.2969"
         y="2036.3838"
         id="tspan4252-99">Haha!</tspan></text>
    <text
       id="text4246-4-2-7-9-2-7-0"
       y="2045.4873"
       x="1477.1412"
       style="font-style:normal;font-variant:normal;font-weight:normal;font-stretch:normal;font-size:11.0752px;line-height:0%;font-family:Lavi;-inkscape-font-specification:Lavi;text-align:center;letter-spacing:0px;word-spacing:0px;text-anchor:middle;fill:#000000;fill-opacity:1;stroke:none;stroke-width:0.922932"
       xml:space="preserve"><tspan
         y="2045.4873"
         x="1477.1412"
         style="font-size:41.5319px;line-height:1.25;stroke-width:0.922932"
         sodipodi:role="line"
         id="tspan96797">Niet zo hard!</tspan><tspan
         y="2097.4021"
         x="1477.1412"
         style="font-size:41.5319px;line-height:1.25;stroke-width:0.922932"
         sodipodi:role="line"
         id="tspan866">Dadelijk horen ze</tspan><tspan
         y="2149.3171"
         x="1477.1412"
         style="font-size:41.5319px;line-height:1.25;stroke-width:0.922932"
         sodipodi:role="line"
         id="tspan868">ons nog!</tspan></text>
    <text
       xml:space="preserve"
       style="color:#000000;font-style:normal;font-variant:normal;font-weight:normal;font-stretch:normal;font-size:7.41214px;line-height:0.01%;font-family:Arial;-inkscape-font-specification:Arial;letter-spacing:2.51825px;word-spacing:0px;display:inline;overflow:visible;visibility:visible;opacity:0.635039;fill:#e69d76;fill-opacity:1;fill-rule:nonzero;stroke:#e99f77;stroke-width:2.70666;stroke-opacity:1;marker:none;enable-background:accumulate"
       x="599.59552"
       y="3065.2383"
       id="text4246-1711"
       transform="matrix(0.87642423,-0.49049559,0.3850957,0.92547904,0,0)"><tspan
         sodipodi:role="line"
         x="600.85468"
         y="3065.2383"
         id="tspan1709"
         style="word-spacing:0px;fill:#ffffff;fill-opacity:1;stroke:#ffffff;stroke-width:2.70666;stroke-opacity:1"><tspan
           x="599.59552"
           y="3065.2383"
           style="color:#000000;font-style:normal;font-variant:normal;font-weight:normal;font-stretch:normal;font-size:39.5314px;line-height:1.25;font-family:Lavi;-inkscape-font-specification:Lavi;text-align:center;word-spacing:0px;text-anchor:middle;display:inline;overflow:visible;visibility:visible;fill:#ffffff;fill-opacity:1;fill-rule:nonzero;stroke:#ffffff;stroke-width:2.1336;stroke-miterlimit:4;stroke-dasharray:none;stroke-opacity:1;marker:none;enable-background:accumulate"
           id="tspan1707">LAP</tspan></tspan></text>
    <text
       xml:space="preserve"
       style="color:#000000;font-style:normal;font-variant:normal;font-weight:normal;font-stretch:normal;font-size:5.89332px;line-height:0.01%;font-family:Arial;-inkscape-font-specification:Arial;letter-spacing:2.00224px;word-spacing:0px;display:inline;overflow:visible;visibility:visible;opacity:0.635039;fill:#e69d76;fill-opacity:1;fill-rule:nonzero;stroke:#e99f77;stroke-width:2.15204;stroke-opacity:1;marker:none;enable-background:accumulate"
       x="651.1543"
       y="3086.4412"
       id="text4246-8"
       transform="matrix(0.86624931,-0.49625693,0.3806249,0.93634967,0,0)"><tspan
         sodipodi:role="line"
         x="652.1554"
         y="3086.4412"
         id="tspan1709-9"
         style="word-spacing:0px;fill:#ffffff;fill-opacity:1;stroke:#ffffff;stroke-width:2.15204;stroke-opacity:1"><tspan
           x="651.1543"
           y="3086.4412"
           style="color:#000000;font-style:normal;font-variant:normal;font-weight:normal;font-stretch:normal;font-size:31.431px;line-height:1.25;font-family:Lavi;-inkscape-font-specification:Lavi;text-align:center;word-spacing:0px;text-anchor:middle;display:inline;overflow:visible;visibility:visible;fill:#ffffff;fill-opacity:1;fill-rule:nonzero;stroke:#ffffff;stroke-width:1.69641;stroke-miterlimit:4;stroke-dasharray:none;stroke-opacity:1;marker:none;enable-background:accumulate"
           id="tspan1707-7">LAP</tspan></tspan></text>
    <text
       xml:space="preserve"
       style="color:#000000;font-style:normal;font-variant:normal;font-weight:normal;font-stretch:normal;font-size:4.80028px;line-height:0.01%;font-family:Arial;-inkscape-font-specification:Arial;letter-spacing:1.63088px;word-spacing:0px;display:inline;overflow:visible;visibility:visible;opacity:0.635039;fill:#e69d76;fill-opacity:1;fill-rule:nonzero;stroke:#e99f77;stroke-width:1.7529;stroke-opacity:1;marker:none;enable-background:accumulate"
       x="663.8678"
       y="3119.0703"
       id="text4246-8-3"
       transform="matrix(0.86358569,-0.49778757,0.37945452,0.93923772,0,0)"><tspan
         sodipodi:role="line"
         x="664.68323"
         y="3119.0703"
         id="tspan1709-9-6"
         style="word-spacing:0px;fill:#ffffff;fill-opacity:1;stroke:#ffffff;stroke-width:1.7529;stroke-opacity:1"><tspan
           x="663.8678"
           y="3119.0703"
           style="color:#000000;font-style:normal;font-variant:normal;font-weight:normal;font-stretch:normal;font-size:25.6015px;line-height:1.25;font-family:Lavi;-inkscape-font-specification:Lavi;text-align:center;word-spacing:0px;text-anchor:middle;display:inline;overflow:visible;visibility:visible;fill:#ffffff;fill-opacity:1;fill-rule:nonzero;stroke:#ffffff;stroke-width:1.38177;stroke-miterlimit:4;stroke-dasharray:none;stroke-opacity:1;marker:none;enable-background:accumulate"
           id="tspan1707-7-1">LAP</tspan></tspan></text>
    <text
       id="text4246-4-2-7-9-2-7-0-9"
       y="2899.5105"
       x="296.33832"
       style="font-style:normal;font-variant:normal;font-weight:normal;font-stretch:normal;line-height:0%;font-family:Lavi;-inkscape-font-specification:Lavi;text-align:center;letter-spacing:0px;word-spacing:0px;text-anchor:middle;fill:#000000;fill-opacity:1;stroke:none"
       xml:space="preserve"><tspan
         y="2899.5105"
         x="296.33832"
         style="font-size:45px;line-height:1.25"
         sodipodi:role="line"
         id="tspan96797-9">Luister,</tspan></text>
    <text
       id="text4246-4-2-7-9-2-7-0-9-4"
       y="2983.9065"
       x="620.7691"
       style="font-style:normal;font-variant:normal;font-weight:normal;font-stretch:normal;line-height:0%;font-family:Lavi;-inkscape-font-specification:Lavi;text-align:center;letter-spacing:0px;word-spacing:0px;text-anchor:middle;fill:#000000;fill-opacity:1;stroke:none"
       xml:space="preserve"><tspan
         y="2983.9065"
         x="620.7691"
         style="font-size:45px;line-height:1.25"
         sodipodi:role="line"
         id="tspan124228">ik ben hier ook, omdat</tspan><tspan
         y="3040.1565"
         x="620.7691"
         style="font-size:45px;line-height:1.25"
         sodipodi:role="line"
         id="tspan969">ik na de ceremonie ben</tspan><tspan
         y="3096.4065"
         x="620.7691"
         style="font-size:45px;line-height:1.25"
         sodipodi:role="line"
         id="tspan965">toegetreden tot Wasabi's</tspan><tspan
         y="3152.6565"
         x="620.7691"
         style="font-size:45px;line-height:1.25"
         sodipodi:role="line"
         id="tspan967">vertrouwenscirkel...</tspan></text>
    <text
       id="text4246-4-2-7-9-2-7-0-9-4-8"
       y="3108.8162"
       x="1095.9951"
       style="font-style:normal;font-variant:normal;font-weight:normal;font-stretch:normal;line-height:0%;font-family:Lavi;-inkscape-font-specification:Lavi;text-align:center;letter-spacing:0px;word-spacing:0px;text-anchor:middle;fill:#000000;fill-opacity:1;stroke:none"
       xml:space="preserve"><tspan
         y="3108.8162"
         x="1095.9951"
         style="font-size:45px;line-height:1.25"
         sodipodi:role="line"
         id="tspan1063">Én, zo achter</tspan><tspan
         y="3165.0662"
         x="1095.9951"
         style="font-size:45px;line-height:1.25"
         sodipodi:role="line"
         id="tspan1160">haar plannen ben</tspan><tspan
         y="3221.3162"
         x="1095.9951"
         style="font-size:45px;line-height:1.25"
         sodipodi:role="line"
         id="tspan1065">gekomen...</tspan></text>
  </g>
</svg>
