<?xml version="1.0" encoding="UTF-8" standalone="no"?>
<!-- Created with Inkscape (http://www.inkscape.org/) -->

<svg
   xmlns:dc="http://purl.org/dc/elements/1.1/"
   xmlns:cc="http://creativecommons.org/ns#"
   xmlns:rdf="http://www.w3.org/1999/02/22-rdf-syntax-ns#"
   xmlns:svg="http://www.w3.org/2000/svg"
   xmlns="http://www.w3.org/2000/svg"
   xmlns:xlink="http://www.w3.org/1999/xlink"
   xmlns:sodipodi="http://sodipodi.sourceforge.net/DTD/sodipodi-0.dtd"
   xmlns:inkscape="http://www.inkscape.org/namespaces/inkscape"
   id="svg2"
   version="1.1"
   inkscape:version="0.92.4 (5da689c313, 2019-01-14)"
   width="2481"
   height="3503"
   sodipodi:docname="E36P02.svg">
  <metadata
     id="metadata8">
    <rdf:RDF>
      <cc:Work
         rdf:about="">
        <dc:format>image/svg+xml</dc:format>
        <dc:type
           rdf:resource="http://purl.org/dc/dcmitype/StillImage" />
      </cc:Work>
    </rdf:RDF>
  </metadata>
  <defs
     id="defs6">
    <filter
       x="-0.032294048"
       width="1.0625661"
       height="1.3663621"
       inkscape:label="magic-Fx-red_background"
       id="filter4375-4-1-1-1-9-5-8-8-3-3-3-6-1-3"
       style="color-interpolation-filters:sRGB"
       y="-0.13001217">
      <feFlood
         radius="5.0999999999999996"
         result="flood"
         flood-color="rgb(136,138,133)"
         flood-opacity="1"
         id="feFlood4377-7-9-0-8-1-7-3-1-6-61-6-2-0-1" />
      <feComposite
         baseFrequency="0.053999999999999999 0.053999999999999999"
         result="composite1"
         operator="in"
         in="flood"
         in2="SourceGraphic"
         id="feComposite4379-3-8-8-2-77-4-1-0-7-2-7-6-6-4" />
      <feMorphology
         result="result3"
         radius="0.96959439099754563"
         operator="dilate"
         id="feMorphology4393-1-0-49-8-9-3-0-1-5-9-5-1-3-9" />
      <feComposite
         numOctaves="4"
         result="fbSourceGraphic"
         operator="over"
         in="SourceGraphic"
         in2="result3"
         id="feComposite4385-9-5-7-0-8-8-7-5-3-3-3-8-2-2" />
      <feColorMatrix
         id="feColorMatrix4544-9-5-1-5-7-0-0"
         values="0 0 0 -1 0 0 0 0 -1 0 0 0 0 -1 0 0 0 0 1 0"
         in="fbSourceGraphic"
         result="fbSourceGraphicAlpha" />
      <feTurbulence
         result="turbulence"
         baseFrequency="0.062 0.054054054054054057"
         seed="172"
         numOctaves="4.4123222748815163"
         type="fractalNoise"
         id="feTurbulence4546-3-6-9-6-9-6-6" />
      <feDisplacementMap
         result="fbSourceGraphic"
         xChannelSelector="R"
         yChannelSelector="G"
         scale="11.642079"
         in="fbSourceGraphic"
         in2="turbulence"
         id="feDisplacementMap4548-8-2-4-2-2-1-8" />
      <feColorMatrix
         scale="10.800000000000001"
         id="feColorMatrix4670-7-9-7-9-0-5-9"
         values="0 0 0 -1 0 0 0 0 -1 0 0 0 0 -1 0 0 0 0 1 0"
         in="fbSourceGraphic"
         result="fbSourceGraphicAlpha" />
      <feComposite
         result="composite1"
         operator="in"
         in="flood"
         in2="fbSourceGraphic"
         id="feComposite4674-8-2-4-1-2-5-2" />
      <feGaussianBlur
         result="blur"
         stdDeviation="1.5865199271065846"
         in="composite1"
         id="feGaussianBlur4676-3-7-50-2-3-4-6" />
      <feOffset
         result="offset"
         dy="5.2374444725016502"
         dx="-0.42771311737301687"
         id="feOffset4678-6-0-3-7-7-7-6" />
      <feComposite
         result="composite2"
         operator="over"
         in="fbSourceGraphic"
         in2="offset"
         id="feComposite4680-4-9-6-0-5-6-4" />
      <feGaussianBlur
         stdDeviation="0.76414472307477677"
         id="feGaussianBlur58-9-9-5-9" />
      <feOffset
         dx="0"
         dy="0"
         id="feOffset60-3-2-6-5" />
    </filter>
    <filter
       style="color-interpolation-filters:sRGB"
       id="filter4375-4-1-1-1-9-5-8-3-4"
       inkscape:label="Drop Shadow"
       x="-0.0007296798"
       y="-0.0039836934"
       width="1.0149402"
       height="1.0815659">
      <feFlood
         id="feFlood4377-7-9-0-8-1-7-3-6"
         flood-opacity="1"
         flood-color="rgb(39,39,39)"
         result="flood" />
      <feComposite
         id="feComposite4379-3-8-8-2-77-4-1-7"
         in2="SourceGraphic"
         in="flood"
         operator="in"
         result="composite1" />
      <feMorphology
         id="feMorphology4393-1-0-49-8-9-3-0-5"
         operator="dilate"
         radius="6.2000000000000002"
         result="result3" />
      <feComposite
         id="feComposite4385-9-5-7-0-8-8-7-3"
         in2="result3"
         in="SourceGraphic"
         operator="over"
         result="fbSourceGraphic" />
      <feColorMatrix
         result="fbSourceGraphicAlpha"
         in="fbSourceGraphic"
         values="0 0 0 -1 0 0 0 0 -1 0 0 0 0 -1 0 0 0 0 1 0"
         id="feColorMatrix4544-5" />
      <feTurbulence
         id="feTurbulence4546-6"
         type="fractalNoise"
         numOctaves="3"
         seed="37"
         baseFrequency="0.129 0.0050000000000000001"
         result="turbulence" />
      <feDisplacementMap
         id="feDisplacementMap4548-2"
         in2="turbulence"
         in="fbSourceGraphic"
         scale="6.6"
         yChannelSelector="G"
         xChannelSelector="R"
         result="fbSourceGraphic" />
      <feColorMatrix
         result="fbSourceGraphicAlpha"
         in="fbSourceGraphic"
         values="0 0 0 -1 0 0 0 0 -1 0 0 0 0 -1 0 0 0 0 1 0"
         id="feColorMatrix4670-9-3" />
      <feFlood
         id="feFlood4672-1-0"
         flood-opacity="0.40999999999999998"
         flood-color="rgb(34,52,102)"
         result="flood"
         in="fbSourceGraphic" />
      <feComposite
         id="feComposite4674-2-3"
         in2="fbSourceGraphic"
         in="flood"
         operator="in"
         result="composite1" />
      <feGaussianBlur
         id="feGaussianBlur4676-7"
         in="composite1"
         stdDeviation="0"
         result="blur" />
      <feOffset
         id="feOffset4678-0-0"
         dx="6"
         dy="6"
         result="offset" />
      <feComposite
         id="feComposite4680-9"
         in2="offset"
         in="fbSourceGraphic"
         operator="over"
         result="composite2" />
    </filter>
  </defs>
  <sodipodi:namedview
     pagecolor="#1e1e1e"
     bordercolor="#111111"
     borderopacity="1"
     objecttolerance="10"
     gridtolerance="10"
     guidetolerance="10"
     inkscape:pageopacity="0"
     inkscape:pageshadow="2"
     inkscape:window-width="1600"
     inkscape:window-height="847"
     id="namedview4"
     showgrid="false"
     inkscape:zoom="0.46000002"
     inkscape:cx="970.65213"
     inkscape:cy="382.60872"
     inkscape:window-x="-8"
     inkscape:window-y="-8"
     inkscape:window-maximized="1"
     inkscape:current-layer="layer1"
     inkscape:pagecheckerboard="0"
     inkscape:snap-global="false" />
  <g
     inkscape:groupmode="layer"
     id="layer2"
     inkscape:label="artwork"
     sodipodi:insensitive="true"
     style="display:inline">
    <image
       sodipodi:absref="D:\Pepper&amp;Carrot\code\ep36_The-Surprise-Attack\lang\ro\../gfx_Pepper-and-Carrot_by-David-Revoy_E36P02.png"
       xlink:href="../gfx_Pepper-and-Carrot_by-David-Revoy_E36P02.png"
       width="2481"
       height="3503"
       id="image10"
       x="0"
       y="0" />
  </g>
  <g
     inkscape:groupmode="layer"
     id="layer3"
     inkscape:label="speechbubbles"
     style="display:inline">
    <path
       style="fill:#ffffff;fill-rule:evenodd;stroke:none;stroke-width:1.13299143px;stroke-linecap:butt;stroke-linejoin:miter;stroke-opacity:1"
       d="m 1699.727,3202.9379 c -31.7843,0.032 -93.4517,9.2576 -39.2751,35.2321 -69.7821,-12.8975 -82.1502,-2.2776 -89.2459,10.5018 -23.2205,-11.3765 -47.8473,-21.5149 -96.5894,-10.4234 -9.7686,-17.82 -45.1503,-23.5562 -99.8589,-20.1744 46.3931,-15.3608 73.7369,-29.8284 -19.2501,-38.6541 75.4262,-2.242 94.6874,-22.2507 18.8932,-36.1504 61.0146,4.3252 78.3896,-0.745 63.1961,-12.827 36.7901,8.3131 66.6567,7.827 89.2155,-1.9462 35.62,20.2562 61.2144,18.8554 78.8587,0.2823 1.8235,31.2466 53.7748,29.4333 91.4615,32.4876 -63.4938,12.1678 -12.9946,44.7328 2.5944,41.6717 z"
       id="path1087"
       inkscape:connector-curvature="0"
       sodipodi:nodetypes="cccccccccccc" />
    <path
       style="color:#000000;display:inline;overflow:visible;visibility:visible;fill:#ffffff;fill-opacity:1;fill-rule:nonzero;stroke:none;stroke-width:0.98536134px;marker:none;enable-background:accumulate"
       d="m 1669.0999,3216.7914 c -29.8231,0.1617 -60.2195,1.3003 -88.5766,9.3494 -18.0505,4.7605 -35.9955,11.4488 -49.3808,22.4508 -11.7184,11.8615 -12.816,27.9593 -11.0347,42.3914 1.6097,11.6546 8.8225,22.5475 19.787,30.3494 19.9402,15.5813 46.9709,24.5906 74.5909,26.8823 19.5492,1.8976 39.1988,3.1764 58.8492,4.1676 37.7363,1.3019 75.6154,-0.6176 112.9638,-4.9845 22.8427,-2.9689 45.1004,-12.3759 57.9595,-28.0486 13.9919,-16.3862 15.8169,-37.6935 10.2477,-56.5663 -3.1926,-10.4655 -11.4831,-19.8146 -23.1499,-25.3596 -27.0438,-13.2392 -59.1519,-17.8801 -90.4509,-19.1879 -23.9184,-0.7779 -47.8611,-1.5522 -71.8052,-1.444 z"
       id="path3525-1"
       inkscape:connector-curvature="0"
       sodipodi:nodetypes="ccccc" />
    <path
       style="display:inline;fill:#ffffff;fill-rule:evenodd;stroke:none;stroke-width:1.15535px;stroke-linecap:butt;stroke-linejoin:miter;stroke-opacity:1"
       d="m 1689.5967,3128.6539 c 0,0 -32.5032,0.5122 -35.8686,17.9644 -3.3663,17.4516 24.539,59.2603 24.539,59.2603 0,0 -45.1119,0.7369 -45.1178,48.4326 -0.01,47.6953 47.113,85.7891 43.4135,52.8962 -3.6991,-32.8931 -34.8285,-95.2011 56.3216,-84.9196 -32.3662,-27.7763 -52.1364,-60.1065 -52.668,-63.6644 -1.9951,-13.3523 30.9323,-20.3265 45.1813,-19.8929 -64.6236,-55.3255 -17.6069,-82.8485 -7.229,-135.1096 -26.5229,47.7737 -71.2674,83.4938 -28.572,125.033 z"
       id="path4394-0"
       inkscape:connector-curvature="0"
       sodipodi:nodetypes="cscsscsccc" />
    <path
       style="display:inline;fill:#ffffff;fill-rule:evenodd;stroke:none;stroke-width:1.2768563px;stroke-linecap:butt;stroke-linejoin:miter;stroke-opacity:1"
       d="m 2073.6753,2198.579 c -6.249,9.6951 -11.2811,20.9352 -22.214,27.1849 -8.9037,4.771 -20.6188,1.4122 -27.2755,-5.1111 -5.0957,-4.5223 -9.8453,-9.347 -14.8336,-13.9638 1.9487,8.5016 3.0944,17.7675 -0.9298,25.9414 -7.1465,5.4555 -18.4246,3.2701 -24.4301,-2.6063 -2.1719,-1.4275 -4.3439,-2.855 -6.5159,-4.2825 2.5641,10.8555 -0.1697,23.36 -9.5339,31.0326 -9.2089,3.9611 -20.5186,-0.6591 -25.5596,-8.165 -2.0622,-1.9821 -4.1242,-3.964 -6.1864,-5.946 5.2105,4.8812 3.698,14.869 -3.9405,16.9529 -9.9429,1.3906 -18.9265,-3.8965 -26.8071,-8.6458 -8.728,-5.3162 -16.778,-11.4607 -24.9109,-17.4786 11.2237,11.6551 22.7971,23.9913 27.2535,39.2476 0.4328,6.4022 -10.1043,9.9582 -14.6002,5.1014 -2.7429,-1.189 -5.4472,-2.4479 -8.1607,-3.6901 7.4352,6.6119 15.2122,13.8616 17.6252,23.3452 -3.556,6.5599 -13.2962,8.0474 -20.2487,5.4029 -2.7732,-0.4874 -5.5465,-0.9748 -8.3199,-1.4622 13.6508,13.6734 22.2654,32.5282 19.1122,51.0849 -3.6829,15.7534 -15.8544,28.1251 -26.3159,40.6005 -1.079,0.8387 -1.676,2.8097 0.507,1.9522 17.0913,-2.6848 35.2097,-4.8821 51.996,0.3526 10.4785,3.9011 15.0333,16.9862 8.7368,25.5361 5.0256,-4.026 12.2842,-7.6235 19.0524,-5.0588 8.4942,3.4056 11.7413,12.6122 11.0079,20.4387 -0.2378,6.0879 -2.2726,11.949 -4.1514,17.7515 8.1398,-10.7199 16.7164,-22.1643 30.0453,-28.0462 8.4551,-2.3198 17.0035,6.2848 14.5441,13.6864 0.1393,2.0796 3.446,1.0267 3.556,-0.5377 9.2442,-10.0127 22.3132,-18.2991 37.1413,-18.9224 4.9859,0.5482 8.4634,5.5828 7.2488,9.8984 7.7219,-5.6582 17.1821,-10.8114 27.5349,-9.7906 14.3378,0.6374 26.6051,8.3855 37.5381,16.0866 2.9138,2.0523 5.7582,4.1834 8.6273,6.2865 3.0187,-9.2512 6.1275,-19.5392 15.1359,-25.5716 9.9815,-4.8353 22.6942,-1.0881 29.9145,6.2045 6.1573,4.828 11.4072,10.4879 16.819,15.9703 2.3484,-10.1168 16.5025,-15.1083 26.4401,-10.7979 10.5004,3.9041 18.8298,11.2827 26.2541,18.8283 1.9117,2.0911 3.7467,4.2379 5.5612,6.3981 -2.1683,-7.716 -5.4425,-15.7155 -3.3924,-23.7557 4.7163,-3.7708 12.0177,-1.4503 15.6806,2.4602 7.7283,5.1063 14.5082,11.3135 20.4414,18.0826 -3.5598,-10.297 3.3998,-23.0225 15.4048,-25.4106 13.8641,-3.8463 28.5368,-0.4715 41.8591,3.5287 8.775,2.8237 17.0878,6.6804 25.1706,10.8321 -11.3195,-7.8122 -19.4625,-20.7848 -17.22,-33.9145 1.992,-9.2485 11.5236,-15.4624 21.0357,-17.9908 0.7354,-0.2204 2.8039,-0.3553 1.2122,-1.1623 -6.0654,-4.0327 -14.3667,-6.6731 -17.1413,-13.5805 -3.1773,-8.0838 1.8928,-16.799 8.7276,-21.9875 5.4526,-4.3187 11.2475,-8.2642 17.0584,-12.1778 -10.7425,-3.5775 -23.0232,-5.6651 -30.998,-13.7118 -5.3745,-6.4765 -2.0227,-16.1185 4.8485,-20.5692 12.9296,-11.4078 28.5369,-19.8219 43.1583,-29.2783 -24.1617,5.5858 -48.527,12.7858 -73.7898,11.6706 -10.6121,-1.5669 -15.9432,-14.1995 -10.2308,-22.122 2.9601,-8.7376 7.9702,-16.7273 12.3683,-24.9101 -19.1945,5.4139 -38.1476,12.8184 -58.5108,13.5793 -4.6583,-2.6123 -3.3333,-9.296 0.9187,-11.6746 0.7709,-1.3003 2.6623,-2.3496 2.2138,-4.0217 -11.3326,6.5713 -23.6999,13.035 -37.5268,13.4135 -9.7381,-2.1107 -15.6596,-12.6887 -12.1153,-21.0705 -2.2961,-2.4531 -5.7235,0.017 -7.9332,1.2946 -23.8555,10.5444 -52.7506,13.4151 -77.7129,4.2734 -20.1416,-7.4462 -36.859,-21.0714 -49.4801,-36.8775 -0.2231,-0.129 -0.5036,-0.1896 -0.7641,-0.1275 z"
       id="path4289-9-3"
       inkscape:connector-curvature="0"
       sodipodi:nodetypes="cccccccccccccccccccccccc" />
    <path
       style="color:#000000;display:inline;overflow:visible;visibility:visible;fill:#ffffff;fill-opacity:1;fill-rule:nonzero;stroke:none;stroke-width:0.634675px;marker:none;enable-background:accumulate"
       d="m 2065.5689,2358.3715 c -1.019,14.0823 -77.982,87.5377 3.591,185.0685 -57.766,-96.8638 17.7385,-154.6405 29.7695,-166.83 -23.5374,-29.6642 -17.4947,-9.4644 -33.3605,-18.2385 z"
       id="path4024-3"
       inkscape:connector-curvature="0"
       sodipodi:nodetypes="cccc" />
  </g>
  <g
     inkscape:groupmode="layer"
     id="layer1"
     inkscape:label="txt"
     style="display:inline">
    <text
       transform="matrix(1.0109872,-0.19833599,-0.21684929,1.1745089,102.88627,624.18095)"
       id="text4580-6-0-0-3-3-6-2-9-8-0"
       y="1584.5073"
       x="787.65729"
       style="font-style:normal;font-variant:normal;font-weight:normal;font-stretch:normal;line-height:0;font-family:Lavi;-inkscape-font-specification:Lavi;letter-spacing:3.03024006px;word-spacing:0px;opacity:0.75026999;fill:#ffffff;fill-opacity:1;stroke:#837567;stroke-width:1.52376997;stroke-miterlimit:4;stroke-dasharray:none;stroke-opacity:1;paint-order:stroke fill markers;filter:url(#filter4375-4-1-1-1-9-5-8-8-3-3-3-6-1-3)"
       xml:space="preserve"
       inkscape:label="FXB-3"><tspan
         style="font-style:normal;font-variant:normal;font-weight:bold;font-stretch:normal;font-size:70px;line-height:1.25;font-family:Drukah;-inkscape-font-specification:'Drukah Bold';fill:#ffffff;fill-opacity:1;stroke:#837567;stroke-width:1.52376997;stroke-miterlimit:4;stroke-dasharray:none;stroke-opacity:1;paint-order:stroke fill markers"
         y="1584.5073"
         x="787.65729"
         id="tspan4582-1-1-0-6-9-0-8-3-4-4"
         sodipodi:role="line"><tspan
           style="letter-spacing:-3.73913002px"
           id="tspan19018">Fșșș</tspan><tspan
           style="font-size:59.82600021px"
           id="tspan39837">...</tspan></tspan></text>
    <text
       id="text4246-5-8"
       y="3079.7935"
       x="1598.2229"
       style="font-style:normal;font-variant:normal;font-weight:normal;font-stretch:normal;font-size:51.74645233px;line-height:0%;font-family:Lavi;-inkscape-font-specification:Lavi;text-align:center;letter-spacing:0px;word-spacing:0px;text-anchor:middle;fill:#000000;fill-opacity:1;stroke:none;stroke-width:1.01486504"
       xml:space="preserve"
       inkscape:label="kingB"
       transform="scale(0.96183892,1.0396751)"><tspan
         y="3079.7935"
         x="1598.2229"
         style="font-style:normal;font-variant:normal;font-weight:bold;font-stretch:normal;font-size:51.74645233px;line-height:1.25;font-family:Lavi;-inkscape-font-specification:'Lavi Bold';stroke-width:1.01486504"
         sodipodi:role="line"
         id="tspan858">La naiba!</tspan></text>
    <text
       id="text4246-5-8-3"
       y="3270.23"
       x="1686.7274"
       style="font-style:normal;font-variant:normal;font-weight:normal;font-stretch:normal;font-size:45px;line-height:0%;font-family:Lavi;-inkscape-font-specification:Lavi;text-align:center;letter-spacing:0px;word-spacing:0px;text-anchor:middle;fill:#000000;fill-opacity:1;stroke:none;stroke-width:0.88255"
       xml:space="preserve"
       inkscape:label="kingB"><tspan
         y="3270.23"
         x="1686.7274"
         style="font-style:normal;font-variant:normal;font-weight:bold;font-stretch:normal;font-size:45px;line-height:1.25;font-family:Lavi;-inkscape-font-specification:'Lavi Bold';stroke-width:0.88255"
         sodipodi:role="line"
         id="tspan39734">Nu pot face</tspan><tspan
         y="3326.48"
         x="1686.7274"
         style="font-style:normal;font-variant:normal;font-weight:bold;font-stretch:normal;font-size:45px;line-height:1.25;font-family:Lavi;-inkscape-font-specification:'Lavi Bold';stroke-width:0.88255"
         sodipodi:role="line"
         id="tspan62">nimic aici!</tspan></text>
    <text
       xml:space="preserve"
       style="font-style:normal;font-variant:normal;font-weight:normal;font-stretch:normal;line-height:0%;font-family:Lavi;-inkscape-font-specification:Lavi;text-align:center;letter-spacing:0px;word-spacing:0px;text-anchor:middle;fill:#000000;fill-opacity:1;stroke:none"
       x="2125.4675"
       y="2297.5754"
       id="text4246-7-6-4-6-4-5-6"
       inkscape:label="kingB"><tspan
         sodipodi:role="line"
         style="font-style:normal;font-variant:normal;font-weight:bold;font-stretch:normal;font-size:45px;line-height:1.25;font-family:Lavi;-inkscape-font-specification:'Lavi Bold'"
         x="2125.4675"
         y="2297.5754"
         id="tspan50694">Blestemată</tspan><tspan
         sodipodi:role="line"
         style="font-style:normal;font-variant:normal;font-weight:bold;font-stretch:normal;font-size:45px;line-height:1.25;font-family:Lavi;-inkscape-font-specification:'Lavi Bold'"
         x="2125.4675"
         y="2353.8254"
         id="tspan66">de închisoare magică!</tspan><tspan
         sodipodi:role="line"
         style="font-style:normal;font-variant:normal;font-weight:bold;font-stretch:normal;font-size:45px;line-height:1.25;font-family:Lavi;-inkscape-font-specification:'Lavi Bold'"
         x="2125.4675"
         y="2410.0754"
         id="tspan68">Grrrr!</tspan></text>
    <text
       xml:space="preserve"
       style="font-style:normal;font-variant:normal;font-weight:normal;font-stretch:normal;line-height:0%;font-family:Lavi;-inkscape-font-specification:Lavi;letter-spacing:0px;word-spacing:0px;display:inline;fill:#ffffff;fill-opacity:1;stroke:#000000;stroke-width:0.649528;stroke-miterlimit:4;stroke-dasharray:none;stroke-opacity:1;filter:url(#filter4375-4-1-1-1-9-5-8-3-4)"
       x="787.65729"
       y="1584.5073"
       id="text4580-6-0-3"
       transform="matrix(0.56396936,0.29200899,-0.49083985,0.74440634,2292.4537,1543.4282)"
       inkscape:transform-center-x="-5.9254429"
       inkscape:transform-center-y="0.58615246"><tspan
         sodipodi:role="line"
         id="tspan4582-1-1-6"
         x="787.65729"
         y="1584.5073"
         style="font-style:normal;font-variant:normal;font-weight:normal;font-stretch:normal;font-size:70px;line-height:1.25;font-family:Combah;-inkscape-font-specification:Combah;fill:#ffffff;fill-opacity:1;stroke:#000000;stroke-width:0.649528;stroke-opacity:1"><tspan
           style="font-style:normal;font-variant:normal;font-weight:normal;font-stretch:normal;font-size:93.1495px;font-family:Combah;-inkscape-font-specification:Combah;fill:#ffffff;fill-opacity:1;stroke:#000000;stroke-width:0.649528;stroke-opacity:1"
           id="tspan4315-8-0">CLANG</tspan><tspan
           style="font-style:normal;font-variant:normal;font-weight:normal;font-stretch:normal;font-size:114.732px;font-family:Combah;-inkscape-font-specification:Combah;fill:#ffffff;fill-opacity:1;stroke:#000000;stroke-width:0.649528;stroke-opacity:1"
           id="tspan4313-2-6">!</tspan></tspan></text>
  </g>
</svg>
