<?xml version="1.0" encoding="UTF-8" standalone="no"?>
<!-- Created with Inkscape (http://www.inkscape.org/) -->

<svg
   xmlns:dc="http://purl.org/dc/elements/1.1/"
   xmlns:cc="http://creativecommons.org/ns#"
   xmlns:rdf="http://www.w3.org/1999/02/22-rdf-syntax-ns#"
   xmlns:svg="http://www.w3.org/2000/svg"
   xmlns="http://www.w3.org/2000/svg"
   xmlns:xlink="http://www.w3.org/1999/xlink"
   xmlns:sodipodi="http://sodipodi.sourceforge.net/DTD/sodipodi-0.dtd"
   xmlns:inkscape="http://www.inkscape.org/namespaces/inkscape"
   id="svg2"
   version="1.1"
   inkscape:version="0.92.3 (2405546, 2018-03-11)"
   width="2481"
   height="3503"
   sodipodi:docname="E11P04.svg">
  <sodipodi:namedview
     pagecolor="#ffffff"
     bordercolor="#666666"
     inkscape:pageopacity="0"
     inkscape:pageshadow="2"
     inkscape:window-width="1813"
     inkscape:window-height="955"
     id="namedview70"
     showgrid="false"
     inkscape:zoom="0.56568542"
     inkscape:cx="1136.7546"
     inkscape:cy="417.95397"
     inkscape:current-layer="layer1"
     inkscape:window-x="64"
     inkscape:window-y="0"
     inkscape:window-maximized="0" />
  <metadata
     id="metadata8">
    <rdf:RDF>
      <cc:Work
         rdf:about="">
        <dc:format>image/svg+xml</dc:format>
        <dc:type
           rdf:resource="http://purl.org/dc/dcmitype/StillImage" />
        <dc:title />
      </cc:Work>
    </rdf:RDF>
  </metadata>
  <defs
     id="defs6" />
  <sodipodi:namedview
     pagecolor="#ffffff"
     bordercolor="#666666"
     borderopacity="1"
     objecttolerance="10"
     gridtolerance="10"
     guidetolerance="10"
     inkscape:pageopacity="0"
     inkscape:pageshadow="2"
     inkscape:window-width="1920"
     inkscape:window-height="1025"
     id="namedview4"
     showgrid="false"
     inkscape:zoom="0.30245748"
     inkscape:cx="1130.7463"
     inkscape:cy="1434.1737"
     inkscape:window-x="0"
     inkscape:window-y="26"
     inkscape:window-maximized="1"
     inkscape:current-layer="layer1" />
  <g
     inkscape:groupmode="layer"
     id="layer2"
     inkscape:label="artwork"
     sodipodi:insensitive="true">
    <image
       sodipodi:absref="/home/fici/Desktop/P&amp;C/all/sl/../gfx_Pepper-and-Carrot_by-David-Revoy_E11P04.png"
       xlink:href="../gfx_Pepper-and-Carrot_by-David-Revoy_E11P04.png"
       y="0"
       x="0"
       id="image10"
       height="3503"
       width="2481" />
  </g>
  <g
     inkscape:groupmode="layer"
     id="layer3"
     inkscape:label="speechbubbles">
    <path
       style="color:#000000;display:inline;overflow:visible;visibility:visible;fill:#ffffff;fill-opacity:1;fill-rule:nonzero;stroke:none;stroke-width:0.79108131px;marker:none;enable-background:accumulate"
       d="m 981.79992,2006.9011 c -2.90336,-19.7047 5.04856,-18.1313 8.61732,-21.5063 -5.50352,-16.3934 1.38032,-35.692 33.69926,-44.0911 7.4948,-13.0561 33.7988,-23.1555 52.3525,-12.8523 12.6429,-10.2519 33.084,-10.5436 41.6467,-2.7274 8.8709,-8.9578 21.5112,0.6856 22.6836,2.703 11.2151,-4.9229 27.1187,-1.776 33.4392,3.0456 14.8856,-7.2574 47.1003,3.1982 46.589,17.8911 17.5852,10.3666 18.807,22.8517 13.7086,30.5153 13.5076,8.5395 21.3531,48.8628 -16.2157,53.4174 -10.197,15.3271 -38.7436,22.432 -52.251,13.8926 -18.0966,4.3264 -29.4134,8.2089 -34.1022,0.1391 -8.8705,8.9578 -32.2171,9.4396 -25.8944,-5.6341 -11.0534,10.0869 -24.535,13.5839 -35.1429,7.693 -17.2261,11.9045 -39.9004,2.2269 -39.8993,-9.1482 -24.57,5.201 -29.0855,-12.4639 -28.0644,-19.1161 -3.99302,-0.936 -13.52335,-1.5092 -21.16628,-14.2216 z"
       id="path4043"
       inkscape:connector-curvature="0"
       sodipodi:nodetypes="ccccccccccccccccc" />
    <path
       style="color:#000000;display:inline;overflow:visible;visibility:visible;fill:#ffffff;fill-opacity:1;fill-rule:nonzero;stroke:none;stroke-width:0.95642054px;marker:none;enable-background:accumulate"
       d="m 1049.585,2113.603 c -4.1197,-21.1409 7.1629,-19.4527 12.2266,-23.0738 -7.8087,-17.5883 1.9585,-38.2934 47.8141,-47.3047 10.6342,-14.0077 47.9558,-24.8432 74.281,-13.7892 17.9383,-10.9991 46.9412,-11.3119 59.0907,-2.9262 12.5863,-9.6106 30.5211,0.7357 32.1845,2.9002 15.9127,-5.2818 38.4775,-1.9054 47.4454,3.2675 21.1202,-7.7864 66.8285,3.4313 66.1029,19.1952 24.9509,11.1222 26.6846,24.5174 19.4507,32.7395 19.1652,9.1618 30.2968,52.4242 -23.008,57.3107 -14.4679,16.4442 -54.9716,24.0672 -74.1363,14.9053 -25.6764,4.6418 -41.7335,8.8072 -48.3862,0.1492 -12.586,9.6107 -45.7114,10.1275 -36.7404,-6.0447 -15.6832,10.8221 -34.8115,8.3788 -49.8628,2.0585 -24.4414,12.7722 -56.6128,8.5843 -56.6111,-3.6199 -34.8613,5.5803 -41.2683,-13.3722 -39.8194,-20.5093 -5.6655,-1.0042 -19.1877,-1.6193 -30.0317,-15.2583 z"
       id="path4043-2"
       inkscape:connector-curvature="0" />
    <path
       style="color:#000000;display:inline;overflow:visible;visibility:visible;fill:#ffffff;fill-opacity:1;fill-rule:nonzero;stroke:none;stroke-width:0.73535848px;marker:none;enable-background:accumulate"
       d="m 2375.8489,2672.2428 c 3.9053,27.3987 9.6557,26.4905 5.4542,31.2603 6.9478,22.736 21.4963,49.754 -17.0326,62.067 -8.694,18.3322 -77.6664,31.7669 -100.1134,17.7628 -14.9211,14.5225 -39.3988,15.3153 -49.825,4.5876 -10.4308,12.6479 -25.7807,-0.5487 -27.2285,-3.3372 -13.3267,7.0708 -32.4442,2.9871 -40.1194,-3.6112 -17.6723,10.3931 -56.4859,-3.5652 -56.1922,-24.0457 -21.2883,-14.1109 -23.0228,-31.4827 -17.0824,-42.2565 -16.3641,-11.6419 -26.6365,-67.6742 18.2642,-74.7301 11.8813,-21.5473 45.9202,-31.9862 62.2842,-20.344 21.5821,-6.37 35.0533,-11.9931 40.8444,-0.8387 10.4309,-12.6481 38.3847,-13.7607 31.1385,7.3601 13.0208,-14.2625 29.2182,-11.3448 42.0524,-3.3377 20.3748,-16.9116 47.6186,-11.9019 47.8642,3.9464 29.3166,-7.7111 35.1088,16.8151 34.0301,26.1028 4.8031,1.2285 16.2308,1.847 25.6613,19.4141 z"
       id="path4043-2-3"
       inkscape:connector-curvature="0"
       sodipodi:nodetypes="ccccccccccccccccc" />
    <path
       style="color:#000000;display:inline;overflow:visible;visibility:visible;fill:#ffffff;fill-opacity:1;fill-rule:nonzero;stroke:none;stroke-width:0.79429215px;marker:none;enable-background:accumulate"
       d="m 582.0274,3182.7235 c -11.31855,29.6716 -75.15679,32.1597 -98.65742,26.1281 47.37182,33.1932 45.72034,53.8165 -18.59725,57.0186 107.8617,59.8224 19.71858,50.7701 2.33295,65.9391 84.69138,20.6162 46.79958,46.2735 31.72158,71.8148 97.34436,0.8773 65.488,41.8192 69.59087,74.427 8.25247,-15.3009 47.45759,-61.884 49.81655,-10.0168 64.38763,-49.4841 141.94091,-81.448 148.09888,5.1489 25.94286,-43.5646 51.80785,-61.9768 49.81652,-10.0169 64.27817,-67.5803 122.0411,-43.2548 180.14648,-24.1539 15.26104,-20.3974 17.03934,-51.7335 66.41224,-44.39 -6.9226,-20.2175 9.7476,-34.1146 47.3952,-42.3675 -50.0274,-12.2128 -59.2474,-24.81 33.6422,-38.3665 -70.6836,-1.3113 -136.5963,-3.9979 -53.669,-50.2293 -26.0166,-1.1187 -87.7438,37.4582 -58.9643,-75.4381 -44.73673,36.1422 -92.46703,56.09 -152.32499,-19.6185 -28.32788,37.8224 -77.46195,56.5385 -98.83767,9.2953 -7.68287,20.1407 -39.54018,27.715 -66.58465,28.6337 -10.45814,-8.0002 -21.24448,-18.8665 -32.50053,-33.103 -18.39714,29.893 -45.91718,50.0817 -98.83766,9.295 z"
       id="path3549-3-7"
       inkscape:connector-curvature="0"
       sodipodi:nodetypes="cccccccccccccccccccc" />
    <path
       style="color:#000000;display:inline;overflow:visible;visibility:visible;fill:#ffffff;fill-opacity:1;fill-rule:nonzero;stroke:none;stroke-width:1px;marker:none;enable-background:accumulate"
       d="m 713.9685,3068.6785 c 59.98272,22.9665 72.40603,51.7648 83.09037,71.7564 -3.96986,4.3889 -9.50747,13.9597 -9.50747,13.9597 0,0 23.841,37.6333 29.26881,54.6234 5.42777,16.99 -11.14554,22.2846 -11.14554,22.2846 0,0 -47.75233,-72.1235 -61.50191,-84.8945 11.38696,-11.4395 15.42716,-18.9715 21.27652,-20.8402 -3.09592,-13.0541 -30.38419,-48.0256 -51.48078,-56.8894 z"
       id="path4456"
       inkscape:connector-curvature="0" />
  </g>
  <g
     inkscape:groupmode="layer"
     id="layer1"
     inkscape:label="txt">
    <path
       style="color:#000000;display:inline;overflow:visible;visibility:visible;fill:#ffffff;fill-opacity:1;fill-rule:nonzero;stroke:none;stroke-width:1px;marker:none;enable-background:accumulate"
       d="m 1410.1656,2224.4746 c -0.824,-5.3715 4.3942,-8.0572 4.3942,-8.0572 0,0 -5.2182,-4.1506 0.8239,-8.3014 6.0421,-4.1506 11.5348,0.9767 11.5348,0.9767 0,0 7.69,-8.0572 14.8306,1.2208 7.1407,9.2779 0,14.4052 0,14.4052 0,0 4.1196,9.7664 -6.866,11.9638 -10.9856,2.1974 -14.0066,0.7324 -16.7531,-5.1273 -7.6898,-1.9533 -7.9644,-7.0806 -7.9644,-7.0806 z"
       id="path5098"
       inkscape:connector-curvature="0" />
    <path
       style="color:#000000;display:inline;overflow:visible;visibility:visible;fill:#ffffff;fill-opacity:1;fill-rule:nonzero;stroke:none;stroke-width:1px;marker:none;enable-background:accumulate"
       d="m 1333.0902,2204.0312 c 4.0416,-10.1338 13.0576,-10.7479 13.0576,-10.7479 0,0 -0.3109,-7.6772 5.907,-11.9763 6.218,-4.2992 13.6795,0.3071 13.6795,0.3071 0,0 10.2596,-1.5355 15.2339,7.9841 4.9744,9.5196 8.3942,14.1259 3.7308,23.6455 3.4199,5.2204 0,16.2754 -4.9743,18.425 -4.9744,2.1496 -17.0993,5.8345 -23.9391,-5.2205 -5.5962,1.8426 -22.6954,3.0709 -22.6954,-22.417 z"
       id="path5090"
       inkscape:connector-curvature="0" />
    <flowRoot
       xml:space="preserve"
       id="flowRoot2987-4-9-3-5-9-8-3-5-4"
       style="font-style:normal;font-variant:normal;font-weight:normal;font-stretch:normal;line-height:0.01%;font-family:Lavi;-inkscape-font-specification:Lavi;text-align:center;letter-spacing:0px;word-spacing:0px;text-anchor:middle;fill:#000000;fill-opacity:1;stroke:none"
       transform="translate(753.04179,1697.0696)"><flowRegion
         id="flowRegion2989-5-4-5-8-9-5-4-2-2"><rect
           id="rect2991-7-9-6-5-7-5-4-9-5"
           width="497.70953"
           height="358.25998"
           x="120.55251"
           y="265.53046"
           style="font-style:normal;font-variant:normal;font-weight:normal;font-stretch:normal;font-family:Lavi;-inkscape-font-specification:Lavi;text-align:center;text-anchor:middle" /></flowRegion><flowPara
         style="font-size:45px;line-height:1.25;text-align:center;text-anchor:middle"
         id="flowPara3030-8-1-8-7-8-3-5">Kralj ?...</flowPara></flowRoot>    <flowRoot
       xml:space="preserve"
       id="flowRoot2987-4-9-3-5-9-8-3-5-4-0"
       style="font-style:normal;font-variant:normal;font-weight:normal;font-stretch:normal;line-height:0.01%;font-family:Lavi;-inkscape-font-specification:Lavi;text-align:center;letter-spacing:0px;word-spacing:0px;text-anchor:middle;fill:#000000;fill-opacity:1;stroke:none"
       transform="translate(869.66915,1804.7426)"><flowRegion
         id="flowRegion2989-5-4-5-8-9-5-4-2-2-5"><rect
           id="rect2991-7-9-6-5-7-5-4-9-5-4"
           width="497.70953"
           height="358.25998"
           x="120.55251"
           y="265.53046"
           style="font-style:normal;font-variant:normal;font-weight:normal;font-stretch:normal;font-family:Lavi;-inkscape-font-specification:Lavi;text-align:center;text-anchor:middle" /></flowRegion><flowPara
         style="font-size:45px;line-height:1.25;text-align:center;text-anchor:middle"
         id="flowPara4229">... tako mlad ?!</flowPara></flowRoot>    <flowRoot
       xml:space="preserve"
       id="flowRoot2987-4-9-3-5-9-8-3-5-4-0-5"
       style="font-style:normal;font-variant:normal;font-weight:normal;font-stretch:normal;line-height:0.01%;font-family:Lavi;-inkscape-font-specification:Lavi;text-align:center;letter-spacing:0px;word-spacing:0px;text-anchor:middle;fill:#000000;fill-opacity:1;stroke:none"
       transform="translate(1850.8559,2382.3826)"><flowRegion
         id="flowRegion2989-5-4-5-8-9-5-4-2-2-5-0"><rect
           id="rect2991-7-9-6-5-7-5-4-9-5-4-3"
           width="497.70953"
           height="358.25998"
           x="120.55251"
           y="265.53046"
           style="font-style:normal;font-variant:normal;font-weight:normal;font-stretch:normal;font-family:Lavi;-inkscape-font-specification:Lavi;text-align:center;text-anchor:middle" /></flowRegion><flowPara
         style="font-size:45px;line-height:1.25;text-align:center;text-anchor:middle"
         id="flowPara3360">Gotovo sva</flowPara><flowPara
         style="font-size:45px;line-height:1.25;text-align:center;text-anchor:middle"
         id="flowPara40">istih let...</flowPara></flowRoot>    <path
       style="color:#000000;display:inline;overflow:visible;visibility:visible;fill:#ffffff;fill-opacity:1;fill-rule:nonzero;stroke:none;stroke-width:1px;marker:none;enable-background:accumulate"
       d="m 2210.6349,2528.6131 c 2.0696,-13.9994 -8.3532,-20.0368 -8.3532,-20.0368 0,0 5.6241,-8.6102 1.0865,-17.2136 -4.5378,-8.6035 -16.6613,-7.7412 -16.6613,-7.7412 0,0 -11.2882,-7.8287 -23.7806,0.1332 -12.4925,7.9618 -19.7553,11.2152 -20.6573,24.8788 -7.6828,3.9568 -11.1303,18.6435 -6.6181,24.0487 4.5121,5.4054 16.5736,16.7998 32.3596,8.1827 5.4699,5.4216 25.1937,16.9447 42.6244,-12.2518 z"
       id="path5090-2"
       inkscape:connector-curvature="0" />
    <path
       style="color:#000000;display:inline;overflow:visible;visibility:visible;fill:#ffffff;fill-opacity:1;fill-rule:nonzero;stroke:none;stroke-width:1px;marker:none;enable-background:accumulate"
       d="m 2115.1571,2425.2289 c 5.9597,0.3755 7.5527,6.7768 7.5527,6.7768 0,0 5.7336,-4.7662 8.6939,2.8948 2.9601,7.6609 -3.8878,12.4964 -3.8878,12.4964 0,0 6.7409,10.4141 -4.9613,16.0754 -11.7021,5.6615 -15.4383,-3.4455 -15.4383,-3.4455 0,0 -11.4816,2.2104 -11.1307,-10.4391 0.3508,-12.6495 2.6649,-15.6332 9.6214,-17.2627 3.9875,-8.0194 9.5501,-7.0961 9.5501,-7.0961 z"
       id="path5098-4"
       inkscape:connector-curvature="0"
       inkscape:transform-center-x="27.255435"
       inkscape:transform-center-y="-31.014805" />
    <flowRoot
       xml:space="preserve"
       id="flowRoot2987-4-9-3-5-9-8-3-5-4-0-5-5"
       style="font-style:normal;font-variant:normal;font-weight:normal;font-stretch:normal;line-height:0.01%;font-family:Lavi;-inkscape-font-specification:Lavi;text-align:center;letter-spacing:0px;word-spacing:0px;text-anchor:middle;fill:#000000;fill-opacity:1;stroke:none"
       transform="translate(378.21557,2957.5512)"><flowRegion
         id="flowRegion2989-5-4-5-8-9-5-4-2-2-5-0-8"><rect
           id="rect2991-7-9-6-5-7-5-4-9-5-4-3-2"
           width="745.54956"
           height="234.83037"
           x="22.802517"
           y="277.03046"
           style="font-style:normal;font-variant:normal;font-weight:normal;font-stretch:normal;font-family:Lavi;-inkscape-font-specification:Lavi;text-align:center;text-anchor:middle" /></flowRegion><flowPara
         style="font-size:45px;line-height:1.25;text-align:center;text-anchor:middle"
         id="flowPara3343">Kaj še čakaš?!  Dajmo!</flowPara><flowPara
         style="font-size:45px;line-height:1.25;text-align:center;text-anchor:middle"
         id="flowPara44">Zbudi ga, ustrahuj ga,</flowPara><flowPara
         style="font-size:45px;line-height:1.25;text-align:center;text-anchor:middle"
         id="flowPara42">prestraši ga!</flowPara></flowRoot>  </g>
</svg>
