<?xml version="1.0" encoding="UTF-8" standalone="no"?>
<svg
   xmlns:dc="http://purl.org/dc/elements/1.1/"
   xmlns:cc="http://creativecommons.org/ns#"
   xmlns:rdf="http://www.w3.org/1999/02/22-rdf-syntax-ns#"
   xmlns:svg="http://www.w3.org/2000/svg"
   xmlns="http://www.w3.org/2000/svg"
   xmlns:xlink="http://www.w3.org/1999/xlink"
   xmlns:sodipodi="http://sodipodi.sourceforge.net/DTD/sodipodi-0.dtd"
   xmlns:inkscape="http://www.inkscape.org/namespaces/inkscape"
   sodipodi:docname="E33P02.svg"
   height="3503"
   width="2481"
   inkscape:version="1.0 (4035a4fb49, 2020-05-01)"
   version="1.1"
   id="svg2">
  <metadata
     id="metadata8">
    <rdf:RDF>
      <cc:Work
         rdf:about="">
        <dc:format>image/svg+xml</dc:format>
        <dc:type
           rdf:resource="http://purl.org/dc/dcmitype/StillImage" />
        <dc:title />
      </cc:Work>
    </rdf:RDF>
  </metadata>
  <defs
     id="defs6">
    <filter
       style="color-interpolation-filters:sRGB"
       id="filter3018-9-9"
       inkscape:label="dark-magic-speech"
       inkscape:menu="Distort"
       inkscape:menu-tooltip="Something like a water noise"
       height="1.3"
       y="-0.15000001"
       width="1.3"
       x="-0.15000001">
      <feTurbulence
         id="feTurbulence3020-3-0"
         numOctaves="5"
         seed="0"
         type="fractalNoise"
         baseFrequency="0.045999999999999999"
         result="result1" />
      <feGaussianBlur
         id="feGaussianBlur3022-77-9"
         stdDeviation="2"
         result="result2" />
      <feDisplacementMap
         id="feDisplacementMap3024-6-9"
         in2="result2"
         scale="50"
         yChannelSelector="B"
         xChannelSelector="R"
         in="SourceGraphic" />
    </filter>
    <filter
       width="1.1900001"
       style="color-interpolation-filters:sRGB"
       id="filter4375-4-1-1-1-9-5-8-6"
       inkscape:label="soundFX">
      <feFlood
         id="feFlood4377-7-9-0-8-1-7-3-7"
         flood-opacity="1"
         flood-color="rgb(92,53,102)"
         result="flood" />
      <feComposite
         id="feComposite4379-3-8-8-2-77-4-1-5"
         in2="SourceGraphic"
         in="flood"
         operator="in"
         result="composite1" />
      <feMorphology
         id="feMorphology4393-1-0-49-8-9-3-0-3"
         operator="dilate"
         radius="6.2000000000000002"
         result="result3" />
      <feComposite
         id="feComposite4385-9-5-7-0-8-8-7-56"
         in2="result3"
         in="SourceGraphic"
         operator="over"
         result="fbSourceGraphic" />
      <feColorMatrix
         result="fbSourceGraphicAlpha"
         in="fbSourceGraphic"
         values="0 0 0 -1 0 0 0 0 -1 0 0 0 0 -1 0 0 0 0 1 0"
         id="feColorMatrix4544-2" />
      <feTurbulence
         id="feTurbulence4546-9"
         type="fractalNoise"
         numOctaves="3"
         seed="37"
         baseFrequency="0.129 0.0050000000000000001"
         result="turbulence" />
      <feDisplacementMap
         id="feDisplacementMap4548-1"
         in2="turbulence"
         in="fbSourceGraphic"
         scale="10"
         yChannelSelector="A"
         xChannelSelector="B"
         result="fbSourceGraphic" />
      <feColorMatrix
         result="fbSourceGraphicAlpha"
         in="fbSourceGraphic"
         values="0 0 0 -1 0 0 0 0 -1 0 0 0 0 -1 0 0 0 0 1 0"
         id="feColorMatrix4670-2" />
      <feComposite
         id="feComposite4674-0"
         in2="fbSourceGraphic"
         in="flood"
         operator="in"
         result="composite1" />
      <feComposite
         id="feComposite4680-6"
         in2="composite1"
         in="fbSourceGraphic"
         operator="over"
         result="composite2" />
    </filter>
  </defs>
  <sodipodi:namedview
     inkscape:snap-global="false"
     inkscape:document-rotation="0"
     inkscape:current-layer="layer3"
     inkscape:window-maximized="1"
     inkscape:window-y="0"
     inkscape:window-x="0"
     inkscape:cy="710.09998"
     inkscape:cx="1215.1894"
     inkscape:zoom="0.4511509"
     showgrid="false"
     id="namedview4"
     inkscape:window-height="1016"
     inkscape:window-width="1920"
     inkscape:pageshadow="2"
     inkscape:pageopacity="0"
     guidetolerance="10"
     gridtolerance="10"
     objecttolerance="10"
     borderopacity="1"
     bordercolor="#666666"
     pagecolor="#ffffff" />
  <g
     sodipodi:insensitive="true"
     inkscape:label="artwork"
     id="layer2"
     inkscape:groupmode="layer">
    <image
       sodipodi:absref="/home/rafael/Documents/Pepper&amp;Carrot/ep33/webcomics-master-ep33_Spell-of-War-lang-en/ep33_Spell-of-War/lang/gfx_Pepper-and-Carrot_by-David-Revoy_E33P02.png"
       xlink:href="../gfx_Pepper-and-Carrot_by-David-Revoy_E33P02.png"
       y="0"
       x="0"
       id="image10"
       height="3503"
       width="2481" />
  </g>
  <g
     style="display:inline"
     inkscape:label="speechbubbles"
     id="layer3"
     inkscape:groupmode="layer">
    <path
       style="fill:#0f0f0f;fill-opacity:1;fill-rule:evenodd;stroke:none;stroke-width:0.999996px;stroke-linecap:butt;stroke-linejoin:miter;stroke-opacity:1"
       d="m 1603.617,2900.7968 c 0,0 -27.3248,-23.7569 -41.3688,-35.7472 -14.043,-11.9899 -28.5234,-25.421 -51.5926,-37.4265 30.8469,13.6257 44.5534,17.6378 44.5534,17.6378 0,0 -30.7119,-30.2731 -78.5901,-47.7633 -24.6028,-8.9877 -65.2442,-10.0982 -90.2001,-8.8673 26.2546,-6.1035 46.8033,-9.281 46.8033,-9.281 0,0 -69.5507,-19.6686 -108.0388,-13.863 -38.4889,5.8053 -80.704,1.2939 -115.0144,43.7789 42.5625,-51.8884 78.9921,-52.8998 114.7823,-56.3237 50.6472,-4.8449 140.4415,8.5514 168.78,16.1899 -33.3821,2.0473 -42.6052,4.1201 -42.6052,4.1201 0,0 25.4783,0.4116 69.4951,23.1451 44.0157,22.7334 95.6203,69.3559 101.4489,78.2848 5.8296,8.9291 -18.453,26.1154 -18.453,26.1154 z"
       id="path1295-3"
       inkscape:connector-curvature="0"
       sodipodi:nodetypes="ccccsccccsccccc" />
    <path
       style="color:#000000;display:inline;overflow:visible;visibility:visible;fill:#0f0f0f;fill-opacity:1;fill-rule:nonzero;stroke:none;stroke-width:1px;marker:none;filter:url(#filter3018-9-9);enable-background:accumulate"
       d="m 428.67969,53.949219 c -42.9455,2.206213 -86.51838,3.637631 -128.08166,15.746955 -23.49333,7.328264 -39.45999,31.049046 -40.665,55.167646 -0.4046,7.7912 0.90221,15.53043 1.45739,23.28513 2.55016,24.46915 7.18432,49.1848 3.46855,73.79367 -2.90562,24.54702 -11.54303,48.37071 -11.16067,73.28696 1.42366,17.0493 13.4606,32.79899 29.80529,38.13413 16.48909,6.33013 34.43531,3.7008 51.61308,5.68997 37.57918,3.49927 74.04102,14.07558 111.45088,18.68977 29.17951,2.20449 57.43742,-6.92586 85.37626,-13.91984 18.95134,-4.82587 38.90136,-9.2127 54.64389,-21.52563 18.9388,-14.5978 29.08533,-38.76161 28.68769,-62.41517 -0.72272,-19.63423 -1.43002,-39.28001 -3.13477,-58.86133 -1.92634,-22.38361 -4.38235,-44.73495 -7.55434,-66.973 C 601.27593,116.90057 594.74506,99.315489 581.24955,87.563759 568.03119,76.555412 550.63768,72.710668 533.96349,70.713705 498.93504,64.873836 464.49354,53.733654 428.67969,53.949219 Z"
       id="path3986-45"
       inkscape:connector-curvature="0"
       sodipodi:nodetypes="csssssc"
       transform="matrix(0.93497009,0,0,0.90016842,1250.2766,2805.4742)" />
    <path
       style="display:inline;fill:#ffffff;fill-rule:evenodd;stroke:none;stroke-width:1px;stroke-linecap:butt;stroke-linejoin:miter;stroke-opacity:1"
       d="m 1853.2005,1281.1048 c 27.4123,18.4361 2.393,35.4714 -32.1109,21.1251 35.9184,27.5168 16.0242,44.4292 -11.0673,43.4685 15.2121,19.1732 30.0794,37.549 -9.2265,71.1536 24.4571,-2.9887 26.0693,-9.592 42.2584,-1.3166 8.0996,5.7695 8.1479,19.5545 1.8174,28.0112 -0.9514,2.9465 32.8217,18.0449 25.5719,15.9902 11.1074,-15.4524 22.6741,-16.5627 35.6109,-9.6223 3.947,4.3374 -3.0748,22.0449 -9.1602,39.7852 13.6447,-17.0933 28.8877,-45.1105 49.0655,-33.567 6.3181,1.8574 13.6649,11.3305 14.0307,19.923 3.9924,-28.3283 72.6815,-42.7134 50.1985,-4.2265 36.5342,-26.3313 53.3781,-29.5985 83.0499,16.87 -1.6202,-19.0952 3.1909,-31.2264 16.1635,-33.0484 13.7101,-1.1155 31.7554,5.7952 48.1641,22.6849 -7.5272,-30.9755 8.0587,-46.4482 44.9908,-7.0416 -22.7821,-43.9688 24.852,-24.6897 36.8772,-13.6179 l 8.1406,5.2123 c -12.0214,-13.3869 -40.8493,-37.7508 -0.1072,-47.5971 -28.0388,-23.8557 1.8601,-25.3357 14.9649,-24.3845 -17.2377,-9.3773 -37.4355,-33.923 -7.1066,-47.7401 7.2406,-3.3442 14.8704,-4.9783 22.0395,-8.6193 -16.7297,-2.2315 -33.6492,-2.5869 -50.1708,-7.0701 -3.9973,-5.2618 0.9762,-12.8733 15.0425,-23.6261 -16.3935,3.1717 -23.1187,3.6339 -27.0087,-0.5993 -2.1593,-8.1731 1.6395,-16.7809 6.461,-21.6863 35.5017,-32.4945 -420.8626,-66.6191 -368.4891,-0.4609 z"
       id="path4508-2"
       inkscape:connector-curvature="0"
       sodipodi:nodetypes="ccccccccccccccccccccccccccc" />
    <path
       style="color:#000000;display:inline;overflow:visible;visibility:visible;opacity:1;fill:#ffffff;fill-opacity:1;fill-rule:nonzero;stroke:none;stroke-width:0.697482px;marker:none;enable-background:accumulate"
       d="m 314.57418,1958.8316 c -43.39995,1.0621 -87.2154,4.6787 -128.95148,16.9509 -13.38542,5.857 -20.66259,19.1348 -27.19315,31.1836 -7.61342,14.1643 -10.82604,31.9863 -3.18301,46.7924 8.48515,16.8976 26.18683,27.2124 44.00778,32.7687 28.07415,9.1236 57.7494,12.1494 87.12908,14.1446 41.75277,2.4445 83.61604,2.0205 125.41675,1.3138 42.95539,-0.9472 85.94036,-2.6116 128.70573,-6.7909 18.56311,-2.0599 37.28328,-4.4601 55.09968,-10.0992 16.90766,-7.2229 29.86126,-24.535 28.38568,-42.9493 -0.79429,-20.886 -14.78182,-39.4126 -32.46344,-50.3194 -22.83124,-14.9376 -50.50344,-19.7671 -77.16838,-23.856 -66.05561,-9.9556 -133.14565,-9.1812 -199.78524,-9.1392 z"
       id="path4040-3"
       inkscape:connector-curvature="0"
       sodipodi:nodetypes="zssssz" />
    <path
       style="color:#000000;display:inline;overflow:visible;visibility:visible;opacity:1;fill:#ffffff;fill-opacity:1;fill-rule:nonzero;stroke:none;stroke-width:1.02417px;marker:none;enable-background:accumulate"
       d="m 366.81244,2064.878 c -52.77909,2.0563 -103.80552,14.4211 -153.8131,28.3173 -23.80828,9.1618 -40.51747,30.7752 -48.55148,54.784 -10.78883,31.484 -10.14861,67.687 2.43724,100.1394 11.11968,25.6527 33.83384,46.0211 59.70363,55.3426 29.84939,12.0962 61.61696,16.0192 92.84611,18.8102 50.97911,3.7362 101.73576,1.7114 152.55773,1.9295 29.19616,-0.3158 58.58532,0.2163 87.37928,-3.5201 29.22683,-4.9369 57.6108,-15.1408 81.39613,-32.2013 24.5191,-19.0591 38.38372,-50.4305 37.86891,-82.6014 0.22342,-30.0843 -8.85956,-61.5081 -28.22603,-86.0682 -18.0147,-21.7749 -44.07609,-34.8621 -70.19528,-42.3754 -34.93144,-10.1805 -70.88606,-9.151 -106.28497,-10.4872 -35.7269,-1.1958 -71.46033,-2.2697 -107.11817,-2.0694 z"
       id="path4040-5"
       inkscape:connector-curvature="0"
       sodipodi:nodetypes="zssssz" />
    <path
       sodipodi:nodetypes="csccc"
       style="color:#000000;display:inline;overflow:visible;visibility:visible;fill:#ffffff;fill-opacity:1;fill-rule:nonzero;stroke:none;stroke-width:1px;marker:none;enable-background:accumulate"
       d="m 624.13281,2017.4941 c 7.88518,11.9538 14.91587,25.5164 14.63617,40.2108 -0.36106,15.5888 -8.81149,29.7901 -19.45505,40.6931 -12.17127,12.9287 -28.69751,21.4925 -38.60365,36.5715 -3.38773,4.3818 -5.55844,10.7494 -2.64656,15.9242 1.47567,3.2044 5.39218,4.0443 8.53129,3.0926 10.38429,-3.2204 21.30385,-4.4672 31.54171,-8.2051 15.31225,-16.9807 28.78775,-36.6953 33.7222,-59.3564 5.03094,-21.6253 -1.14003,-45.8981 -17.1672,-61.5342 -3.89901,-3.9477 -8.24271,-7.4293 -12.75617,-10.6465 0.73242,1.0834 1.46484,2.1667 2.19726,3.25 z"
       id="path3072-6"
       inkscape:connector-curvature="0" />
    <path
       style="display:inline;fill:#ffffff;stroke:none;stroke-width:0.999998"
       d="m 940.24414,1303.5059 c -19.86263,1.4393 -40.26293,3.8207 -58.26172,12.9511 -18.57924,13.9082 -29.22506,36.7235 -30.64563,59.6256 -1.80835,18.2999 8.04058,37.574 24.7551,45.706 12.51375,6.3622 26.69495,7.7145 40.22969,10.6572 25.67643,4.9661 52.04925,6.5487 78.09921,3.999 20.77721,-1.6311 41.55681,-3.5807 62.15371,-6.7892 8.974,-1.8503 18.1794,-6.2514 22.7771,-14.5755 6.1196,-10.2692 8.068,-22.292 9.952,-33.9133 2.8463,-23.0435 -6.563,-47.4709 -24.7431,-62.0613 -4.1429,-3.3932 -8.9501,-5.9221 -14.1621,-7.2012 -10.1322,-2.6647 -20.6837,-2.7533 -31.0241,-4.094 -26.29164,-2.6216 -52.6926,-4.5223 -79.13016,-4.3044 z"
       id="path3278-12"
       inkscape:connector-curvature="0" />
    <path
       style="color:#000000;display:inline;overflow:visible;visibility:visible;fill:#ffffff;fill-opacity:1;fill-rule:nonzero;stroke:none;stroke-width:0.999993px;marker:none;enable-background:accumulate"
       d="m 975.37891,1414.9902 c -19.1096,0.3937 -38.40344,2.8685 -56.32373,9.7924 -17.61298,5.8559 -35.18215,13.792 -48.35132,27.2373 -10.99466,11.9279 -20.5747,25.9444 -24.03733,42.0294 -3.56743,20.0865 -4.6046,41.2135 1.49333,60.9285 5.72593,17.8947 19.48336,32.5176 35.99564,41.1067 18.306,9.7488 39.08155,13.323 59.47966,15.5696 20.54605,2.1381 41.17233,3.561 61.81934,4.2144 23.5643,0.6067 47.3185,-0.1171 70.5123,-4.6283 14.9472,-3.186 29.7033,-9.4398 40.5926,-20.4423 15.8686,-15.3427 25.9776,-35.9768 30.5878,-57.4116 3.5344,-17.5848 2.6989,-36.6136 -5.3527,-52.8922 -7.9813,-15.6177 -21.4266,-27.4421 -34.9982,-38.1319 -13.1284,-10.2543 -28.1153,-18.8874 -44.7475,-21.645 -28.511,-5.5694 -57.7237,-5.9177 -86.66989,-5.727 z"
       id="path4040-4-9"
       inkscape:connector-curvature="0"
       sodipodi:nodetypes="zssssz" />
    <path
       style="display:inline;fill:#ffffff;fill-rule:evenodd;stroke:none;stroke-width:1px;stroke-linecap:butt;stroke-linejoin:miter;stroke-opacity:1"
       d="m 983.56641,1540.9258 c -1.54733,-0.2856 -2.05258,1.3831 -1.09808,2.3984 6.90218,10.2571 11.32953,22.9594 9.29144,35.4258 -3.18525,16.1922 -9.80459,32.0595 -8.65454,48.8368 1.11911,13.9602 9.60256,26.2073 19.77957,35.3316 12.7705,11.6847 29.4582,19.7033 46.9627,19.9417 8.0219,-0.01 15.9545,-1.4957 23.8661,-2.677 2.0122,-0.3242 4.0201,-0.6741 6.0305,-1.0093 -21.3519,-1.0383 -42.6896,-10.0313 -57.063,-26.075 -7.9751,-11.2144 -9.1501,-25.6661 -7.8037,-38.9741 1.2287,-16.4415 5.3972,-33.1322 1.5972,-49.5368 -2.2772,-8.038 -5.4772,-16.8645 -13.1016,-21.291 -6.15616,-2.9998 -13.18911,-2.2768 -19.80659,-2.3711 z"
       id="path1082"
       inkscape:connector-curvature="0" />
    <path
       style="fill:#ffffff;fill-rule:evenodd;stroke:none;stroke-width:1px;stroke-linecap:butt;stroke-linejoin:miter;stroke-opacity:1"
       d="m 1933.254,1410.8683 c -17.4616,22.7763 -39.3723,39.5766 -57.282,62.0022 0,0 -28.8441,38.6564 -40.2395,96.5112 -5.8554,29.7294 -3.0199,76.4916 0.4632,104.8789 -8.0432,-29.0428 -12.8817,-52.0472 -12.8817,-52.0472 0,0 -11.3274,83.0625 -2.3977,126.1749 8.9296,43.1135 8.8172,92.2603 50.7527,124.3161 -51.2796,-39.9049 -61.596,-93.6872 -67.0642,-134.2683 -13.5488,-100.5489 -5.0623,-156.4951 -0.7888,-190.2746 5.0241,37.9036 7.7845,48.1184 7.7845,48.1184 0,0 -2.0367,-29.2668 14.4986,-83.5927 16.5353,-54.3249 54.1065,-121.429 61.6856,-129.6345 7.5793,-8.2066 45.4693,27.8156 45.4693,27.8156 z"
       id="path1295"
       inkscape:connector-curvature="0"
       sodipodi:nodetypes="ccsccccsccccc" />
  </g>
  <g
     inkscape:label="txt"
     id="layer1"
     inkscape:groupmode="layer">
    <text
       inkscape:label="king"
       xml:space="preserve"
       style="font-style:normal;font-variant:normal;font-weight:normal;font-stretch:normal;font-size:45px;line-height:0%;font-family:Lavi;-inkscape-font-specification:Lavi;text-align:center;letter-spacing:0px;word-spacing:0px;text-anchor:middle;fill:#000000;fill-opacity:1;stroke:none;stroke-width:0.88255"
       x="388.51151"
       y="2054.2869"
       id="text4246-5-6"><tspan
         sodipodi:role="line"
         style="font-size:45px;line-height:1.25;stroke-width:0.88255"
         x="388.51151"
         y="2054.2869"
         id="tspan439-5">Molt bé, jove bruixa.</tspan></text>
    <text
       inkscape:label="kingB"
       xml:space="preserve"
       style="font-style:normal;font-variant:normal;font-weight:normal;font-stretch:normal;font-size:45px;line-height:0%;font-family:Lavi;-inkscape-font-specification:Lavi;text-align:center;letter-spacing:0px;word-spacing:0px;text-anchor:middle;fill:#000000;fill-opacity:1;stroke:none;stroke-width:0.88255"
       x="414.12106"
       y="2157.6487"
       id="text4246-5-8"><tspan
         id="tspan862"
         sodipodi:role="line"
         style="font-size:45px;line-height:1.25;stroke-width:0.88255"
         x="414.12106"
         y="2157.6487">	Si tens un encanteri</tspan><tspan
         id="tspan870"
         sodipodi:role="line"
         style="font-size:45px;line-height:1.25;stroke-width:0.88255"
         x="414.12106"
         y="2213.8987"> que ens pugui ajudar, </tspan><tspan
         id="tspan864"
         sodipodi:role="line"
         style="font-size:45px;line-height:1.25;stroke-width:0.88255"
         x="414.12106"
         y="2270.1487">és ara o mai!</tspan><tspan
         id="tspan858"
         sodipodi:role="line"
         style="font-size:45px;line-height:1.25;stroke-width:0.88255"
         x="414.12106"
         y="2298.2737" /></text>
    <text
       inkscape:label="pepper"
       xml:space="preserve"
       style="font-style:normal;font-variant:normal;font-weight:normal;font-stretch:normal;line-height:0%;font-family:Lavi;-inkscape-font-specification:Lavi;text-align:center;letter-spacing:0px;word-spacing:0px;text-anchor:middle;fill:#000000;fill-opacity:1;stroke:none"
       x="967.95917"
       y="1385.1536"
       id="text4246-4-81"><tspan
         sodipodi:role="line"
         style="font-size:45px;line-height:1.25"
         x="967.95917"
         y="1385.1536"
         id="tspan4466-1">D'acord!</tspan></text>
    <text
       inkscape:label="pepperB"
       xml:space="preserve"
       style="font-style:normal;font-variant:normal;font-weight:normal;font-stretch:normal;line-height:0%;font-family:Lavi;-inkscape-font-specification:Lavi;text-align:center;letter-spacing:0px;word-spacing:0px;text-anchor:middle;fill:#000000;fill-opacity:1;stroke:none"
       x="996.41968"
       y="1512.7834"
       id="text4246-4-2"><tspan
         sodipodi:role="line"
         style="font-size:45px;line-height:1.25"
         x="996.41968"
         y="1512.7834"
         id="tspan4466">Prepareu-vos</tspan><tspan
         id="tspan907"
         sodipodi:role="line"
         style="font-size:45px;line-height:1.25"
         x="996.41968"
         y="1569.0334">per veure...</tspan></text>
    <text
       transform="matrix(1.0019251,-0.40193321,-0.06372629,1.3310734,596.66821,487.07533)"
       id="text4580-6-0-06-7"
       y="1584.5073"
       x="787.65729"
       style="font-style:normal;font-variant:normal;font-weight:normal;font-stretch:normal;line-height:0%;font-family:Lavi;-inkscape-font-specification:Lavi;letter-spacing:0px;word-spacing:0px;fill:#ffffff;fill-opacity:1;stroke:#98b9ca;stroke-width:0.714935;stroke-miterlimit:4;stroke-dasharray:none;stroke-opacity:1;filter:url(#filter4375-4-1-1-1-9-5-8-6)"
       xml:space="preserve"
       inkscape:label="soundfxA"><tspan
         style="font-size:70px;line-height:1.25;fill:#ffffff;fill-opacity:1;stroke:#98b9ca;stroke-width:0.714935;stroke-opacity:1"
         y="1584.5073"
         x="787.65729"
         id="tspan4582-1-1-2-0"
         sodipodi:role="line"><tspan
           id="tspan4315-8-6-9"
           style="font-size:93.1495px;fill:#ffffff;fill-opacity:1;stroke:#98b9ca;stroke-width:0.714935;stroke-opacity:1">Dzziii !</tspan><tspan
           id="tspan4313-2-1-3"
           style="font-size:114.732px;fill:#ffffff;fill-opacity:1;stroke:#98b9ca;stroke-width:0.714935;stroke-opacity:1">!</tspan></tspan></text>
    <text
       inkscape:label="pepperC"
       xml:space="preserve"
       style="font-style:normal;font-variant:normal;font-weight:normal;font-stretch:normal;font-size:12.7808px;line-height:0%;font-family:Lavi;-inkscape-font-specification:Lavi;text-align:center;letter-spacing:0px;word-spacing:0px;text-anchor:middle;fill:#000000;fill-opacity:1;stroke:none;stroke-width:2.4;stroke-miterlimit:4;stroke-dasharray:none;stroke-opacity:1"
       x="2498.0679"
       y="1288.725"
       id="text4246-6-9-8-8"
       transform="matrix(0.95264897,0,-0.256133,1.0497046,0,0)"><tspan
         sodipodi:role="line"
         style="font-style:normal;font-variant:normal;font-weight:bold;font-stretch:normal;font-size:45.7425px;line-height:1.25;font-family:Lavi;-inkscape-font-specification:'Lavi Bold';stroke:none;stroke-width:2.4;stroke-miterlimit:4;stroke-dasharray:none;stroke-opacity:1"
         x="2498.0679"
         y="1288.725"
         id="tspan4395-0">...LA MEVA </tspan><tspan
         id="tspan945"
         sodipodi:role="line"
         style="font-style:normal;font-variant:normal;font-weight:bold;font-stretch:normal;font-size:45.7425px;line-height:1.25;font-family:Lavi;-inkscape-font-specification:'Lavi Bold';stroke:none;stroke-width:2.4;stroke-miterlimit:4;stroke-dasharray:none;stroke-opacity:1"
         x="2498.0679"
         y="1345.9031">OBRA MESTRA!</tspan></text>
    <text
       inkscape:label="soundfxB"
       xml:space="preserve"
       style="font-style:normal;font-variant:normal;font-weight:normal;font-stretch:normal;line-height:0%;font-family:Lavi;-inkscape-font-specification:Lavi;letter-spacing:0px;word-spacing:0px;fill:#ffffff;fill-opacity:1;stroke:#98b9ca;stroke-width:0.562003;stroke-miterlimit:4;stroke-dasharray:none;stroke-opacity:1;filter:url(#filter4375-4-1-1-1-9-5-8-6)"
       x="787.65729"
       y="1584.5073"
       id="text4580-6-0-06-7-2"
       transform="matrix(1.2585454,-0.51781675,-0.08004832,1.7148423,946.02626,2.1829806)"><tspan
         sodipodi:role="line"
         id="tspan4582-1-1-2-0-3"
         x="787.65729"
         y="1584.5073"
         style="font-size:70px;line-height:1.25;fill:#ffffff;fill-opacity:1;stroke:#98b9ca;stroke-width:0.562003;stroke-opacity:1"><tspan
           style="font-size:93.1495px;fill:#ffffff;fill-opacity:1;stroke:#98b9ca;stroke-width:0.562003;stroke-opacity:1"
           id="tspan4315-8-6-9-7">Dzziiii !</tspan><tspan
           style="font-size:114.732px;fill:#ffffff;fill-opacity:1;stroke:#98b9ca;stroke-width:0.562003;stroke-opacity:1"
           id="tspan4313-2-1-3-5">!</tspan></tspan></text>
    <text
       inkscape:label="magic"
       xml:space="preserve"
       style="font-style:normal;font-variant:normal;font-weight:normal;font-stretch:normal;line-height:0%;font-family:Lavi;-inkscape-font-specification:Lavi;text-align:center;letter-spacing:0px;word-spacing:0px;text-anchor:middle;opacity:1;fill:#ffffff;fill-opacity:1;stroke:none"
       x="1656.5211"
       y="2934.5144"
       id="text4180"
       transform="scale(0.99830099,1.0017019)"><tspan
         sodipodi:role="line"
         id="tspan4182"
         x="1656.5211"
         y="2934.5144"
         style="font-style:normal;font-variant:normal;font-weight:normal;font-stretch:normal;font-size:50.4467px;line-height:1.25;font-family:'Drukaatie burti';-inkscape-font-specification:'Drukaatie burti'">Realitas</tspan><tspan
         id="tspan965"
         sodipodi:role="line"
         x="1656.5211"
         y="2997.5728"
         style="font-style:normal;font-variant:normal;font-weight:normal;font-stretch:normal;font-size:50.4467px;line-height:1.25;font-family:'Drukaatie burti';-inkscape-font-specification:'Drukaatie burti'"> Hackeris</tspan><tspan
         id="tspan967"
         sodipodi:role="line"
         x="1656.5211"
         y="3060.6311"
         style="font-style:normal;font-variant:normal;font-weight:normal;font-stretch:normal;font-size:50.4467px;line-height:1.25;font-family:'Drukaatie burti';-inkscape-font-specification:'Drukaatie burti'"> Pepperus!</tspan></text>
    <text
       inkscape:label="soundfxC"
       xml:space="preserve"
       style="font-style:normal;font-variant:normal;font-weight:normal;font-stretch:normal;line-height:0%;font-family:Lavi;-inkscape-font-specification:Lavi;letter-spacing:0px;word-spacing:0px;fill:#ffffff;fill-opacity:1;stroke:#98b9ca;stroke-width:0.436835;stroke-miterlimit:4;stroke-dasharray:none;stroke-opacity:1;filter:url(#filter4375-4-1-1-1-9-5-8-6)"
       x="787.65729"
       y="1584.5073"
       id="text4580-6-0-06"
       transform="matrix(1.4073064,-0.76647412,-0.0895101,2.5383155,748.27548,-72.167442)"><tspan
         sodipodi:role="line"
         id="tspan4582-1-1-2"
         x="787.65729"
         y="1584.5073"
         style="font-size:70px;line-height:1.25;fill:#ffffff;fill-opacity:1;stroke:#98b9ca;stroke-width:0.436835;stroke-opacity:1"><tspan
           style="font-size:93.1495px;fill:#ffffff;fill-opacity:1;stroke:#98b9ca;stroke-width:0.436835;stroke-opacity:1"
           id="tspan4315-8-6">Dzziooo !</tspan><tspan
           style="font-size:114.732px;fill:#ffffff;fill-opacity:1;stroke:#98b9ca;stroke-width:0.436835;stroke-opacity:1"
           id="tspan4313-2-1">!</tspan></tspan></text>
  </g>
</svg>
