<?xml version="1.0" encoding="UTF-8" standalone="no"?>
<!-- Created with Inkscape (http://www.inkscape.org/) -->

<svg
   id="svg2"
   version="1.1"
   inkscape:version="1.1.1 (3bf5ae0d25, 2021-09-20)"
   width="2481"
   height="3503"
   sodipodi:docname="E36P01.svg"
   xmlns:inkscape="http://www.inkscape.org/namespaces/inkscape"
   xmlns:sodipodi="http://sodipodi.sourceforge.net/DTD/sodipodi-0.dtd"
   xmlns:xlink="http://www.w3.org/1999/xlink"
   xmlns="http://www.w3.org/2000/svg"
   xmlns:svg="http://www.w3.org/2000/svg"
   xmlns:rdf="http://www.w3.org/1999/02/22-rdf-syntax-ns#"
   xmlns:cc="http://creativecommons.org/ns#"
   xmlns:dc="http://purl.org/dc/elements/1.1/">
  <metadata
     id="metadata8">
    <rdf:RDF>
      <cc:Work
         rdf:about="">
        <dc:format>image/svg+xml</dc:format>
        <dc:type
           rdf:resource="http://purl.org/dc/dcmitype/StillImage" />
      </cc:Work>
    </rdf:RDF>
  </metadata>
  <defs
     id="defs6" />
  <sodipodi:namedview
     pagecolor="#1e1e1e"
     bordercolor="#111111"
     borderopacity="1"
     objecttolerance="10"
     gridtolerance="10"
     guidetolerance="10"
     inkscape:pageopacity="0"
     inkscape:pageshadow="2"
     inkscape:window-width="1920"
     inkscape:window-height="967"
     id="namedview4"
     showgrid="false"
     inkscape:zoom="0.748119"
     inkscape:cx="1025.9063"
     inkscape:cy="2171.446"
     inkscape:window-x="0"
     inkscape:window-y="72"
     inkscape:window-maximized="1"
     inkscape:current-layer="layer3"
     inkscape:pagecheckerboard="0"
     inkscape:snap-global="false" />
  <g
     inkscape:groupmode="layer"
     id="layer2"
     inkscape:label="artwork"
     sodipodi:insensitive="true">
    <image
       xlink:href="../gfx_Pepper-and-Carrot_by-David-Revoy_E36P01.png"
       y="0"
       x="0"
       id="image10"
       height="3503"
       width="2481" />
  </g>
  <g
     inkscape:groupmode="layer"
     id="layer3"
     inkscape:label="speechbubbles"
     style="display:inline">
    <path
       style="display:inline;fill:#ffffff;fill-rule:evenodd;stroke:none;stroke-width:0.757147px;stroke-linecap:butt;stroke-linejoin:miter;stroke-opacity:1"
       d="m 1011.1313,1893.5959 c 46.5775,18.6105 73.1089,11.0422 72.3093,-32.2181 22.2219,46.7485 37.6431,57.2039 46.7887,34.1707 29.4203,19.7977 47.7957,14.244 62.3846,0 5.4378,18.3191 14.681,14.5249 40.3437,-5.7092 -4.7723,10.0936 -9.7816,34.4674 36.7601,3.7392 -21.4367,18.0948 -5.8308,18.4416 21.1851,6.2791 -8.864,18.5144 24.7598,5.0828 53.4193,-21.8825 -20.5756,27.9112 -12.2817,31.7885 6.0328,19.9666 -8.3733,12.7207 -3.6057,20.4672 22.3238,4.4408 -10.8911,23.4798 0.5505,14.092 41.9328,-8.3845 -34.1499,24.7902 -47.1107,44.7944 -22.0831,45.4838 -7.7439,2.1213 -25.6631,13.7517 34.028,25.3834 -13.9696,1.1149 -39.9601,4.0323 -15.2872,14.3005 -14.8951,-3.3575 -21.5062,2.6484 -0.7731,12.4053 -14.9189,-1.5599 -32.2118,-5.5525 -8.9356,9.7127 -26.1774,-0.5186 -22.2239,3.0634 -3.005,15.9405 -37.9088,-10.3696 -38.9397,12.9124 -40.0618,19.5225 -47.5109,-22.5203 -30.5551,5.824 -36.9686,10.5147 -23.1581,0.1753 -47.622,-37.2176 -70.7802,-12.1028 -6.0647,-15.6207 -18.2235,-0.9052 -69.4737,10.1428 22.5026,-19.8729 -18.0058,-2.2747 -42.5237,5.913 13.4265,-24.8258 -8.6174,-22.5923 -51.7722,1.5612 24.1664,-27.4145 -6.8156,-35.1285 -47.4873,-15.6644 15.3669,-26.9322 -9.66,-39.9566 -69.47403,-41.0047 28.12639,-10.5776 45.32353,-21.9399 15.59629,-43.9327 33.51124,6.4756 43.50724,0.4606 19.84964,-23.4313 36.5519,19.6102 19.933,-8.8333 5.6714,-35.1466 z"
       id="path4508-2"
       inkscape:connector-curvature="0"
       sodipodi:nodetypes="cccccccccccccccccccccccccccc" />
    <path
       style="display:inline;fill:#ffffff;fill-rule:evenodd;stroke:none;stroke-width:0.747482px;stroke-linecap:butt;stroke-linejoin:miter;stroke-opacity:1"
       d="m 1350.641,2109.7426 c -34.8294,-18.9085 -58.6606,-22.3501 -50.5328,14.9637 -33.9939,-36.5838 -38.7579,-21.8769 -45.6848,-2.0665 -30.1564,-28.4897 -43.3105,-12.2958 -49.8629,0.7251 -6.7875,-26.6336 -18.008,-6.4092 -25.2335,1.6622 1.9354,-23.3979 -6.6896,-26.2266 -30.4082,-0.1762 4.6438,-10.436 11.7854,-30.1081 -23.8317,-7.8491 7.0003,-21.8665 -16.1996,-7.1341 -35.9301,12.738 10.942,-26.5916 -3.9801,-20.6534 -18.4219,-10.3274 6.4811,-10.9794 21.7599,-28.0728 -10.3205,-14.7384 15.3834,-16.056 0.3442,-12.5665 -28.3146,3.6701 23.8076,-20.9421 45.0831,-36.8699 12.9344,-33.4219 4.3691,-6.3519 20.2833,-12.0623 -27.6202,-21.319 8.8237,-4.3959 40.5318,5.6167 17.4973,-12.1159 -3.0801,-2.0673 2.6743,-7.6785 -16.8515,-12.9564 11.4697,0.2121 18.4731,-1.2419 7.754,-9.3018 20.9319,0.1393 12.9355,-8.3838 -2.6401,-19.1762 30.5745,13.69 27.0183,-12.5448 27.8053,-18.2126 38.3493,18.713 43.0266,6.9322 48.0747,2.845 18.5068,-0.4192 36.3121,16.1851 54.4041,-5.5688 5.1075,13.2924 15.7315,16.0522 56.5107,6.0054 -17.6552,17.262 16.8761,5.4373 36.3365,-1.8519 -10.3184,21.3936 13.2188,16.3997 47.3095,-4.7642 -18.8595,23.7329 34.8161,10.8286 51.4984,3.7674 -2.0458,9.5828 -9.6477,44.5245 38.1779,44.7143 -22.7208,12.9343 -37.3525,13.879 -13.2261,32.3474 -26.8925,-5.1502 -34.7821,0.1117 -15.4758,20.2753 -38.943,-9.666 -23.4217,13.2182 -3.9481,30.1324 z"
       id="path4508-2-3"
       inkscape:connector-curvature="0"
       sodipodi:nodetypes="cccccccccccccccccccccccccccc" />
    <path
       style="fill:#ffffff;fill-rule:evenodd;stroke:none;stroke-width:1.01927px;stroke-linecap:butt;stroke-linejoin:miter;stroke-opacity:1"
       d="m 795.85859,2075.6026 c 68.17018,-19.9402 107.76468,-24.6985 129.19825,-26.9041 -9.4626,14.6823 -10.93703,18.8605 -3.60753,19.5618 12.56737,1.2024 323.02739,-38.3324 323.02739,-38.3324 l -134.9102,-3.9965 c 0,0 -88.3447,16.493 -115.60557,20.8649 -27.26123,4.3719 -53.63946,7.3565 -53.63946,7.3565 0,0 11.08456,-17.0097 8.79652,-16.5151 -9.73596,2.1047 -32.55208,-8.0957 -153.2594,37.9649 z"
       id="path891"
       inkscape:connector-curvature="0"
       sodipodi:nodetypes="ccsccscsc" />
    <path
       style="display:inline;fill:#ffffff;fill-rule:evenodd;stroke:none;stroke-width:1.20785px;stroke-linecap:butt;stroke-linejoin:miter;stroke-opacity:1"
       d="m 982.85819,2513.5778 c 28.21831,34.085 42.80051,60.774 1.32488,37.0453 20.74073,21.5205 15.18455,24.8361 -3.52735,30.3589 16.49951,14.4301 40.30428,46.2428 6.38044,56.8178 48.92134,9.4652 22.76254,36.7362 -2.79433,56.6045 74.65927,-22.8067 66.40847,2.8066 49.84597,28.9088 37.0427,-32.7144 38.7687,-23.0057 21.9909,20.5624 24.1343,-31.49 30.5792,-40.6024 30.1162,-4.2266 14.9265,-30.1013 34.3831,-48.797 48.8225,-14.1622 19.4781,-49.7852 41.2853,-6.3705 57.8534,10.8879 4.0645,-36.9925 19.2974,-46.6073 46.6157,-9.9254 2.7598,-22.3614 25.8375,-21.735 45.6223,10.2753 -24.7528,-62.8774 18.4368,-6.2663 25.6388,-2.5454 -11.7401,-32.3544 15.574,-37.9013 64.5182,-10.2102 -35.1183,-30.2071 -28.4962,-44.2996 2.133,-57.0873 -29.4807,-14.0879 -36.4867,-47.6329 12.0233,-49.0658 -60.6867,-21.3847 -15.7139,-55.0924 12.5315,-75.3839 -53.0888,12.0524 -96.2613,17.7795 -68.4152,-27.2707 -60.7758,29.1411 -49.7532,12.9296 -42.0041,-1.2147 -40.5913,35.4437 -41.4653,2.6573 -40.3384,-7.5248 -54.5292,38.5493 -86.5277,12.8559 -98.7422,-15.8395 -14.3204,40.3424 -41.3603,21.0737 -58.0091,0.7332 8.6985,37.9319 -8.8544,34.9347 -26.4983,19.3121 4.3412,25.4973 -12.1736,47.5269 -40.8708,11.6075 9.5401,17.7959 8.5496,43.8619 -44.21731,-8.6572 z"
       id="path4289-9"
       inkscape:connector-curvature="0"
       sodipodi:nodetypes="ccccccccccccccccccccccccc" />
    <path
       style="display:inline;fill:#ffffff;fill-rule:evenodd;stroke:none;stroke-width:1px;stroke-linecap:butt;stroke-linejoin:miter;stroke-opacity:1"
       d="m 839.35758,2683.1542 126.85528,-18.3923 -13.09351,-16.3937 103.27445,-9.3803 -13.3725,-26.4414 -117.98262,26.0585 15.22178,19.3955 z"
       id="path4667"
       inkscape:connector-curvature="0"
       sodipodi:nodetypes="cccccccc" />
  </g>
  <g
     inkscape:groupmode="layer"
     id="layer1"
     inkscape:label="txt"
     style="display:inline">
    <text
       xml:space="preserve"
       style="font-style:normal;font-variant:normal;font-weight:normal;font-stretch:normal;font-size:45px;line-height:1.25;font-family:Lavi;-inkscape-font-specification:Lavi;text-align:center;letter-spacing:0px;word-spacing:0px;text-anchor:middle;fill:#000000;fill-opacity:1;stroke:none;stroke-width:0.818387"
       x="1443.4329"
       y="1980.7717"
       id="text4246-3-2-2-6-3-7-9-3-3-56-9-3-20-3-3-2"
       transform="skewX(-7.1285625)"><tspan
         style="font-style:normal;font-variant:normal;font-weight:bold;font-stretch:normal;font-size:45px;font-family:Lavi;-inkscape-font-specification:'Lavi Bold';stroke-width:0.818387"
         sodipodi:role="line"
         x="1443.4329"
         y="1980.7717"
         id="tspan146">TILGJE DEG?!</tspan></text>
    <text
       id="text4246-4-2-7"
       y="2067.2725"
       x="1194.3568"
       style="font-style:normal;font-variant:normal;font-weight:normal;font-stretch:normal;line-height:0%;font-family:Lavi;-inkscape-font-specification:Lavi;text-align:center;letter-spacing:0px;word-spacing:0px;text-anchor:middle;fill:#000000;fill-opacity:1;stroke:none"
       xml:space="preserve"
       inkscape:label="pepperB"><tspan
         y="2067.2725"
         x="1194.3568"
         style="font-size:45px;line-height:1.25"
         sodipodi:role="line"
         id="tspan6683">Tullar du?!</tspan></text>
    <text
       xml:space="preserve"
       style="font-style:normal;font-variant:normal;font-weight:normal;font-stretch:normal;font-size:45px;line-height:1.25;font-family:Lavi;-inkscape-font-specification:Lavi;text-align:center;letter-spacing:0px;word-spacing:0px;text-anchor:middle;fill:#000000;fill-opacity:1;stroke:none;stroke-width:0.818387"
       x="1514.9481"
       y="2605.0286"
       id="text4246-3-2-2-6-3-7-9-3-3-56-9-3-20-3-3-2-7"
       transform="skewX(-7.1285625)"><tspan
         style="font-style:normal;font-variant:normal;font-weight:bold;font-stretch:normal;font-size:45px;font-family:Lavi;-inkscape-font-specification:'Lavi Bold';stroke-width:0.818387"
         sodipodi:role="line"
         x="1514.9481"
         y="2605.0286"
         id="tspan14740">KAST HENNE</tspan><tspan
         style="font-style:normal;font-variant:normal;font-weight:bold;font-stretch:normal;font-size:45px;font-family:Lavi;-inkscape-font-specification:'Lavi Bold';stroke-width:0.818387"
         sodipodi:role="line"
         x="1514.9481"
         y="2661.2786"
         id="tspan11305">I FENGSEL!</tspan></text>
  </g>
</svg>
