<?xml version="1.0" encoding="UTF-8" standalone="no"?>
<!-- Created With Inkscape (http://www.inkscape.org/) -->

<svg
   xmlns:dc="http://purl.org/dc/elements/1.1/"
   xmlns:cc="http://creativecommons.org/ns#"
   xmlns:rdf="http://www.w3.org/1999/02/22-rdf-syntax-ns#"
   xmlns:svg="http://www.w3.org/2000/svg"
   xmlns="http://www.w3.org/2000/svg"
   xmlns:xlink="http://www.w3.org/1999/xlink"
   xmlns:sodipodi="http://sodipodi.sourceforge.net/DTD/sodipodi-0.dtd"
   xmlns:inkscape="http://www.inkscape.org/namespaces/inkscape"
   id="svg2"
   version="1.1"
   inkscape:version="0.92.3 (2405546, 2018-03-11)"
   width="2481"
   height="663"
   sodipodi:docname="E01P00.svg"
   enable-background="new">
  <metadata
     id="metadata8">
    <rdf:RDF>
      <cc:Work
         rdf:about="">
        <dc:format>image/svg+xml</dc:format>
        <dc:type
           rdf:resource="http://purl.org/dc/dcmitype/StillImage" />
        <dc:title />
      </cc:Work>
    </rdf:RDF>
  </metadata>
  <defs
     id="defs6" />
  <sodipodi:namedview
     pagecolor="#ffffff"
     bordercolor="#666666"
     borderopacity="1"
     objecttolerance="10"
     gridtolerance="10"
     guidetolerance="10"
     inkscape:pageopacity="0"
     inkscape:pageshadow="2"
     inkscape:window-width="1920"
     inkscape:window-height="1022"
     id="namedview4"
     showgrid="false"
     inkscape:zoom="0.5503092"
     inkscape:cx="950.53843"
     inkscape:cy="-54.197467"
     inkscape:window-x="0"
     inkscape:window-y="0"
     inkscape:window-maximized="1"
     inkscape:current-layer="layer3"
     inkscape:snap-global="false">
    <inkscape:grid
       type="xygrid"
       id="grid4282" />
  </sodipodi:namedview>
  <g
     inkscape:groupmode="layer"
     id="layer1"
     inkscape:label="artwork"
     style="display:inline"
     sodipodi:insensitive="true">
    <image
       sodipodi:absref="/home/peppercarrot/webcomics/"
       xlink:href="../gfx_Pepper-and-Carrot_by-David-Revoy_E01P00.png"
       width="2481"
       height="663"
       id="image3084"
       x="0"
       y="0" />
  </g>
  <g
     inkscape:groupmode="layer"
     id="layer2"
     inkscape:label="speechbubble"
     style="opacity:0.70232556;display:inline" />
  <g
     inkscape:groupmode="layer"
     id="layer3"
     inkscape:label="txt"
     style="display:inline">
    <flowRoot
       xml:space="preserve"
       id="episode-title"
       style="font-style:normal;font-variant:normal;font-weight:normal;font-stretch:normal;line-height:0.01%;font-family:Arial;-inkscape-font-specification:Arial;letter-spacing:0px;word-spacing:0px;display:inline;opacity:1;fill:#2a5953;fill-opacity:1;stroke:none"
       transform="matrix(0.90141624,0,0,0.90141624,-65.359876,138.24661)"><flowRegion
         id="flowRegion3065"><rect
           id="rect3067"
           width="2715.5891"
           height="110.01318"
           x="92.642677"
           y="425.30325"
           style="font-size:72px;fill:#2a5953;fill-opacity:1" /></flowRegion><flowPara
         id="flowPara3069"
         style="font-style:normal;font-variant:normal;font-weight:normal;font-stretch:normal;font-size:88px;line-height:1.25;font-family:Neucha;-inkscape-font-specification:Neucha;text-align:center;text-anchor:middle;fill:#2a5953;fill-opacity:1">Эпизод 1: Зелье полета</flowPara></flowRoot>    <g
       id="g131">
      <path
         inkscape:connector-curvature="0"
         id="path232483"
         d="m 1370.5351,345.15564 c -4.4355,-0.10425 -6.0971,3.05522 -9.0235,7.41995 -2.7388,4.08435 -10.5596,21.299 -20.4388,38.43151 1.9536,3.90048 -2.4013,7.77084 -6.4144,10.57274 -4.9731,7.75359 -10.2626,14.87947 -15.5465,20.03113 -4.7497,4.63048 -12.761,8.53852 -12.2851,3.64203 0.7506,-7.72447 1.4744,-19.12884 1.7667,-39.6274 -5.2367,1.33185 -3.2077,-2.1388 0.054,-5.84355 0.044,-4.58172 0.082,-9.4383 0.082,-14.89424 0,-7.48276 -1.6866,-17.31321 -6.6046,-17.31321 -11.4013,0 -17.9453,1.14377 -37.0453,9.94762 -5.2024,2.39778 -1.7915,3.05172 2.2559,2.01127 8.0003,-2.05678 15.7793,-1.2496 15.7912,2.50049 0.1405,45.51158 -5.898,73.89298 -5.898,88.79472 0,10.26132 8.4527,14.57871 14.5409,14.56811 10.1082,-0.0199 21.6063,-9.39986 30.4137,-18.5091 -0.016,-2.97013 0.094,-5.91537 0.3805,-8.77891 2.6578,1.413 3.4362,2.31168 4.2943,3.75075 25.9297,-29.33072 36.1014,-56.1352 37.5075,-57.91907 3.4147,-4.33277 3.5374,-1.97565 3.805,5.68047 0.7311,20.91499 -0.434,36.47948 -2.8266,58.43547 -1.275,11.70034 -4.7569,24.2915 -7.1754,28.83722 -1.253,2.35482 2.8911,2.17901 7.719,-4.97381 2.5595,-0.0957 4.2046,-4.12383 7.3656,-4.40305 1.7327,-0.15306 4.1112,-1.94616 5.9794,-6.03379 3.6203,0.40522 6.2565,-8.10345 7.4199,-14.86707 0.6885,-4.00202 1.2795,-8.35044 1.7938,-12.88298 -5.7775,1.05839 -5.9175,-3.64455 0.7883,-7.69174 2.7028,-29.61309 2.4733,-63.46694 2.4733,-63.98004 0,-9.58614 -14.8504,-16.75687 -21.1726,-16.90552 z"
         style="color:#000000;display:inline;overflow:visible;visibility:visible;vector-effect:none;fill:#2a5953;fill-opacity:1;fill-rule:nonzero;stroke:none;stroke-width:1;stroke-linecap:butt;stroke-linejoin:miter;stroke-miterlimit:4;stroke-dasharray:none;stroke-dashoffset:0;stroke-opacity:1;marker:none;enable-background:accumulate" />
      <path
         id="path4067"
         d="M 225.87891 221.19141 C 199.62501 221.10491 168.45518 228.66178 147.60352 235.32422 C 141.72482 237.20254 137.83078 241.68628 138.19922 245.81445 C 140.28705 269.20757 140.36104 292.25857 139.42188 313.32812 C 142.05346 318.80593 142.34046 322.12547 138.60742 327.70703 C 136.73768 355.32942 133.39411 378.47555 131.1875 392.74609 C 130.37223 398.01845 125.07659 397.85418 119.68945 397.69336 C 114.54023 397.54075 104.99867 399.7055 104.57812 406.55273 C 104.10448 414.26441 109.95168 428.5957 124.09375 428.5957 C 126.7942 428.5957 129.66907 428.08006 132.57227 427.15625 C 129.86146 415.90796 136.46289 417.9516 145.02148 420.66016 C 153.66539 414.28741 160.60912 404.74454 161.38281 394.45898 C 161.7156 390.03497 162.02117 385.59354 162.30664 381.14062 C 157.74246 379.88608 154.87339 378.32006 156.00195 376.27539 C 156.87471 374.69416 158.24192 374.06387 162.6875 375.02539 C 165.08627 334.5198 165.50626 294.55577 163.74805 271.79883 C 163.47097 268.21263 164.05169 265.38994 167.63477 263.75391 C 175.1743 260.31136 183.06034 256.73793 190.92773 253.7793 C 190.9281 250.17525 191.8524 248.27408 194.05273 245.70703 C 195.86382 247.76873 196.50848 249.63057 196.93359 251.63086 C 209.94525 247.33736 222.65449 245.34187 233.4082 249.21289 C 236.57862 250.35413 236.48497 253.56515 236.7793 257.58398 C 237.47956 267.14582 237.90362 278.04859 238.08203 289.73633 C 245.38678 290.51103 241.75439 299.38903 239.93164 303.49023 C 239.26716 303.01359 238.67905 302.5113 238.16406 302.02148 C 238.18966 332.7574 236.69184 367.38469 234.00586 397.36719 C 232.15641 398.07942 227.32391 400.64922 226.61328 403.72656 C 223.95372 415.24366 226.00158 420.95765 230.85352 423.37695 C 238.05304 423.96992 254.65739 424.8055 259.06445 418.48633 C 265.53361 416.50846 279.44422 415.68505 277.90039 410.30469 C 286.86966 406.79219 294.29892 404.96058 297.63281 403.21094 C 303.04715 400.36946 295.76955 400.75393 292.74023 400.79102 C 282.37685 400.9178 265.6777 402.52319 257.16211 397.91016 C 257.69197 391.7037 258.35938 383.19895 259.06445 373.85742 C 255.19025 369.28677 252.0846 364.82312 259.79883 364.07227 C 262.65677 324.19439 265.7668 268.31885 263.98438 234.67188 C 263.58533 227.66424 251.21969 224.30357 246.45508 223.22852 C 246.07752 223.14332 245.69532 223.06375 245.3125 222.98438 C 241.33566 225.4624 237.28752 225.93369 234.16992 221.49023 C 231.47668 221.29689 228.70291 221.20071 225.87891 221.19141 z M 1680.8945 224.26172 C 1663.8705 224.11055 1648.0008 226.78136 1638.9297 232.63281 C 1638.131 238.53872 1636.4637 241.02696 1630.9668 242.77148 C 1614.1739 282.50398 1601.7044 328.50751 1585.7676 353.85352 C 1585.7676 353.85352 1573.1398 292.70789 1555.4902 256.00781 C 1553.2512 256.91624 1551.0828 256.85238 1548.3965 254.43164 C 1549.0184 251.63205 1550.1349 250.12535 1551.6035 248.47852 C 1550.798 247.04005 1549.9803 245.6606 1549.1582 244.34766 C 1542.0805 233.04727 1532.4201 226.98201 1527.6582 227.30664 C 1514.3562 228.21345 1498.5058 230.15633 1485.4766 236.13867 C 1481.013 238.18807 1477.5221 242.45373 1482.5137 241.43945 C 1497.4812 238.39816 1501.8992 248.37912 1504.0117 250.84375 C 1508.4715 272.18665 1506.2701 321.99418 1503.3594 361.35547 C 1507.2512 365.83114 1507.2757 367.74657 1507.5723 369.40039 C 1507.8581 370.99049 1505.3639 370.34786 1502.8164 368.80078 C 1501.566 384.6803 1500.2462 398.35053 1499.3105 406.77148 C 1490.1648 406.40499 1485.4491 413.01769 1485.4492 416.39258 C 1485.4492 422.09787 1493.6935 430.11719 1497.4355 430.11719 C 1505.3665 430.11719 1516.1781 428.38722 1525.4844 425.93164 C 1526.9647 422.0967 1530.7383 418.59779 1536.5195 422.3457 C 1540.2548 420.82124 1543.0777 419.23475 1544.2656 417.69727 C 1553.1009 416.89256 1555.1042 410.88375 1559.3223 409.8418 C 1563.7442 408.74964 1565.0842 404.42611 1558.3438 405.79297 C 1549.529 407.58055 1539.5411 408.67175 1532.4414 407.50586 C 1534.3328 378.66483 1535.2782 297.37296 1532.4414 272.31445 C 1543.8832 289.19977 1551.8805 308.39609 1557.7461 327.35352 C 1563.8884 327.36392 1566.5243 329.05138 1561.7422 335.31641 C 1561.2991 335.89709 1560.9062 336.40189 1560.5176 336.83789 C 1569.3255 368.75296 1572.6111 398.7118 1576.7715 414.16406 C 1578.1083 419.17888 1581.1685 416.35873 1582.5059 414.35352 C 1593.2571 397.18359 1602.2305 380.81058 1609.7129 365.83984 C 1609.5881 365.82744 1609.4874 365.8262 1609.3594 365.8125 C 1605.7909 355.10731 1608.4969 353.01775 1614.252 356.59766 C 1634.5027 314.16398 1641.8379 285.08984 1641.8379 285.08984 C 1646.519 318.95147 1643.6091 376.61178 1641.6211 405.92773 C 1618.616 402.88612 1623.5497 413.73828 1624.3359 417.5332 C 1625.6295 423.77071 1632.1492 429.57422 1635.3438 429.57422 C 1641.6324 429.57422 1660.2827 429.37644 1661.8965 423.29688 C 1666.9649 421.34976 1675.1695 417.16682 1674.9707 414.84375 C 1678.5534 412.84749 1683.7447 412.21899 1686.6855 409.92383 C 1693.0117 404.98597 1689.754 404.93015 1688.0977 405.16797 C 1675.83 406.92856 1672.6553 406.43391 1666.2461 405.79297 C 1667.1453 400.0103 1668.4047 389.24775 1669.6426 375.81445 C 1667.6227 373.52793 1666.0368 371.45801 1666.3008 369.48047 C 1666.6289 367.02509 1669.365 364.62825 1670.8652 361.24609 C 1672.4551 341.30293 1673.8466 317.91424 1674.2363 296.125 C 1671.5126 293.14809 1669.5944 290.04939 1674.3457 282.37109 C 1674.3457 282.36209 1674.346 282.35285 1674.3457 282.34375 C 1674.2947 267.94737 1673.677 254.83498 1672.252 244.70117 C 1674.6768 242.29958 1676.0243 242.20609 1679.5898 242.55469 C 1687.6375 243.34156 1692.3256 256.3452 1686.3594 259.56836 C 1683.5315 261.09575 1687.0345 261.31112 1688.4512 260.70898 C 1692.8048 258.85862 1696.7924 258.64595 1697.1758 251.55078 C 1701.8207 249.77558 1699.2715 245.46796 1697.9648 239.61914 C 1702.7445 236.40021 1688.1998 224.32659 1680.8945 224.26172 z M 430.13086 303.97852 C 420.051 304.21627 403.42071 312.17641 397.70703 316.12891 C 396.34479 317.07123 395.03183 318.49721 397.32617 318.79102 C 405.00442 319.77431 413.28351 314.32907 414.42188 327.32617 C 416.49795 351.02978 416.73357 378.89975 416.35156 402.61328 C 406.97684 404.30285 395.99414 407.69407 395.99414 411.9082 C 395.99414 420.73111 406.12826 424.6686 415.75391 425.90625 C 415.15597 443.57192 414.42188 455.55859 414.42188 455.55859 C 402.27967 457.12104 401.12585 461.4766 400.50586 465.50586 C 399.84252 469.81675 402.16027 480.0856 407.62695 480.20898 C 416.46549 480.40847 441.91596 479.80882 446.25 474.23047 C 453.54516 472.10587 464.40524 469.04692 465.41016 464.00977 C 470.25433 463.02194 473.58571 462.11177 476.11914 461.15625 C 480.81754 459.38418 478.43547 457.45172 486.39258 454.58008 C 489.02544 453.6299 492.11561 448.80866 485.2793 450.96484 C 478.62726 453.06294 470.12675 453.68385 461.22461 453.90039 C 456.94876 458.50661 451.54218 459.83269 446.4668 454.08984 C 442.50612 454.13584 438.60766 454.19926 434.91602 454.41602 C 434.91602 451.04056 435.95377 439.50964 437.14453 424.51953 C 471.08883 416.34097 511.5332 382.42886 511.5332 350.34766 C 511.5332 329.24561 499.05126 311.74977 470.38477 309.0625 C 462.79979 313.60355 456.51713 313.17769 456.44141 308.87109 C 451.0447 309.19295 445.21503 309.93365 438.9375 311.1543 C 438.17811 305.61963 435.00736 303.86352 430.13086 303.97852 z M 893.51172 303.97852 C 884.72433 303.86093 869.91966 307.8085 863.45117 311.94336 C 868.91869 313.15837 877.14915 315.11415 877.12305 320.77539 C 877.10465 324.84876 877.08956 328.85546 877.06836 332.87109 C 879.74054 333.95596 881.88918 335.03053 882.50391 336.43164 C 883.20936 338.04024 881.88485 340.10202 876.98633 343.22656 C 876.95763 346.0729 876.92517 348.93107 876.87695 351.8418 C 862.57337 352.80436 848.70145 352.89415 834.20703 353.88086 C 834.9285 345.84569 835.37421 337.99543 835.29297 331.18555 C 835.10914 315.77375 831.49391 308.30486 824.7207 305.9082 C 817.73497 303.43635 797.43643 310.13796 788.92578 316.37305 C 799.21722 315.75125 806.7761 314.72119 807.24414 319.87891 C 807.67035 324.57557 807.92566 329.86197 808.06055 335.53516 C 809.81915 334.45378 811.46225 334.05145 812.65234 334.74609 C 816.51256 336.99928 812.24939 343.99652 808.14062 349.15039 C 808.04823 360.58831 807.58454 372.93152 806.91797 385.10938 C 808.65849 388.18881 810.04323 391.32719 809.58203 394.70312 C 809.19437 397.54073 807.48548 399.92205 805.83203 402.28711 C 805.50816 406.92528 805.17749 411.49465 804.82617 415.84961 C 804.30705 422.28474 803.42523 430.36156 801.78125 436.36914 C 799.26419 445.56714 803.35279 442.5015 806.50977 437.56445 C 808.77421 434.02321 807.71946 426.75672 809.0918 425.93164 C 812.79044 423.70791 816.17413 424.18827 817.81641 416.47461 C 823.1066 414.30201 827.42725 408.58219 827.98242 403.89062 C 828.63374 398.38651 829.88568 389.82107 831.18945 380.05469 C 833.91914 379.94015 836.86747 379.78558 839.83203 379.61914 C 840.23486 374.3353 841.5295 369.33143 844.01758 369.18164 C 847.02943 369.00033 846.63067 375.03974 846.19141 379.21094 C 850.03442 378.92396 853.63558 378.58556 856.43945 378.15039 C 863.22234 377.09772 862.38881 375.58672 863.09766 373.33984 C 868.12392 372.35143 872.36774 370.87621 876.41602 369.61719 C 875.94593 383.0103 875.13287 397.74237 873.64258 415.44141 C 873.19571 420.75015 872.70084 424.93218 872.17578 430.63477 C 871.45728 438.43493 876.00115 439.82789 878.20898 426.99219 C 878.57706 424.85263 879.6232 419.04366 883.91797 416.99023 C 889.35487 414.39068 888.71558 410.04664 889.59766 407.83203 C 893.44964 407.77843 898.7656 405.20182 900.03516 393.80664 C 900.20128 392.31529 900.38057 390.60233 900.55078 389.02344 C 898.64196 389.02844 896.70331 388.68224 894.67969 387.74609 C 895.89863 385.55104 898.86456 381.09599 901.74609 377.33594 C 904.54133 348.13865 906.53779 312.46913 899.76367 305.58203 C 898.6985 304.49915 896.44082 304.01772 893.51172 303.97852 z M 1819.5645 303.97852 C 1809.4845 304.21627 1792.8524 312.17641 1787.1387 316.12891 C 1785.7764 317.07123 1786.0663 319.23688 1788.3359 318.79102 C 1793.9315 317.69178 1802.7172 314.32907 1803.8555 327.32617 C 1804.8496 338.67708 1805.3915 350.99021 1805.6758 363.33789 C 1808.3087 366.61568 1810.1114 369.40829 1808.0391 375.67773 C 1807.3732 377.69221 1806.6617 378.95822 1805.9199 379.67383 C 1805.9549 387.54806 1805.9001 395.28701 1805.7832 402.61328 C 1796.4118 404.30372 1785.4531 407.69624 1785.4531 411.9082 C 1785.4531 420.73922 1795.5793 424.67245 1805.2129 425.90625 C 1804.615 443.5721 1803.8555 455.55859 1803.8555 455.55859 C 1791.7132 457.12104 1790.5595 461.4766 1789.9395 465.50586 C 1789.2761 469.81675 1793.5535 474.83547 1803.8555 480.20898 C 1807.7655 479.88313 1813.8103 479.52529 1820.2715 478.91797 C 1819.5114 479.26392 1818.7501 479.61002 1817.9219 479.95312 C 1828.2333 482.24455 1841.7384 479.52883 1851.8594 474.40039 C 1850.7032 473.62963 1849.6354 472.98008 1848.625 472.41992 C 1849.9167 471.42754 1850.6565 470.30082 1850.6309 469.01172 C 1855.4511 467.01905 1863.5889 465.33821 1864.7637 462.08008 C 1868.6287 459.83836 1869.2572 457.3382 1875.8262 454.58008 C 1878.4069 453.49651 1886.3576 448.02015 1879.332 449.44336 C 1858.7016 453.6226 1845.5429 451.92134 1828.9688 452.89453 C 1828.9688 449.53834 1829.4988 438.24701 1830.0547 423.5957 C 1837.2477 421.52608 1844.6607 418.37429 1851.8535 414.38086 C 1850.8489 411.09489 1849.7303 406.88337 1849.3789 405.30273 C 1852.9556 406.80301 1854.2578 409.03482 1855.9297 411.99023 C 1880.2057 397.26916 1900.9941 373.34817 1900.9941 350.34766 C 1900.9941 334.22903 1893.6985 320.19848 1877.4824 313.27344 C 1865.269 315.58298 1868.3909 314.21318 1867.0742 310.09375 C 1856.7723 308.00998 1843.9553 308.12361 1828.3691 311.1543 C 1827.6097 305.61985 1824.4409 303.86352 1819.5645 303.97852 z M 753.13086 305.01172 C 748.69573 304.90746 747.06135 308.06691 744.13477 312.43164 C 741.50203 316.35816 735.89953 331.85005 728.01758 347.81836 C 732.21594 352.57593 725.87215 357.45036 721.16797 360.56641 C 716.86481 367.91178 712.1081 374.70263 706.95312 379.72852 C 702.20367 384.35898 694.19223 388.23829 694.66797 383.3418 C 695.41844 375.62005 696.14119 364.21972 696.43359 343.74219 C 691.19657 345.07414 693.2259 341.57613 696.48828 337.87109 C 696.53158 333.29612 696.57031 328.45175 696.57031 323.00391 C 696.57031 315.52117 694.88285 305.69141 689.96484 305.69141 C 678.56355 305.69141 672.02011 306.83481 652.91992 315.63867 C 647.71775 318.03645 651.12846 318.69084 655.17578 317.65039 C 663.17614 315.59362 670.95514 316.40031 670.9668 320.15039 C 671.0579 349.60381 668.582 371.76761 666.80859 387.85352 C 672.10408 391.32974 670.93175 397.00885 665.53125 400.30273 C 665.25324 403.54363 665.07031 406.43882 665.07031 408.91797 C 665.07031 419.17929 673.523 423.52429 679.61133 423.51367 C 689.71582 423.49377 701.21853 414.109 710.02344 405.00391 C 710.00734 402.02464 710.11709 399.09672 710.4043 396.22461 C 713.04249 397.62718 713.82144 398.5289 714.67188 399.94922 C 740.54579 370.62 745.58238 343.81309 746.98828 342.0293 C 750.40303 337.69653 750.52536 340.08215 750.79297 347.73828 C 751.52408 368.65326 750.35936 384.21784 747.9668 406.17383 C 746.69177 417.87417 745.16653 426.76872 742.74805 431.31445 C 741.49502 433.66926 740.42088 437.59757 746.33594 433.27148 C 750.17051 430.46699 750.95268 423.17123 753.64648 417.69727 C 756.64808 419.47954 759.9067 410.99782 761.96289 407.23242 C 765.04656 407.18392 769.19952 402.37087 770.14453 396.87695 C 775.55421 365.4273 774.33008 320.81732 774.33008 320.17773 C 774.33008 310.59159 759.45325 305.16037 753.13086 305.01172 z M 2221.4453 305.01172 C 2217.0098 304.90746 2215.3758 308.06691 2212.4492 312.43164 C 2211.7252 313.5114 2210.7564 315.54158 2209.5957 318.13867 C 2210.8315 326.92646 2207.1701 334.30736 2202.0137 335.56055 C 2195.3234 350.61739 2186.1757 369.09534 2175.2695 379.72852 C 2170.52 384.35898 2162.5087 388.23829 2162.9844 383.3418 C 2163.958 373.3244 2164.8867 357.29853 2164.8867 323.00391 C 2164.8867 315.52117 2163.1992 305.69141 2158.2812 305.69141 C 2146.8799 305.69141 2140.3364 306.83481 2121.2363 315.63867 C 2116.0341 318.03645 2119.4447 318.69084 2123.4922 317.65039 C 2131.4923 315.59362 2139.2715 316.40031 2139.2832 320.15039 C 2139.3122 329.59993 2139.0524 338.26614 2138.6582 346.26953 C 2142.0288 349.86219 2144.0571 354.10407 2144.0664 355.72852 C 2144.0894 359.64298 2141.2203 359.05821 2138.0332 357.11523 C 2136.3011 381.69883 2133.3848 398.56452 2133.3848 408.91797 C 2133.3848 419.17929 2141.8375 423.52429 2147.9258 423.51367 C 2156.9453 423.49587 2167.0934 416.0223 2175.4316 407.93945 C 2174.5577 404.81121 2173.9959 401.70495 2174.5078 398.3457 C 2174.8028 396.40908 2177.5635 400.20746 2179.7539 403.53711 C 2180.7419 402.48527 2181.7054 401.42507 2182.6074 400.41016 C 2208.8317 370.90406 2213.8898 343.82229 2215.3027 342.0293 C 2218.7176 337.69653 2218.8419 340.08215 2219.1094 347.73828 C 2219.8405 368.65326 2218.674 384.21784 2216.2812 406.17383 C 2215.0067 417.87417 2213.483 426.76872 2211.0645 431.31445 C 2209.8115 433.66926 2208.7355 437.59757 2214.6504 433.27148 C 2218.485 430.46699 2219.2692 423.17123 2221.9629 417.69727 C 2224.9646 419.47954 2228.2232 410.99782 2230.2793 407.23242 C 2233.363 407.18392 2237.516 402.37087 2238.4609 396.87695 C 2239.1833 392.6783 2239.7767 388.22715 2240.2812 383.69531 C 2235.8066 380.40193 2238.0929 375.74752 2241.4766 370.54102 C 2243.3077 345.11151 2242.6462 320.65017 2242.6465 320.17773 C 2242.6465 310.59159 2227.7674 305.16037 2221.4453 305.01172 z M 611.36328 305.66406 C 608.4939 305.71406 606.53942 306.70351 606.58008 308.95312 C 606.75907 318.85859 606.60446 329.41937 606.25391 339.85547 C 607.60437 340.15507 608.61224 340.6199 609.78711 342.57422 C 608.80185 344.79103 607.85381 348.29875 605.79102 351.08008 C 605.70272 353.01078 605.61642 354.97359 605.51953 356.86914 C 589.97246 364.02093 566.95179 375.71859 558.17383 359.07227 C 555.3292 353.67782 562.18717 340.09524 562.52148 322.24414 C 562.8416 305.15145 558.33717 304.10356 543.9043 308.41016 C 539.3065 309.78214 524.89408 313.30496 521.67188 314.87695 C 517.18106 317.06788 518.02417 318.0037 520.9375 317.8125 C 524.67139 317.56744 529.53093 317.06056 531.80859 317.89453 C 536.17437 319.4931 536.13086 323.5483 536.13086 326.375 C 536.13086 331.21584 536.04564 334.98885 535.88672 338.03516 C 540.28848 342.64173 545.29656 349.67737 536.04883 351.73242 C 535.50845 350.48246 535.07092 349.36474 534.7168 348.30859 C 533.94428 352.10582 533.04038 354.22744 532.51562 360.21289 C 531.14752 375.8184 543.2705 385.13672 550.15625 385.13672 C 552.03852 385.13672 554.32635 385.08524 556.81445 384.97266 C 558.23417 383.17349 560.70783 380.93141 564.07227 379.53711 C 564.25319 381.70833 566.61658 382.20296 564.96875 384.40234 C 578.84705 383.12075 594.95329 379.89325 596.79492 372.76953 C 598.91799 371.63969 603.12927 370.57172 603.26367 366.41016 C 603.85972 366.09834 604.46378 365.7881 605.05859 365.43164 C 603.58735 390.42205 601.63281 409.97852 601.63281 409.97852 C 598.93741 422.84188 603.45364 427.76974 614.75977 424.98047 C 620.54876 423.5523 636.93886 419.85323 638.65039 412.77734 C 641.58538 412.48981 645.55332 409.08428 647.375 405.62891 C 647.97259 404.49539 655.42264 400.64366 656.86133 399.26953 C 658.16288 398.0264 657.97509 395.15131 649.93164 397.99219 C 639.69345 401.60821 624.82482 405.83194 625.6875 399.5957 C 626.29088 395.23396 628.22862 389.05651 629.90039 378.15039 C 625.50812 374.4864 624.73577 369.73086 624.13672 367.03516 C 626.94984 368.09376 628.91311 369.58927 630.79688 371.49219 C 632.21673 359.42173 633.1381 342.62151 632.15625 318.49219 C 631.87376 311.54981 618.69614 305.53629 611.36328 305.66406 z M 946.34766 305.74609 C 936.01901 305.69599 926.96292 308.94308 917.45703 314.4707 C 913.2055 316.94323 915.76776 318.58524 920.09375 318.11133 C 926.02658 317.46141 932.06711 316.9075 932.4043 325.55859 C 933.02364 341.4568 933.35417 361.20766 932.56836 387.33789 C 936.22326 395.09335 942.15879 409.75658 932.05078 401.11719 C 931.81596 406.75084 931.54826 412.58659 931.20898 418.78516 C 930.82055 425.87464 930.05318 431.02203 929.57812 436.3418 C 929.1916 440.6644 935.4808 436.24921 935.53125 433.48828 C 935.58335 430.65698 940.09286 429.62507 941.02148 422.67188 C 944.51078 427.07054 947.26109 419.19778 948.98438 411.06445 C 949.87829 406.84719 952.71975 403.44115 953.00781 401.14453 C 953.87632 394.22966 954.62142 387.8455 955.23633 381.82031 C 959.34549 387.84366 964.16559 395.57086 969.36914 402.77539 C 972.02575 404.10016 975.27909 405.53193 978.82812 407.75 C 979.83745 409.67362 979.95328 412.77595 979.83203 415.46875 C 985.02689 420.6951 990.38209 424.2207 995.62305 424.2207 C 1002.6195 424.2207 1020.5874 416.34816 1018.2637 411.25586 C 1022.6273 407.15228 1025.6051 401.36873 1023.2656 400.11133 C 1025.7911 397.55984 1028.1962 393.75541 1030.6855 388.17969 C 1032.3863 384.36938 1031.5047 381.66018 1030.3594 383.47852 C 1026.9104 388.95396 1008.4494 403.72656 1001.8203 403.72656 C 996.22057 403.72656 983.12732 383.52565 975.75586 370.48633 C 979.03694 367.43966 982.33713 363.41777 985.62109 359.04492 C 983.95467 349.33998 986.89592 349.24965 990.5957 352.19531 C 1000.3968 338.26905 1009.7076 323.55994 1016.959 323.90234 C 1019.545 327.93803 1015.8675 339.05275 1009.7305 339.33984 C 1006.3435 339.49827 1006.0555 342.4643 1009.7832 342.16602 C 1012.7599 341.92787 1015.5233 341.08549 1017.9648 339.77344 C 1020.2041 341.83843 1023.4437 337.53293 1024.0254 336.29492 C 1024.5326 335.21515 1025.949 334.8835 1026.7715 333.22461 C 1029.3648 327.99281 1030.4215 324.26771 1030.3594 322.57031 C 1030.0513 314.29852 1023.0714 309.0625 1014.5684 309.0625 C 996.33042 309.0625 996.58581 310.88274 974.58789 334.25586 C 971.0371 338.02826 959.78101 354.12807 957.4375 354.36914 C 957.63788 350.85267 957.79689 347.44384 957.92578 344.0957 C 957.89928 344.1322 957.87065 344.16886 957.84375 344.20508 C 955.78239 332.8694 948.04245 326.88472 958.38867 323.43945 C 958.41277 320.35718 958.41602 317.27564 958.41602 314.14453 C 957.10732 308.00953 950.90099 305.76817 946.34766 305.74609 z M 1937.8477 305.74609 C 1927.5189 305.74609 1918.4629 308.94308 1908.957 314.4707 C 1904.7053 316.94323 1907.2677 318.58524 1911.5938 318.11133 C 1917.5266 317.46141 1923.9063 316.90094 1923.9062 325.55859 C 1923.9062 336.08535 1923.391 362.54351 1921.7031 389.73047 C 1923.595 393.9717 1925.6105 399.12141 1925.6992 401.85156 C 1925.7722 404.08578 1924.526 404.67019 1920.8887 401.76953 C 1919.5928 418.85243 1917.7815 435.3561 1915.2891 447.43164 C 1914.3004 452.22196 1920.8428 447.26729 1923.2793 436.66797 C 1924.721 436.29621 1928.9023 438.64617 1932.0859 429.92773 C 1934.4842 429.92831 1937.778 429.09072 1938.4727 426.61133 C 1939.5426 422.79254 1943.4931 424.55026 1943.9102 422.31836 C 1945.8143 412.12614 1946.8923 398.00284 1947.4961 382.96289 C 1951.428 388.79882 1955.964 396.02254 1960.8418 402.77539 C 1963.5019 404.10287 1966.7702 405.52634 1970.3281 407.75 C 1971.3372 409.67362 1971.4552 412.77595 1971.334 415.46875 C 1976.5305 420.69398 1981.8825 424.2207 1987.125 424.2207 C 1992.286 424.2207 2000.496 420.9419 2005.1172 417.20703 C 2006.891 415.77341 2006.7745 414.07802 2007.5625 412.61523 C 2008.6655 410.56784 2010.2924 408.81014 2010.3359 407.17969 C 2016.6027 401.8586 2016.6185 399.71041 2015.3906 398.23633 C 2016.2636 396.48898 2018.6043 395.0066 2019.4141 393.39844 C 2021.2907 389.67144 2017.8513 389.93908 2016.3418 391.46875 C 2011.1536 396.72675 2000.8203 404.59766 1994.1914 404.59766 C 1988.9556 404.59766 1975.7234 383.29038 1967.9629 369.7793 C 1971.0056 366.83139 1974.0805 363.09309 1977.123 359.04492 C 1975.4592 349.35453 1978.3765 349.26328 1982.0684 352.19531 C 1991.882 338.26612 2001.204 323.55969 2008.4609 323.90234 C 2011.0468 327.93803 2007.3676 339.05275 2001.2305 339.33984 C 1997.8434 339.49827 1997.5571 342.4643 2001.2852 342.16602 C 2012.2928 341.28541 2020.3105 332.1028 2020.3105 321.64648 C 2020.3105 310.91469 2014.5713 309.0625 2006.0684 309.0625 C 1987.8305 309.0625 1979.3887 323.06043 1957.3906 346.43359 C 1953.438 350.63287 1950.7054 355.02952 1948.1484 354.31445 C 1948.1974 349.30499 1948.2255 344.4816 1948.2305 339.80078 C 1945.6832 331.87672 1941.6183 327.13146 1948.2031 324.11914 C 1948.1931 320.7216 1948.1777 316.92926 1948.1777 314.14453 C 1948.1777 308.172 1943.7839 305.74609 1937.8496 305.74609 L 1937.8477 305.74609 z M 356.04102 305.85352 C 355.39375 305.84552 354.74836 305.84966 354.08398 305.88086 C 348.28472 306.15712 342.97154 307.09583 338.13086 308.62695 C 336.33789 311.91742 334.14983 314.9164 331.85156 315.63867 C 329.97874 316.22723 328.01186 315.28267 325.8457 314.36133 C 307.34857 326.29388 298.77495 349.53678 298.63867 376.68359 C 298.58027 388.31965 303.80936 398.66088 312.00977 406.5 C 313.81065 405.71201 316.2696 405.30273 319.51172 405.30273 C 319.84999 407.83785 319.82674 410.25407 319.94727 412.75 C 337.36092 423.91526 362.13842 425.94247 381.26367 411.9082 C 384.91246 409.23057 385.46455 408.37093 385.74805 401.82422 C 395.47551 397.71001 391.31827 393.95996 399.06641 389.73047 C 401.54925 388.37512 404.22299 381.85125 401.42969 383.58789 C 383.55861 394.69911 367.67434 402.59682 351.82812 401.38867 C 337.74757 400.31527 324.55901 386.22947 325.49219 376.65625 L 351.77344 369.18164 C 353.55492 363.8175 357.75485 363.82416 363.86914 365.73047 L 379.14258 361.38086 C 386.48214 359.2898 388.51509 349.56547 388.35742 343.33398 C 387.89751 325.1594 376.10628 306.10678 356.04102 305.85352 z M 2287.709 305.85352 C 2278.7855 306.48559 2270.6993 309.56887 2262.2695 314.4707 C 2258.0178 316.94323 2260.5804 318.58524 2264.9062 318.11133 C 2270.8392 317.46141 2276.8816 316.9075 2277.2188 325.55859 C 2277.6943 337.76883 2277.9759 352.33497 2277.7344 370.21484 C 2279.9376 371.99973 2281.716 374.65134 2281.4844 379.21094 C 2281.3037 382.77304 2280.4451 391.5451 2277 397.9375 C 2276.7418 404.53775 2276.4265 411.38566 2276.0215 418.78516 C 2275.633 425.87464 2274.8656 431.02203 2274.3906 436.3418 C 2274.0043 440.6644 2280.2933 436.24921 2280.3438 433.48828 C 2280.3957 430.65698 2284.9054 429.62507 2285.834 422.67188 C 2289.3233 427.07054 2292.0734 419.19778 2293.7969 411.06445 C 2294.6906 406.84719 2297.5322 403.44115 2297.8203 401.14453 C 2298.69 394.21957 2299.4334 387.82581 2300.0488 381.79297 C 2304.2107 387.89599 2309.1164 395.72988 2314.3984 403.01953 C 2318.6353 401.19308 2321.0371 401.02337 2322.1445 402.06836 C 2323.6207 403.46136 2322.8339 407.02617 2321.2207 411.77148 C 2327.4656 418.97343 2334.0376 424.2207 2340.4375 424.2207 C 2347.4335 424.2207 2365.4018 416.34816 2363.0781 411.25586 C 2367.4417 407.15228 2370.4176 401.36873 2368.0781 400.11133 C 2370.6035 397.55984 2373.009 393.75541 2375.498 388.17969 C 2377.1989 384.36938 2376.3171 381.66018 2375.1719 383.47852 C 2371.7228 388.95396 2355.0018 403.72656 2348.373 403.72656 C 2343.217 403.72656 2328.8211 383.70491 2320.7598 370.29688 C 2324.6138 366.67577 2328.5234 361.76998 2332.3652 356.49023 C 2328.8667 353.36753 2328.554 349.15256 2333.2344 347.90039 C 2334.7243 348.2943 2336.0461 348.88477 2337.2305 349.58594 C 2346.3614 336.4917 2354.9713 323.58117 2361.7734 323.90234 C 2364.3594 327.93803 2360.68 339.05275 2354.543 339.33984 C 2351.156 339.49827 2350.8696 342.4643 2354.5977 342.16602 C 2357.5745 341.92787 2360.3361 341.08549 2362.7773 339.77344 C 2365.0169 341.83843 2368.2582 337.53293 2368.8398 336.29492 C 2369.347 335.21515 2370.7614 334.8835 2371.584 333.22461 C 2374.1774 327.99281 2375.2343 324.26771 2375.1719 322.57031 C 2374.8644 314.29852 2367.8838 309.0625 2359.3809 309.0625 C 2341.1429 309.0625 2332.7013 323.06043 2310.7031 346.43359 C 2307.1525 350.20595 2304.5871 354.12556 2302.25 354.36914 C 2303.0644 340.07818 2303.2285 327.47447 2303.2285 314.14453 C 2303.2285 311.03231 2301.56 308.88378 2299.125 307.53906 C 2297.9346 308.87903 2296.5613 309.85875 2294.5312 309.63281 C 2291.8736 309.33702 2289.5156 307.72011 2287.709 305.85352 z M 1134.2383 306.5332 C 1132.8863 306.5165 1131.6942 306.99313 1130.7598 308.05664 C 1129.1178 307.31816 1126.1383 306.91097 1121.166 307.24023 C 1072.9309 310.43444 1048.2584 347.21829 1043.8398 377.41797 C 1047.4829 380.51993 1046.8299 384.8964 1043.1328 387.99023 C 1043.6795 412.6579 1063.0612 426.19945 1079.9609 425.22656 C 1084.8867 424.94298 1091.9094 424.47234 1100.1562 419.08398 C 1098.6815 414.08453 1103.0771 411.2857 1108.5 412.17969 C 1111.7351 408.90486 1115.087 404.78075 1118.5293 399.5957 C 1118.3953 400.88221 1118.256 402.23042 1118.1211 403.48242 C 1116.8002 415.73156 1120.001 429.6306 1136.0586 429.81836 C 1143.621 429.90676 1161.834 415.39837 1158.4824 414.65234 C 1161.1318 411.92898 1161.2763 408.6829 1163.4297 406.00977 C 1166.6875 401.96464 1163.5116 402.90048 1166.7715 398.1543 C 1167.9485 396.44065 1170.3926 392.97649 1171.502 391.22461 C 1173.207 388.5318 1170.708 387.86707 1168.8926 390.00195 C 1158.5421 402.17433 1145.3112 410.80088 1145.0293 402.20508 C 1144.8245 395.96108 1145.1365 384.84217 1145.7617 372.28125 C 1141.3766 375.37704 1137.6224 377.2106 1140.1914 371.38281 C 1141.3244 368.81239 1143.9622 366.2412 1146.1973 364.12695 C 1146.9447 351.26776 1147.9672 337.64822 1149.1328 326.29297 C 1149.3211 324.46441 1149.087 322.55239 1148.5352 320.69336 C 1148.0015 317.64221 1146.4486 314.8482 1144.0234 312.56836 L 1144.0234 312.54102 C 1143.9914 312.51062 1143.9469 312.48918 1143.9141 312.45898 C 1140.9449 308.98445 1137.2355 306.57021 1134.2383 306.5332 z M 2078.7539 307.02344 C 2069.1097 307.02344 2060.2534 309.48647 2052.5273 313.87305 C 2051.5218 321.50683 2047.964 321.54286 2039.209 324.52734 C 2028.6382 336.04952 2022.2293 352.37422 2021.9512 370.89453 C 2021.4184 406.35896 2050.8814 422.39844 2068.4805 422.39844 C 2076.417 422.39844 2083.1883 421.07248 2088.8652 418.81055 C 2088.6668 409.90671 2092.6816 411.66094 2096.5293 414.78906 C 2106.314 408.11984 2111.1234 397.90699 2111.3164 387.60938 C 2111.4268 381.70556 2112.3137 369.49564 2104.3027 369.99805 C 2102.1072 367.08133 2100.7689 362.09818 2096.5293 360.7832 C 2107.9319 353.04403 2110.208 343.14345 2110.3652 334.20312 C 2106.2036 331.19777 2103.9751 327.19747 2108.4883 323.19531 C 2105.1479 315.15196 2096.7523 307.02344 2078.7539 307.02344 z M 1739.4941 310.80078 C 1736.9503 310.80078 1734.5009 310.97919 1732.1562 311.29102 C 1727.9228 314.90241 1724.0931 317.65029 1718.2129 315.25781 C 1694.0817 326.36083 1684.4575 355.63308 1684.2656 373.88477 C 1683.9941 399.68004 1694.6455 425.15163 1720.4961 425.66016 C 1748.0715 426.20273 1785.617 404.13389 1785.6172 368.17578 C 1785.6172 365.36765 1785.5093 362.55612 1785.2637 359.80469 C 1781.334 355.08441 1777.1648 348.66729 1781.7305 342.35547 C 1775.6727 324.20223 1762.237 310.80078 1739.4941 310.80078 z M 1127.1992 314.4707 C 1126.8078 316.28541 1127.0952 318.72336 1127.252 322.89648 C 1126.6831 326.55355 1126.1506 330.22305 1125.6484 333.9043 C 1122.726 345.54772 1119.3225 355.3258 1115.7285 363.55664 C 1115.7885 365.41815 1115.9297 367.12418 1115.8379 368.33984 C 1115.3054 375.39019 1111.2005 377.66586 1107.0586 380.16211 C 1097.3222 395.62771 1087.7015 401.84514 1083.0586 403.5918 C 1074.7395 406.72144 1067.2251 394.59811 1067.9746 380.51562 C 1068.7954 365.07925 1078.0025 349.70157 1090.0723 337.54492 C 1090.1393 331.31713 1093.0849 326.80883 1100.6445 328.25 C 1109.4298 321.54143 1118.8138 316.6256 1127.1992 314.4707 z M 357.58984 321.07422 C 361.90353 321.05532 368.51021 322.11191 366.23242 339.9375 C 365.80655 343.27029 362.26563 344.58398 362.26562 344.58398 L 324.73047 355.94531 C 326.00052 341.07087 344.05513 321.10156 355.9043 321.10156 C 356.39376 321.10156 356.97359 321.07692 357.58984 321.07422 z M 2079.6523 321.94531 C 2091.82 321.94531 2091.5972 331.42242 2091.4199 335.64258 C 2090.9229 347.46955 2075.3283 349.95999 2046.7656 359.07227 C 2048.4015 342.71334 2063.001 321.94531 2079.6523 321.94531 z M 467.42188 328.00586 C 479.32686 328.00586 492.1543 330.34873 492.1543 346.67773 C 492.1543 352.91651 489.11632 359.81078 483.94727 366.57227 C 483.62698 370.78418 482.23598 374.51056 481.17383 376.90039 C 478.52812 376.96879 477.29515 376.17679 476.22852 375.10742 C 466.51865 384.34281 453.26961 392.602 439.10156 397.55664 C 440.37745 377.21636 441.30113 354.56807 440.70508 334.9082 C 447.27558 331.66658 461.91515 328.00586 467.42188 328.00586 z M 1856.8535 328.00586 C 1868.7586 328.00586 1881.5879 330.34873 1881.5879 346.67773 C 1881.5879 363.96642 1858.288 386.36236 1830.8984 396.71484 C 1831.3555 376.6419 1831.4651 354.28543 1830.4355 334.77344 C 1837.1421 331.56842 1851.4287 328.00586 1856.8535 328.00586 z M 1745.2012 330.66992 C 1760.6749 330.36221 1759.1844 350.99086 1759.0898 355.32031 C 1758.3122 384.71386 1734.9492 400.51953 1723.2676 400.51953 C 1708.2756 400.51953 1708.0163 387.34262 1709.543 371.2207 C 1709.7189 369.36355 1710.0395 367.43902 1710.4941 365.48633 C 1705.6903 360.7686 1703.784 355.10736 1705.0039 354.69531 C 1709.0951 353.3135 1711.6559 355.31624 1713.1836 357.19531 C 1718.8235 343.62901 1730.3589 330.96508 1745.2012 330.66992 z M 2079.8691 368.61133 C 2085.1112 368.69913 2091.1758 371.82495 2091.1758 379.45508 C 2091.1758 394.31215 2078.7012 404.65039 2068.0195 404.65039 C 2053.0565 404.65039 2047.3825 392.06509 2047.8516 377.22656 C 2053.9807 374.50246 2068.4037 371.25366 2076.4727 369.01953 C 2077.5096 368.73248 2078.6594 368.59107 2079.8691 368.61133 z "
         style="color:#000000;display:inline;overflow:visible;visibility:visible;vector-effect:none;fill:#2a5953;fill-opacity:1;fill-rule:nonzero;stroke:none;stroke-width:1;stroke-linecap:butt;stroke-linejoin:miter;stroke-miterlimit:4;stroke-dasharray:none;stroke-dashoffset:0;stroke-opacity:1;marker:none;enable-background:accumulate" />
    </g>
  </g>
</svg>
