<?xml version="1.0" encoding="UTF-8" standalone="no"?>
<svg
   xmlns:dc="http://purl.org/dc/elements/1.1/"
   xmlns:cc="http://creativecommons.org/ns#"
   xmlns:rdf="http://www.w3.org/1999/02/22-rdf-syntax-ns#"
   xmlns:svg="http://www.w3.org/2000/svg"
   xmlns="http://www.w3.org/2000/svg"
   xmlns:xlink="http://www.w3.org/1999/xlink"
   xmlns:sodipodi="http://sodipodi.sourceforge.net/DTD/sodipodi-0.dtd"
   xmlns:inkscape="http://www.inkscape.org/namespaces/inkscape"
   sodipodi:docname="E16P06.svg"
   height="3503"
   width="2481"
   inkscape:version="1.0 (4035a4fb49, 2020-05-01)"
   version="1.1"
   id="svg2">
  <sodipodi:namedview
     inkscape:document-rotation="0"
     inkscape:window-maximized="0"
     inkscape:window-y="0"
     inkscape:window-x="0"
     inkscape:current-layer="layer1"
     inkscape:cy="2493.6204"
     inkscape:cx="1284.4231"
     inkscape:zoom="0.4"
     showgrid="false"
     id="namedview70"
     inkscape:window-height="955"
     inkscape:window-width="1321"
     inkscape:pageshadow="2"
     inkscape:pageopacity="0"
     bordercolor="#666666"
     pagecolor="#ffffff" />
  <metadata
     id="metadata8">
    <rdf:RDF>
      <cc:Work
         rdf:about="">
        <dc:format>image/svg+xml</dc:format>
        <dc:type
           rdf:resource="http://purl.org/dc/dcmitype/StillImage" />
        <dc:title />
      </cc:Work>
    </rdf:RDF>
  </metadata>
  <defs
     id="defs6">
    <filter
       x="-0.15000001"
       width="1.3"
       y="-0.15000001"
       height="1.3"
       inkscape:menu-tooltip="Something like a water noise"
       inkscape:menu="Distort"
       inkscape:label="Lapping"
       id="filter3018"
       style="color-interpolation-filters:sRGB">
      <feTurbulence
         result="result1"
         baseFrequency="0.045999999999999999"
         type="fractalNoise"
         seed="0"
         numOctaves="5"
         id="feTurbulence3020" />
      <feGaussianBlur
         result="result2"
         stdDeviation="2"
         id="feGaussianBlur3022" />
      <feDisplacementMap
         in="SourceGraphic"
         xChannelSelector="R"
         yChannelSelector="B"
         scale="50"
         in2="result2"
         id="feDisplacementMap3024" />
    </filter>
    <filter
       x="-0.15000001"
       width="1.3"
       y="-0.15000001"
       height="1.3"
       inkscape:menu-tooltip="Something like a water noise"
       inkscape:menu="Distort"
       inkscape:label="Lapping"
       id="filter3018-5"
       style="color-interpolation-filters:sRGB">
      <feTurbulence
         result="result1"
         baseFrequency="0.02802547770700637"
         type="fractalNoise"
         seed="0"
         numOctaves="2"
         id="feTurbulence3020-9" />
      <feGaussianBlur
         baseFrequency="0.028000000000000001"
         result="result2"
         stdDeviation="0.01"
         id="feGaussianBlur3022-7" />
      <feDisplacementMap
         in="SourceGraphic"
         xChannelSelector="R"
         yChannelSelector="B"
         scale="50"
         in2="result2"
         id="feDisplacementMap3024-8" />
    </filter>
    <filter
       y="-0.10000000000000001"
       id="filter4265"
       style="color-interpolation-filters:sRGB;"
       inkscape:menu-tooltip="Horizontal rippling of edges"
       inkscape:menu="Distort"
       inkscape:label="Ripple">
      <feTurbulence
         id="feTurbulence4267"
         baseFrequency="0.002 0.107"
         numOctaves="1" />
      <feColorMatrix
         id="feColorMatrix4269"
         result="result91"
         values="5 0 0 0 0 0 0 0 0 0 0 0 0 0 0 0 0 0 4 0 " />
      <feDisplacementMap
         id="feDisplacementMap4271"
         in2="result91"
         in="SourceGraphic"
         scale="14.3"
         xChannelSelector="R"
         yChannelSelector="A" />
    </filter>
    <filter
       inkscape:label="deevad outline effect"
       id="filter4375-4-1-1-1-9"
       style="color-interpolation-filters:sRGB">
      <feFlood
         result="flood"
         flood-color="rgb(105,130,141)"
         flood-opacity="1"
         id="feFlood4377-7-9-0-8-1" />
      <feComposite
         result="composite1"
         operator="in"
         in="flood"
         in2="SourceGraphic"
         id="feComposite4379-3-8-8-2-77" />
      <feMorphology
         result="result3"
         radius="4"
         operator="dilate"
         id="feMorphology4393-1-0-49-8-9" />
      <feComposite
         result="composite2"
         operator="over"
         in="SourceGraphic"
         in2="result3"
         id="feComposite4385-9-5-7-0-8" />
    </filter>
    <filter
       x="-0.15000001"
       width="1.3"
       y="-0.15000001"
       height="1.3"
       inkscape:menu-tooltip="Something like a water noise"
       inkscape:menu="Distort"
       inkscape:label="Lapping"
       id="filter3018-9"
       style="color-interpolation-filters:sRGB">
      <feTurbulence
         result="result1"
         baseFrequency="0.045999999999999999"
         type="fractalNoise"
         seed="0"
         numOctaves="5"
         id="feTurbulence3020-3" />
      <feGaussianBlur
         result="result2"
         stdDeviation="2"
         id="feGaussianBlur3022-77" />
      <feDisplacementMap
         in="SourceGraphic"
         xChannelSelector="R"
         yChannelSelector="B"
         scale="50"
         in2="result2"
         id="feDisplacementMap3024-6" />
    </filter>
    <filter
       y="-0.1"
       id="filter4265-7"
       style="color-interpolation-filters:sRGB"
       inkscape:menu-tooltip="Horizontal rippling of edges"
       inkscape:menu="Distort"
       inkscape:label="Ripple">
      <feTurbulence
         id="feTurbulence4267-7"
         baseFrequency="0.002 0.107"
         numOctaves="1" />
      <feColorMatrix
         id="feColorMatrix4269-1"
         result="result91"
         values="5 0 0 0 0 0 0 0 0 0 0 0 0 0 0 0 0 0 4 0 " />
      <feDisplacementMap
         id="feDisplacementMap4271-2"
         in2="result91"
         in="SourceGraphic"
         scale="14.3"
         xChannelSelector="R"
         yChannelSelector="A" />
    </filter>
  </defs>
  <sodipodi:namedview
     inkscape:current-layer="layer1"
     inkscape:window-maximized="1"
     inkscape:window-y="26"
     inkscape:window-x="0"
     inkscape:cy="2148.121"
     inkscape:cx="1323.5648"
     inkscape:zoom="0.56568544"
     showgrid="false"
     id="namedview4"
     inkscape:window-height="1025"
     inkscape:window-width="1920"
     inkscape:pageshadow="2"
     inkscape:pageopacity="0"
     guidetolerance="10"
     gridtolerance="10"
     objecttolerance="10"
     borderopacity="1"
     bordercolor="#666666"
     pagecolor="#ffffff" />
  <g
     sodipodi:insensitive="true"
     inkscape:label="artwork"
     id="layer2"
     inkscape:groupmode="layer">
    <image
       sodipodi:absref="C:\Users\stero\Documents\Kernewek\Pepper and Carrot\webcomics\ep16_The-Sage-of-the-Mountain\lang\gfx_Pepper-and-Carrot_by-David-Revoy_E16P06.png"
       xlink:href="../gfx_Pepper-and-Carrot_by-David-Revoy_E16P06.png"
       y="0"
       x="0"
       id="image10"
       height="3503"
       width="2481" />
  </g>
  <g
     inkscape:label="speechbubbles"
     id="layer3"
     inkscape:groupmode="layer">
    <path
       transform="matrix(0.93497009,0,0,0.90016842,-52.108178,503.94598)"
       sodipodi:nodetypes="csssssc"
       inkscape:connector-curvature="0"
       id="path3986"
       d="m 168.28312,242.56886 c 0,-59.7361 29.8086,-90.5375 118.2404,-96.1379 88.4319,-5.6002 342.7586,-13.9748 381.5097,5.6261 38.751,19.601 38.7901,48.5099 40.7774,87.7117 1.9872,39.2018 -86.4447,99.8714 -174.8765,97.0713 -88.4319,-2.8002 -223.7312,5.5744 -271.4248,-8.4263 -47.6936,-14.0007 -90.2517,-38.2427 -94.2262,-85.8449 z"
       style="color:#000000;display:inline;overflow:visible;visibility:visible;fill:#0f0f0f;fill-opacity:1;fill-rule:nonzero;stroke:none;stroke-width:1px;marker:none;filter:url(#filter3018-9);enable-background:accumulate" />
    <path
       sodipodi:nodetypes="cccscccc"
       inkscape:connector-curvature="0"
       id="path4456"
       d="m 678.07237,662.24549 c -17.09062,58.38926 -35.17677,61.96629 -52.88086,73.40862 -4.31685,-3.47698 -2.14346,-34.60622 -2.14346,-34.60622 0,0 -39.29405,58.68551 -54.58859,64.94605 -15.29463,6.2606 -27.5297,-21.752 -27.5297,-21.752 0,0 75.79585,-58.26928 86.63428,-72.14534 11.32175,10.04939 7.21526,27.97609 9.33626,33.40093 11.82429,-3.79121 34.43647,-22.66451 41.17207,-43.25204 z"
       style="color:#000000;display:inline;overflow:visible;visibility:visible;fill:#000000;fill-opacity:1;fill-rule:nonzero;stroke:none;stroke-width:1px;marker:none;enable-background:accumulate" />
    <path
       transform="matrix(0.06698198,-0.32487181,2.9224041,0.0069021,1172.2264,687.59367)"
       sodipodi:nodetypes="csssssc"
       inkscape:connector-curvature="0"
       id="path3986-3"
       d="m 168.28312,242.56886 c 0,-59.7361 29.8086,-90.5375 118.2404,-96.1379 88.4319,-5.6002 342.7586,-13.9748 381.5097,5.6261 38.751,19.601 38.7901,48.5099 40.7774,87.7117 1.9872,39.2018 -86.4447,99.8714 -174.8765,97.0713 -88.4319,-2.8002 -223.7312,5.5744 -271.4248,-8.4263 -47.6936,-14.0007 -90.2517,-38.2427 -94.2262,-85.8449 z"
       style="color:#000000;display:inline;overflow:visible;visibility:visible;fill:#d40000;fill-opacity:1;fill-rule:nonzero;stroke:none;stroke-width:1px;marker:none;filter:url(#filter4265-7);enable-background:accumulate" />
    <path
       inkscape:connector-curvature="0"
       id="path4345"
       d="m 1705.3161,593.27326 c -12.5093,15.78328 -24.9092,31.67522 -37.4867,47.39062 -6.2386,4.93164 -12.3818,10.02377 -18.68,14.85513 -7.7939,3.28163 -15.5877,6.56325 -23.3815,9.84487 10.7721,-1.24294 21.5443,-2.48588 32.3164,-3.72882 -5.3861,12.84373 -10.7721,25.68746 -16.1582,38.53119 -11.6871,7.0588 -23.3188,14.23165 -35.0405,21.21929 -9.9542,3.67563 -19.8656,7.56392 -29.8466,11.10697 -10.6874,0.41106 -21.3749,0.82211 -32.0624,1.23317 17.4012,2.48588 34.8024,4.97177 52.2036,7.45765 14.5657,-5.44583 29.1905,-10.77073 43.7192,-16.29207 8.6285,-5.34147 17.257,-10.68294 25.8855,-16.02441 6.8382,-12.6115 13.4205,-25.36555 20.4276,-37.88287 3.963,-6.84514 7.9259,-13.69027 11.8889,-20.5354 -7.4576,1.65726 -14.9153,3.31451 -22.3729,4.97177 11.6008,-4.97177 23.2015,-9.94353 34.8023,-14.9153 7.906,-7.95314 15.9156,-15.82134 23.7569,-23.82745 4.9248,-7.38713 9.8495,-14.77427 14.7743,-22.1614 -14.9155,-0.38269 -29.8277,-1.0463 -44.7459,-1.24294 z"
       style="fill:#d40000;fill-rule:evenodd;stroke:none;stroke-width:1px;stroke-linecap:butt;stroke-linejoin:miter;stroke-opacity:1" />
    <path
       sodipodi:nodetypes="cssssc"
       inkscape:connector-curvature="0"
       id="path4546"
       d="m 133.93104,1756.1562 c 10.37143,-91.7038 86.19899,-156.9388 274.10751,-134.5171 100.65385,12.0104 262.91288,-2.9873 248.35132,164.4897 -11.70587,134.6333 -168.32471,104.0671 -269.96237,103.2346 -34.27765,-0.2808 -201.28114,-0.2286 -230.0867,-46.8512 -18.03158,-29.1845 -24.34689,-57.92 -22.40976,-86.356 z"
       style="color:#000000;display:inline;overflow:visible;visibility:visible;fill:#ffffff;fill-opacity:1;fill-rule:nonzero;stroke:none;stroke-width:1px;marker:none;enable-background:accumulate" />
    <path
       sodipodi:nodetypes="csscsc"
       inkscape:connector-curvature="0"
       id="path4546-5"
       d="m 228.48554,1953.6843 c -1.88474,-41.6558 18.23362,-69.5163 66.78001,-86.6545 48.54641,-17.1382 125.52086,-23.554 237.34835,-22.3203 111.14274,1.2262 242.91213,-5.414 241.31321,115.9241 1.91069,97.0306 -229.57335,89.9558 -364.25686,87.8057 -134.6835,-2.15 -175.74369,-16.6114 -181.18471,-94.755 z"
       style="color:#000000;display:inline;overflow:visible;visibility:visible;fill:#ffffff;fill-opacity:1;fill-rule:nonzero;stroke:none;stroke-width:1px;marker:none;enable-background:accumulate" />
    <path
       sodipodi:nodetypes="cscsssssscssssccscccc"
       inkscape:connector-curvature="0"
       id="path5058"
       d="m 679.97273,2309.7939 c 11.76656,16.9627 26.86609,23.8633 33.13322,24.5043 6.26697,0.6411 51.18576,-0.5702 58.36292,1.3402 5.92112,1.6053 15.29748,2.3474 12.68306,6.5605 -2.61437,4.2131 -30.31277,24.9188 -23.60938,36.8314 6.70329,11.9129 16.09268,11.8433 30.77839,9.5346 14.68587,-2.3087 33.90454,-5.1323 40.10008,3.2779 6.19554,8.4104 -0.42141,18.7031 -5.69542,23.0046 -5.274,4.3016 -41.33402,26.981 -47.18733,35.5493 -5.8532,8.5682 -17.44702,36.0164 -3.13364,42.5791 0.28218,-17.1207 1.44033,-25.4913 8.56505,-32.2815 7.12485,-6.7902 18.87702,-19.9651 30.88068,-24.2477 12.00374,-4.2826 33.12277,-14.1804 37.1026,-22.3224 3.97999,-8.1419 5.27237,-18.6132 -3.42104,-26.4549 -8.69327,-7.8418 -15.57713,-16.6411 -37.4328,-11.6667 -14.68576,2.3087 -24.93162,-0.737 -26.52665,-3.4751 -1.59491,-2.7382 5.02205,-13.0309 16.84133,-19.8559 11.81942,-6.8249 18.29714,-15.5354 13.85836,-20.7275 -4.43886,-5.192 -54.92421,-8.252 -60.28852,-12.1998 -5.3642,-3.9478 -39.32337,-23.7584 -39.32337,-23.7584 z"
       style="color:#000000;display:inline;overflow:visible;visibility:visible;fill:#ffffff;fill-opacity:1;fill-rule:nonzero;stroke:none;stroke-width:0.93157691px;marker:none;enable-background:accumulate" />
    <path
       sodipodi:nodetypes="csssc"
       inkscape:connector-curvature="0"
       id="path3280-8"
       d="m 1941.1697,2325.5954 c -0.1428,-32.6072 53.8535,-80.6699 171.5713,-77.2749 149.4945,4.3114 181.2685,33.4896 182.569,74.5207 2.2044,69.5531 -77.8848,87.1577 -197.2165,86.8425 -138.5411,-0.3659 -155.5097,-50.83 -156.9238,-84.0883 z"
       style="fill:#ffffff;stroke:none;stroke-width:1.04178047" />
    <path
       inkscape:connector-curvature="0"
       id="path4496"
       d="m 2114.3141,2514.2406 c 14.2538,-10.9964 29.2494,-22.2742 38.0444,-38.39 2.4037,-4.6343 4.5686,-9.597 5.2999,-14.7679 -0.4379,-5.5474 -4.9724,-9.7458 -10.0301,-11.4235 -7.1343,-2.9342 -15.8493,-3.0529 -21.5082,-8.8625 -4.0169,-4.3289 -2.8198,-10.5378 -2.276,-15.8307 1.6508,-13.4639 5.1349,-26.783 4.629,-40.4411 0.4302,-15.4146 -0.2355,-31.6652 -7.7317,-45.5309 -3.058,-5.4366 -7.0173,-10.6962 -12.7384,-13.5146 -14.3488,-7.8958 -33.4384,-7.6739 -46.7972,2.2087 -7.9232,7.1128 -9.3323,21.0317 -1.4609,28.6971 4.0945,4.1085 10.3014,4.7898 15.7505,3.7773 10.3645,0.011 20.0973,6.0565 25.5175,14.7518 4.5906,7.103 6.9036,15.5737 6.9911,24.004 3.1462,11.4329 -1.9449,22.721 -4.3637,33.7526 -1.03,5.0564 -1.783,10.5048 -0.2812,15.5104 3.8395,6.6283 11.9608,8.3156 18.996,8.9502 7.2388,0.8414 15.7307,0.9995 20.8762,6.9773 4.1293,3.6675 0.5936,9.1252 -0.3839,13.4504 -4.9654,13.5159 -14.0889,25.3081 -25.0784,34.4841 -1.1122,0.796 -2.2811,1.4976 -3.4549,2.1973 z"
       style="color:#000000;display:inline;overflow:visible;visibility:visible;fill:#ffffff;fill-opacity:1;fill-rule:nonzero;stroke:none;stroke-width:1px;marker:none;enable-background:accumulate" />
    <text
       id="text4246-42-8"
       y="3440.9868"
       x="1232.4392"
       style="font-style:normal;font-variant:normal;font-weight:normal;font-stretch:normal;line-height:0%;font-family:Lavi;-inkscape-font-specification:Lavi;text-align:center;letter-spacing:0px;word-spacing:0px;text-anchor:middle;opacity:1;fill:#000000;fill-opacity:1;stroke:none"
       xml:space="preserve"><tspan
         id="tspan4252-9-8"
         y="3440.9868"
         x="1238.179"
         style="font-size:36.7347px;line-height:1.25;fill:#000000"
         sodipodi:role="line"> </tspan></text>
    <path
       sodipodi:nodetypes="zsssz"
       inkscape:connector-curvature="0"
       id="path4008-8"
       d="m 461.74273,2037.6049 c 90.56506,-86.6883 518.11435,-65.2596 564.49807,-0.1623 46.3837,65.0972 72.8611,224.69 -7.6804,277.188 -80.54143,52.4974 -542.56284,73.4967 -582.87011,-4.1999 -40.30718,-77.6968 -64.51274,-186.138 26.05244,-272.8258 z"
       style="color:#000000;display:inline;overflow:visible;visibility:visible;fill:#ffffff;fill-opacity:1;fill-rule:nonzero;stroke:none;stroke-width:1.02731049px;marker:none;enable-background:accumulate" />
  </g>
  <g
     style="opacity:1"
     inkscape:label="txt"
     id="layer1"
     inkscape:groupmode="layer">
    <text
       transform="scale(0.99830099,1.0017019)"
       id="text4180"
       y="728.71765"
       x="368.0184"
       style="font-style:normal;font-variant:normal;font-weight:normal;font-stretch:normal;line-height:0%;font-family:Lavi;-inkscape-font-specification:Lavi;text-align:center;letter-spacing:0px;word-spacing:0px;text-anchor:middle;fill:#ffffff;fill-opacity:1;stroke:none"
       xml:space="preserve"><tspan
         style="font-style:normal;font-variant:normal;font-weight:normal;font-stretch:normal;font-size:50.4467px;line-height:1.25;font-family:'Drukaatie burti';-inkscape-font-specification:'Drukaatie burti'"
         y="728.71765"
         x="368.0184"
         id="tspan4182"
         sodipodi:role="line">GRAVITAS SPIRALIS !</tspan></text>
    <text
       transform="scale(0.99830099,1.0017019)"
       id="text4180-1"
       y="560.59735"
       x="1915.5634"
       style="font-style:normal;font-variant:normal;font-weight:normal;font-stretch:normal;line-height:0%;font-family:Lavi;-inkscape-font-specification:Lavi;text-align:center;letter-spacing:0px;word-spacing:0px;text-anchor:middle;fill:#ffffff;fill-opacity:1;stroke:none"
       xml:space="preserve"><tspan
         style="font-style:normal;font-variant:normal;font-weight:normal;font-stretch:normal;font-size:50.4467px;line-height:1.25;font-family:'Drukaatie burti';-inkscape-font-specification:'Drukaatie burti'"
         y="560.59735"
         x="1915.5634"
         id="tspan4182-2"
         sodipodi:role="line">BRASERO INTENSIA !</tspan></text>
    <text
       transform="matrix(1.1015253,-0.87314706,0.0870639,1.7091559,1054.2092,-513.95448)"
       id="text4580"
       y="1584.5073"
       x="787.65729"
       style="font-style:normal;font-variant:normal;font-weight:normal;font-stretch:normal;line-height:0%;font-family:Lavi;-inkscape-font-specification:Lavi;letter-spacing:0px;word-spacing:0px;fill:#000000;fill-opacity:1;stroke:none;stroke-width:0.992362;stroke-miterlimit:4;stroke-dasharray:none;stroke-opacity:1;filter:url(#filter4375-4-1-1-1-9)"
       xml:space="preserve"><tspan
         style="font-size:70px;line-height:1.25;fill:#ffffff;stroke:none"
         y="1584.5073"
         x="787.65729"
         id="tspan4582"
         sodipodi:role="line"><tspan
           id="tspan4617"
           style="font-size:80.4001px;stroke:none">Plowgh!</tspan></tspan></text>
    <text
       id="text4246-2"
       y="1717.0811"
       x="403.34961"
       style="font-style:normal;font-variant:normal;font-weight:normal;font-stretch:normal;line-height:0%;font-family:Lavi;-inkscape-font-specification:Lavi;text-align:center;letter-spacing:0px;word-spacing:0px;text-anchor:middle;fill:#000000;fill-opacity:1;stroke:none"
       xml:space="preserve"><tspan
         id="tspan3628"
         y="1717.0811"
         x="403.34961"
         style="font-size:45px;line-height:1.25"
         sodipodi:role="line">A, hwi yonkers</tspan><tspan
         id="tspan87"
         y="1773.3311"
         x="403.34961"
         style="font-size:45px;line-height:1.25"
         sodipodi:role="line">neb a vynn omsettya</tspan><tspan
         id="tspan89"
         y="1829.5811"
         x="403.34961"
         style="font-size:45px;line-height:1.25"
         sodipodi:role="line"> war buptra!</tspan><tspan
         id="tspan91"
         y="1848.088"
         x="403.34961"
         sodipodi:role="line" /></text>
    <text
       id="text4246-2-0"
       y="2312.2585"
       x="2122.3184"
       style="font-style:normal;font-variant:normal;font-weight:normal;font-stretch:normal;line-height:0%;font-family:Lavi;-inkscape-font-specification:Lavi;text-align:center;letter-spacing:0px;word-spacing:0px;text-anchor:middle;fill:#000000;fill-opacity:1;stroke:none"
       xml:space="preserve"><tspan
         id="tspan141"
         y="2312.2585"
         x="2127.9453"
         style="font-size:36.013px;line-height:1.25"
         sodipodi:role="line">Ass yns i fol, </tspan><tspan
         id="tspan145"
         y="2357.2747"
         x="2122.3184"
         style="font-size:36.013px;line-height:1.25"
         sodipodi:role="line">an dyskansow ma!</tspan></text>
    <text
       id="text4229"
       y="3381.4036"
       x="1240.6475"
       style="font-style:normal;font-variant:normal;font-weight:normal;font-stretch:normal;line-height:0%;font-family:Arial;-inkscape-font-specification:Arial;text-align:center;letter-spacing:0px;word-spacing:0px;text-anchor:middle;display:inline;opacity:0.855;fill:#000000;fill-opacity:1;stroke:none"
       xml:space="preserve"><tspan
         id="tspan4169"
         style="font-style:normal;font-variant:normal;font-weight:normal;font-stretch:normal;font-size:28.75px;line-height:1.25;font-family:Lavi;-inkscape-font-specification:Lavi;fill:#000000"
         y="3381.4036"
         x="1240.6475"
         sodipodi:role="line">License: Creative Commons Attribution 4.0, Software: Krita, Blender, G'MIC, Inkscape on Ubuntu</tspan></text>
    <text
       id="text4246-42-4"
       y="3340.7739"
       x="1242.353"
       style="color:#000000;font-style:normal;font-variant:normal;font-weight:normal;font-stretch:normal;line-height:0%;font-family:Lavi;-inkscape-font-specification:Lavi;text-indent:0;text-align:center;text-decoration:none;text-decoration-line:none;letter-spacing:0px;word-spacing:0px;text-transform:none;writing-mode:lr-tb;direction:ltr;baseline-shift:baseline;text-anchor:middle;display:inline;overflow:visible;visibility:visible;opacity:0.855;fill:#000000;fill-opacity:1;fill-rule:nonzero;stroke:none;enable-background:accumulate"
       xml:space="preserve"><tspan
         id="tspan4252-9-9"
         y="3340.7739"
         x="1242.353"
         style="color:#000000;font-style:normal;font-variant:normal;font-weight:normal;font-stretch:normal;font-size:28.75px;line-height:125%;font-family:Lavi;-inkscape-font-specification:Lavi;text-indent:0;text-align:center;text-decoration:none;text-decoration-line:none;letter-spacing:0px;word-spacing:0px;text-transform:none;writing-mode:lr-tb;direction:ltr;baseline-shift:baseline;text-anchor:middle;display:inline;overflow:visible;visibility:visible;fill:#000000;fill-opacity:1;fill-rule:nonzero;stroke:none;enable-background:accumulate"
         sodipodi:role="line">Based on the Hereva universe created by David Revoy with contributions from Craig Maloney. Corrections by Willem Sonke, Moini, Hali, CGand and Alex Gryson.</tspan></text>
    <text
       transform="matrix(0.75304346,0,-0.11971288,1.3279446,0,0)"
       id="text4213"
       y="2443.6147"
       x="2028.7821"
       style="font-style:normal;font-variant:normal;font-weight:normal;font-stretch:normal;line-height:0%;font-family:Lavi;-inkscape-font-specification:Lavi;text-align:center;letter-spacing:0px;word-spacing:0px;text-anchor:middle;opacity:1;fill:#000000;fill-opacity:1;stroke:#000000;stroke-width:3.822;stroke-miterlimit:4;stroke-dasharray:none;stroke-opacity:1"
       xml:space="preserve"><tspan
         style="font-size:63.5518px;line-height:1.25;fill:#000000;stroke:#000000;stroke-width:3.822;stroke-miterlimit:4;stroke-dasharray:none"
         y="2443.6147"
         x="2028.7821"
         id="tspan4215"
         sodipodi:role="line">- FIN -</tspan></text>
    <text
       id="text4246-42"
       y="3300.3928"
       x="1240.0964"
       style="font-style:normal;font-variant:normal;font-weight:normal;font-stretch:normal;line-height:0%;font-family:Lavi;-inkscape-font-specification:Lavi;text-align:center;letter-spacing:0px;word-spacing:0px;text-anchor:middle;fill:#000000;fill-opacity:1;stroke:none"
       xml:space="preserve"><tspan
         id="tspan4252-9"
         y="3300.3928"
         x="1240.0964"
         style="font-size:36.7347px;line-height:1.25;fill:#000000"
         sodipodi:role="line">04/2016 - www.peppercarrot.com - Art &amp; Hwedhel: David Revoy - Treylyans: Steve Harris - Provredyans: Steve Penhaligon</tspan></text>
    <text
       id="text4246-2-7-2"
       y="2073.8423"
       x="745.25122"
       style="font-style:normal;font-variant:normal;font-weight:normal;font-stretch:normal;line-height:0%;font-family:Lavi;-inkscape-font-specification:Lavi;text-align:center;letter-spacing:0px;word-spacing:0px;text-anchor:middle;fill:#000000;fill-opacity:1;stroke:none"
       xml:space="preserve"><tspan
         id="tspan4241-5"
         y="2073.8423"
         x="745.25122"
         style="font-size:45px;line-height:1.25"
         sodipodi:role="line">Pan nag yw tra vyth</tspan><tspan
         id="tspan131"
         y="2130.0923"
         x="745.25122"
         style="font-size:45px;line-height:1.25"
         sodipodi:role="line">kepar ha pan vynni,</tspan><tspan
         id="tspan133"
         y="2186.3423"
         x="745.25122"
         style="font-size:45px;line-height:1.25"
         sodipodi:role="line">tra vyth yw gwell es kibel dha!</tspan><tspan
         id="tspan135"
         y="2242.5923"
         x="745.25122"
         style="font-size:45px;line-height:1.25"
         sodipodi:role="line">Da yw rag agan galar eseli,</tspan><tspan
         id="tspan137"
         y="2298.8423"
         x="745.25122"
         style="font-size:45px;line-height:1.25"
         sodipodi:role="line">ha rag agas nervennow!</tspan></text>
    <text
       id="text4246-2-5-1-3"
       y="1929.2761"
       x="511.79395"
       style="font-style:normal;font-variant:normal;font-weight:normal;font-stretch:normal;line-height:0%;font-family:Lavi;-inkscape-font-specification:Lavi;text-align:center;letter-spacing:0px;word-spacing:0px;text-anchor:middle;fill:#000000;fill-opacity:1;stroke:none"
       xml:space="preserve"><tspan
         id="tspan102"
         y="1929.2761"
         x="511.79395"
         style="font-size:45px;line-height:1.25"
         sodipodi:role="line">Dyskans an Dooth</tspan><tspan
         id="tspan98"
         y="1985.5261"
         x="511.79395"
         style="font-size:45px;line-height:1.25"
         sodipodi:role="line">yw dhe wul war y lergh!</tspan></text>
  </g>
</svg>
