<?xml version="1.0" encoding="UTF-8" standalone="no"?>
<svg
   xmlns:dc="http://purl.org/dc/elements/1.1/"
   xmlns:cc="http://creativecommons.org/ns#"
   xmlns:rdf="http://www.w3.org/1999/02/22-rdf-syntax-ns#"
   xmlns:svg="http://www.w3.org/2000/svg"
   xmlns="http://www.w3.org/2000/svg"
   xmlns:xlink="http://www.w3.org/1999/xlink"
   xmlns:sodipodi="http://sodipodi.sourceforge.net/DTD/sodipodi-0.dtd"
   xmlns:inkscape="http://www.inkscape.org/namespaces/inkscape"
   sodipodi:docname="E16P02.svg"
   height="3503"
   width="2481"
   inkscape:version="1.0 (4035a4fb49, 2020-05-01)"
   version="1.1"
   id="svg2">
  <sodipodi:namedview
     inkscape:document-rotation="0"
     inkscape:window-maximized="0"
     inkscape:window-y="0"
     inkscape:window-x="0"
     inkscape:current-layer="layer3"
     inkscape:cy="2893.6204"
     inkscape:cx="1074.4789"
     inkscape:zoom="0.4"
     showgrid="false"
     id="namedview70"
     inkscape:window-height="955"
     inkscape:window-width="1313"
     inkscape:pageshadow="2"
     inkscape:pageopacity="0"
     bordercolor="#666666"
     pagecolor="#ffffff" />
  <metadata
     id="metadata8">
    <rdf:RDF>
      <cc:Work
         rdf:about="">
        <dc:format>image/svg+xml</dc:format>
        <dc:type
           rdf:resource="http://purl.org/dc/dcmitype/StillImage" />
        <dc:title />
      </cc:Work>
    </rdf:RDF>
  </metadata>
  <defs
     id="defs6" />
  <sodipodi:namedview
     inkscape:current-layer="layer1"
     inkscape:window-maximized="1"
     inkscape:window-y="26"
     inkscape:window-x="0"
     inkscape:cy="1840.0765"
     inkscape:cx="1607.0828"
     inkscape:zoom="0.46"
     showgrid="false"
     id="namedview4"
     inkscape:window-height="1025"
     inkscape:window-width="1920"
     inkscape:pageshadow="2"
     inkscape:pageopacity="0"
     guidetolerance="10"
     gridtolerance="10"
     objecttolerance="10"
     borderopacity="1"
     bordercolor="#666666"
     pagecolor="#ffffff" />
  <g
     sodipodi:insensitive="true"
     inkscape:label="artwork"
     id="layer2"
     inkscape:groupmode="layer">
    <image
       sodipodi:absref="C:\Users\stero\Documents\Kernewek\Pepper and Carrot\webcomics\ep16_The-Sage-of-the-Mountain\lang\gfx_Pepper-and-Carrot_by-David-Revoy_E16P02.png"
       xlink:href="../gfx_Pepper-and-Carrot_by-David-Revoy_E16P02.png"
       y="0"
       x="0"
       id="image10"
       height="3503"
       width="2481" />
  </g>
  <g
     inkscape:label="speechbubbles"
     id="layer3"
     inkscape:groupmode="layer">
    <path
       inkscape:connector-curvature="0"
       id="path4365"
       d="m 129.47183,1204.4941 c 10.36218,-30.5523 38.26652,-53.7332 68.63605,-69.2079 14.45269,-7.471 30.97238,-12.9459 47.87693,-11.5058 16.79368,0.8605 33.19697,5.9979 50.17643,4.2135 20.64653,-0.5894 41.65555,-3.1608 62.06504,0.5135 18.14327,4.0092 36.83603,6.0856 55.55865,6.206 13.20823,-2.5448 25.29461,4.2379 37.09034,8.2947 10.58956,4.3821 21.40588,8.9796 30.3005,15.758 8.19461,9.5154 18.00658,17.7936 26.29689,27.2243 5.42457,5.1557 4.90335,12.2771 4.65346,18.8678 -0.70454,13.4964 -1.89761,27.2058 -6.32589,40.2084 -2.64999,8.2549 -12.44483,10.9868 -19.971,14.7801 -17.80809,8.0076 -36.71794,14.08 -53.71355,23.5033 -16.83773,4.8251 -34.7316,2.5682 -51.9995,1.839 -14.46934,-1.4363 -29.02471,-3.4392 -43.61839,-1.7689 -18.57429,1.2223 -37.09217,4.3872 -55.73292,3.9818 -23.35171,-2.7818 -45.71632,-9.6313 -68.34613,-15.1258 -20.30302,-4.8429 -38.80755,-13.9495 -56.56313,-23.6913 -9.48436,-5.532 -19.52469,-11.9621 -22.87188,-22.1569 -2.74385,-7.02 -3.39038,-14.5367 -3.5119,-21.9338 z"
       style="fill:#ffffff;fill-rule:evenodd;stroke:none;stroke-width:1.10624969px;stroke-linecap:butt;stroke-linejoin:miter;stroke-opacity:1" />
    <path
       sodipodi:nodetypes="csssscssssssc"
       inkscape:connector-curvature="0"
       id="path3023-2"
       d="m 526.05317,1332.6787 c -30.94804,-5.9742 -33.65755,-15.3739 -35.85896,-26.3529 -2.20164,-10.979 -2.97755,-21.2157 -9.14413,-25.0411 -6.16635,-3.8252 -15.85979,-4.8779 -23.17719,-4.6934 -7.31743,0.1844 -5.29357,-9.0401 -8.28411,-16.1281 -2.99067,-7.0881 -31.76642,-37.2963 -31.76642,-37.2963 0,0 -1.64154,31.4089 0.94371,41.0513 2.58502,9.6423 3.48097,13.1815 5.57556,16.7304 2.09482,3.5489 8.54676,11.5174 16.06913,13.2832 7.52237,1.7658 15.47204,-0.2404 21.46624,-0.192 5.99426,0.048 8.9236,8.3554 12.37845,16.2997 3.45476,7.9444 7.26292,13.1493 20.83234,18.6149 11.63149,4.6851 30.96538,3.7243 30.96538,3.7243 z"
       style="fill:#ffffff;stroke:none" />
    <path
       sodipodi:nodetypes="csssscc"
       inkscape:connector-curvature="0"
       id="path3992"
       d="m 1328.1663,1392.774 c -58.7257,-50.2252 -33.4437,-183.4624 -16.6648,-206.0636 16.7788,-22.6013 30.5818,-26.2049 110.2812,-26.2049 79.6992,0 807.1615,-35.5733 888.9581,17.1631 81.7965,52.7363 63.8282,191.1133 -7.4817,252.639 -71.3099,61.5257 -548.1408,8.9696 -548.1408,8.9696 0,0 -336.7659,17.5337 -426.952,-46.5032 z"
       style="color:#000000;display:inline;overflow:visible;visibility:visible;fill:#ffffff;fill-opacity:1;fill-rule:nonzero;stroke:none;stroke-width:1.04149px;marker:none;enable-background:accumulate" />
    <path
       sodipodi:nodetypes="csssc"
       inkscape:connector-curvature="0"
       id="path3280-8"
       d="m 1730.4354,1511.1983 c -2.4933,-38.2437 42.2088,-133.9831 260.2629,-126.7818 218.0543,7.2012 286.3018,49.2679 292.6918,117.2462 10.1085,107.5396 -104.6097,136.2779 -269.3345,144.2432 -169.8135,8.2116 -286.2557,-65.6073 -283.6202,-134.7076 z"
       style="fill:#ffffff;stroke:none" />
    <path
       inkscape:connector-curvature="0"
       id="path4018"
       d="m 1176.6793,1401.525 c 11.1145,-52.0341 49.4885,-48.0105 61.0024,-50.7043 11.5139,-2.6938 53.2465,-12.1003 59.6337,-55.0276 6.3873,-42.9274 50.5704,-62.6224 50.5704,-62.6224 l -8.1471,64.4127 c 0,0 -26.1867,43.4877 -51.8954,55.4317 -25.7088,11.9439 -66.72,11.6091 -78.3208,20.0382 -11.601,8.429 -26.2997,13.0823 -32.8432,28.4717 z"
       style="color:#000000;display:inline;overflow:visible;visibility:visible;fill:#ffffff;fill-opacity:1;fill-rule:nonzero;stroke:none;stroke-width:1px;marker:none;enable-background:accumulate" />
    <path
       sodipodi:nodetypes="csscc"
       inkscape:connector-curvature="0"
       id="path4546"
       d="M 177.96119,197.48784 C 182.94267,122.88885 230.74676,78.680011 462.09939,81.754231 653.33686,84.295391 746.84402,103.73769 737.9927,199.64957 725.70604,332.78635 563.95115,310.59438 450.63745,318.43093 376.20594,316.65876 180.36075,333.49284 177.96119,197.48784 Z"
       style="color:#000000;display:inline;overflow:visible;visibility:visible;fill:#ffffff;fill-opacity:1;fill-rule:nonzero;stroke:none;stroke-width:1px;marker:none;enable-background:accumulate" />
    <path
       sodipodi:nodetypes="csscc"
       inkscape:connector-curvature="0"
       id="path4546-3"
       d="m 1156.3843,426.32506 c -4.2186,112.39953 -66.8621,201.17776 -343.77164,195.38366 -228.895,-4.78941 -343.70936,-53.51155 -344.5407,-198.653 -1.03724,-181.09038 240.81913,-157.4669 364.57585,-157.51172 89.10651,3.0443 322.86749,-10.60785 323.73649,160.78106 z"
       style="color:#000000;display:inline;overflow:visible;visibility:visible;fill:#ffffff;fill-opacity:1;fill-rule:nonzero;stroke:none;stroke-width:1.083px;marker:none;enable-background:accumulate" />
    <path
       sodipodi:nodetypes="cscc"
       inkscape:connector-curvature="0"
       id="path5002"
       d="m 1212.2695,581.74978 c -67.2618,20.68446 -152.2854,0.78987 -192.165,-42.94991 -39.87945,-43.73978 14.3178,-40.84093 14.3178,-40.84093 0,0 77.3502,101.9849 177.8472,83.79084 z"
       style="color:#000000;display:inline;overflow:visible;visibility:visible;fill:#ffffff;fill-opacity:1;fill-rule:nonzero;stroke:none;stroke-width:1px;marker:none;enable-background:accumulate" />
    <path
       sodipodi:nodetypes="cccccccccccccsscccccccccccccccccccccccccccccccccccccccccc"
       inkscape:connector-curvature="0"
       id="path4603"
       d="m 79.966435,2100.7361 23.546955,16.9231 5.77671,-21.9352 13.96365,6.6271 -8.37819,-76.6628 30.72004,70.6089 2.79273,-18.3606 12.56729,24.8932 36.42692,-12.6689 6.8604,-61.4313 15.36001,51.9619 11.17093,-21.9559 7.8925,28.1908 c 0,0 1.88205,5.9771 15.8457,3.5183 13.96366,-2.4587 141.79599,8.2857 167.56383,28.0386 l 22.98224,11.0636 22.56755,-16.0382 -6.45156,26.5591 47.36086,-45.6119 -27.28149,59.1451 17.92704,-10.8019 -8.71946,23.0447 c 0,0 4.22581,12.8435 8.41491,18.6175 40.49459,50.2616 60.14929,164.5577 67.33048,188.812 l 30.72004,-4.1329 -20.94548,14.775 c 9.14048,7.03 41.99548,18.3261 111.3259,-11.3026 0,0 -64.15436,47.8864 -108.60984,43.2432 -9.56642,5.4787 39.34647,16.4737 39.34647,16.4737 l -53.28076,7.1739 -5.84311,51.329 39.09823,18.5558 -44.68369,-9.0921 37.70186,44.3933 -46.80583,-10.7121 -4.82814,28.0202 -7.68395,10.2694 c -16.12139,12.3176 -39.33705,39.5006 -60.92293,45.5075 0,4.5428 23.38547,50.176 23.38547,50.176 l -52.01461,-30.1267 24.0873,36.5584 -56.27233,-30.9116 -14.37279,-0.4158 -8.37819,3.5952 c -43.28733,27.1567 -143.43861,11.5928 -160.19499,8.1832 -1.39637,0.095 -18.15274,43.6284 -18.15274,43.6284 l -7.69184,-38.3128 -11.85728,15.4062 -6.95817,-10.379 -51.07677,70.7436 17.83286,-83.7721 -35.99696,34.7352 5.36921,-47.4621 -27.96162,34.2282 4.93852,-43.7099 -16.109444,5.0935 z"
       style="fill:#ffffff;fill-rule:evenodd;stroke:none;stroke-width:1.01073015px;stroke-linecap:butt;stroke-linejoin:miter;stroke-opacity:1" />
    <path
       inkscape:connector-curvature="0"
       id="path3533"
       d="m 890.13351,2905.1862 c 28.19786,-35.2543 88.56328,-65.5675 168.36649,-78.8643 79.8032,-13.2967 228.0411,-12.838 254.1643,-9.3658 26.123,3.4721 169.6207,15.071 201.1284,34.2365 31.5076,19.1652 74.1412,42.8654 83.7574,67.9563 9.6166,25.0909 3.0669,86.0066 -25.6427,99.9521 -28.7095,13.9453 -160.1528,45.553 -237.1991,48.5351 -77.0464,2.9823 -256.5453,-6.3821 -307.8095,-14.1337 -51.26428,-7.7516 -105.5887,-17.8163 -122.26942,-45.1473 -16.6809,-27.331 -47.5855,-63.0881 -14.49587,-103.1689 z"
       style="color:#000000;display:inline;overflow:visible;visibility:visible;fill:#ffffff;fill-opacity:1;fill-rule:nonzero;stroke:none;stroke-width:1.03823125px;marker:none;enable-background:accumulate" />
    <path
       sodipodi:nodetypes="csssscssssssc"
       inkscape:connector-curvature="0"
       id="path3023"
       d="m 1665.3162,3027.9651 c -45.7195,6.3375 -53.9298,-5.1776 -62.1848,-19.0773 -8.2551,-13.8997 -14.1828,-27.4561 -24.5416,-29.7762 -10.3587,-2.3201 -24.2907,0.778 -34.3436,4.4479 -10.0531,3.6701 -16.0502,-4.3086 -23.5544,-12.549 -7.5042,-8.2404 -57.2715,-41.3793 -57.2715,-41.3793 0,0 12.6136,43.4743 20.7667,55.3773 8.1531,11.903 11.0722,16.2967 15.6572,20.1434 4.5852,3.8466 17.3035,11.6669 28.565,10.553 11.2614,-1.1138 21.3268,-7.5562 29.6567,-10.2912 8.3298,-2.7351 21.007,2.5425 29.5605,11.7303 8.5534,9.1878 31.1188,27.0998 49.1012,23.41 17.9825,-3.6897 28.5886,-12.5889 28.5886,-12.5889 z"
       style="fill:#ffffff;stroke:none" />
  </g>
  <g
     style="display:inline"
     inkscape:label="txt"
     id="layer1"
     inkscape:groupmode="layer">
    <text
       id="text4246-4"
       y="343.03253"
       x="812.651"
       style="font-style:normal;font-variant:normal;font-weight:normal;font-stretch:normal;line-height:0%;font-family:Lavi;-inkscape-font-specification:Lavi;text-align:center;letter-spacing:0px;word-spacing:0px;text-anchor:middle;fill:#000000;fill-opacity:1;stroke:none"
       xml:space="preserve"><tspan
         id="tspan3465"
         y="343.03253"
         x="812.651"
         style="font-weight:normal;font-size:45px;line-height:1.25"
         sodipodi:role="line">Ny wrav vy mos ha bos </tspan><tspan
         id="tspan89"
         y="399.28253"
         x="812.651"
         style="font-weight:normal;font-size:45px;line-height:1.25"
         sodipodi:role="line">omvyskys avel medhadores, </tspan><tspan
         id="tspan91"
         y="455.53253"
         x="812.651"
         style="font-weight:normal;font-size:45px;line-height:1.25"
         sodipodi:role="line">rag kowethes hogen. Oberow </tspan><tspan
         id="tspan93"
         y="511.78253"
         x="812.651"
         style="font-weight:normal;font-size:45px;line-height:1.25"
         sodipodi:role="line">a'n par na a worfen </tspan><tspan
         id="tspan95"
         y="568.03253"
         x="812.651"
         style="font-weight:normal;font-size:45px;line-height:1.25"
         sodipodi:role="line">yn trog pub prys.</tspan></text>
    <text
       id="text4246-42"
       y="166.86148"
       x="459.47992"
       style="font-style:normal;font-variant:normal;font-weight:normal;font-stretch:normal;line-height:0%;font-family:Lavi;-inkscape-font-specification:Lavi;text-align:center;letter-spacing:0px;word-spacing:0px;text-anchor:middle;fill:#000000;fill-opacity:1;stroke:none"
       xml:space="preserve"><tspan
         id="tspan3442"
         y="166.86148"
         x="466.51117"
         style="font-size:45px;line-height:1.25"
         sodipodi:role="line">Hemm yw neppyth </tspan><tspan
         id="tspan65"
         y="223.11148"
         x="466.51117"
         style="font-size:45px;line-height:1.25"
         sodipodi:role="line">hag yw res dhis y handla </tspan><tspan
         id="tspan67"
         y="279.36148"
         x="459.47992"
         style="font-size:45px;line-height:1.25"
         sodipodi:role="line">dha honan.</tspan></text>
    <text
       id="text4246-4-3"
       y="1201.0664"
       x="330.12131"
       style="font-style:normal;font-variant:normal;font-weight:normal;font-stretch:normal;line-height:0%;font-family:Lavi;-inkscape-font-specification:Lavi;text-align:center;letter-spacing:0px;word-spacing:0px;text-anchor:middle;fill:#000000;fill-opacity:1;stroke:none"
       xml:space="preserve"><tspan
         id="tspan104"
         y="1201.0664"
         x="330.12131"
         style="font-size:45px;line-height:1.25"
         sodipodi:role="line">M-my a'th pys,</tspan><tspan
         id="tspan102"
         y="1257.3164"
         x="330.12131"
         style="font-size:45px;line-height:1.25"
         sodipodi:role="line">Saffron.</tspan></text>
    <text
       id="text4246-4-3-5"
       y="1213.8634"
       x="1837.4443"
       style="font-style:normal;font-variant:normal;font-weight:normal;font-stretch:normal;line-height:0%;font-family:Lavi;-inkscape-font-specification:Lavi;text-align:center;letter-spacing:0px;word-spacing:0px;text-anchor:middle;fill:#000000;fill-opacity:1;stroke:none"
       xml:space="preserve"><tspan
         id="tspan3486"
         y="1213.8634"
         x="1837.4443"
         style="font-size:45px;line-height:1.25"
         sodipodi:role="line">Ny dhyskav travyth gans ow mammow besydh,</tspan><tspan
         id="tspan115"
         y="1270.1134"
         x="1837.4443"
         style="font-size:45px;line-height:1.25"
         sodipodi:role="line">ny wrons i tra vyth marnas perghenegi ow chi,</tspan><tspan
         id="tspan117"
         y="1326.3634"
         x="1837.4443"
         style="font-size:45px;line-height:1.25"
         sodipodi:role="line">krodhvolas a-dro dh'aga eskern koth gwighek ha</tspan><tspan
         id="tspan119"
         y="1382.6134"
         x="1837.4443"
         style="font-size:45px;line-height:1.25"
         sodipodi:role="line">garma orthiv na fors poneyl a bandr'a wrylliv...</tspan></text>
    <text
       id="text4246-4-3-4"
       y="2130.9766"
       x="312.95486"
       style="font-style:normal;font-variant:normal;font-weight:normal;font-stretch:normal;line-height:0%;font-family:Lavi;-inkscape-font-specification:Lavi;text-align:center;letter-spacing:0px;word-spacing:0px;text-anchor:middle;fill:#000000;fill-opacity:1;stroke:none"
       xml:space="preserve"><tspan
         id="tspan4253-3-4"
         y="2130.9766"
         x="319.98611"
         style="font-size:45px;line-height:1.25"
         sodipodi:role="line"> </tspan><tspan
         id="tspan4356"
         y="2187.2266"
         x="312.95486"
         style="font-size:45px;line-height:1.25"
         sodipodi:role="line">Goslow orthiv,</tspan><tspan
         id="tspan3516"
         y="2243.4766"
         x="312.95486"
         style="font-size:45px;line-height:1.25"
         sodipodi:role="line"><tspan
   id="tspan3503"
   style="font-style:italic;font-weight:bold">gwragh</tspan> os ta,</tspan><tspan
         id="tspan3514"
         y="2299.7266"
         x="319.98611"
         style="font-size:45px;line-height:1.25"
         sodipodi:role="line">dallath omdhegi </tspan><tspan
         id="tspan130"
         y="2355.9766"
         x="312.95486"
         style="font-size:45px;line-height:1.25"
         sodipodi:role="line">avel onan!</tspan></text>
    <text
       id="text4246-4-3-4-7"
       y="2553.5493"
       x="301.6976"
       style="font-style:normal;font-variant:normal;font-weight:normal;font-stretch:normal;line-height:0%;font-family:Lavi;-inkscape-font-specification:Lavi;text-align:center;letter-spacing:0px;word-spacing:0px;text-anchor:middle;fill:#000000;fill-opacity:1;stroke:none"
       xml:space="preserve"><tspan
         id="tspan4438"
         y="2553.5493"
         x="308.72885"
         style="font-size:45px;line-height:1.25"
         sodipodi:role="line">Haval orth </tspan><tspan
         id="tspan132"
         y="2609.7993"
         x="301.6976"
         style="font-size:45px;line-height:1.25"
         sodipodi:role="line">mowes vras!</tspan></text>
    <text
       id="text4246-4-3-4-7-0"
       y="2448.6238"
       x="321.21371"
       style="font-style:normal;font-variant:normal;font-weight:normal;font-stretch:normal;line-height:0%;font-family:Lavi;-inkscape-font-specification:Lavi;text-align:center;letter-spacing:0px;word-spacing:0px;text-anchor:middle;fill:#000000;fill-opacity:1;stroke:none"
       xml:space="preserve"><tspan
         id="tspan4434"
         y="2448.6238"
         x="321.21371"
         style="font-size:45px;line-height:1.25"
         sodipodi:role="line">Kows orta yn kler!</tspan></text>
    <text
       id="text4246-4-3-5-1"
       y="1485.0845"
       x="2014.6814"
       style="font-style:normal;font-variant:normal;font-weight:normal;font-stretch:normal;line-height:0%;font-family:Lavi;-inkscape-font-specification:Lavi;text-align:center;letter-spacing:0px;word-spacing:0px;text-anchor:middle;fill:#000000;fill-opacity:1;stroke:none"
       xml:space="preserve"><tspan
         id="tspan3499"
         y="1485.0845"
         x="2021.7126"
         style="font-size:45px;line-height:1.25"
         sodipodi:role="line">A ny yll'ta dos </tspan><tspan
         id="tspan126"
         y="1541.3345"
         x="2021.7126"
         style="font-size:45px;line-height:1.25"
         sodipodi:role="line">ha'm gweres kewsel orta </tspan><tspan
         id="tspan128"
         y="1597.5845"
         x="2014.6814"
         style="font-size:45px;line-height:1.25"
         sodipodi:role="line">yn y gever...?</tspan></text>
    <text
       id="text4246-4-3-5-1-7"
       y="2895.5386"
       x="1241.7258"
       style="font-style:normal;font-variant:normal;font-weight:normal;font-stretch:normal;line-height:0%;font-family:Lavi;-inkscape-font-specification:Lavi;text-align:center;letter-spacing:0px;word-spacing:0px;text-anchor:middle;fill:#000000;fill-opacity:1;stroke:none"
       xml:space="preserve"><tspan
         id="tspan3533"
         y="2895.5386"
         x="1241.7258"
         style="font-size:45px;line-height:1.25"
         sodipodi:role="line">Da lowr, da lowr!</tspan><tspan
         id="tspan139"
         y="2951.7886"
         x="1248.7571"
         style="font-size:45px;line-height:1.25"
         sodipodi:role="line">My a yll dos genes ha kewsel orta </tspan><tspan
         id="tspan141"
         y="3008.0386"
         x="1241.7258"
         style="font-size:45px;line-height:1.25"
         sodipodi:role="line">yn y gever, dell dhesevav.</tspan></text>
  </g>
</svg>
