<?xml version="1.0" encoding="UTF-8" standalone="no"?>
<!-- Created with Inkscape (http://www.inkscape.org/) -->

<svg
   xmlns:dc="http://purl.org/dc/elements/1.1/"
   xmlns:cc="http://creativecommons.org/ns#"
   xmlns:rdf="http://www.w3.org/1999/02/22-rdf-syntax-ns#"
   xmlns:svg="http://www.w3.org/2000/svg"
   xmlns="http://www.w3.org/2000/svg"
   xmlns:xlink="http://www.w3.org/1999/xlink"
   xmlns:sodipodi="http://sodipodi.sourceforge.net/DTD/sodipodi-0.dtd"
   xmlns:inkscape="http://www.inkscape.org/namespaces/inkscape"
   id="svg2"
   version="1.1"
   inkscape:version="0.92.4 (5da689c313, 2019-01-14)"
   width="2481"
   height="663"
   sodipodi:docname="E29P00.svg">
  <metadata
     id="metadata8">
    <rdf:RDF>
      <cc:Work
         rdf:about="">
        <dc:format>image/svg+xml</dc:format>
        <dc:type
           rdf:resource="http://purl.org/dc/dcmitype/StillImage" />
        <dc:title />
      </cc:Work>
    </rdf:RDF>
  </metadata>
  <defs
     id="defs6">
    <radialGradient
       inkscape:collect="always"
       xlink:href="#linearGradient892"
       id="radialGradient894"
       cx="1246.2874"
       cy="650.02411"
       fx="1246.2874"
       fy="650.02411"
       r="782.1037"
       gradientTransform="matrix(0.8814182,0.01094602,-0.00638076,0.51380521,148.06196,-256.70883)"
       gradientUnits="userSpaceOnUse" />
    <linearGradient
       inkscape:collect="always"
       id="linearGradient892">
      <stop
         style="stop-color:#f56bbd;stop-opacity:1"
         offset="0"
         id="stop888" />
      <stop
         style="stop-color:#00000b;stop-opacity:1"
         offset="1"
         id="stop890" />
    </linearGradient>
    <filter
       style="color-interpolation-filters:sRGB"
       inkscape:label="Drop Shadow"
       id="filter1194">
      <feFlood
         flood-opacity="1"
         flood-color="rgb(56,56,56)"
         result="flood"
         id="feFlood1184" />
      <feComposite
         in="flood"
         in2="SourceGraphic"
         operator="in"
         result="composite1"
         id="feComposite1186" />
      <feGaussianBlur
         in="composite1"
         stdDeviation="2.5"
         result="blur"
         id="feGaussianBlur1188" />
      <feOffset
         dx="6"
         dy="3.6"
         result="offset"
         id="feOffset1190" />
      <feComposite
         in="SourceGraphic"
         in2="offset"
         operator="over"
         result="composite2"
         id="feComposite1192" />
    </filter>
    <filter
       style="color-interpolation-filters:sRGB"
       id="filter3836-1-7"
       inkscape:label="Drop Shadow">
      <feFlood
         id="feFlood3838-1-8"
         flood-opacity="0.94664031620553357"
         flood-color="rgb(0,0,0)"
         result="flood" />
      <feComposite
         id="feComposite3840-2-5"
         in2="SourceGraphic"
         in="flood"
         operator="in"
         result="composite1" />
      <feGaussianBlur
         id="feGaussianBlur3842-6-1"
         stdDeviation="5"
         result="blur" />
      <feOffset
         id="feOffset3844-4-8"
         dx="2.0242914979757103"
         dy="4.4534412955465683"
         result="offset" />
      <feComposite
         id="feComposite3846-2-7"
         in2="offset"
         in="SourceGraphic"
         operator="over"
         result="composite2" />
    </filter>
    <radialGradient
       inkscape:collect="always"
       xlink:href="#linearGradient892"
       id="radialGradient895"
       cx="1050.6016"
       cy="214.57191"
       fx="1050.6016"
       fy="214.57191"
       r="749.02344"
       gradientTransform="matrix(1,0,0,0.22722458,0,165.8159)"
       gradientUnits="userSpaceOnUse" />
    <radialGradient
       inkscape:collect="always"
       xlink:href="#linearGradient892"
       id="radialGradient901"
       gradientUnits="userSpaceOnUse"
       gradientTransform="matrix(1,0,0,0.22722458,0,165.8159)"
       cx="1050.6016"
       cy="214.57191"
       fx="1050.6016"
       fy="214.57191"
       r="749.02344" />
    <filter
       style="color-interpolation-filters:sRGB;"
       inkscape:label="Drop Shadow"
       id="filter1045">
      <feFlood
         flood-opacity="0.498039"
         flood-color="rgb(0,0,0)"
         result="flood"
         id="feFlood1035" />
      <feComposite
         in="flood"
         in2="SourceGraphic"
         operator="in"
         result="composite1"
         id="feComposite1037" />
      <feGaussianBlur
         in="composite1"
         stdDeviation="2.1"
         result="blur"
         id="feGaussianBlur1039" />
      <feOffset
         dx="6"
         dy="6"
         result="offset"
         id="feOffset1041" />
      <feComposite
         in="SourceGraphic"
         in2="offset"
         operator="over"
         result="composite2"
         id="feComposite1043" />
    </filter>
    <filter
       style="color-interpolation-filters:sRGB;"
       inkscape:label="Drop Shadow"
       id="filter3605">
      <feFlood
         flood-opacity="0.462745"
         flood-color="rgb(0,0,0)"
         result="flood"
         id="feFlood3595" />
      <feComposite
         in="flood"
         in2="SourceGraphic"
         operator="in"
         result="composite1"
         id="feComposite3597" />
      <feGaussianBlur
         in="composite1"
         stdDeviation="2.1"
         result="blur"
         id="feGaussianBlur3599" />
      <feOffset
         dx="2"
         dy="2"
         result="offset"
         id="feOffset3601" />
      <feComposite
         in="SourceGraphic"
         in2="offset"
         operator="over"
         result="composite2"
         id="feComposite3603" />
    </filter>
    <filter
       style="color-interpolation-filters:sRGB;"
       inkscape:label="Drop Shadow"
       id="filter8621">
      <feFlood
         flood-opacity="0.462745"
         flood-color="rgb(0,0,0)"
         result="flood"
         id="feFlood8611" />
      <feComposite
         in="flood"
         in2="SourceGraphic"
         operator="in"
         result="composite1"
         id="feComposite8613" />
      <feGaussianBlur
         in="composite1"
         stdDeviation="1"
         result="blur"
         id="feGaussianBlur8615" />
      <feOffset
         dx="2"
         dy="2"
         result="offset"
         id="feOffset8617" />
      <feComposite
         in="SourceGraphic"
         in2="offset"
         operator="over"
         result="composite2"
         id="feComposite8619" />
    </filter>
    <radialGradient
       inkscape:collect="always"
       xlink:href="#linearGradient892"
       id="radialGradient894-2"
       cx="1246.2874"
       cy="650.02411"
       fx="1246.2874"
       fy="650.02411"
       r="782.1037"
       gradientTransform="matrix(0.8814182,0.01094602,-0.00638076,0.51380521,148.71753,-226.81613)"
       gradientUnits="userSpaceOnUse" />
    <filter
       style="color-interpolation-filters:sRGB"
       inkscape:label="Drop Shadow"
       id="filter1194-3">
      <feFlood
         flood-opacity="1"
         flood-color="rgb(56,56,56)"
         result="flood"
         id="feFlood1184-2" />
      <feComposite
         in="flood"
         in2="SourceGraphic"
         operator="in"
         result="composite1"
         id="feComposite1186-9" />
      <feGaussianBlur
         in="composite1"
         stdDeviation="2.5"
         result="blur"
         id="feGaussianBlur1188-7" />
      <feOffset
         dx="6"
         dy="3.6"
         result="offset"
         id="feOffset1190-4" />
      <feComposite
         in="SourceGraphic"
         in2="offset"
         operator="over"
         result="composite2"
         id="feComposite1192-8" />
    </filter>
    <radialGradient
       inkscape:collect="always"
       xlink:href="#linearGradient892"
       id="radialGradient934"
       cx="1050.6016"
       cy="214.57191"
       fx="1050.6016"
       fy="214.57191"
       r="749.02344"
       gradientTransform="matrix(1,0,0,0.22722458,0,165.8159)"
       gradientUnits="userSpaceOnUse" />
    <filter
       style="color-interpolation-filters:sRGB;"
       inkscape:label="Drop Shadow"
       id="filter946">
      <feFlood
         flood-opacity="0.498039"
         flood-color="rgb(0,0,0)"
         result="flood"
         id="feFlood936" />
      <feComposite
         in="flood"
         in2="SourceGraphic"
         operator="in"
         result="composite1"
         id="feComposite938" />
      <feGaussianBlur
         in="composite1"
         stdDeviation="3"
         result="blur"
         id="feGaussianBlur940" />
      <feOffset
         dx="6"
         dy="6"
         result="offset"
         id="feOffset942" />
      <feComposite
         in="SourceGraphic"
         in2="offset"
         operator="over"
         result="composite2"
         id="feComposite944" />
    </filter>
    <radialGradient
       inkscape:collect="always"
       xlink:href="#linearGradient892"
       id="radialGradient948"
       gradientUnits="userSpaceOnUse"
       gradientTransform="matrix(1,0,0,0.22722458,0,165.8159)"
       cx="1050.6016"
       cy="214.57191"
       fx="1050.6016"
       fy="214.57191"
       r="749.02344" />
    <radialGradient
       inkscape:collect="always"
       xlink:href="#linearGradient892"
       id="radialGradient950"
       gradientUnits="userSpaceOnUse"
       gradientTransform="matrix(1,0,0,0.22722458,0,165.8159)"
       cx="1050.6016"
       cy="214.57191"
       fx="1050.6016"
       fy="214.57191"
       r="749.02344" />
    <radialGradient
       inkscape:collect="always"
       xlink:href="#linearGradient892"
       id="radialGradient952"
       gradientUnits="userSpaceOnUse"
       gradientTransform="matrix(1,0,0,0.22722458,0,165.8159)"
       cx="1050.6016"
       cy="214.57191"
       fx="1050.6016"
       fy="214.57191"
       r="749.02344" />
  </defs>
  <sodipodi:namedview
     pagecolor="#ffffff"
     bordercolor="#666666"
     borderopacity="1"
     objecttolerance="10"
     gridtolerance="10"
     guidetolerance="10"
     inkscape:pageopacity="0"
     inkscape:pageshadow="2"
     inkscape:window-width="1600"
     inkscape:window-height="847"
     id="namedview4"
     showgrid="false"
     inkscape:zoom="0.51643698"
     inkscape:cx="1128.782"
     inkscape:cy="261.3713"
     inkscape:window-x="1358"
     inkscape:window-y="-8"
     inkscape:window-maximized="1"
     inkscape:current-layer="layer1" />
  <g
     inkscape:groupmode="layer"
     id="layer2"
     inkscape:label="artwork"
     sodipodi:insensitive="true">
    <image
       sodipodi:absref="E:\Aslan's Works &amp; Design Projects\2. Personal Projects\1. Translation Projects\1. Pepper &amp; Carrot Translation Project\Episode 29\lang\fa\../gfx_Pepper-and-Carrot_by-David-Revoy_E29P00.png"
       xlink:href="../gfx_Pepper-and-Carrot_by-David-Revoy_E29P00.png"
       y="0"
       x="0"
       id="image10"
       height="663"
       width="2481" />
  </g>
  <g
     inkscape:groupmode="layer"
     id="layer1"
     inkscape:label="txt"
     style="display:inline">
    <text
       xml:space="preserve"
       style="font-style:normal;font-variant:normal;font-weight:normal;font-stretch:normal;font-size:72.5px;line-height:1.25;font-family:Lavi;-inkscape-font-specification:'Lavi, Normal';font-variant-ligatures:normal;font-variant-caps:normal;font-variant-numeric:normal;font-feature-settings:normal;text-align:center;letter-spacing:0px;word-spacing:0px;writing-mode:lr-tb;text-anchor:middle;display:inline;fill:#2b1100;fill-opacity:1;stroke:none"
       x="1239.615"
       y="609.96655"
       id="episode-title"><tspan
         sodipodi:role="line"
         id="tspan4180"
         x="1239.615"
         y="609.96655"
         style="font-style:normal;font-variant:normal;font-weight:bold;font-stretch:normal;font-family:'XP Ziba';-inkscape-font-specification:'XP Ziba Bold'">قسمت بیست و نهم: نابودگر جهان<tspan
   style="letter-spacing:-9px"
   id="tspan847"> </tspan>ها</tspan></text>
    <flowRoot
       xml:space="preserve"
       id="flowRoot3371"
       style="font-style:normal;font-weight:normal;line-height:0.01%;font-family:sans-serif;letter-spacing:0px;word-spacing:0px;display:inline;fill:url(#radialGradient934);fill-opacity:1;stroke:#ffffff;stroke-width:5.5;stroke-linecap:butt;stroke-linejoin:miter;stroke-miterlimit:4;stroke-dasharray:none;stroke-opacity:1;paint-order:stroke fill markers;filter:url(#filter946)"
       transform="translate(165.89838,150.35832)"><flowRegion
         id="flowRegion3373"
         style="fill:url(#radialGradient950);fill-opacity:1;stroke:#ffffff;stroke-width:5.5;stroke-miterlimit:4;stroke-dasharray:none;stroke-opacity:1;paint-order:stroke fill markers"><rect
           id="rect3375"
           width="1548.4232"
           height="424.68536"
           x="267.07019"
           y="-5.405139"
           style="font-size:375px;fill:url(#radialGradient948);fill-opacity:1;stroke:#ffffff;stroke-width:5.5;stroke-miterlimit:4;stroke-dasharray:none;stroke-opacity:1;paint-order:stroke fill markers" /></flowRegion><flowPara
         id="flowPara3377"
         style="font-style:normal;font-variant:normal;font-weight:bold;font-stretch:normal;font-size:325px;line-height:1.25;font-family:'XP Ziba';-inkscape-font-specification:'XP Ziba Bold';direction:rtl;fill:url(#radialGradient952);fill-opacity:1;stroke:#ffffff;stroke-width:5.5;stroke-miterlimit:4;stroke-dasharray:none;stroke-opacity:1;paint-order:stroke fill markers">فلفل و هویج</flowPara></flowRoot>  </g>
</svg>
