<?xml version="1.0" encoding="UTF-8" standalone="no"?>
<!-- Created With Inkscape (http://www.inkscape.org/) -->

<svg
   xmlns:dc="http://purl.org/dc/elements/1.1/"
   xmlns:cc="http://creativecommons.org/ns#"
   xmlns:rdf="http://www.w3.org/1999/02/22-rdf-syntax-ns#"
   xmlns:svg="http://www.w3.org/2000/svg"
   xmlns="http://www.w3.org/2000/svg"
   xmlns:xlink="http://www.w3.org/1999/xlink"
   xmlns:sodipodi="http://sodipodi.sourceforge.net/DTD/sodipodi-0.dtd"
   xmlns:inkscape="http://www.inkscape.org/namespaces/inkscape"
   id="svg2"
   version="1.1"
   inkscape:version="0.92.4 (5da689c313, 2019-01-14)"
   width="2481"
   height="663"
   sodipodi:docname="E01P00.svg">
  <metadata
     id="metadata8">
    <rdf:RDF>
      <cc:Work
         rdf:about="">
        <dc:format>image/svg+xml</dc:format>
        <dc:type
           rdf:resource="http://purl.org/dc/dcmitype/StillImage" />
        <dc:title />
      </cc:Work>
    </rdf:RDF>
  </metadata>
  <defs
     id="defs6" />
  <sodipodi:namedview
     pagecolor="#ffffff"
     bordercolor="#666666"
     borderopacity="1"
     objecttolerance="10"
     gridtolerance="10"
     guidetolerance="10"
     inkscape:pageopacity="0"
     inkscape:pageshadow="2"
     inkscape:window-width="1920"
     inkscape:window-height="1018"
     id="namedview4"
     showgrid="false"
     inkscape:zoom="0.62833511"
     inkscape:cx="1357.6412"
     inkscape:cy="383.66279"
     inkscape:window-x="-8"
     inkscape:window-y="-8"
     inkscape:window-maximized="1"
     inkscape:current-layer="layer3"
     inkscape:snap-global="false"
     showguides="false">
    <inkscape:grid
       type="xygrid"
       id="grid4282"
       originx="0"
       originy="0"
       spacingx="1"
       spacingy="1" />
  </sodipodi:namedview>
  <flowRoot
     xml:space="preserve"
     id="flowRoot2987"
     style="font-style:normal;font-variant:normal;font-weight:normal;font-stretch:normal;line-height:0.01%;font-family:Lavi;-inkscape-font-specification:Lavi;letter-spacing:0px;word-spacing:0px;fill:#000000;fill-opacity:1;stroke:none;stroke-width:1px;stroke-linecap:butt;stroke-linejoin:miter;stroke-opacity:1"
     transform="matrix(0.71,0,0,0.71,352.45273,304.81662)"><flowRegion
       id="flowRegion2989"><rect
         id="rect2991"
         width="1016.5607"
         height="77.684769"
         x="838.99548"
         y="443.73529"
         style="font-style:normal;font-variant:normal;font-weight:normal;font-stretch:normal;font-family:Lavi;-inkscape-font-specification:Lavi" /></flowRegion><flowPara
       id="flowPara2993"
       style="font-size:12px;line-height:1.25"> </flowPara></flowRoot>  <g
     inkscape:groupmode="layer"
     id="layer1"
     inkscape:label="artwork"
     style="display:inline"
     sodipodi:insensitive="true">
    <image
       sodipodi:absref="/felles/omsetting/pepper-carrot/webcomics/ep01_Potion-of-Flight/lang/nn/../gfx_Pepper-and-Carrot_by-David-Revoy_E01P00.png"
       xlink:href="../gfx_Pepper-and-Carrot_by-David-Revoy_E01P00.png"
       y="0"
       x="0"
       id="image3084"
       height="663"
       width="2481" />
  </g>
  <g
     inkscape:groupmode="layer"
     id="layer2"
     inkscape:label="speechbubble"
     style="display:inline;opacity:0.70232556" />
  <g
     inkscape:groupmode="layer"
     id="layer3"
     inkscape:label="txt"
     style="display:inline">
    <text
       xml:space="preserve"
       style="font-style:normal;font-variant:normal;font-weight:normal;font-stretch:normal;font-size:72px;line-height:0.01%;font-family:Lavi;-inkscape-font-specification:'Lavi, Normal';font-variant-ligatures:normal;font-variant-caps:normal;font-variant-numeric:normal;font-feature-settings:normal;text-align:start;letter-spacing:0px;word-spacing:0px;writing-mode:lr-tb;text-anchor:start;display:inline;fill:#2a5953;fill-opacity:1;stroke:none;stroke-width:1"
       x="782.64258"
       y="583.90155"
       id="text831"><tspan
         sodipodi:role="line"
         x="0"
         y="0"
         id="tspan829"
         style="font-style:normal;font-variant:normal;font-weight:normal;font-stretch:normal;font-size:72px;font-family:Lavi;-inkscape-font-specification:'Lavi, Normal';font-variant-ligatures:normal;font-variant-caps:normal;font-variant-numeric:normal;font-feature-settings:normal;text-align:start;writing-mode:lr-tb;text-anchor:start;stroke-width:1"><tspan
           x="782.64258"
           y="583.90155"
           style="font-style:normal;font-variant:normal;font-weight:normal;font-stretch:normal;font-size:72px;line-height:1.25;font-family:Lavi;-inkscape-font-specification:'Lavi, Normal';font-variant-ligatures:normal;font-variant-caps:normal;font-variant-numeric:normal;font-feature-settings:normal;text-align:start;writing-mode:lr-tb;text-anchor:start;fill:#2a5953;fill-opacity:1;stroke-width:1"
           id="tspan827" /></tspan></text>
    <path
       style="fill:#2a5953;fill-opacity:1;stroke-width:1.06920063"
       d="m 744.66126,498.70917 c -5.4052,-5.40521 -5.77887,-6.11182 -5.77887,-10.92818 0,-6.45699 2.06993,-9.49219 7.46403,-10.94466 2.39232,-0.6442 4.77092,-2.14289 5.5331,-3.48626 0.95896,-1.69026 1.44211,-10.7937 1.70917,-32.20415 l 0.3723,-29.84784 -6.21017,-1.35802 c -8.55763,-1.87135 -15.24829,-4.93046 -15.24829,-6.97182 0,-0.92848 -0.71775,-1.96356 -1.59497,-2.30017 -0.87724,-0.33665 -1.59496,-1.30027 -1.59496,-2.14144 0,-1.19983 0.85924,-1.358 3.98741,-0.73402 5.80061,1.15706 8.03363,0.8738 14.6145,-1.85382 l 5.90367,-2.44694 -0.38541,-39.40242 c -0.21198,-21.67134 -0.75417,-40.94571 -1.20487,-42.83194 -0.97058,-4.06201 -3.76058,-4.89342 -16.79842,-5.00591 -10.24984,-0.0884 -10.71547,-1.54603 -2.66113,-8.33044 6.33624,-5.33721 8.13193,-6.36548 21.79034,-12.47812 6.84987,-3.06556 10.55536,-4.17784 12.22807,-3.67051 3.42623,1.03919 7.13656,4.70984 8.81843,8.72415 l 1.44787,3.45575 h 12.22743 c 18.72282,0 31.85783,4.60901 48.17489,16.90429 13.05153,9.83463 17.32787,17.58806 17.32787,31.41708 0,9.13392 -2.0371,16.5943 -7.27479,26.64207 -5.01372,9.6181 -20.07981,25.00397 -30.53844,31.18662 -7.61775,4.50326 -31.66337,14.00411 -35.44285,14.00411 -5.50668,0 -5.42891,-0.34536 -5.42891,24.10817 0,13.61609 0.4415,23.64227 1.09482,24.86304 1.27366,2.37983 6.39436,5.25766 9.35529,5.25766 1.12708,0 2.62337,0.6918 3.32509,1.53734 0.91521,1.10274 1.9749,1.27156 3.74854,0.59723 1.45293,-0.5524 5.40192,-0.52528 9.57543,0.0657 5.86852,0.83108 7.74245,0.70231 10.78412,-0.74105 2.68023,-1.27187 5.28725,-1.5812 9.5863,-1.1375 3.2477,0.33519 7.12049,0.14728 8.60618,-0.41758 3.31143,-1.25901 3.98415,-0.72577 2.5247,2.00123 -1.17491,2.19535 -6.49825,3.87868 -6.49825,2.05486 0,-0.58375 -2.37194,1.15732 -5.271,3.86905 -2.89905,2.71171 -5.97504,4.93039 -6.83556,4.93039 -0.86052,0 -2.29972,0.73514 -3.19822,1.63365 -2.09312,2.09312 -7.60887,4.39153 -13.94818,5.8122 -2.74484,0.61513 -6.50981,2.27717 -8.36658,3.69339 -3.96604,3.02505 -12.0717,6.07919 -22.45751,8.46181 -4.09375,0.93915 -7.60267,2.1765 -7.7976,2.74966 -0.19494,0.57318 -2.49898,1.04214 -5.12007,1.04214 -4.35187,0 -5.26742,-0.50177 -10.5445,-5.77886 z m 46.13959,-111.70045 c 17.45039,-8.36287 34.63103,-23.89078 41.24864,-37.28063 3.43779,-6.95587 3.80996,-8.50008 3.35908,-13.93718 -0.46956,-5.66226 -0.87149,-6.4445 -5.43313,-10.57444 -6.09818,-5.52102 -12.58352,-7.35726 -25.69944,-7.27642 -10.30932,0.0636 -22.06214,2.60575 -25.20789,5.45262 -1.7515,1.58507 -1.90653,4.28876 -1.90653,33.24725 0,32.3998 0.20783,34.07382 4.23008,34.07382 0.92296,0 5.15709,-1.66725 9.40919,-3.70502 z m 365.43105,83.04946 c -15.217,-4.97184 -22.0016,-9.95862 -27.3389,-20.0944 -1.8197,-3.45597 -2.3721,-6.32544 -2.399,-12.46435 -0.049,-11.25246 4.0358,-19.65448 15.0674,-30.99055 l 8.1859,-8.41174 -3.4163,-6.92766 c -2.648,-5.37008 -3.1741,-7.37976 -2.34,-8.93836 1.6299,-3.04539 1.3051,-4.27712 -1.1278,-4.27712 h -2.2038 l 2.2038,-2.80168 c 2.8605,-3.63647 2.8374,-6.80153 -0.055,-7.55796 -2.0475,-0.53543 -2.2041,-1.1238 -1.6715,-6.28347 1.6694,-16.1735 16.3035,-31.90756 31.5766,-33.94993 5.6079,-0.74989 13.8584,1.95937 21.617,7.09845 7.02,4.64978 12.7847,14.398 12.781,21.6127 -0.01,9.93054 -3.0691,17.20033 -11.5635,27.4341 -3.202,3.85742 -5.8216,7.73761 -5.8216,8.62261 0,0.88503 -1.9844,3.3078 -4.4099,5.38398 l -4.4101,3.77486 7.3341,8.14225 c 4.0338,4.47824 8.6848,9.75495 10.3356,11.72603 1.651,1.97106 3.3984,3.58375 3.8835,3.58375 0.9433,0 3.2165,-5.74822 3.2165,-8.13349 0,-0.97883 -1.4394,-1.4405 -4.5191,-1.44947 -4.0065,-0.0117 -4.7978,-0.44341 -6.9773,-3.80696 -3.5231,-5.43744 -2.4748,-9.28727 3.1408,-11.53417 10.906,-4.36372 24.8732,-7.12415 38.1283,-7.53551 7.3104,-0.22686 16.1624,-0.72482 19.6713,-1.10657 l 6.3798,-0.69409 -7.4431,7.85732 c -4.0938,4.32153 -8.3612,8.3218 -9.483,8.88947 -1.1216,0.56769 -2.5571,1.98913 -3.1899,3.15878 -0.6326,1.16964 -1.2693,2.32536 -1.4147,2.56826 -0.1454,0.24291 -3.4947,0.97076 -7.443,1.61744 l -7.1788,1.17581 -0.7154,7.21331 c -0.3933,3.96731 -1.6576,9.11813 -2.8094,11.44627 l -2.0944,4.23295 6.5313,4.37092 c 10.7285,7.17999 10.4805,6.83174 8.0679,11.33309 -1.1378,2.12269 -2.0685,4.44814 -2.0685,5.16767 0,0.71952 -1.4194,2.7602 -3.1541,4.53482 -3.6618,3.74593 -7.4286,4.15134 -11.5681,1.245 -1.5523,-1.08989 -5.0335,-2.94962 -7.7359,-4.13276 -2.7024,-1.18313 -5.2576,-2.70782 -5.6781,-3.3882 -0.5366,-0.86812 -1.7666,-0.47414 -4.1246,1.32107 -5.0257,3.82612 -10.911,6.57571 -20.3731,9.51802 -13.0238,4.04988 -15.0498,4.1754 -23.3928,1.44951 z m 25.6261,-27.24178 c 2.2807,-1.37299 4.3222,-2.62874 4.5368,-2.7906 0.2147,-0.16185 -5.0326,-5.56748 -11.6607,-12.01252 l -12.0512,-11.71829 -2.4944,2.34342 c -1.3718,1.28887 -3.4606,3.90667 -4.6415,5.81732 -1.1807,1.91064 -2.7515,3.47389 -3.4903,3.47389 -2.1666,0 -5.1858,4.00514 -4.4549,5.90956 0.3663,0.95455 1.5612,1.96965 2.6554,2.25578 1.0943,0.28616 2.6107,1.68082 3.3698,3.09926 0.7591,1.41844 2.852,3.52284 4.6508,4.67643 4.7435,3.04205 17.7414,2.46092 23.5802,-1.05425 z m -7.6399,-64.42378 c 13.1882,-11.25285 15.3916,-17.25223 8.8624,-24.1307 -4.087,-4.30549 -9.9648,-5.83991 -14.3234,-3.73912 -4.282,2.0639 -8.949,9.39035 -9.5869,15.05 -0.8284,7.34863 2.9236,19.82439 5.9621,19.82439 0.482,0 4.5707,-3.15207 9.0858,-7.00457 z m 195.2076,62.69244 c -9.4959,-1.87955 -19.5732,-5.3926 -25.5842,-8.91887 -17.0567,-10.00619 -28.7457,-21.729 -36.0314,-36.1359 -4.695,-9.28385 -6.4325,-14.93925 -9.9885,-32.51352 -2.4534,-12.12391 -2.5197,-13.37294 -1.1843,-22.32953 3.411,-22.87796 11.3886,-51.78658 18.4796,-66.96539 8.848,-18.93967 27.7984,-46.22279 42.0806,-60.58414 11.2485,-11.31069 19.196,-17.24682 31.0806,-23.21472 l 9.8145,-4.92829 11.4518,0.006 c 10.817,0.005 12.058,0.24136 22.3868,4.25325 14.7079,5.71265 14.7377,5.7086 15.6464,-2.12002 0.4469,-3.85086 1.5881,-7.44696 2.8876,-9.09902 2.004,-2.54754 2.5526,-2.68237 8.1378,-1.99991 6.9804,0.85294 17.2683,5.64457 22.2045,10.34173 2.9333,2.79149 3.4488,4.02028 3.4093,8.13062 -0.086,9.01794 -1.6049,13.8355 -5.6758,18.00454 -4.4429,4.5499 -5.0197,7.56058 -1.4551,7.59581 1.3158,0.013 3.5393,0.90543 4.941,1.98316 l 2.5486,1.95952 -1.7548,19.03188 c -3.1127,33.76012 -13.8612,80.14292 -18.5716,80.14292 -1.2826,0 -2.3155,-5.29195 -2.3155,-11.86348 0,-2.86979 -0.6714,-6.82486 -1.4921,-8.78903 -0.8382,-2.00596 -1.8333,-9.79742 -2.2705,-17.77633 -0.7096,-12.94672 -1.1964,-15.42746 -5.4971,-28.00445 -9.0952,-26.59819 -19.0771,-42.03838 -27.1617,-42.01405 -8.5293,0.0258 -22.9999,9.54114 -37.6564,24.76199 -8.4347,8.75933 -11.2846,11.10329 -12.9656,10.66369 -1.42,-0.37137 -3.0814,0.36327 -4.8729,2.15481 -2.9178,2.91775 -3.3396,4.98378 -1.6587,8.12436 1.4289,2.66992 0.3267,5.12773 -2.4786,5.52735 -1.7393,0.24776 -2.335,1.10833 -2.4352,3.51792 -0.073,1.75447 -4.0873,11.56351 -8.9208,21.79789 -11.0481,23.39248 -19.7103,49.09067 -20.7883,61.67205 -0.6128,7.15109 -1.3109,9.74351 -3.344,12.41662 -2.4233,3.18597 -2.4772,3.55744 -0.9457,6.51904 0.8933,1.72729 3.0013,4.29934 4.6844,5.71564 1.6831,1.4163 4.4074,4.94235 6.0537,7.83567 4.1682,7.3255 11.7933,15.04206 18.0114,18.22744 4.9899,2.5563 5.9155,2.66572 18.6079,2.19996 12.2317,-0.44883 14.3868,-0.85322 25.5849,-4.8008 6.7254,-2.37089 14.0071,-5.07504 16.1812,-6.00923 2.1744,-0.93419 5.2618,-1.69853 6.8609,-1.69853 1.7158,0 4.2363,-1.23021 6.1484,-3.00091 1.7822,-1.65051 6.6538,-4.30265 10.8258,-5.89366 4.1719,-1.59101 8.4772,-3.87825 9.5672,-5.08278 1.0902,-1.20451 3.2567,-2.84921 4.8147,-3.65485 3.3189,-1.71624 3.0893,-4.22861 -0.7664,-8.38903 -2.3449,-2.53013 -3.1166,-2.68817 -13.1269,-2.68817 -8.9157,0 -11.8039,-0.44937 -17.8613,-2.77898 -17.8069,-6.84847 -21.173,-7.79974 -27.6944,-7.82667 -3.6551,-0.015 -6.6291,-0.38633 -6.6087,-0.82495 0.02,-0.4386 4.5791,-3.83819 10.1311,-7.55463 5.8935,-3.94506 12.5945,-9.58711 16.1017,-13.55722 3.3039,-3.74003 6.5877,-6.80006 7.297,-6.80006 0.7093,0 5.7591,2.93473 11.2217,6.52166 l 9.9318,6.52162 9.0584,-0.69535 c 4.982,-0.38247 12.1048,-1.35564 15.8285,-2.16264 6.3912,-1.38504 7.1772,-1.32894 14.0286,1.00145 3.9923,1.35777 8.2367,2.21285 9.4323,1.9002 3.1933,-0.83507 3.7448,1.92666 1.6464,8.2442 -1.4783,4.45119 -2.4793,5.7387 -5.415,6.96533 -4.0906,1.70921 -4.3127,2.90978 -1.8304,9.89883 l 1.7708,4.98642 -5.9488,10.59925 c -8.1941,14.59962 -21.2493,27.03067 -28.3879,27.03067 -1.601,0 -2.9688,1.58596 -5.0801,5.89084 -2.6845,5.4738 -3.7402,6.41431 -14.9103,13.28414 -8.311,5.11138 -15.5384,8.57438 -23.4162,11.21999 -10.4323,3.50331 -12.6081,3.85736 -25.7498,4.18978 -7.8952,0.1997 -15.5509,0.12631 -17.0129,-0.16309 z M 486.49204,422.19669 c -8.03668,-3.01735 -14.09572,-11.26826 -15.21502,-20.7191 -0.50707,-4.28144 -0.21507,-5.48435 1.93937,-7.98902 2.06457,-2.40021 3.77559,-3.09477 9.19922,-3.73427 9.40093,-1.10845 10.22994,-2.23331 10.67863,-14.48935 0.35701,-9.75195 0.43978,-10.04182 2.70481,-9.47334 1.5654,0.39289 3.00824,-0.15582 4.37189,-1.66266 2.42388,-2.67834 1.46756,-4.859 -3.28602,-7.49297 l -3.09565,-1.71532 -0.28088,-32.39899 -0.28091,-32.39898 3.6056,0.42093 c 2.85405,0.3332 3.97219,-0.0987 5.36438,-2.07254 1.64721,-2.33531 1.637,-2.59467 -0.16107,-4.08846 -1.05592,-0.87722 -3.5373,-3.85815 -5.51419,-6.62427 l -3.59433,-5.02932 0.89884,-17.3002 c 0.49439,-9.51513 0.92744,-21.68863 0.96237,-27.0522 0.0575,-8.82648 -0.17419,-10.00479 -2.44101,-12.41589 -1.37748,-1.46517 -5.20539,-3.73141 -8.50649,-5.03612 -3.30108,-1.30471 -7.03991,-3.30085 -8.30848,-4.43588 -3.64918,-3.26498 -6.81501,-11.85794 -7.01401,-19.038 -0.16618,-5.99528 0.0567,-6.65704 3.18082,-9.44853 7.2676,-6.49361 40.85636,-14.34313 66.60959,-15.56631 14.22234,-0.6755 32.36426,0.69972 45.86117,3.47644 9.89518,2.03574 27.21183,10.70892 34.69169,17.37562 9.72193,8.66501 21.96176,27.94712 28.11166,44.28591 12.14716,32.27205 -2.63393,64.34652 -41.65746,90.39523 -14.20488,9.48196 -47.44781,24.02319 -64.25565,28.10695 -12.34404,2.99921 -14.76544,4.09359 -15.49577,7.00344 -1.00438,4.00181 0.0131,28.91225 1.23055,30.12913 0.60893,0.60859 3.37749,1.53067 6.15236,2.04908 2.7749,0.5184 5.90303,1.71884 6.95146,2.66765 1.32064,1.19517 3.90263,1.72508 8.40541,1.72508 3.57457,0 6.73133,0.37558 7.01505,0.83464 0.64504,1.04372 32.77524,0.88591 34.4827,-0.16935 0.68802,-0.42522 2.92835,-0.31 4.97847,0.25608 2.1386,0.59049 3.97529,0.62833 4.30878,0.0887 0.50614,-0.819 6.68253,-0.25728 7.82763,0.71187 1.13779,0.96297 -2.67909,3.62182 -6.10658,4.25389 -2.1343,0.39359 -5.5124,1.58328 -7.50685,2.64377 -1.99446,1.06049 -3.99498,1.70032 -4.44558,1.42182 -0.45062,-0.27849 -2.0102,0.59733 -3.46575,1.94628 -1.51939,1.40813 -6.41867,3.48675 -11.50408,4.88081 -4.87168,1.33548 -10.42896,3.11054 -12.34947,3.94456 -1.92049,0.83402 -4.96227,1.51641 -6.7595,1.51641 -1.7972,0 -6.207,1.38212 -9.79954,3.07137 -13.60958,6.39943 -48.96923,10.71923 -58.48816,7.14535 z M 558.11957,306.7447 c 2.63169,-0.72518 7.81904,-2.69363 11.52743,-4.37433 6.08193,-2.75645 7.01954,-2.91433 9.56981,-1.61166 5.24303,2.67818 9.61391,-1.10197 8.12653,-7.0282 -0.92897,-3.70127 2.99673,-7.13297 6.00828,-5.25222 3.1331,1.95664 5.56062,-0.30049 4.73937,-4.40674 -0.53133,-2.65669 0.21411,-4.0029 5.33201,-9.62935 7.19763,-7.91285 14.76667,-20.43584 17.04511,-28.20121 2.34269,-7.98427 1.58027,-18.19992 -1.92435,-25.78464 -8.38995,-18.15754 -25.86847,-25.35782 -53.0355,-21.84796 -12.21525,1.57817 -15.89518,1.1599 -15.89518,-1.80666 0,-0.75784 -1.24762,-2.04558 -2.77249,-2.86167 -2.55587,-1.36787 -2.93656,-1.28117 -4.87243,1.10953 -1.32147,1.63195 -1.94137,3.67367 -1.6722,5.50765 0.34674,2.36248 -0.1164,3.13974 -2.44582,4.10462 -4.6016,1.90605 -8.61874,6.86542 -9.60851,11.86223 -1.15381,5.82495 -2.6072,87.70925 -1.62615,91.61805 0.40244,1.60344 1.71503,3.27909 2.91688,3.72366 2.04194,0.75537 16.95891,-1.91685 28.58721,-5.1211 z m 107.92604,113.00002 c -15.61525,-2.07107 -21.4175,-7.18093 -28.15561,-24.79584 -4.52238,-11.82249 -4.6847,-12.66419 -5.11438,-26.52297 -0.82691,-26.67093 4.47701,-44.75784 18.72094,-63.84036 9.38738,-12.57628 15.08996,-17.66854 25.24031,-22.53901 15.48651,-7.43095 20.67063,-6.84301 33.58437,3.80883 7.63797,6.30016 12.67032,14.50237 14.62252,23.83323 1.48927,7.11819 1.5269,31.34867 0.0569,36.64196 -1.44709,5.21083 -4.08805,6.80266 -13.76636,8.29778 -11.28993,1.74409 -53.24862,12.6925 -55.83564,14.56937 -2.58965,1.87881 -3.23892,7.05321 -1.49655,11.92715 2.69464,7.53781 3.34845,8.81682 6.06605,11.86685 6.38334,7.16423 15.25772,6.83717 31.34493,-1.15516 16.50586,-8.2003 21.85894,-11.20588 24.68231,-13.85832 1.56064,-1.46613 3.2592,-2.15768 4.30962,-1.75459 2.06233,0.79139 1.47517,4.73662 -1.8835,12.65578 -1.66131,3.91715 -2.57878,4.94217 -4.01543,4.4862 -2.31146,-0.73362 -7.70917,5.30136 -7.00898,7.83647 0.26429,0.95685 0.79136,2.82069 1.17127,4.14186 0.62471,2.17247 -0.25679,2.85941 -9.2196,7.18466 -13.10416,6.32378 -23.3282,8.53912 -33.30318,7.21611 z m 7.97483,-77.98953 c 18.86582,-4.21618 27.2829,-7.05062 29.24159,-9.84704 1.2016,-1.71552 1.58184,-5.29612 1.54334,-14.53365 -0.0617,-14.79405 -1.69285,-19.50636 -6.92965,-20.01879 -7.84449,-0.76759 -27.98259,17.9037 -36.86293,34.1779 -2.76803,5.07275 -5.35062,10.48944 -5.73906,12.03711 -0.64553,2.57199 -0.48708,2.75282 1.84287,2.10322 1.40203,-0.39091 9.00875,-2.15434 16.90384,-3.91875 z m 267.9543,75.87426 c -3.13988,-1.2017 -5.34316,-3.92606 -6.42535,-7.94496 -0.60489,-2.24642 -1.69398,-4.0844 -2.42023,-4.0844 -0.72624,0 -5.37309,1.7099 -10.3263,3.79976 -37.34694,15.75746 -63.45585,6.95642 -61.37582,-20.68914 1.00933,-13.41461 9.08302,-26.75729 20.97458,-34.66278 10.3872,-6.90541 27.8011,-14.92656 38.01162,-17.50882 4.80855,-1.2161 10.01312,-2.69405 11.5657,-3.28435 l 2.82284,-1.07324 -0.71755,-8.74726 c -0.84215,-10.26627 -3.11763,-19.08042 -5.4189,-20.99029 -0.89894,-0.74607 -2.93736,-1.32314 -4.52979,-1.28237 -1.59245,0.0408 -5.20125,0.12689 -8.01957,0.1914 -6.49786,0.14871 -17.92626,5.59319 -28.24866,13.45765 -4.13253,3.1485 -7.95876,5.72456 -8.50272,5.72456 -0.54395,0 -2.76481,2.47177 -4.93523,5.49286 -3.38629,4.71346 -4.09187,5.23263 -4.97259,3.65884 -1.17456,-2.09884 2.53179,-12.3543 7.82255,-21.64487 6.29814,-11.05954 23.27249,-22.56701 36.45203,-24.71204 14.15273,-2.30341 28.84042,4.79144 35.14057,16.97457 3.88017,7.50342 6.84116,32.02725 6.90394,57.1807 0.0218,8.72923 0.68813,10.21823 3.21185,7.17735 0.72804,-0.87723 2.04399,-1.59496 2.92436,-1.59496 2.40987,0 0.91377,7.70646 -2.94458,15.16772 -2.86289,5.53623 -4.16913,11.41505 -2.53638,11.41505 0.34834,0 1.90343,-0.89446 3.45577,-1.98765 1.55231,-1.09322 5.69336,-3.27884 9.20228,-4.85697 3.50892,-1.57812 7.64991,-3.55462 9.2022,-4.39222 1.55228,-0.83759 3.10736,-1.5229 3.45578,-1.5229 1.62254,0 0.27842,3.57505 -3.46979,9.2288 -4.49536,6.78077 -5.67204,9.72317 -5.99301,14.98603 -0.2863,4.69443 -3.58071,7.90726 -12.62294,12.31039 -7.56018,3.68144 -14.65848,5.37248 -17.68666,4.21354 z M 904.53786,393.3081 c 13.69111,-2.77119 27.26345,-10.1096 30.58803,-16.53862 3.61183,-6.98449 0.35316,-16.89175 -5.55596,-16.89175 -1.7864,0 -2.86615,-0.70945 -3.23677,-2.12664 -0.66954,-2.56034 -2.15985,-2.70496 -4.65018,-0.45125 -1.0182,0.92145 -2.49134,1.7889 -3.27363,1.92766 -6.0131,1.06659 -13.64935,4.23673 -15.82634,6.57018 -1.43497,1.53812 -5.36192,4.73368 -8.72653,7.10126 -7.74016,5.44655 -12.8801,12.81922 -12.0123,17.23029 0.33946,1.72539 1.20808,3.5124 1.93031,3.97113 2.14156,1.36025 11.98424,0.98468 20.76337,-0.79226 z m 609.37154,23.05924 c -2.7011,-0.951 -7.0076,-3.46628 -9.5697,-5.5895 -3.7843,-3.13604 -5.0077,-5.07273 -6.5193,-10.32124 -2.2562,-7.83356 -2.3681,-13.91355 -0.3453,-18.75474 0.8334,-1.99486 2.0632,-7.3625 2.7327,-11.92811 0.6695,-4.56558 1.8729,-12.36822 2.6745,-17.33922 1.4097,-8.74426 1.9512,-14.88109 3.3561,-38.04602 0.3648,-6.01238 1.0621,-11.17827 1.55,-11.47976 0.4879,-0.30151 1.8769,-0.0183 3.087,0.62927 1.8535,0.99184 2.7856,0.66346 5.9137,-2.08308 3.2671,-2.86858 4.2514,-3.18528 8.189,-2.63459 2.4618,0.34427 5.074,0.81027 5.805,1.03557 2.2527,0.69426 1.5109,9.15509 -1.7776,20.27519 -1.7088,5.77805 -3.4335,14.57271 -3.8327,19.54369 -0.3992,4.97099 -1.8553,14.54079 -3.2359,21.26622 -2.9445,14.34396 -4.1858,25.35783 -3.2693,29.00922 1.8453,7.35278 22.9601,5.68042 40.2862,-3.19089 5.1134,-2.61811 10.4225,-6.09774 11.7981,-7.73252 2.5504,-3.03103 4.1318,-10.2856 5.6229,-25.79482 0.3794,-3.94754 1.1025,-7.17734 1.6066,-7.17734 1.3618,0 1.1105,-6.13441 -0.2867,-6.99785 -1.504,-0.92956 -0.5867,-29.95513 1.1265,-35.64425 l 1.1537,-3.83127 11.309,-0.73116 c 10.7309,-0.69375 11.4374,-0.61072 13.8162,1.62416 3.0528,2.8679 3.1964,6.13811 0.4245,9.66212 -1.702,2.1638 -2.1953,4.95951 -2.6978,15.29558 -0.3383,6.95631 -1.0379,15.51878 -1.5546,19.0277 -0.5168,3.50893 -1.2679,11.64325 -1.6689,18.07629 -0.4531,7.26571 -1.4918,13.71039 -2.7421,17.01298 -2.4391,6.44303 -2.5127,7.97483 -0.3834,7.97483 1.8686,0 11.3607,-4.62765 15.5468,-7.57954 1.5523,-1.09464 4.0645,-1.99026 5.5824,-1.99026 3.8344,0 3.6357,3.23395 -0.6044,9.84169 -1.8505,2.88365 -3.73,7.555 -4.1767,10.3808 -0.4466,2.82579 -1.6154,6.36404 -2.5977,7.86278 -3.5389,5.40134 -18.7982,12.2842 -27.2888,12.30906 -3.2175,0.01 -4.4269,-0.63557 -6.6457,-3.54464 -1.4918,-1.95587 -2.7124,-4.28972 -2.7124,-5.18635 0,-3.84947 -2.6685,-4.11157 -10.2139,-1.00321 -14.6928,6.05277 -23.992,8.47966 -34.4451,8.98955 -7.6177,0.37161 -11.3091,0.0676 -15.0129,-1.23634 z M 986.81668,413.1047 c -2.3893,-2.46196 -4.6607,-5.51653 -5.04758,-6.78793 -0.38688,-1.2714 -1.3003,-3.02938 -2.02979,-3.90661 -2.25805,-2.71528 -2.82706,-7.13954 -1.13575,-8.83084 1.20529,-1.2053 3.61358,-1.42334 11.04263,-0.99975 l 9.50122,0.54174 0.40545,-22.43348 c 0.28761,-15.90514 0.78754,-22.81545 1.71804,-23.74599 0.9298,-0.92983 1.3126,-6.18704 1.3126,-18.03121 0,-16.10292 -0.094,-16.83062 -2.5557,-19.75594 -1.77315,-2.10722 -2.39361,-3.8847 -2.02644,-5.80515 0.69903,-3.65704 -1.2408,-4.69009 -4.63318,-2.46732 -2.09014,1.3695 -3.27957,1.53526 -5.00392,0.69739 -1.24416,-0.60454 -4.05649,-1.64809 -6.24954,-2.31901 -4.69142,-1.43522 -4.97935,-2.96294 -1.25951,-6.68278 3.13799,-3.13797 18.92181,-9.17155 25.98149,-9.93168 9.8676,-1.06251 15.945,5.37329 15.9481,16.88866 8e-4,3.36274 0.3952,6.11405 0.8761,6.11405 0.481,0 3.6183,-3.10592 6.9718,-6.90201 7.5027,-8.49305 13.8321,-12.40383 20.231,-12.50056 6.6266,-0.10016 11.183,1.94247 10.4642,4.69118 -0.4845,1.85271 -0.1169,2.09667 2.7124,1.79991 4.6777,-0.49069 8.0199,3.10884 13.5976,14.6449 5.2457,10.84938 5.3385,11.35035 3.0989,16.71052 -0.8773,2.09951 -1.595,5.74663 -1.595,8.10468 0,3.16321 -0.4321,4.28739 -1.6478,4.28739 -2.3572,0 -8.001,3.01012 -11.1418,5.94249 -2.4721,2.30805 -3.0276,2.40857 -6.9115,1.25039 -2.3228,-0.69266 -4.4626,-1.51782 -4.7549,-1.83369 -0.2925,-0.31585 -1.4888,-1.09974 -2.6584,-1.74196 -3.146,-1.72742 -4.8819,-5.7025 -3.5648,-8.16346 0.9908,-1.85114 1.2328,-1.72188 2.8553,1.52451 1.8784,3.75854 4.0103,4.68807 8.2889,3.61422 2.8668,-0.71953 6.7754,-8.20646 6.7754,-12.97863 0,-3.71097 -1.9931,-7.03224 -3.8033,-6.33764 -0.9809,0.37648 -1.5134,-0.1284 -1.5134,-1.43532 0,-3.37859 -4.9966,-6.42548 -10.5106,-6.40916 -2.6991,0.009 -6.0072,0.30914 -7.3515,0.66921 -2.6387,0.70678 -6.2024,6.87689 -10.3308,17.88655 -3.0592,8.15815 -7.9656,37.2213 -8.0748,47.8297 -0.1001,9.74271 1.4116,12.63038 8.1797,15.62419 3.24,1.4332 4.6952,2.72064 4.6952,4.15379 0,2.4934 2.3928,2.72367 4.3089,0.4147 1.2512,-1.50732 1.4663,-1.50732 2.3097,0 1.1594,2.07151 4.4078,2.15574 6.0664,0.15732 1.4975,-1.80447 7.3483,-0.51604 9.2302,2.03262 0.6492,0.87937 2.2043,1.59885 3.4558,1.59885 2.6948,0 2.9853,2.34013 0.5421,4.36786 -2.2506,1.86775 -12.8406,5.16616 -16.6514,5.18628 -1.6316,0.009 -4.981,1.06043 -7.4433,2.33738 -3.4513,1.79001 -7.2772,2.49763 -16.7047,3.08975 -6.7255,0.42241 -16.5925,1.11634 -21.9269,1.5421 l -9.69884,0.77407 z m 713.69482,2.30585 c -3.5813,-2.90626 -8.9027,-10.97123 -8.9027,-13.49266 0,-3.32713 5.1715,-7.7285 10.1015,-8.59735 8.3955,-1.47953 7.9748,0.79494 7.9748,-43.1251 0,-24.02278 -0.4437,-41.19412 -1.1496,-44.48479 -1.2915,-6.02328 -4.1166,-8.89402 -10.6908,-10.86367 -4.1864,-1.2543 -5.1656,-2.97656 -2.7801,-4.89057 1.3266,-1.06454 19.7366,-4.51047 24.0973,-4.51047 3.4539,0 10.7561,7.33979 11.6499,11.70991 1.1346,5.54762 3.3754,5.03362 8.6779,-1.99054 3.622,-4.798 6.32,-7.07351 11.3387,-9.56322 6.4322,-3.19089 6.7051,-3.23163 11.7047,-1.74686 6.4978,1.92961 13.1899,6.82733 15.7018,11.49139 1.853,3.44106 1.8703,4.34264 0.3418,17.86205 -1.5999,14.14955 -1.6429,14.29093 -6.9216,22.74455 -2.9214,4.67856 -5.9779,8.50648 -6.7921,8.50648 -1.1289,0 -1.6156,-2.52684 -2.048,-10.63311 -0.6557,-12.29213 -2.2507,-16.17413 -8.0526,-19.5973 -6.3569,-3.75068 -7.9209,-2.8488 -11.7791,6.79249 -5.4936,13.72924 -11.8571,54.25528 -9.5139,60.59026 2.7528,7.44178 2.2991,7.25713 14.58,5.93581 6.0938,-0.65567 12.885,-1.58349 15.0915,-2.06186 2.4338,-0.5276 4.2628,-0.46393 4.6495,0.1619 0.3508,0.5674 -2.7308,4.4514 -6.8481,8.63112 -4.1169,4.17972 -8.188,9.32087 -9.0464,11.42478 -2.7201,6.66579 -6.4292,8.01945 -25.7295,9.39005 -9.3572,0.6645 -18.4484,1.42063 -20.203,1.68028 -2.0271,0.30002 -4.0145,-0.197 -5.4519,-1.36357 z m 261.1782,0.82234 c -14.593,-1.25015 -23.5099,-10.1739 -26.9922,-27.01317 -1.3361,-6.4605 -1.7172,-14.74822 -1.7172,-37.34361 0,-15.97219 -0.2904,-29.79723 -0.6454,-30.72228 -0.5119,-1.33389 -2.3541,-1.68195 -8.9027,-1.68195 h -8.2574 l -4.4754,-4.85525 c -2.7252,-2.95652 -4.2364,-5.47784 -3.8646,-6.44722 0.3362,-0.87557 -0.1,-2.9668 -0.9689,-4.64718 -0.8689,-1.68038 -1.3326,-3.69959 -1.0305,-4.48716 0.8185,-2.13248 15.227,-9.07752 20.5485,-9.90442 8.6343,-1.34171 8.7515,-1.71024 8.6175,-27.08195 -0.071,-13.47286 -0.5849,-23.49723 -1.3018,-25.39658 -1.3312,-3.52642 0.2185,-6.52842 3.335,-6.46082 2.7155,0.0589 14.6896,7.75956 17.3757,11.1744 2.2161,2.81718 2.481,4.53371 3.0667,19.86661 0.5388,14.09887 0.9481,17.12211 2.56,18.90334 2.46,2.71822 4.1125,2.65767 10.6583,-0.39051 3.4576,-1.61004 8.5193,-2.76678 14.3225,-3.27298 4.9361,-0.4306 10.1858,-1.39707 11.6655,-2.14771 1.4798,-0.75063 5.7023,-1.64965 9.3833,-1.99778 5.5739,-0.52719 6.8032,-0.34465 7.3545,1.09192 0.4552,1.18633 -0.6342,2.75234 -3.4894,5.01535 -2.2831,1.80971 -9.6769,8.12217 -16.4306,14.02767 -9.0774,7.93756 -13.8694,11.33224 -18.3779,13.01908 -3.3543,1.25499 -8.4093,3.45273 -11.2336,4.88386 l -5.1349,2.60205 -0.6989,31.16456 c -0.7888,35.1747 -0.2106,42.22145 3.7929,46.22498 2.5377,2.53751 2.8533,2.59765 5.7504,1.09529 1.686,-0.87433 9.4214,-7.61837 17.1897,-14.98675 14.9399,-14.17062 19.1364,-16.52153 17.7451,-9.94127 -1.7032,8.05548 -4.7012,14.60246 -8.0618,17.60509 -3.1216,2.78925 -3.3913,3.44593 -2.352,5.72709 1.8998,4.1695 -2.6591,12.38778 -10.5114,18.94906 -8.8601,7.40338 -10.7138,8.13116 -18.919,7.42824 z m -137.9434,-1.62618 c -5.4734,-1.72331 -14.4481,-8.03805 -19.6012,-13.79152 -4.8312,-5.39422 -10.8984,-17.46613 -12.4513,-24.77432 -1.6204,-7.62674 -1.4481,-26.60737 0.3303,-36.36607 1.4174,-7.77745 6.2683,-22.19429 9.7021,-28.83478 4.1373,-8.00043 15.2843,-17.35648 28.6446,-24.04249 15.5125,-7.76296 41.2569,-3.44579 50.6533,8.49419 1.5425,1.95994 4.2316,6.40793 5.9757,9.88444 9.8754,19.68391 12.1689,38.51427 7.3098,60.01811 -1.8129,8.02295 -3.3702,12.59374 -4.5287,13.29139 -0.9712,0.58482 -2.8871,2.02029 -4.2574,3.18993 -2.3849,2.03543 -2.4205,2.27022 -0.8294,5.47529 1.5918,3.20622 1.5404,3.54198 -1.2063,7.89297 -4.4408,7.03458 -11.9347,14.51335 -18.0474,18.01064 -5.5148,3.15532 -5.6722,3.17794 -21.376,3.07358 -9.9265,-0.0659 -17.4959,-0.63273 -20.3181,-1.52136 z m 30.7665,-22.97342 c 9.7839,-2.16797 17.0181,-13.88801 18.4713,-29.92455 0.3962,-4.37046 0.3478,-16.73827 -0.1074,-27.48402 l -0.8275,-19.53773 -8.8693,-6.64568 c -9.8714,-7.39665 -11.8368,-7.84533 -21.7171,-4.95792 -9.5002,2.77632 -19.1083,13.98188 -21.7565,25.37371 -0.804,3.45855 -3.0148,7.95631 -5.6922,11.58076 -4.9406,6.68764 -5.214,8.09989 -2.3584,12.17391 1.1109,1.58457 2.2835,5.38467 2.606,8.44467 0.7394,7.0134 9.611,25.44522 13.629,28.31537 6.3797,4.55736 14.433,5.36246 26.6221,2.66148 z m -222.4412,19.29233 c -2.3179,-2.51069 -4.5208,-5.5734 -4.8953,-6.806 -0.3746,-1.23262 -1.2779,-2.95885 -2.0075,-3.83608 -2.3669,-2.84629 -2.8241,-7.14242 -0.9586,-9.00799 1.3062,-1.30604 2.8209,-1.55332 6.3104,-1.03009 l 4.5914,0.68856 1.2601,-4.62921 c 0.693,-2.54607 1.1792,-8.55395 1.0803,-13.35083 -0.1267,-6.16412 0.3133,-9.67473 1.5013,-11.97187 1.3028,-2.5193 1.4144,-3.74782 0.4965,-5.4629 -1.6194,-3.02587 -1.4738,-9.16422 0.5079,-21.41535 0.9213,-5.6957 1.675,-12.33808 1.675,-14.76084 0,-2.65593 0.9107,-5.87844 2.2934,-8.11581 2.0079,-3.24866 2.1352,-4.14814 1.0236,-7.22273 -1.4542,-4.02146 -0.1386,-17.8681 2.5349,-26.68061 0.8625,-2.84313 1.5734,-7.72418 1.5798,-10.84681 0.01,-3.12263 1.4014,-11.73546 3.1001,-19.1396 1.6987,-7.40416 3.1249,-15.85456 3.1695,-18.77867 0.045,-2.9241 0.4543,-10.18046 0.9103,-16.12524 l 0.8292,-10.80871 -2.8657,1.6928 c -2.0701,1.22275 -3.2542,1.37942 -4.2646,0.56419 -0.7694,-0.62072 -2.9208,-1.45384 -4.7811,-1.85138 -10.191,-2.1778 -4.6998,-8.79956 11.8474,-14.28654 8.9645,-2.97257 11.4639,-3.39705 16.4695,-2.79713 7.5986,0.91069 17.3788,3.68321 18.371,5.20791 1.1482,1.76458 -0.1489,5.0062 -3.5749,8.93422 -1.6756,1.92101 -3.0466,4.20886 -3.0466,5.0841 0,0.87523 -0.8373,1.90555 -1.8607,2.28955 -4.3359,1.62694 -5.9429,7.59581 -2.9388,10.91536 1.732,1.9138 1.763,1.64629 -3.1967,27.6622 -1.3935,7.31027 -3.0609,18.0763 -3.7051,23.92449 -2.6697,24.23233 -5.5573,45.50377 -8.016,59.05159 -1.7903,9.86374 -2.6122,18.24805 -2.6122,26.64537 0,9.12739 -0.3982,12.77936 -1.5611,14.31689 -2.2202,2.93529 -2.2001,15.68421 0.029,17.53302 0.9111,0.75607 2.306,2.92936 3.0998,4.82951 1.8951,4.53546 5.2592,6.37538 8.7493,4.7852 3.4592,-1.57616 4.5708,-0.6993 4.5708,3.60599 0,2.97082 -0.9159,4.37755 -5.4093,8.30821 -5.8924,5.15463 -6.7181,5.36521 -26.555,6.77327 l -9.5355,0.67686 z m -563.8287,-6.13139 c -2.1696,-0.48198 -2.2315,-0.76809 -0.76,-3.51728 1.0456,-1.95377 5.2222,-2.82256 6.6595,-1.38527 0.8954,0.89549 -0.9704,4.27598 -2.6801,4.85541 -0.7472,0.25329 -2.1959,0.27449 -3.2194,0.0471 z"
       id="path8305"
       inkscape:connector-curvature="0" />
    <flowRoot
       xml:space="preserve"
       id="episode-title-3"
       style="font-style:normal;font-variant:normal;font-weight:normal;font-stretch:normal;line-height:0.01%;font-family:Arial;-inkscape-font-specification:Arial;letter-spacing:0px;word-spacing:0px;display:inline;fill:#2a5953;fill-opacity:1;stroke:none"
       transform="translate(-701.93945,-120.8471)"><flowRegion
         id="flowRegion2989-6"
         style="fill:#2a5953;fill-opacity:1"><rect
           id="rect2991-7"
           width="2405.8"
           height="107.55731"
           x="739.22333"
           y="644.36664"
           style="fill:#2a5953;fill-opacity:1" /></flowRegion><flowPara
         id="flowPara2993-5"
         style="font-style:normal;font-variant:normal;font-weight:normal;font-stretch:normal;font-size:72px;line-height:1.25;font-family:Lavi;-inkscape-font-specification:Lavi;text-align:center;text-anchor:middle;fill:#2a5953;fill-opacity:1">Episode 1: Flygetrylledrikken</flowPara></flowRoot>  </g>
</svg>
