<?xml version="1.0" encoding="UTF-8" standalone="no"?>
<!-- Created with Inkscape (http://www.inkscape.org/) -->

<svg
   xmlns:dc="http://purl.org/dc/elements/1.1/"
   xmlns:cc="http://creativecommons.org/ns#"
   xmlns:rdf="http://www.w3.org/1999/02/22-rdf-syntax-ns#"
   xmlns:svg="http://www.w3.org/2000/svg"
   xmlns="http://www.w3.org/2000/svg"
   xmlns:xlink="http://www.w3.org/1999/xlink"
   xmlns:sodipodi="http://sodipodi.sourceforge.net/DTD/sodipodi-0.dtd"
   xmlns:inkscape="http://www.inkscape.org/namespaces/inkscape"
   id="svg2"
   version="1.1"
   inkscape:version="0.92.5 (2060ec1f9f, 2020-04-08)"
   width="2481"
   height="3503"
   sodipodi:docname="E36P03.svg">
  <metadata
     id="metadata8">
    <rdf:RDF>
      <cc:Work
         rdf:about="">
        <dc:format>image/svg+xml</dc:format>
        <dc:type
           rdf:resource="http://purl.org/dc/dcmitype/StillImage" />
      </cc:Work>
    </rdf:RDF>
  </metadata>
  <defs
     id="defs6">
    <filter
       inkscape:collect="always"
       style="color-interpolation-filters:sRGB"
       id="filter51433"
       x="-0.024257822"
       y="-0.029242994"
       width="1.0485156"
       height="1.058486">
      <feGaussianBlur
         inkscape:collect="always"
         stdDeviation="2.6637087"
         id="feGaussianBlur51435" />
    </filter>
    <filter
       x="-0.027975978"
       width="1.0540896"
       height="1.3498685"
       inkscape:label="magic-Fx-blue"
       id="filter4375-4-1-1-1-9-5-8-8-3-3-3-6-6"
       style="color-interpolation-filters:sRGB"
       y="-0.12176537">
      <feFlood
         radius="5.0999999999999996"
         result="flood"
         flood-color="rgb(86,110,161)"
         flood-opacity="1"
         id="feFlood4377-7-9-0-8-1-7-3-1-6-61-6-2-1" />
      <feComposite
         baseFrequency="0.053999999999999999 0.053999999999999999"
         result="composite1"
         operator="in"
         in="flood"
         in2="SourceGraphic"
         id="feComposite4379-3-8-8-2-77-4-1-0-7-2-7-6-8" />
      <feMorphology
         result="result3"
         radius="0.96959439099754563"
         operator="dilate"
         id="feMorphology4393-1-0-49-8-9-3-0-1-5-9-5-1-7" />
      <feComposite
         numOctaves="4"
         result="fbSourceGraphic"
         operator="over"
         in="SourceGraphic"
         in2="result3"
         id="feComposite4385-9-5-7-0-8-8-7-5-3-3-3-8-9" />
      <feColorMatrix
         id="feColorMatrix4544-9-5-1-5-7-2"
         values="0 0 0 -1 0 0 0 0 -1 0 0 0 0 -1 0 0 0 0 1 0"
         in="fbSourceGraphic"
         result="fbSourceGraphicAlpha" />
      <feTurbulence
         result="turbulence"
         baseFrequency="0.062 0.054054054054054057"
         seed="172"
         numOctaves="4.4123222748815163"
         type="fractalNoise"
         id="feTurbulence4546-3-6-9-6-9-0" />
      <feDisplacementMap
         result="fbSourceGraphic"
         xChannelSelector="R"
         yChannelSelector="G"
         scale="11.642079"
         in="fbSourceGraphic"
         in2="turbulence"
         id="feDisplacementMap4548-8-2-4-2-2-2" />
      <feColorMatrix
         scale="10.800000000000001"
         id="feColorMatrix4670-7-9-7-9-0-3"
         values="0 0 0 -1 0 0 0 0 -1 0 0 0 0 -1 0 0 0 0 1 0"
         in="fbSourceGraphic"
         result="fbSourceGraphicAlpha" />
      <feComposite
         result="composite1"
         operator="in"
         in="flood"
         in2="fbSourceGraphic"
         id="feComposite4674-8-2-4-1-2-7" />
      <feGaussianBlur
         result="blur"
         stdDeviation="1.6836129"
         in="composite1"
         id="feGaussianBlur4676-3-7-50-2-3-5" />
      <feOffset
         result="offset"
         dy="5.2374444725016502"
         dx="-0.42771311737301687"
         id="feOffset4678-6-0-3-7-7-9" />
      <feComposite
         result="composite2"
         operator="over"
         in="fbSourceGraphic"
         in2="offset"
         id="feComposite4680-4-9-6-0-5-2" />
      <feGaussianBlur
         stdDeviation="0.60935760846819198"
         id="feGaussianBlur58-9-9-2" />
      <feOffset
         dx="0"
         dy="0"
         id="feOffset60-3-2-8" />
    </filter>
  </defs>
  <sodipodi:namedview
     pagecolor="#1e1e1e"
     bordercolor="#111111"
     borderopacity="1"
     objecttolerance="10"
     gridtolerance="10"
     guidetolerance="10"
     inkscape:pageopacity="0"
     inkscape:pageshadow="2"
     inkscape:window-width="1366"
     inkscape:window-height="704"
     id="namedview4"
     showgrid="false"
     inkscape:zoom="0.37405949"
     inkscape:cx="1366.0929"
     inkscape:cy="612.20208"
     inkscape:window-x="0"
     inkscape:window-y="27"
     inkscape:window-maximized="1"
     inkscape:current-layer="layer3"
     inkscape:pagecheckerboard="0"
     inkscape:snap-global="false" />
  <g
     inkscape:groupmode="layer"
     id="layer2"
     inkscape:label="artwork"
     sodipodi:insensitive="true">
    <image
       sodipodi:absref="/home/juanjo/Comics/lang-ep36/es/../gfx_Pepper-and-Carrot_by-David-Revoy_E36P03.png"
       xlink:href="../gfx_Pepper-and-Carrot_by-David-Revoy_E36P03.png"
       width="2481"
       height="3503"
       id="image10"
       x="0"
       y="0" />
  </g>
  <g
     inkscape:groupmode="layer"
     id="layer4"
     inkscape:label="speechbubble-whisper"
     style="display:inline;opacity:0.7;mix-blend-mode:screen;filter:url(#filter51433)">
    <path
       style="display:inline;fill:#cdf0ff;fill-opacity:1;stroke:none;stroke-width:0.501375"
       d="m 1742.4351,217.99542 c -27.6312,1.19634 -56.2626,6.74378 -79.4672,22.58638 -19.7317,16.10123 -25.8865,42.78697 -27.2787,67.15373 -0.9611,22.33136 1.5417,44.92701 7.6018,66.43121 4.6801,14.35588 15.9418,25.6551 29.4557,31.9267 27.9579,14.08761 59.9612,17.1004 90.8195,17.01822 28.4471,-0.80127 57.8196,-3.44247 83.7775,-16.05195 16.9036,-8.02252 29.9444,-24.144 32.5453,-42.91789 4.2483,-26.06401 2.5287,-52.70324 -1.0685,-78.72589 -3.7765,-20.93023 -15.2583,-41.73958 -34.8408,-51.42711 -24.9344,-13.36511 -53.9877,-13.94817 -81.5282,-15.66713 -6.6686,-0.25691 -13.3429,-0.36658 -20.0164,-0.32627 z"
       id="path3280-5"
       inkscape:connector-curvature="0"
       sodipodi:nodetypes="csssc" />
    <path
       style="display:inline;opacity:1;fill:#cdf0ff;fill-opacity:1;stroke:none;stroke-width:0.536241;filter:url(#filter51433)"
       d="m 1708.9863,394.91211 c -28.6289,1.41051 -57.9874,7.77024 -82.0896,23.91063 -21.878,17.61185 -28.0694,47.08568 -29.3856,73.78778 -0.819,23.28018 1.9507,46.79415 8.4069,69.17298 5.0997,15.56893 17.5867,27.59295 32.3165,34.23134 33.0998,16.06632 70.8778,18.15667 107.0647,17.36983 28.0108,-1.4647 57.9867,-5.61777 80.2927,-24.16397 18.9047,-14.83119 30.8715,-37.4229 33.57,-61.21118 3.2126,-25.33324 2.6561,-52.184 -7.2872,-76.06123 -9.8072,-23.8171 -30.4068,-43.43965 -55.8409,-49.3229 -28.3333,-6.89167 -57.997,-7.5903 -87.0475,-7.71328 z"
       id="path3280-5-2"
       inkscape:connector-curvature="0"
       sodipodi:nodetypes="csssc"
       transform="matrix(0.94566411,0,0,0.75382789,122.359,99.079822)" />
    <path
       style="color:#000000;display:inline;overflow:visible;visibility:visible;fill:#cdf0ff;fill-opacity:1;fill-rule:nonzero;stroke:none;stroke-width:1.0259px;marker:none;enable-background:accumulate"
       d="m 1719.3194,532.89168 c 36.6025,26.98252 13.0291,94.40607 -44.5247,110.04187 25.0213,-8.11557 100.3251,-9.20388 96.6789,-117.06904 -1.8701,-55.32427 -32.7694,7.35791 -32.7694,7.35791 z"
       id="path4035-4"
       inkscape:connector-curvature="0"
       sodipodi:nodetypes="ccscc" />
    <path
       style="color:#000000;display:inline;overflow:visible;visibility:visible;fill:#cdf0ff;fill-opacity:1;fill-rule:nonzero;stroke:none;stroke-width:0.854098px;marker:none;enable-background:accumulate"
       d="m 178.76057,2256.6925 c 48.26763,-35.192 315.92181,-29.8096 399.17319,-20.7454 90.85385,9.8917 118.82639,23.9076 122.88903,54.6269 1.25491,9.4884 -6.09401,52.5162 -50.78427,60.9868 -44.69017,8.4701 -172.66638,12.7054 -217.35663,12.7054 -44.69011,0 -187.35088,-5.391 -223.45107,-17.788 -34.53326,-11.8581 -78.738,-54.5943 -30.47025,-89.7857 z"
       id="path3330-0"
       inkscape:connector-curvature="0"
       sodipodi:nodetypes="zsssssz" />
    <path
       style="color:#000000;display:inline;overflow:visible;visibility:visible;fill:#cdf0ff;fill-opacity:1;fill-rule:nonzero;stroke:none;stroke-width:0.986117px;marker:none;enable-background:accumulate"
       d="m 488.53358,2388.0382 c -2.14706,-13.7834 21.39386,-71.8044 152.3668,-62.6151 130.97294,9.1892 144.65278,20.7582 150.62889,70.2306 2.20873,18.2833 -18.1731,44.9219 -37.49701,49.5159 -19.32389,4.5951 -75.82344,17.5654 -108.02983,13.8895 -32.20646,-3.6759 -79.74774,-2.8033 -127.13318,-22.0762 -28.59963,-11.6326 -28.18854,-45.2689 -30.33567,-48.9447 z"
       id="path3365-74"
       inkscape:connector-curvature="0"
       sodipodi:nodetypes="csssssc" />
    <path
       style="color:#000000;display:inline;overflow:visible;visibility:visible;fill:#cdf0ff;fill-opacity:1;fill-rule:nonzero;stroke:none;stroke-width:0.89211px;marker:none;enable-background:accumulate"
       d="m 844.12065,2442.2025 c -1.12753,-68.5776 48.23579,-110.349 183.69515,-98.9976 70.2676,5.8885 155.7576,12.6543 144.1498,115.6138 -10.2305,90.7454 -125.0024,77.3087 -148.2131,78.3795 -23.2111,1.0709 -143.42339,-4.0898 -163.48517,-36.0993 -12.55812,-20.0378 -17.15581,-39.6212 -16.14668,-58.8964 z"
       id="path4546-6-5-3"
       inkscape:connector-curvature="0"
       sodipodi:nodetypes="cssssc" />
    <path
       style="fill:#cdf0ff;fill-opacity:1;fill-rule:evenodd;stroke:none;stroke-width:0.992195px;stroke-linecap:butt;stroke-linejoin:miter;stroke-opacity:1"
       d="m 502.9297,2296.4413 c 77.73786,71.3301 343.81979,137.4338 468.03666,123.7816 56.20704,1.4325 107.09184,112.3825 -77.57388,181.9225 103.18653,-73.9231 107.10902,-112.2062 84.55661,-152.9846 -231.13158,-14.8725 -410.95516,-78.9759 -490.52973,-138.3793 -1.44988,-34.5447 15.51034,-14.3402 15.51034,-14.3402 z"
       id="path66187" />
    <path
       style="color:#000000;display:inline;overflow:visible;visibility:visible;fill:#cdf0ff;fill-opacity:1;fill-rule:nonzero;stroke:none;stroke-width:0.863748px;marker:none;enable-background:accumulate"
       d="m 1460.1997,3074.7623 c -0.9883,-25.7873 4.0515,-42.8878 26.685,-56.5883 20.6047,-12.4718 65.9767,-15.9189 96.2518,-15.9189 48.9354,-0.1761 174.5497,-4.8173 159.7271,75.7445 -0.5854,38.2111 -73.5808,39.8773 -88.4059,42.9714 -14.825,3.0942 -74.0901,3.777 -87.9268,2.7457 -50.8675,1.8751 -104.5644,-17.5274 -106.3312,-48.9544 z"
       id="path3357-3"
       inkscape:connector-curvature="0"
       sodipodi:nodetypes="csccscc" />
    <path
       style="fill:#cdf0ff;fill-opacity:1;stroke:none;stroke-width:0.742591"
       d="m 1793.5726,3174.4599 c -12.6309,0.9948 -21.7509,-0.1689 -30.6236,-4.0923 -5.2932,-2.3406 -7.6656,-9.8926 -9.5288,-15.0858 -2.9414,-8.0739 -4.6252,-17.2277 -11.1432,-23.3655 -5.5035,-4.7753 -12.7976,-6.8331 -19.8235,-8.1246 -4.9899,-0.7939 -10.0745,-0.9258 -15.1082,-0.5301 -12.5231,-2.2362 -12.1613,-15.2606 -16.0589,-20.888 -3.2358,-4.3315 -6.0568,-1.4455 -9.6096,-5.5051 -6.9289,-7.2641 -9.6595,-1.2352 -14.3778,5.5886 -4.8023,6.9455 -3.5286,10.258 5.0592,26.7368 5.5996,11.3289 18.3851,19.618 31.2363,17.5947 3.9927,-0.6908 7.5859,-2.9978 11.7217,-3.0257 6.5594,-0.6097 13.6771,2.3908 16.7872,8.4135 4.512,6.5347 6.7951,14.4886 12.1799,20.426 2.8451,3.1564 6.8355,4.9172 10.9372,5.738 12.7279,3.2922 26.4259,1.3706 38.3521,-3.8805 z"
       id="path3023"
       inkscape:connector-curvature="0"
       sodipodi:nodetypes="csssscsssssscccc" />
  </g>
  <g
     inkscape:groupmode="layer"
     id="layer3"
     inkscape:label="speechbubbles"
     style="display:inline;mix-blend-mode:normal">
    <path
       sodipodi:nodetypes="ccccccccccccccccccccccccccc"
       id="path1399"
       d="m 653.84441,232.52636 c 51.38239,21.2015 35.6325,-7.15903 36.52511,-27.42749 19.19057,25.22028 43.92411,48.49404 44.27313,-1.02848 17.17621,35.45455 25.69589,56.88483 47.20114,8.35768 9.36258,28.83788 15.03681,37.17116 72.77351,-25.56042 -5.16001,23.91612 -21.48261,70.22593 56.8536,16.26934 -5.22872,7.9494 -48.9632,60.07706 46.51706,-5.60178 -31.24371,29.6045 -69.29503,76.93622 7.34406,39.87445 -36.42132,34.70664 -48.59642,61.60746 20.48589,62.34788 -27.48386,22.51753 -54.23686,44.89162 3.27508,50.72694 -26.6334,1.48647 -51.01723,8.66983 -5.67185,30.24503 -40.99919,-11.80452 -54.75451,2.80151 -17.32449,30.1144 -53.17227,-5.17074 -64.82119,-15.16234 -21.52982,29.20181 -39.61666,-21.89138 -56.77031,-22.1459 -50.16431,4.57031 -44.59471,-47.55724 -35.22665,-1.6766 -28.43662,11.25339 -45.82194,-56.03505 -48.82253,-11.61262 -53.81824,0.17666 -25.58073,-46.4615 -79.72214,-53.39153 -93.36182,-0.0211 -7.76345,-28.61176 -32.9002,-40.05432 -68.69782,-2.79045 11.00997,-32.98922 -8.03534,-46.64839 -46.45083,-30.6998 28.50778,-28.51474 3.10595,-34.68771 -35.06944,-21.07314 25.89048,-25.7472 25.02107,-36.2628 0.38144,-39.32221 41.63523,-22.777 12.82768,-37.1272 -30.8256,-49.70154 30.95108,-5.88583 70.82574,-9.42735 19.86935,-36.83096 40.68878,5.15707 61.23181,3.17944 22.06422,-19.94503 26.95358,8.71573 55.42585,5.45682 31.77982,-23.05452 49.98228,24.5103 47.96824,8.11105 42.00743,-0.0807 z"
       style="display:inline;fill:#ffffff;fill-rule:evenodd;stroke:none;stroke-width:0.82631201px;stroke-linecap:butt;stroke-linejoin:miter;stroke-opacity:1"
       inkscape:connector-curvature="0" />
    <path
       style="color:#000000;display:inline;overflow:visible;visibility:visible;fill:#ffffff;fill-opacity:1;fill-rule:nonzero;stroke:none;stroke-width:0.617876px;marker:none;enable-background:accumulate"
       d="m 846.24295,369.92151 c 7.72209,41.35398 49.55771,207.43487 191.58005,156.97532 C 870.99201,610.00659 809.89776,366.2342 800.59804,338.37279 c -11.65313,-16.49189 45.64491,31.54872 45.64491,31.54872 z"
       id="path4008-4"
       inkscape:connector-curvature="0"
       sodipodi:nodetypes="cccc" />
    <path
       style="display:inline;fill:#ffffff;fill-rule:evenodd;stroke:none;stroke-width:0.948986px;stroke-linecap:butt;stroke-linejoin:miter;stroke-opacity:1"
       d="m 998.84039,1287.8691 c 62.19381,21.6267 97.62041,12.8319 96.55271,-37.4393 29.6725,54.3246 50.2637,66.4745 62.4756,39.7085 39.2843,23.0061 63.8205,16.5524 83.3007,0 7.2607,21.2878 25.5804,17.4965 36.3069,11.6398 -2.5059,6.3988 -1.7293,14.8566 50.7797,0.8399 -1.8341,6.1714 9.3632,11.8644 45.4368,-2.2691 9.3455,25.875 39.3302,-1.4345 70.0483,-30.6319 -19.138,35.8958 -11.2023,40.9663 13.2526,27.2285 -11.1808,14.7823 -17.8679,26.2257 24.6112,1.1342 -14.5426,27.2851 23.6101,8.5569 85.1939,-30.6319 -30.8051,28.9685 -112.4935,77.7911 -58.689,73.7437 -7.5036,8.5397 -34.2677,15.9802 45.4366,29.497 -15.9384,0.4473 -74.4347,3.111 -16.2928,21.3113 -30.777,-0.4855 -18.0393,5.1715 14.3998,12.7247 -19.1491,-0.5145 -30.8929,1.3217 -13.2525,12.479 -34.9542,-0.6027 -41.5572,2.9567 -15.8949,17.9206 -43.6176,-12.4648 -55.4861,-14.73 -37.4471,9.3432 -63.4398,-26.17 -78.6481,-29.3704 -49.0584,0.2946 -83.8513,-28.6251 -86.2882,-21.5731 -117.2104,7.6117 -8.098,-18.1521 -24.3339,-32.1248 -92.7665,-19.2863 16.8317,-18.186 -24.3044,-7.0074 -53.3337,5.4289 19.8395,-16.1671 -20.973,-13.3566 -77.2968,13.8574 32.2687,-31.8573 -4.3808,-20.3493 -58.689,2.2692 20.5193,-31.2968 -12.8984,-46.432 -92.76652,-47.65 38.2274,-11.2884 60.51952,-25.4954 20.82533,-51.0524 44.74669,7.5248 58.09389,0.5351 26.50452,-27.2287 48.80687,22.7883 26.61627,-10.2648 7.57296,-40.8426 z"
       id="path4508-2"
       inkscape:connector-curvature="0"
       sodipodi:nodetypes="cccccccccccccccccccccccccccc" />
    <path
       style="color:#000000;display:inline;overflow:visible;visibility:visible;fill:#ffffff;fill-opacity:1;fill-rule:nonzero;stroke:none;stroke-width:0.926668px;marker:none;enable-background:accumulate"
       d="m 1595.6808,1551.0393 c -26.9474,-31.2708 -59.9834,-60.3698 -79.8554,-94.1658 l -3.285,30.7651 c -15.0498,-9.9953 -21.7942,-24.8956 -31.3589,-38.1306 l -6.317,18.293 c -32.9632,-27.3415 -57.8887,-59.7803 -86.4652,-88.7225 l -7.9573,35.8506 c 38.968,18.6225 72.2495,52.1917 98.1736,81.2762 l 8.7127,-17.1146 c 10.6542,9.2624 20.8921,18.8192 29.2707,29.6888 l 8.2295,-22.5142 z"
       id="path4032-1"
       inkscape:connector-curvature="0"
       sodipodi:nodetypes="cccccccccccc" />
  </g>
  <g
     inkscape:groupmode="layer"
     id="layer1"
     inkscape:label="txt"
     style="display:inline">
    <text
       id="text4246-4-2-7"
       y="320.3551"
       x="767.77734"
       style="font-style:normal;font-variant:normal;font-weight:normal;font-stretch:normal;line-height:0%;font-family:Lavi;-inkscape-font-specification:Lavi;text-align:center;letter-spacing:0px;word-spacing:0px;text-anchor:middle;fill:#000000;fill-opacity:1;stroke:none"
       xml:space="preserve"
       inkscape:label="pepperB"><tspan
         y="320.3551"
         x="767.77734"
         style="font-size:45px;line-height:1.25"
         sodipodi:role="line"
         id="tspan4789">¿Cómo he podido</tspan><tspan
         y="376.6051"
         x="767.77734"
         style="font-size:45px;line-height:1.25"
         sodipodi:role="line"
         id="tspan9243">ser <tspan
   style="font-style:normal;font-variant:normal;font-weight:bold;font-stretch:normal;font-family:Lavi;-inkscape-font-specification:'Lavi Bold'"
   id="tspan14133">tan ingenua</tspan>?</tspan></text>
    <text
       id="text4246-4-2-7-3"
       y="306.39148"
       x="1764.5796"
       style="font-style:normal;font-variant:normal;font-weight:normal;font-stretch:normal;line-height:0%;font-family:Lavi;-inkscape-font-specification:Lavi;text-align:center;letter-spacing:0px;word-spacing:0px;text-anchor:middle;fill:#000000;fill-opacity:1;stroke:none"
       xml:space="preserve"
       inkscape:label="pepperB"><tspan
         y="306.39148"
         x="1764.5796"
         style="font-size:45px;line-height:1.25"
         sodipodi:role="line"
         id="tspan3279-7">¡Shhhhh,</tspan><tspan
         y="362.64148"
         x="1764.5796"
         style="font-size:45px;line-height:1.25"
         sodipodi:role="line"
         id="tspan15762">Pepper!</tspan></text>
    <text
       id="text4246-4-2-7-3-36"
       y="471.14197"
       x="1758.3271"
       style="font-style:normal;font-variant:normal;font-weight:normal;font-stretch:normal;line-height:0%;font-family:Lavi;-inkscape-font-specification:Lavi;text-align:center;letter-spacing:0px;word-spacing:0px;text-anchor:middle;display:inline;fill:#000000;fill-opacity:1;stroke:none"
       xml:space="preserve"
       inkscape:label="pepperB"><tspan
         y="471.14197"
         x="1758.3271"
         style="font-size:45px;line-height:1.25"
         sodipodi:role="line"
         id="tspan26583">Baja la</tspan><tspan
         y="527.39197"
         x="1758.3271"
         style="font-size:45px;line-height:1.25"
         sodipodi:role="line"
         id="tspan38185">voz.</tspan></text>
    <text
       id="text4246-4-2-7-3-3"
       y="1385.4877"
       x="1248.106"
       style="font-style:normal;font-variant:normal;font-weight:normal;font-stretch:normal;font-size:55px;line-height:0%;font-family:Lavi;-inkscape-font-specification:Lavi;text-align:center;letter-spacing:0px;word-spacing:0px;text-anchor:middle;fill:#000000;fill-opacity:1;stroke:none;stroke-width:1.26378"
       xml:space="preserve"
       inkscape:label="pepperB"><tspan
         y="1385.4877"
         x="1248.106"
         style="font-style:normal;font-variant:normal;font-weight:bold;font-stretch:normal;font-size:55px;line-height:1.25;font-family:Lavi;-inkscape-font-specification:'Lavi Bold';stroke-width:1.26378"
         sodipodi:role="line"
         id="tspan15762-9">¡¿Quién anda ahí?!</tspan></text>
    <text
       id="text4246-4-2-7-3-1"
       y="2312.957"
       x="427.51743"
       style="font-style:normal;font-variant:normal;font-weight:normal;font-stretch:normal;line-height:0%;font-family:Lavi;-inkscape-font-specification:Lavi;text-align:center;letter-spacing:0px;word-spacing:0px;text-anchor:middle;fill:#000000;fill-opacity:1;stroke:none"
       xml:space="preserve"
       inkscape:label="pepperB"><tspan
         y="2312.957"
         x="427.51743"
         style="font-size:45px;line-height:1.25"
         sodipodi:role="line"
         id="tspan15762-93">¡Shhhhh! ¡Silencio!</tspan></text>
    <text
       id="text4246-4-2-7-3-1-6"
       y="2407.6968"
       x="648.40051"
       style="font-style:normal;font-variant:normal;font-weight:normal;font-stretch:normal;line-height:0%;font-family:Lavi;-inkscape-font-specification:Lavi;text-align:center;letter-spacing:0px;word-spacing:0px;text-anchor:middle;fill:#000000;fill-opacity:1;stroke:none"
       xml:space="preserve"
       inkscape:label="pepperB"><tspan
         y="2407.6968"
         x="648.40051"
         style="font-size:45px;line-height:1.25"
         sodipodi:role="line"
         id="tspan15762-93-0">Ven aquí</tspan></text>
    <text
       id="text4246-4-2-7-3-1-6-6"
       y="2429.6001"
       x="1013.6951"
       style="font-style:normal;font-variant:normal;font-weight:normal;font-stretch:normal;line-height:0%;font-family:Lavi;-inkscape-font-specification:Lavi;text-align:center;letter-spacing:0px;word-spacing:0px;text-anchor:middle;fill:#000000;fill-opacity:1;stroke:none"
       xml:space="preserve"
       inkscape:label="pepperB"><tspan
         y="2429.6001"
         x="1013.6951"
         style="font-size:45px;line-height:1.25"
         sodipodi:role="line"
         id="tspan53853">He venido a</tspan><tspan
         y="2485.8501"
         x="1013.6951"
         style="font-size:45px;line-height:1.25"
         sodipodi:role="line"
         id="tspan87799">liberarte.</tspan></text>
    <text
       transform="matrix(1.1333577,-0.39613562,0.12835025,1.2373956,849.39304,747.66885)"
       id="text4580-6-0-0-3-3-63"
       y="1584.5073"
       x="787.65729"
       style="font-style:normal;font-variant:normal;font-weight:normal;font-stretch:normal;line-height:0%;font-family:Lavi;-inkscape-font-specification:Lavi;letter-spacing:3.03024px;word-spacing:0px;opacity:1;mix-blend-mode:normal;fill:#e5fffe;fill-opacity:1;stroke:#4082aa;stroke-width:0.988344;stroke-miterlimit:4;stroke-dasharray:none;stroke-opacity:1;filter:url(#filter4375-4-1-1-1-9-5-8-8-3-3-3-6-6)"
       xml:space="preserve"
       inkscape:label="FXC"><tspan
         style="font-style:normal;font-variant:normal;font-weight:bold;font-stretch:normal;font-size:70px;line-height:1.25;font-family:Drukah;-inkscape-font-specification:'Drukah Bold';fill:#e5fffe;fill-opacity:1;stroke:#4082aa;stroke-width:0.988344;stroke-miterlimit:4;stroke-dasharray:none;stroke-opacity:1"
         y="1584.5073"
         x="787.65729"
         id="tspan4582-1-1-0-6-9-9"
         sodipodi:role="line">Kshiii...</tspan></text>
    <text
       xml:space="preserve"
       style="font-style:normal;font-variant:normal;font-weight:normal;font-stretch:normal;line-height:0%;font-family:Lavi;-inkscape-font-specification:Lavi;text-align:center;letter-spacing:0px;word-spacing:0px;text-anchor:middle;fill:#000000;fill-opacity:1;stroke:none"
       x="1601.6835"
       y="3077.9524"
       id="text4246-70-2-2-2"><tspan
         sodipodi:role="line"
         style="font-size:45px;line-height:1.25"
         x="1601.6835"
         y="3077.9524"
         id="tspan4406-9">¿Shichimi?</tspan></text>
  </g>
</svg>
