<?xml version="1.0" encoding="UTF-8" standalone="no"?>
<!-- Created with Inkscape (http://www.inkscape.org/) -->

<svg
   xmlns:dc="http://purl.org/dc/elements/1.1/"
   xmlns:cc="http://creativecommons.org/ns#"
   xmlns:rdf="http://www.w3.org/1999/02/22-rdf-syntax-ns#"
   xmlns:svg="http://www.w3.org/2000/svg"
   xmlns="http://www.w3.org/2000/svg"
   xmlns:xlink="http://www.w3.org/1999/xlink"
   xmlns:sodipodi="http://sodipodi.sourceforge.net/DTD/sodipodi-0.dtd"
   xmlns:inkscape="http://www.inkscape.org/namespaces/inkscape"
   id="svg2"
   version="1.1"
   inkscape:version="0.92.3 (2405546, 2018-03-11)"
   width="2481"
   height="3503"
   sodipodi:docname="E14P05.svg">
  <metadata
     id="metadata8">
    <rdf:RDF>
      <cc:Work
         rdf:about="">
        <dc:format>image/svg+xml</dc:format>
        <dc:type
           rdf:resource="http://purl.org/dc/dcmitype/StillImage" />
        <dc:title />
      </cc:Work>
    </rdf:RDF>
  </metadata>
  <defs
     id="defs6">
    <linearGradient
       inkscape:collect="always"
       xlink:href="#linearGradient4232"
       id="linearGradient4238"
       x1="1956.4867"
       y1="1758.8628"
       x2="1955.2883"
       y2="1705.3795"
       gradientUnits="userSpaceOnUse" />
    <linearGradient
       inkscape:collect="always"
       id="linearGradient4232">
      <stop
         style="stop-color:#2b0000;stop-opacity:1"
         offset="0"
         id="stop4234" />
      <stop
         style="stop-color:#800000;stop-opacity:1"
         offset="1"
         id="stop4236" />
    </linearGradient>
    <filter
       style="color-interpolation-filters:sRGB"
       id="filter5561-7"
       inkscape:label="Roughen">
      <feFlood
         id="feFlood5563-4"
         flood-opacity="1"
         flood-color="rgb(135,2,0)"
         result="flood" />
      <feComposite
         id="feComposite5565-6"
         in2="SourceGraphic"
         in="flood"
         operator="in"
         result="composite1" />
      <feMorphology
         id="feMorphology5567-3"
         operator="dilate"
         radius="1.3"
         result="result3"
         scale="33.299999999999997" />
      <feComposite
         id="feComposite5569-6"
         in2="result3"
         in="SourceGraphic"
         operator="over"
         result="fbSourceGraphic"
         radius="3.3999999999999999" />
      <feColorMatrix
         result="fbSourceGraphicAlpha"
         in="fbSourceGraphic"
         values="0 0 0 -1 0 0 0 0 -1 0 0 0 0 -1 0 0 0 0 1 0"
         id="feColorMatrix4681" />
      <feTurbulence
         id="feTurbulence4683"
         type="fractalNoise"
         numOctaves="1"
         seed="311"
         baseFrequency="0.002 0.032999999999999988"
         result="turbulence" />
      <feDisplacementMap
         id="feDisplacementMap4685"
         in2="turbulence"
         in="fbSourceGraphic"
         scale="33.29283110571081"
         yChannelSelector="G"
         xChannelSelector="R" />
    </filter>
    <linearGradient
       inkscape:collect="always"
       xlink:href="#linearGradient4232"
       id="linearGradient4238-1"
       x1="1956.4867"
       y1="1758.8628"
       x2="1955.2883"
       y2="1705.3795"
       gradientUnits="userSpaceOnUse" />
    <filter
       style="color-interpolation-filters:sRGB"
       id="filter5561-7-0"
       inkscape:label="Roughen">
      <feFlood
         id="feFlood5563-4-4"
         flood-opacity="1"
         flood-color="rgb(196,140,139)"
         result="flood" />
      <feComposite
         id="feComposite5565-6-8"
         in2="SourceGraphic"
         in="flood"
         operator="in"
         result="composite1" />
      <feMorphology
         id="feMorphology5567-3-1"
         operator="dilate"
         radius="2"
         result="result3" />
      <feComposite
         id="feComposite5569-6-9"
         in2="result3"
         in="SourceGraphic"
         operator="over"
         result="fbSourceGraphic"
         radius="3.3999999999999999" />
      <feColorMatrix
         result="fbSourceGraphicAlpha"
         in="fbSourceGraphic"
         values="0 0 0 -1 0 0 0 0 -1 0 0 0 0 -1 0 0 0 0 1 0"
         id="feColorMatrix4681-7" />
      <feTurbulence
         id="feTurbulence4683-1"
         type="fractalNoise"
         numOctaves="1"
         seed="20"
         baseFrequency="0.0030000000000000001 0.044999999999999998"
         result="turbulence" />
      <feDisplacementMap
         id="feDisplacementMap4685-9"
         in2="turbulence"
         in="fbSourceGraphic"
         scale="37.8"
         yChannelSelector="G"
         xChannelSelector="R" />
    </filter>
    <linearGradient
       inkscape:collect="always"
       xlink:href="#linearGradient4232"
       id="linearGradient4328"
       x1="1956.4867"
       y1="1758.8628"
       x2="1955.2883"
       y2="1705.3795"
       gradientUnits="userSpaceOnUse" />
    <linearGradient
       inkscape:collect="always"
       xlink:href="#linearGradient4232"
       id="linearGradient4336"
       x1="1956.4867"
       y1="1758.8628"
       x2="1955.2883"
       y2="1705.3795"
       gradientUnits="userSpaceOnUse" />
    <linearGradient
       inkscape:collect="always"
       xlink:href="#linearGradient4232"
       id="linearGradient4344"
       x1="1956.4867"
       y1="1758.8628"
       x2="1955.2883"
       y2="1705.3795"
       gradientUnits="userSpaceOnUse" />
    <linearGradient
       inkscape:collect="always"
       xlink:href="#linearGradient4232"
       id="linearGradient4352"
       x1="1956.4867"
       y1="1758.8628"
       x2="1955.2883"
       y2="1705.3795"
       gradientUnits="userSpaceOnUse" />
  </defs>
  <sodipodi:namedview
     pagecolor="#ffffff"
     bordercolor="#666666"
     borderopacity="1"
     objecttolerance="10"
     gridtolerance="10"
     guidetolerance="10"
     inkscape:pageopacity="0"
     inkscape:pageshadow="2"
     inkscape:window-width="1366"
     inkscape:window-height="715"
     id="namedview4"
     showgrid="false"
     inkscape:zoom="0.46000001"
     inkscape:cx="546.26841"
     inkscape:cy="628.35418"
     inkscape:window-x="1592"
     inkscape:window-y="124"
     inkscape:window-maximized="1"
     inkscape:current-layer="layer1" />
  <g
     inkscape:groupmode="layer"
     id="layer2"
     inkscape:label="artwork"
     sodipodi:insensitive="true">
    <image
       sodipodi:absref="G:\Aslan's Works &amp; Design Projects\2. Personal Projects\3. Translation Projects\1. Pepper &amp; Carrot Translation Project\Episode 14\lang\fa\../gfx_Pepper-and-Carrot_by-David-Revoy_E14P05.png"
       xlink:href="../gfx_Pepper-and-Carrot_by-David-Revoy_E14P05.png"
       y="0"
       x="0"
       id="image10"
       height="3503"
       width="2481" />
  </g>
  <g
     inkscape:groupmode="layer"
     id="layer3"
     inkscape:label="speechbubbles">
    <path
       style="fill:#ffffff;fill-rule:evenodd;stroke:none;stroke-width:1.18813753px;stroke-linecap:butt;stroke-linejoin:miter;stroke-opacity:1"
       d="m 276.95207,254.90407 c 0,-45.11245 -7.9605,-78.94678 31.84195,-82.70615 39.80246,-3.75937 127.36785,-6.5789 148.59582,0 27.86171,-3.75937 84.91189,4.69921 95.52588,9.39842 10.614,4.69922 23.88148,70.4882 21.22799,86.46552 -2.65351,15.97732 -14.59424,36.65386 -35.82221,39.47339 -21.22799,2.81953 -87.56539,4.69921 -104.81313,5.63905 -17.24773,0.93985 -84.91189,3.75937 -104.81312,-3.75937 -19.90123,-7.51874 -25.20822,-20.67653 -25.20822,-20.67653 0,0 -30.51521,-7.51874 -26.53496,-33.83433 z"
       id="path4440"
       inkscape:connector-curvature="0" />
    <path
       style="fill:#ffffff;fill-rule:evenodd;stroke:none;stroke-width:1.06563199px;stroke-linecap:butt;stroke-linejoin:miter;stroke-opacity:1"
       d="m 646.59334,346.06879 c 1.81168,-22.39656 2.20236,-44.71358 47.57528,-69.54835 22.19019,-7.1297 47.14167,-12.40475 91.41913,-4.69921 22.98704,-2.02462 27.38191,5.31653 36.38109,10.33827 27.73375,-2.58584 48.62533,4.01964 69.03079,11.27811 22.4612,-3.2062 30.40529,8.21355 41.04532,16.91716 17.78605,9.05395 24.08483,23.89459 27.0526,40.41323 -1.66765,17.43557 -2.17456,35.33893 -15.85842,47.93198 -15.56653,34.87803 -42.03451,39.55227 -67.16508,47.93197 -20.83285,12.46912 -48.6215,20.03267 -94.21768,15.03748 -80.66818,4.10041 -81.577,-8.54029 -107.27757,-15.97733 -16.33839,-11.2386 -32.22521,-22.75017 -36.38109,-41.35307 -13.37879,-20.90511 -5.37395,-39.85167 8.39563,-58.27024 z"
       id="path4442"
       inkscape:connector-curvature="0"
       sodipodi:nodetypes="ccccccccccccc" />
    <path
       style="color:#000000;display:inline;overflow:visible;visibility:visible;fill:#ffffff;fill-opacity:1;fill-rule:nonzero;stroke:none;stroke-width:0.84709769px;marker:none;enable-background:accumulate"
       d="m 1116.8279,382.38982 c 10.3831,-20.18866 32.2235,-37.16548 60.8666,-44.04798 28.6431,-6.88251 81.6329,-5.0472 90.942,-2.753 9.3089,2.29416 60.5085,10.55313 71.6077,22.02397 11.0994,11.47085 26.1369,25.69469 29.3592,40.37731 3.2224,14.68268 0.3581,50.01285 -10.025,57.81304 -10.3832,7.80017 -57.6443,24.777 -85.2134,25.69463 -27.569,0.91768 -91.6579,-6.42367 -109.918,-11.4708 -18.2599,-5.04719 -37.5941,-11.47085 -43.3226,-27.52999 -5.7287,-16.05921 -16.4698,-37.16554 -4.2965,-60.10718 z"
       id="path3533"
       inkscape:connector-curvature="0" />
    <path
       style="fill:#ffffff;fill-rule:evenodd;stroke:none;stroke-width:1px;stroke-linecap:butt;stroke-linejoin:miter;stroke-opacity:1"
       d="m 532.85872,282.1595 c 108.46432,85.46643 201.45864,107.77733 422.76207,131.26148 70.44461,7.47541 458.14911,11.44158 478.07031,12.23835 22.2085,0.88825 103.2041,19.66336 135.2856,37.49051 -29.2751,-29.03069 -97.2656,-42.24132 -118.8317,-47.5327 -61.2168,-15.01995 -418.6614,-9.54779 -500.9663,-15.56754 -40.70969,-2.97749 -260.83615,-55.14213 -294.54908,-70.46092 -37.82328,-17.18649 -126.81478,-74.9138 -126.81478,-74.9138 z"
       id="path4460"
       inkscape:connector-curvature="0"
       sodipodi:nodetypes="csscssscc" />
    <path
       style="fill:#ffffff;fill-opacity:1;stroke:none"
       d="m 444.42034,1155.9599 c 30.18372,6.3033 41.79277,12.1564 36.37508,15.7585 12.38312,1.8009 17.02683,48.6262 5.41769,57.1808 -0.77397,0.9007 -6.19156,3.602 -3.86975,4.0523 2.32181,0.4502 16.25277,-0.9005 18.57458,0.9003 2.32181,1.8012 -20.89639,27.465 -17.80071,28.3656 3.09588,0.9004 74.2984,-16.2088 84.35951,-12.1567 10.06121,4.0523 4.64371,14.4078 7.73949,14.8581 3.09559,0.4503 31.73156,-2.2512 35.60131,-1.801 3.86955,0.4503 10.83489,13.9575 14.70463,14.4078 3.86975,0.4502 21.67045,-5.8531 24.76623,-5.403 3.09578,0.4503 1.54775,11.7065 5.41749,12.1566 3.86975,0.4502 20.89639,-9.455 23.21829,-9.0049 2.32172,0.4503 10.83518,22.9626 14.70483,24.3131 3.86975,1.3508 28.63578,-24.7632 30.95769,-25.2135 2.32171,-0.4503 17.02654,30.6166 20.12241,31.0668 3.09578,0.4503 18.57446,-21.1615 20.89637,-20.7113 2.32181,0.4502 17.02663,13.0572 20.12232,13.9576 3.09578,0.9004 23.21829,-27.9151 26.31397,-27.9151 3.09587,0 29.40975,12.1566 31.73166,14.4077 2.32181,2.2513 4.64352,-11.7062 7.7393,-11.7062 3.09578,0 38.69699,8.1044 39.47105,7.6542 0.77387,-0.4503 -5.41768,-9.005 -3.09587,-9.005 2.32181,0 38.69699,11.2561 40.24502,9.005 1.54775,-2.2513 78.94187,11.2561 84.35947,9.4551 5.4176,-1.801 -34.82739,-36.92 -30.95784,-39.6215 3.86975,-2.7015 17.80093,0.4502 18.57484,-0.9005 0.7739,-1.3507 -8.51345,-7.2039 -6.19171,-9.0048 2.322,-1.8009 28.63591,-9.0049 30.95761,-11.256 2.3219,-2.2513 -11.609,-8.1045 -8.5133,-9.4553 3.0958,-1.3507 48.7585,-9.9053 49.5323,-12.1565 0.7739,-2.2513 -23.2182,-13.057 -20.1225,-16.2088 3.0958,-3.1517 11.6092,-4.5024 10.8352,-6.7536 -0.774,-2.2512 -15.4789,-4.9527 -14.7049,-7.204 0.774,-2.2511 8.5133,-13.5073 10.8351,-15.3081 2.3219,-1.8011 -16.2527,-0.9006 -16.2527,-2.7016 0,-1.8009 1.3669,-28.8449 28.8631,-45.2079 -48.0926,10.8391 -68.33411,5.5865 -93.87405,1.9846 -25.54021,-3.6021 -15.47881,-26.1141 -19.34846,-27.465 -3.86975,-1.3506 -32.50562,7.6543 -36.37537,4.5025 -3.86965,-3.1516 -5.41749,-9.0048 -8.51337,-9.0048 -3.09558,0 -20.89638,12.6067 -24.76594,12.1566 -3.86974,-0.4503 -40.24492,-20.261 -45.66261,-20.7112 -5.41749,-0.4502 -26.31387,7.6541 -30.95759,8.1044 -4.64362,0.4502 -8.51327,-10.8059 -12.38301,-9.9053 -3.86975,0.9003 -28.63579,9.0047 -32.50534,8.1043 -3.86975,-0.9006 -6.96553,-4.5024 -10.06138,-3.6019 -3.09559,0.9004 -17.02664,4.5023 -17.02664,4.5023 0,0 -10.06121,-2.7014 -14.70483,-2.7014 -4.64362,0 -36.37508,14.8581 -40.24483,15.7585 -3.86974,0.9004 -43.59745,-15.3461 -41.27564,-18.0476 -4.93102,11.8226 -28.75775,19.2563 -33.79662,19.8486 -5.41749,1.3506 -21.67035,-2.7014 -23.2181,-1.3507 -1.54794,1.3507 -6.19156,8.5545 -10.83527,9.0049 -4.64362,0.4502 -15.4788,2.2511 -15.4788,2.2511 l 1.54784,2.7015 c 0,0 -32.50543,-7.2039 -36.37518,-9.9054 -3.86965,-2.7014 2.32191,11.7063 4.64372,15.3083 -13.93086,-3.602 -54.94975,-11.2561 -58.04534,-13.5073 -3.09588,-2.2512 5.41739,8.1044 10.06101,11.2562 -6.19146,-1.3509 -11.60914,-1.8011 -11.60914,-1.8011 l 17.8007,10.8058 -5.41768,0.9006 c 0,0 11.60914,4.9527 11.60914,7.2039 0,2.2512 -30.18353,4.9527 -30.18353,4.9527 0,0 12.38302,4.052 9.28724,6.3032 -3.09587,2.2513 -10.83527,3.6021 -10.83527,3.6021 l -1.54774,5.8531 z"
       id="path5888"
       inkscape:connector-curvature="0"
       sodipodi:nodetypes="cccsccsscccccccsccscscsccsccccccsccscscssccsccscscccccccsccccccsccccc" />
    <path
       style="color:#000000;display:inline;overflow:visible;visibility:visible;fill:#ffffff;fill-opacity:1;fill-rule:nonzero;stroke:none;stroke-width:1px;marker:none;enable-background:accumulate"
       d="m 1001.5954,1236.5662 c 42.6212,26.8313 96.2172,54.3217 109.5529,59.8583 -0.1257,-15.4 8.674,-28.8272 10.9088,-39.3494 23.8311,12.087 139.6406,63.2512 157.7592,86.2438 -42.1379,-58.18 -134.076,-99.2843 -174.7203,-116.5248 -5.904,13.2622 -7.3093,22.0583 -10.6283,28.9634 -20.7371,-7.757 -81.7976,-45.1678 -81.7976,-45.1678 z"
       id="path5066"
       inkscape:connector-curvature="0"
       sodipodi:nodetypes="cccccccc" />
    <path
       style="color:#000000;display:inline;overflow:visible;visibility:visible;fill:#ffffff;fill-opacity:1;fill-rule:nonzero;stroke:none;stroke-width:1px;marker:none;enable-background:accumulate"
       d="m 635.86075,2911.9919 c -39.55156,-35.0668 -85.65988,-65.0712 -117.59331,-106.0199 l 4.0885,44.3251 c -20.1647,-9.0852 -31.88657,-27.8044 -46.47536,-43.2525 l -2.66904,27.7953 c -47.28802,-21.9682 -76.79877,-57.0987 -114.9018,-85.8672 l -0.23637,48.752 c 42.45277,24.9963 89.04879,43.4727 126.84109,75.803 l 5.77292,-26.9299 c 14.83868,9.5053 29.26651,19.5611 41.85939,32.0767 l 3.81661,-34.3598 z"
       id="path4032"
       inkscape:connector-curvature="0"
       sodipodi:nodetypes="cccccccccccc" />
    <path
       style="fill:#ffffff;fill-rule:evenodd;stroke:none;stroke-width:1px;stroke-linecap:butt;stroke-linejoin:miter;stroke-opacity:1"
       d="m 297.48061,2585.2233 c 10.80907,28.6703 23.83712,40.1434 43.31448,1.6345 15.88805,9.3062 15.78078,38.1623 67.83212,3.269 -29.87463,44.0445 -17.34353,47.6109 0,46.5835 -25.19619,57.0601 -3.70944,48.2148 5.72078,56.3906 -30.87927,34.4658 -26.83314,50.6373 -12.25882,61.2941 -10.41151,20.8792 -17.68526,41.1308 4.08627,55.5733 -17.02673,5.6974 -41.13559,3.1323 -33.50743,37.5937 -27.03627,-21.8029 -45.90514,-15.8367 -62.11133,-0.8173 -13.98253,-19.9805 -25.33708,-45.217 -64.5631,-14.7106 21.72388,-33.8017 13.12891,-50.7597 -4.08627,-62.9286 32.34197,-32.7226 7.09452,-44.1159 -17.9796,-55.5733 45.33089,-3.9346 32.4477,-40.2104 20.43136,-76.0046 21.2249,7.1893 42.525,14.905 53.12154,-52.3043 z"
       id="path4489"
       inkscape:connector-curvature="0"
       sodipodi:nodetypes="cccccccccccccc" />
  </g>
  <g
     inkscape:groupmode="layer"
     id="layer1"
     inkscape:label="txt">
    <text
       xml:space="preserve"
       style="font-style:normal;font-variant:normal;font-weight:normal;font-stretch:normal;line-height:0%;font-family:Midan;-inkscape-font-specification:Midan;text-align:center;letter-spacing:0px;word-spacing:0px;text-anchor:middle;fill:#000000;fill-opacity:1;stroke:none"
       x="1233.3999"
       y="425.24164"
       id="text4246"><tspan
         sodipodi:role="line"
         style="font-style:normal;font-variant:normal;font-weight:normal;font-stretch:normal;font-size:70px;line-height:100%;font-family:Midan;-inkscape-font-specification:Midan;direction:rtl"
         x="1233.3999"
         y="425.24164"
         id="tspan4252">باشه.</tspan></text>
    <text
       xml:space="preserve"
       style="font-style:normal;font-variant:normal;font-weight:normal;font-stretch:normal;line-height:0%;font-family:Midan;-inkscape-font-specification:Midan;text-align:center;letter-spacing:0px;word-spacing:0px;text-anchor:middle;fill:#000000;fill-opacity:1;stroke:none"
       x="422.25626"
       y="253.46867"
       id="text4246-4"><tspan
         sodipodi:role="line"
         style="font-style:normal;font-variant:normal;font-weight:normal;font-stretch:normal;font-size:69.33333588px;line-height:100%;font-family:Midan;-inkscape-font-specification:Midan;direction:rtl"
         x="422.25626"
         y="253.46867"
         id="tspan3537">خیلی سخته...</tspan></text>
    <text
       xml:space="preserve"
       style="font-style:normal;font-variant:normal;font-weight:normal;font-stretch:normal;line-height:0%;font-family:Midan;-inkscape-font-specification:Midan;text-align:center;letter-spacing:0px;word-spacing:0px;text-anchor:middle;fill:#000000;fill-opacity:1;stroke:none"
       x="791.70447"
       y="381.24918"
       id="text4246-4-9"><tspan
         sodipodi:role="line"
         style="font-style:normal;font-variant:normal;font-weight:normal;font-stretch:normal;font-size:69.33333588px;line-height:100%;font-family:Midan;-inkscape-font-specification:Midan;direction:rtl"
         x="791.70447"
         y="381.24918"
         id="tspan4162-1">تسلیم میشم...</tspan></text>
    <text
       xml:space="preserve"
       style="font-style:normal;font-variant:normal;font-weight:normal;font-stretch:normal;line-height:0%;font-family:Midan;-inkscape-font-specification:Midan;text-align:center;letter-spacing:0px;word-spacing:0px;text-anchor:middle;fill:#000000;fill-opacity:1;stroke:none"
       x="760.8222"
       y="1217.5323"
       id="text4246-4-9-8"><tspan
         sodipodi:role="line"
         style="font-style:normal;font-variant:normal;font-weight:900;font-stretch:normal;font-size:48px;line-height:100%;font-family:midan;-inkscape-font-specification:'midan Heavy';direction:rtl"
         x="760.8222"
         y="1217.5323"
         id="tspan3541">فلفل هیچوقت تسلیم نمیشه!</tspan></text>
    <text
       xml:space="preserve"
       style="font-style:normal;font-variant:normal;font-weight:normal;font-stretch:normal;line-height:0%;font-family:Midan;-inkscape-font-specification:Midan;text-align:center;letter-spacing:0px;word-spacing:0px;text-anchor:middle;fill:#000000;fill-opacity:1;stroke:none"
       x="767.7915"
       y="1158.7135"
       id="text4246-5"><tspan
         sodipodi:role="line"
         style="font-style:normal;font-variant:normal;font-weight:900;font-stretch:normal;font-size:70px;line-height:100%;font-family:Midan;-inkscape-font-specification:'Midan Heavy';direction:rtl;stroke:none;stroke-width:2.18458223;stroke-miterlimit:4;stroke-dasharray:none;stroke-opacity:1"
         x="767.7915"
         y="1158.7135"
         id="tspan4252-1">نـــــه!</tspan></text>
    <text
       xml:space="preserve"
       style="color:#000000;font-style:normal;font-variant:normal;font-weight:normal;font-stretch:normal;line-height:0%;font-family:Arial;-inkscape-font-specification:Arial;letter-spacing:0.02734961px;word-spacing:0px;display:inline;overflow:visible;visibility:visible;opacity:0.7;fill:url(#linearGradient4238);fill-opacity:1;fill-rule:nonzero;stroke:#854611;stroke-width:0.07121496;stroke-linecap:butt;stroke-linejoin:miter;stroke-miterlimit:4;stroke-dasharray:none;stroke-dashoffset:0;stroke-opacity:1;marker:none;filter:url(#filter5561-7);enable-background:accumulate"
       x="1705.2566"
       y="1742.2045"
       id="text4251"
       transform="matrix(1.0496631,-0.00680912,-0.72183224,1.8831671,879.01182,-1289.318)"><tspan
         sodipodi:role="line"
         id="tspan4253"
         x="1705.2566"
         y="1742.2045"
         style="font-style:normal;font-variant:normal;font-weight:normal;font-stretch:normal;font-size:79.76074982px;line-height:100%;font-family:'XP Vosta';-inkscape-font-specification:'XP Vosta';direction:rtl;fill:url(#linearGradient4238);fill-opacity:1;stroke:#854611;stroke-width:0.07121496;stroke-miterlimit:4;stroke-dasharray:none;stroke-opacity:1">قوققولی قوقو!!</tspan></text>
    <text
       xml:space="preserve"
       style="font-style:normal;font-variant:normal;font-weight:normal;font-stretch:normal;line-height:0%;font-family:Midan;-inkscape-font-specification:Midan;text-align:center;letter-spacing:0px;word-spacing:0px;text-anchor:middle;fill:#000000;fill-opacity:1;stroke:none"
       x="306.60962"
       y="1878.7064"
       id="text4246-4-9-8-0"><tspan
         sodipodi:role="line"
         style="font-style:normal;font-variant:normal;font-weight:normal;font-stretch:normal;font-size:74.66666412px;line-height:100%;font-family:Midan;-inkscape-font-specification:Midan;direction:rtl"
         x="306.60962"
         y="1878.7064"
         id="tspan4205-3">روز بعد...</tspan></text>
    <text
       xml:space="preserve"
       style="font-style:normal;font-variant:normal;font-weight:normal;font-stretch:normal;line-height:0%;font-family:Midan;-inkscape-font-specification:Midan;text-align:center;letter-spacing:0px;word-spacing:0px;text-anchor:middle;fill:#000000;fill-opacity:1;stroke:none"
       x="-372.02823"
       y="2778.2061"
       id="text4246-4-9-8-0-3"
       transform="matrix(0.9106769,-0.80340828,0.24287987,0.88381324,0,0)"><tspan
         sodipodi:role="line"
         style="font-style:normal;font-variant:normal;font-weight:900;font-stretch:normal;font-size:141.04251099px;line-height:100%;font-family:midan;-inkscape-font-specification:'midan Heavy';direction:rtl"
         x="-372.02823"
         y="2778.2061"
         id="tspan4205-3-3"><tspan
   style="font-style:normal;font-variant:normal;font-weight:900;font-stretch:normal;font-size:121.45326996px;line-height:100%;font-family:midan;-inkscape-font-specification:'midan Heavy';direction:rtl"
   id="tspan4438">!</tspan>!</tspan></text>
  </g>
</svg>
