<?xml version="1.0" encoding="UTF-8" standalone="no"?>
<!-- Created with Inkscape (http://www.inkscape.org/) -->

<svg
   xmlns:dc="http://purl.org/dc/elements/1.1/"
   xmlns:cc="http://creativecommons.org/ns#"
   xmlns:rdf="http://www.w3.org/1999/02/22-rdf-syntax-ns#"
   xmlns:svg="http://www.w3.org/2000/svg"
   xmlns="http://www.w3.org/2000/svg"
   xmlns:xlink="http://www.w3.org/1999/xlink"
   xmlns:sodipodi="http://sodipodi.sourceforge.net/DTD/sodipodi-0.dtd"
   xmlns:inkscape="http://www.inkscape.org/namespaces/inkscape"
   id="svg2"
   version="1.1"
   inkscape:version="0.91 r13725"
   width="2481"
   height="3503"
   sodipodi:docname="E24P03.svg">
  <metadata
     id="metadata8">
    <rdf:RDF>
      <cc:Work
         rdf:about="">
        <dc:format>image/svg+xml</dc:format>
        <dc:type
           rdf:resource="http://purl.org/dc/dcmitype/StillImage" />
        <dc:title />
      </cc:Work>
    </rdf:RDF>
  </metadata>
  <defs
     id="defs6">
    <filter
       style="color-interpolation-filters:sRGB"
       id="filter4375-4-1-1-1-9-5-8"
       inkscape:label="Drop Shadow">
      <feFlood
         id="feFlood4377-7-9-0-8-1-7-3"
         flood-opacity="1"
         flood-color="rgb(200,55,55)"
         result="flood" />
      <feComposite
         id="feComposite4379-3-8-8-2-77-4-1"
         in2="SourceGraphic"
         in="flood"
         operator="in"
         result="composite1" />
      <feMorphology
         id="feMorphology4393-1-0-49-8-9-3-0"
         operator="dilate"
         radius="6.2000000000000002"
         result="result3" />
      <feComposite
         id="feComposite4385-9-5-7-0-8-8-7"
         in2="result3"
         in="SourceGraphic"
         operator="over"
         result="fbSourceGraphic" />
      <feColorMatrix
         result="fbSourceGraphicAlpha"
         in="fbSourceGraphic"
         values="0 0 0 -1 0 0 0 0 -1 0 0 0 0 -1 0 0 0 0 1 0"
         id="feColorMatrix4544" />
      <feTurbulence
         id="feTurbulence4546"
         type="fractalNoise"
         numOctaves="3"
         seed="37"
         baseFrequency="0.129 0.0050000000000000001"
         result="turbulence" />
      <feDisplacementMap
         id="feDisplacementMap4548"
         in2="turbulence"
         in="fbSourceGraphic"
         scale="6.6"
         yChannelSelector="G"
         xChannelSelector="R"
         result="fbSourceGraphic" />
      <feColorMatrix
         result="fbSourceGraphicAlpha"
         in="fbSourceGraphic"
         values="0 0 0 -1 0 0 0 0 -1 0 0 0 0 -1 0 0 0 0 1 0"
         id="feColorMatrix4670" />
      <feFlood
         id="feFlood4672"
         flood-opacity="1"
         flood-color="rgb(80,22,22)"
         result="flood"
         in="fbSourceGraphic" />
      <feComposite
         id="feComposite4674"
         in2="fbSourceGraphic"
         in="flood"
         operator="in"
         result="composite1" />
      <feGaussianBlur
         id="feGaussianBlur4676"
         in="composite1"
         stdDeviation="0"
         result="blur" />
      <feOffset
         id="feOffset4678"
         dx="6"
         dy="6"
         result="offset" />
      <feComposite
         id="feComposite4680"
         in2="offset"
         in="fbSourceGraphic"
         operator="over"
         result="composite2" />
    </filter>
    <filter
       inkscape:collect="always"
       style="color-interpolation-filters:sRGB"
       id="filter4210"
       x="-0.0015578248"
       width="1.0031157"
       y="-0.0045528179"
       height="1.0091056">
      <feGaussianBlur
         inkscape:collect="always"
         stdDeviation="0.2079876"
         id="feGaussianBlur4212" />
    </filter>
  </defs>
  <sodipodi:namedview
     pagecolor="#ffffff"
     bordercolor="#666666"
     borderopacity="1"
     objecttolerance="10"
     gridtolerance="10"
     guidetolerance="10"
     inkscape:pageopacity="0"
     inkscape:pageshadow="2"
     inkscape:window-width="1366"
     inkscape:window-height="715"
     id="namedview4"
     showgrid="false"
     inkscape:zoom="0.43942712"
     inkscape:cx="1297.2122"
     inkscape:cy="561.91699"
     inkscape:window-x="-8"
     inkscape:window-y="-8"
     inkscape:window-maximized="1"
     inkscape:current-layer="layer1"
     inkscape:snap-global="false" />
  <g
     inkscape:groupmode="layer"
     id="layer2"
     inkscape:label="artwork"
     sodipodi:insensitive="true">
    <image
       sodipodi:absref="D:\GitHub\webcomics\ep24_The-Unity-Tree\lang\cn\..\gfx_Pepper-and-Carrot_by-David-Revoy_E24P03.png"
       xlink:href="../gfx_Pepper-and-Carrot_by-David-Revoy_E24P03.png"
       y="0"
       x="0"
       id="image10"
       height="3503"
       width="2481" />
  </g>
  <g
     inkscape:groupmode="layer"
     id="layer3"
     inkscape:label="speechbubbles"
     style="display:inline">
    <path
       style="color:#000000;display:inline;overflow:visible;visibility:visible;fill:#ffffff;fill-opacity:1;fill-rule:nonzero;stroke:none;stroke-width:0.99999994px;marker:none;enable-background:accumulate"
       d="m 496.34824,1317.3928 c 0.30278,22.9688 -19.81751,42.5512 -115.01798,44.6155 -95.20044,2.0644 -114.88706,-28.9299 -115.49969,-42.2829 10.26566,-43.9619 70.31524,-56.2296 106.76278,-56.0964 23.51678,0.5158 89.88224,4.9457 105.07449,15.6148 15.19219,10.669 19.71245,19.6265 18.6804,38.149 z"
       id="path3365-0"
       inkscape:connector-curvature="0"
       sodipodi:nodetypes="cccccc" />
    <path
       style="color:#000000;display:inline;overflow:visible;visibility:visible;fill:#ffffff;fill-opacity:1;fill-rule:nonzero;stroke:none;stroke-width:0.99999994px;marker:none;enable-background:accumulate"
       d="m 337.41075,1383.9315 c -1.47861,-10.1237 25.13633,-63.4419 115.33152,-56.6927 90.19519,6.7491 107.93853,45.2192 107.19918,58.7175 -0.73932,13.4982 -22.91838,34.4205 -36.22593,37.7952 -13.30745,3.3744 -48.05479,11.4734 -70.23398,8.7738 -22.17907,-2.6998 -90.19514,-16.198 -103.50266,-28.3465 -13.30747,-12.1484 -11.08954,-17.5477 -12.56813,-20.2473 z"
       id="path3365"
       inkscape:connector-curvature="0" />
    <path
       style="fill:#ffffff;fill-opacity:1;fill-rule:evenodd;stroke:#fff6d5;stroke-width:0.67046696px;stroke-linecap:butt;stroke-linejoin:miter;stroke-opacity:1"
       d="m 1849.8699,835.20371 61.8963,-34.72713 118.0346,-1.61521 79.1697,3.23042 126.6713,6.46086 47.5018,17.76738 14.3945,39.57277 -23.0311,41.99556 -67.6542,24.22824 -109.398,1.61519 -134.9792,1.22026 -96.4049,-15.77484 -44.2938,-34.00939 0.7435,-35.42718 z"
       id="path5098"
       inkscape:connector-curvature="0"
       sodipodi:nodetypes="ccccccccccccccc" />
    <path
       style="color:#000000;display:inline;overflow:visible;visibility:visible;fill:#ffffff;fill-opacity:1;fill-rule:nonzero;stroke:none;stroke-width:1px;marker:none;enable-background:accumulate"
       d="m 165.39445,204.57055 c -25.1607,-12.39782 -33.96692,-23.91004 -31.45075,-30.99455 2.51605,-7.08441 25.16058,-43.39235 52.8372,-47.82016 27.67674,-4.4278 99.38445,-9.74112 115.73893,-5.31331 16.35448,4.42772 62.90162,33.65124 62.90162,48.70567 0,15.05452 -8.80622,44.27795 -33.96691,53.13348 -25.16058,8.8556 -135.86743,14.169 -166.06009,-17.71113 z"
       id="path3349"
       inkscape:connector-curvature="0" />
    <path
       style="fill:#ffffff;fill-rule:evenodd;stroke:none;stroke-width:1px;stroke-linecap:butt;stroke-linejoin:miter;stroke-opacity:1"
       d="m 118.80883,278.90688 c 9.12095,-23.61463 33.68275,-41.53173 60.41446,-53.4925 12.72146,-5.77451 27.26234,-10.00621 42.14196,-8.89312 14.78205,0.6651 29.22047,4.63593 44.16604,3.25671 18.17338,-0.45556 36.66583,-2.44305 54.63055,0.3969 15.96997,3.09881 32.42362,4.70372 48.90354,4.79677 11.62607,-1.96693 22.26468,3.27558 32.64745,6.41119 9.3211,3.38703 18.84179,6.94055 26.67096,12.17975 7.21302,7.35468 15.84965,13.75311 23.1469,21.04234 4.77478,3.98496 4.31601,9.48926 4.09604,14.58338 -0.62013,10.43171 -1.67029,21.02804 -5.56813,31.07807 -2.33256,6.38042 -10.95412,8.49198 -17.57877,11.42391 -15.67493,6.18927 -32.31967,10.88278 -47.27945,18.16628 -14.82083,3.72944 -30.57127,1.98503 -45.77073,1.42141 -12.73612,-1.11015 -25.54797,-2.65825 -38.39353,-1.36723 -16.34937,0.94474 -32.64909,3.39098 -49.05693,3.07764 -20.55453,-2.15012 -40.24019,-7.44427 -60.15928,-11.69111 -17.871,-3.74319 -34.15897,-10.78192 -49.78769,-18.31159 -8.34827,-4.27583 -17.18592,-9.24581 -20.13215,-17.12562 -2.41519,-5.42594 -2.98428,-11.23578 -3.09124,-16.95318 z"
       id="path4365"
       inkscape:connector-curvature="0" />
    <path
       style="fill:#ffffff;stroke:none;stroke-width:1"
       d="m 262.57318,447.9106 c -23.27266,-23.83534 -20.48879,-35.75842 -16.41183,-49.14873 4.07679,-13.39047 8.97204,-25.16536 5.766,-32.83447 -3.20588,-7.66895 -10.93987,-14.22751 -17.30992,-18.09351 -6.37002,-3.86612 0.37438,-12.96194 1.66184,-22.47971 1.28739,-9.51792 -6.96124,-58.99857 -6.96124,-58.99857 0,0 -18.46628,33.89095 -21.4884,46.01372 -3.02229,12.1226 -4.17691,16.54274 -4.30975,21.64038 -0.13267,5.09782 1.0675,17.51673 6.55388,23.65787 5.48637,6.14113 13.38767,8.34016 18.4974,11.72826 5.10986,3.388 3.10789,14.22244 1.75318,24.94735 -1.3548,10.72489 -0.91888,18.61083 7.73931,32.21546 7.42161,11.66179 24.50953,21.35195 24.50953,21.35195 z"
       id="path3023-2"
       inkscape:connector-curvature="0"
       sodipodi:nodetypes="csssscssssssc" />
    <text
       xml:space="preserve"
       style="font-style:normal;font-variant:normal;font-weight:normal;font-stretch:normal;font-size:10.6579771px;line-height:0.01%;font-family:Arial;-inkscape-font-specification:Arial;letter-spacing:0px;word-spacing:0px;fill:#b8764f;fill-opacity:1;stroke:none;stroke-width:0.99999994"
       x="146.31161"
       y="792.88184"
       id="text969"
       transform="matrix(0.93043638,-0.40475701,0,1.0747645,0,0)"
       sodipodi:linespacing="0.0099999997%"><tspan
         sodipodi:role="line"
         x="146.31161"
         y="792.88184"
         id="tspan967"
         style="fill:#b8764f;fill-opacity:1;stroke-width:0.99999994"><tspan
           x="146.31161"
           y="792.88184"
           style="font-style:normal;font-variant:normal;font-weight:normal;font-stretch:normal;font-size:42.63190842px;line-height:1.25;font-family:'小赖字体 SC';-inkscape-font-specification:'小赖字体 SC';fill:#b8764f;fill-opacity:1;stroke-width:0.99999994"
           id="tspan965">嗞~~</tspan></tspan></text>
    <path
       style="fill:#ffffff;fill-rule:evenodd;stroke:none;stroke-width:1px;stroke-linecap:butt;stroke-linejoin:miter;stroke-opacity:1"
       d="m 370.97128,1548.8957 c 34.54669,1.1959 83.59442,-18.7033 52.12277,-69.4699 56.47337,33.678 100.13838,24.2103 183.52271,-40.2063 -1.47311,82.0628 37.11457,71.8179 71.27691,53.7914 -31.90286,29.7205 29.98768,41.3762 62.7871,40.7264 -64.92897,64.01 -27.27335,80.4581 1.56546,100.994 -69.13686,-11.9888 -50.31605,20.4329 -57.08491,39.934 -61.35447,-39.0429 -103.02682,-26.0066 -133.68078,16.1838 -19.06347,-20.5486 -27.75576,-65.0776 -87.42715,8.2687 19.50997,-61.1734 -11.17322,-52.8327 -59.48106,-20.0832 6.45489,-20.8238 51.20296,-54.8312 -27.6371,-46.2897 48.01675,-22.6039 56.51496,-49.4327 -5.96395,-83.8492 z"
       id="path4584"
       inkscape:connector-curvature="0"
       sodipodi:nodetypes="cccccccccccc" />
    <path
       style="color:#000000;display:inline;overflow:visible;visibility:visible;fill:#ffffff;fill-opacity:1;fill-rule:nonzero;stroke:none;stroke-width:1px;marker:none;enable-background:accumulate"
       d="m 811.85574,1691.333 c -13.81416,11.4352 -28.07371,23.5268 -45.37048,28.6126 -4.94334,1.3415 -10.13724,2.383 -15.17734,1.997 -5.10914,-1.5938 -7.95117,-6.8567 -8.29553,-12.0924 -1.01963,-7.5052 0.9934,-15.9414 -3.08945,-22.6298 -3.09088,-4.7908 -9.22063,-4.9463 -14.32973,-5.5392 -13.06169,-1.2494 -26.43419,-0.6991 -39.15272,-4.0712 -14.5982,-2.8393 -29.71536,-6.9131 -40.9249,-17.0755 -4.36621,-4.0993 -8.34623,-9.031 -9.60144,-15.1479 -3.92579,-15.5158 0.93662,-33.8932 13.48534,-44.6997 8.61929,-6.1452 22.04985,-4.5663 27.3382,4.6491 2.86475,4.8194 1.99218,10.9537 -0.28824,15.9992 -2.51679,10.0054 0.79504,20.6754 7.64932,27.7427 5.55929,5.9304 12.9599,9.9511 20.86509,11.8157 9.98256,5.4504 21.83723,2.9201 32.79926,2.915 5.00527,0.073 10.31159,0.497 14.65191,3.0035 5.29618,5.1051 4.90278,13.2996 3.78431,20.2236 -0.97364,7.164 -2.89521,15.3934 1.47098,21.6216 2.44167,4.7598 8.43508,2.4997 12.74015,2.4695 13.91862,-1.9388 27.23033,-8.2543 38.53704,-16.9232 1.01948,-0.9054 1.96415,-1.8854 2.90823,-2.8706 z"
       id="path4496"
       inkscape:connector-curvature="0"
       inkscape:transform-center-x="15.738959"
       inkscape:transform-center-y="-33.216744" />
    <text
       xml:space="preserve"
       style="font-style:normal;font-variant:normal;font-weight:normal;font-stretch:normal;font-size:66.33062744px;line-height:0.01%;font-family:Arial;-inkscape-font-specification:Arial;letter-spacing:0.01132977px;word-spacing:0px;display:inline;fill:#ffffff;fill-opacity:1;stroke:#fc5959;stroke-width:3.02600002;stroke-miterlimit:4;stroke-dasharray:none;stroke-opacity:1"
       x="2100.5652"
       y="1099.4115"
       id="text1105"
       transform="matrix(1.0092628,0.17044443,-0.63347357,0.88384115,0,0)"
       sodipodi:linespacing="0.0099999997%"><tspan
         sodipodi:role="line"
         x="2127.418"
         y="1099.4115"
         id="tspan1103"
         style="font-style:normal;font-variant:normal;font-weight:normal;font-stretch:normal;font-family:Lavi;-inkscape-font-specification:Lavi;fill:#ffffff;fill-opacity:1;stroke:#fc5959;stroke-width:3.02600002;stroke-miterlimit:4;stroke-dasharray:none;stroke-opacity:1"><tspan
           x="2127.418"
           y="1099.4115"
           style="font-style:normal;font-variant:normal;font-weight:normal;font-stretch:normal;font-size:54.77391434px;font-family:'小赖字体 SC';-inkscape-font-specification:'小赖字体 SC';fill:#ffffff;fill-opacity:1;stroke:#fc5959;stroke-width:3.02600002;stroke-miterlimit:4;stroke-dasharray:none;stroke-opacity:1"
           id="tspan1095">嗡~~~~</tspan></tspan></text>
    <path
       style="color:#000000;display:inline;overflow:visible;visibility:visible;fill:#ffffff;fill-opacity:1;fill-rule:nonzero;stroke:none;stroke-width:1px;marker:none;enable-background:accumulate"
       d="m 840.39099,2415.7647 c -69.73645,-4.2669 -169.34955,-11.9318 -190.02994,-43.987 -20.68034,-32.0554 12.19681,-84.3189 52.25191,-102.7314 40.05497,-18.4126 106.78152,-24.2185 167.26051,-19.1564 60.47903,5.0621 142.00623,2.6573 161.46763,32.7494 19.4617,30.092 47.4562,83.3426 -8.2671,110.0561 -63.50017,30.4419 -182.55349,23.2266 -182.68301,23.0693 z"
       id="path3970-1"
       inkscape:connector-curvature="0"
       sodipodi:nodetypes="ccccssc" />
    <path
       style="opacity:1;fill:#ffffff;fill-rule:evenodd;stroke:none;stroke-width:1px;stroke-linecap:butt;stroke-linejoin:miter;stroke-opacity:1"
       d="m 740.99257,2678.9224 c 81.33155,-3.7713 135.73985,-70.9891 126.35903,-170.042 -0.7356,-13.0761 -2.22429,-73.8821 -3.69549,-94.3134 -1.4712,-20.4314 -28.77037,-38.6153 -26.56347,-14.9149 2.2069,23.7004 2.37118,102.019 6.25838,120.7638 11.59073,90.9486 -48.83803,137.4097 -102.35845,158.5065 z"
       id="path4272"
       inkscape:connector-curvature="0"
       sodipodi:nodetypes="ccsscc" />
    <path
       style="fill:#ffffff;fill-opacity:1;stroke:none;stroke-width:0.99999982"
       d="m 1593.4233,2350.7086 c 25.098,-70.7842 30.9041,-98.0224 312.3599,-94.9217 246.2087,2.7124 304.5049,37.7798 320.7901,84.5971 16.719,32.205 52.9928,97.2208 -95.3931,131.7221 -148.3863,34.5014 -444.9775,16.4402 -492.2134,-14.4894 -51.731,-35.7433 -44.1765,-83.0686 -45.5435,-106.9081 z"
       id="path3238"
       inkscape:connector-curvature="0"
       sodipodi:nodetypes="cscccc" />
    <path
       style="fill:#ffffff;stroke:none;stroke-width:1"
       d="m 1710.9672,2711.8059 c -28.0273,-50.6036 -13.2215,-93.7285 1.8965,-108.2057 15.1178,-14.4771 50.6778,-42.8284 50.9445,-56.9806 0.2668,-14.1522 -15.4826,-50.9134 -21.5889,-63.5846 -7.7887,-16.1627 79.2563,-67.9419 87.5629,-79.9355 8.3067,-11.9938 19.7346,-62.3727 19.7346,-62.3727 0,0 -50.6027,28.0238 -63.2766,41.8377 -12.6739,13.8139 -6.0044,5.2923 -9.6101,12.305 -3.6058,7.0127 -71.1709,62.8269 -66.9634,77.2471 4.2073,14.4202 23.4056,61.9081 28.8814,72.067 5.4761,10.1588 -29.6375,37.3716 -38.8524,50.9878 -9.2149,13.6163 -19.5808,32.142 -19.0015,56.4166 0.5543,23.2298 30.273,60.2179 30.273,60.2179 z"
       id="path3023"
       inkscape:connector-curvature="0"
       sodipodi:nodetypes="csssscssssssc" />
    <path
       style="fill:#ffffff;fill-rule:evenodd;stroke:none;stroke-width:1px;stroke-linecap:butt;stroke-linejoin:miter;stroke-opacity:1"
       d="m 1680.9386,155.02093 -41.7106,52.75582 9.3617,76.38932 118.449,21.10553 241.1283,-10.55277 63.4549,-56.28141 16.9212,-66.83415 -44.4184,-65.07537 -301.5668,4.27478 z"
       id="path5054"
       inkscape:connector-curvature="0"
       sodipodi:nodetypes="cccccccccc" />
    <path
       style="color:#000000;display:inline;overflow:visible;visibility:visible;fill:#ffffff;fill-opacity:1;fill-rule:nonzero;stroke:none;stroke-width:1.23743427px;marker:none;enable-background:accumulate"
       d="m 2194.9249,390.7352 c -72.7552,-1.15715 -103.4818,-14.80085 -121.4255,-35.17732 -17.9436,-20.37652 -3.0399,-53.27342 28.485,-64.92189 31.5249,-11.64849 74.177,-12.829 123.5478,-11.28681 89.2103,2.78663 151.0004,11.56823 157.9856,43.16595 6.9357,31.37276 1.3684,48.0176 -64.2081,62.95799 -61.7324,8.59876 -124.3848,5.26208 -124.3848,5.26208 z"
       id="path3970"
       inkscape:connector-curvature="0"
       sodipodi:nodetypes="cccsscc" />
    <path
       style="fill:#ffffff;fill-opacity:1;fill-rule:evenodd;stroke:#fff6d5;stroke-width:1.02381182px;stroke-linecap:butt;stroke-linejoin:miter;stroke-opacity:1"
       d="m 1936.3392,434.72486 -28.9235,89.09616 43.6731,79.95549 212.228,-4.42523 157.6929,-1.99399 82.9278,-34.28601 -2.2663,-137.44188 -67.4923,-44.10895 -160.0612,-9.48368 -149.0521,9.96993 z"
       id="path5075"
       inkscape:connector-curvature="0"
       sodipodi:nodetypes="ccccccccccc" />
    <path
       style="color:#000000;display:inline;overflow:visible;visibility:visible;fill:#ffffff;fill-opacity:1;fill-rule:nonzero;stroke:none;stroke-width:1.23743439px;marker:none;enable-background:accumulate"
       d="m 2172.822,725.14275 c -84.0355,-1.42561 -119.526,-18.2346 -140.2518,-43.33833 -20.7256,-25.10381 -3.5112,-65.63267 32.9014,-79.98355 36.4127,-14.35089 85.6777,-15.80527 142.7031,-13.90531 103.0418,3.43313 174.4121,14.25203 182.4803,53.18031 8.011,38.65111 1.5805,59.15751 -74.1632,77.56401 -71.3036,10.59365 -143.6698,6.48287 -143.6698,6.48287 z"
       id="path3970-36"
       inkscape:connector-curvature="0"
       sodipodi:nodetypes="cccsscc" />
    <path
       style="fill:#ffffff;fill-rule:evenodd;stroke:none;stroke-width:1px;stroke-linecap:butt;stroke-linejoin:miter;stroke-opacity:1"
       d="m 1943.2731,729.12617 c 33.7417,2.37711 83.1505,-8.86576 55.8719,-44.65472 52.9483,25.3572 96.3605,20.93055 182.489,-18.88537 -7.1574,55.47661 31.3379,50.29343 66.0419,39.64259 -33.3063,18.66829 26.4797,29.36578 58.6393,30.41443 -68.0304,40.37812 -32.3068,53.21963 -5.5007,68.4278 -66.8576,-11.25186 -50.6878,11.54652 -58.6735,24.43851 -57.3537,-29.21 -99.0635,-22.27747 -132.0152,4.88772 -17.2343,-14.7732 -22.6439,-45.30676 -86.1767,1.62921 23.3627,-40.51926 -7.2604,-36.26621 -56.84,-16.29228 7.7703,-13.8014 53.952,-34.78842 -23.836,-32.58474 48.5879,-13.12034 58.7768,-30.8935 0,-57.02315 z"
       id="path4584-1"
       inkscape:connector-curvature="0"
       sodipodi:nodetypes="cccccccccccc" />
    <path
       style="fill:#ffffff;fill-opacity:1;fill-rule:evenodd;stroke:none;stroke-width:1px;stroke-linecap:butt;stroke-linejoin:miter;stroke-opacity:1"
       d="m 2210.3848,920.94575 103.155,24.0207 17.1925,79.56825 -54.0902,46.5596 -176.0909,7.6239 -229.4538,0.02 -61.4301,-31.6838 1.3225,-64.55536 71.415,-49.54259 167.9575,-24.0205 z"
       id="path5161"
       inkscape:connector-curvature="0"
       sodipodi:nodetypes="ccccccccccc" />
    <path
       style="color:#000000;display:inline;overflow:visible;visibility:visible;fill:#ffffff;fill-opacity:1;fill-rule:nonzero;stroke:none;stroke-width:1.23743439px;marker:none;enable-background:accumulate"
       d="m 490.47188,1529.0603 c -36.1021,-1.394 -51.34901,-17.8307 -60.25292,-42.3783 -8.90383,-24.5477 -1.50843,-64.1787 14.13462,-78.2117 15.64308,-14.033 36.80759,-15.4551 61.30601,-13.5974 44.26731,3.3572 74.92837,13.9364 78.39451,52.0024 3.44157,37.7949 0.679,57.847 -31.86091,75.8458 -30.6324,10.3589 -61.72131,6.3392 -61.72131,6.3392 z"
       id="path3970-36-4"
       inkscape:connector-curvature="0"
       sodipodi:nodetypes="cccsscc" />
    <path
       style="color:#000000;display:inline;overflow:visible;visibility:visible;fill:#ffffff;fill-opacity:1;fill-rule:nonzero;stroke:none;stroke-width:1px;marker:none;enable-background:accumulate"
       d="m 1663.8731,2265.1373 c -3.5165,-25.3235 8.9906,-44.1378 16.0961,-53.122 7.1056,-8.9843 55.3942,-32.6555 73.7381,-34.6185 18.3439,-1.9629 96.0697,8.2236 111.5859,25.0671 29.6665,41.0213 18.474,80.0335 -42.9956,103.2882 -11.6372,4.3293 -45.7148,10.0318 -56.9894,10.2104 -11.2746,0.1784 -99.3687,-8.8986 -101.4351,-50.8252 z"
       id="path3357"
       inkscape:connector-curvature="0"
       sodipodi:nodetypes="ccccccc" />
    <text
       xml:space="preserve"
       style="font-style:normal;font-variant:normal;font-weight:normal;font-stretch:normal;line-height:0%;font-family:'小赖字体 SC';-inkscape-font-specification:'小赖字体 SC';text-align:center;letter-spacing:0px;word-spacing:0px;text-anchor:middle;display:inline;opacity:0.35800003;fill:#000000;fill-opacity:1;stroke:none;stroke-width:1.45996165;filter:url(#filter4210)"
       x="1174.0292"
       y="1085.962"
       id="text4246-5"
       transform="matrix(0.59859266,-0.06157078,0.00633293,0.63548918,541.82445,2358.5786)"
       sodipodi:linespacing="0%"><tspan
         sodipodi:role="line"
         style="font-style:normal;font-variant:normal;font-weight:normal;font-stretch:normal;font-size:45.00812149px;line-height:1.25;font-family:'小赖字体 SC';-inkscape-font-specification:'小赖字体 SC';stroke:#000000;stroke-width:4.95442009;stroke-miterlimit:4;stroke-dasharray:none;stroke-opacity:1"
         x="1174.0292"
         y="1085.962"
         id="tspan4209">科魔娜日报</tspan></text>
    <path
       style="color:#000000;display:inline;overflow:visible;visibility:visible;fill:#ffffff;fill-opacity:1;fill-rule:nonzero;stroke:none;stroke-width:1px;marker:none;enable-background:accumulate"
       d="m 1589.7943,157.61754 c -8.8614,-24.36709 -33.8637,-38.6263 -43.4322,-37.17458 -9.5684,1.45169 37.9222,-18.88289 66.1459,18.41098 28.2236,37.29379 -9.2438,35.86676 -9.2438,35.86676 z"
       id="path4035-5"
       inkscape:connector-curvature="0" />
    <path
       style="color:#000000;display:inline;overflow:visible;visibility:visible;fill:#ffffff;fill-opacity:1;fill-rule:nonzero;stroke:none;stroke-width:1px;marker:none;enable-background:accumulate"
       d="m 1316.9724,411.08671 c 59.7698,37.7282 26.9131,115.63535 -8.523,127.33445 38.815,-5.69719 107.6543,-77.73022 42.1661,-140.88089 -140.721,-135.6979 -91.9073,-21.1982 -91.9073,-21.1982 z"
       id="path4035"
       inkscape:connector-curvature="0"
       sodipodi:nodetypes="ccscc" />
    <path
       style="color:#000000;display:inline;overflow:visible;visibility:visible;fill:#ffffff;fill-opacity:1;fill-rule:nonzero;stroke:none;stroke-width:0.99999982px;marker:none;enable-background:accumulate"
       d="m 1112.6921,89.58375 c 83.3367,4.792092 338.767,-8.461992 325.2971,159.67372 -15.2624,190.51029 -49.4678,180.14179 -349.7095,182.83157 C 969.43963,433.1537 730.71584,429.72671 722.98019,330.93521 665.94776,20.507733 995.21183,93.312657 1112.6921,89.58375 Z"
       id="path4546-6"
       inkscape:connector-curvature="0"
       sodipodi:nodetypes="csscc" />
    <path
       style="color:#000000;display:inline;overflow:visible;visibility:visible;fill:#ffffff;fill-opacity:1;fill-rule:nonzero;stroke:none;stroke-width:1.23743439px;marker:none;enable-background:accumulate"
       d="m 1603.1577,218.81569 c -72.2705,4.52699 -82.9245,-16.41582 -77.0834,-44.57794 7.3914,-35.63688 40.8892,-42.89308 85.1879,-41.5388 49.1997,0.26824 73.5251,7.0858 79.0271,22.20114 8.6871,23.86573 9.3102,47.69261 -16.5628,58.46055 -32.9494,8.01405 -70.5688,5.45505 -70.5688,5.45505 z"
       id="path3970-6"
       inkscape:connector-curvature="0"
       sodipodi:nodetypes="cscscc" />
  </g>
  <g
     inkscape:groupmode="layer"
     id="layer1"
     inkscape:label="txt"
     style="display:inline">
    <text
       xml:space="preserve"
       style="font-style:normal;font-variant:normal;font-weight:normal;font-stretch:normal;line-height:0%;font-family:'小赖字体 SC';-inkscape-font-specification:'小赖字体 SC';text-align:center;letter-spacing:0px;word-spacing:0px;text-anchor:middle;fill:#000000;fill-opacity:1;stroke:none"
       x="258.49622"
       y="188.50803"
       id="text4246"
       sodipodi:linespacing="0%"><tspan
         sodipodi:role="line"
         style="font-style:normal;font-variant:normal;font-weight:normal;font-stretch:normal;font-size:45px;line-height:1.25;font-family:'小赖字体 SC';-inkscape-font-specification:'小赖字体 SC'"
         x="258.49622"
         y="188.50803"
         id="tspan4252">除非…</tspan></text>
    <text
       xml:space="preserve"
       style="font-style:normal;font-variant:normal;font-weight:normal;font-stretch:normal;line-height:0%;font-family:'小赖字体 SC';-inkscape-font-specification:'小赖字体 SC';text-align:center;letter-spacing:0px;word-spacing:0px;text-anchor:middle;fill:#000000;fill-opacity:1;stroke:none"
       x="280.0769"
       y="293.22519"
       id="text4246-3"
       sodipodi:linespacing="0%"><tspan
         sodipodi:role="line"
         style="font-style:normal;font-variant:normal;font-weight:normal;font-stretch:normal;font-size:45px;line-height:1.25;font-family:'小赖字体 SC';-inkscape-font-specification:'小赖字体 SC'"
         x="280.0769"
         y="293.22519"
         id="tspan3463">我好像记得…</tspan></text>
    <text
       xml:space="preserve"
       style="font-style:normal;font-variant:normal;font-weight:normal;font-stretch:normal;line-height:0%;font-family:'小赖字体 SC';-inkscape-font-specification:'小赖字体 SC';text-align:center;letter-spacing:0px;word-spacing:0px;text-anchor:middle;fill:#000000;fill-opacity:1;stroke:none"
       x="1072.6111"
       y="158.58156"
       id="text4246-3-7"
       sodipodi:linespacing="0%"><tspan
         sodipodi:role="line"
         style="font-style:normal;font-variant:normal;font-weight:normal;font-stretch:normal;font-size:45px;line-height:1.25;font-family:'小赖字体 SC';-inkscape-font-specification:'小赖字体 SC'"
         x="1072.6111"
         y="158.58156"
         id="tspan782">就是这个!</tspan><tspan
         sodipodi:role="line"
         style="font-style:normal;font-variant:normal;font-weight:normal;font-stretch:normal;font-size:45px;line-height:1.25;font-family:'小赖字体 SC';-inkscape-font-specification:'小赖字体 SC'"
         x="1072.6111"
         y="214.83156"
         id="tspan3485">在“毁灭咒语”这一章里，</tspan><tspan
         sodipodi:role="line"
         style="font-style:normal;font-variant:normal;font-weight:normal;font-stretch:normal;font-size:45px;line-height:1.25;font-family:'小赖字体 SC';-inkscape-font-specification:'小赖字体 SC'"
         x="1072.6111"
         y="271.08154"
         id="tspan3477">百里香建议先在一个</tspan><tspan
         sodipodi:role="line"
         style="font-style:normal;font-variant:normal;font-weight:normal;font-stretch:normal;font-size:45px;line-height:1.25;font-family:'小赖字体 SC';-inkscape-font-specification:'小赖字体 SC'"
         x="1072.6111"
         y="327.33154"
         id="tspan3483">小维度里尝试这个魔法。</tspan><tspan
         sodipodi:role="line"
         style="font-style:normal;font-variant:normal;font-weight:normal;font-stretch:normal;font-size:45px;line-height:1.25;font-family:'小赖字体 SC';-inkscape-font-specification:'小赖字体 SC'"
         x="1072.6111"
         y="383.58154"
         id="tspan3479">我记得有几点注意事项：</tspan></text>
    <text
       xml:space="preserve"
       style="font-style:normal;font-variant:normal;font-weight:normal;font-stretch:normal;line-height:0%;font-family:'小赖字体 SC';-inkscape-font-specification:'小赖字体 SC';text-align:center;letter-spacing:0px;word-spacing:0px;text-anchor:middle;fill:#000000;fill-opacity:1;stroke:none"
       x="559.37494"
       y="1574.9316"
       id="text4246-3-7-6"
       sodipodi:linespacing="0%"><tspan
         sodipodi:role="line"
         style="font-style:normal;font-variant:normal;font-weight:normal;font-stretch:normal;font-size:45px;line-height:1.25;font-family:'小赖字体 SC';-inkscape-font-specification:'小赖字体 SC'"
         x="559.37494"
         y="1574.9316"
         id="tspan1059">那就开始</tspan><tspan
         sodipodi:role="line"
         style="font-style:normal;font-variant:normal;font-weight:normal;font-stretch:normal;font-size:45px;line-height:1.25;font-family:'小赖字体 SC';-inkscape-font-specification:'小赖字体 SC'"
         x="559.37494"
         y="1631.1816"
         id="tspan4386">干活吧！</tspan></text>
    <text
       xml:space="preserve"
       style="font-style:normal;font-variant:normal;font-weight:normal;font-stretch:normal;line-height:0%;font-family:'小赖字体 SC';-inkscape-font-specification:'小赖字体 SC';text-align:center;letter-spacing:0px;word-spacing:0px;text-anchor:middle;fill:#000000;fill-opacity:1;stroke:none"
       x="861.66052"
       y="2318.0432"
       id="text4246-3-7-6-1"
       sodipodi:linespacing="0%"><tspan
         sodipodi:role="line"
         style="font-style:normal;font-variant:normal;font-weight:normal;font-stretch:normal;font-size:45px;line-height:1.25;font-family:'小赖字体 SC';-inkscape-font-specification:'小赖字体 SC'"
         x="861.66052"
         y="2318.0432"
         id="tspan4390">小辣椒建了</tspan><tspan
         sodipodi:role="line"
         style="font-style:normal;font-variant:normal;font-weight:normal;font-stretch:normal;font-size:45px;line-height:1.25;font-family:'小赖字体 SC';-inkscape-font-specification:'小赖字体 SC'"
         x="861.66052"
         y="2374.2932"
         id="tspan3569">一个小维度吗？</tspan></text>
    <text
       xml:space="preserve"
       style="font-style:normal;font-variant:normal;font-weight:normal;font-stretch:normal;line-height:0%;font-family:'小赖字体 SC';-inkscape-font-specification:'小赖字体 SC';letter-spacing:0px;word-spacing:0px;fill:#ffffff;fill-opacity:1;stroke:#c83737;stroke-width:0.99236238;stroke-miterlimit:4;stroke-dasharray:none;stroke-opacity:1;filter:url(#filter4375-4-1-1-1-9-5-8)"
       x="787.65729"
       y="1584.5073"
       id="text4580-6-0"
       transform="matrix(0.83434398,-0.14790328,-0.40858731,0.88612324,1099.912,885.91633)"
       sodipodi:linespacing="0%"><tspan
         sodipodi:role="line"
         id="tspan4582-1-1"
         x="787.65729"
         y="1584.5073"
         style="font-style:normal;font-variant:normal;font-weight:normal;font-stretch:normal;font-size:70px;line-height:1.25;font-family:'小赖字体 SC';-inkscape-font-specification:'小赖字体 SC';fill:#ffffff;fill-opacity:1;stroke:#c83737;stroke-opacity:1"><tspan
           style="font-style:normal;font-variant:normal;font-weight:normal;font-stretch:normal;font-size:93.14950562px;font-family:'小赖字体 SC';-inkscape-font-specification:'小赖字体 SC';fill:#ffffff;fill-opacity:1;stroke:#c83737;stroke-opacity:1"
           id="tspan4315-8">呜嗡嗡！！</tspan><tspan
           style="font-style:normal;font-variant:normal;font-weight:normal;font-stretch:normal;font-size:114.73223114px;font-family:'小赖字体 SC';-inkscape-font-specification:'小赖字体 SC';fill:#ffffff;fill-opacity:1;stroke:#c83737;stroke-opacity:1"
           id="tspan4313-2" /></tspan></text>
    <text
       xml:space="preserve"
       style="font-style:normal;font-variant:normal;font-weight:normal;font-stretch:normal;line-height:0%;font-family:'小赖字体 SC';-inkscape-font-specification:'小赖字体 SC';text-align:center;letter-spacing:0px;word-spacing:0px;text-anchor:middle;fill:#000000;fill-opacity:1;stroke:none"
       x="1775.6528"
       y="2253.0674"
       id="text4246-3-7-6-1-7"
       sodipodi:linespacing="0%"><tspan
         sodipodi:role="line"
         style="font-style:normal;font-variant:normal;font-weight:normal;font-stretch:normal;font-size:45px;line-height:1.25;font-family:'小赖字体 SC';-inkscape-font-specification:'小赖字体 SC'"
         x="1775.6528"
         y="2253.0674"
         id="tspan1274">很好！</tspan></text>
    <text
       xml:space="preserve"
       style="font-style:normal;font-variant:normal;font-weight:normal;font-stretch:normal;line-height:0%;font-family:'小赖字体 SC';-inkscape-font-specification:'小赖字体 SC';text-align:center;letter-spacing:0px;word-spacing:0px;text-anchor:middle;fill:#483200;fill-opacity:1;stroke:none;stroke-width:1.79999995;stroke-miterlimit:4;stroke-dasharray:none"
       x="2348.9402"
       y="450.08423"
       id="text4246-3-7-3"
       transform="matrix(1,0,-0.36397023,1,0,0)"
       sodipodi:linespacing="0%"><tspan
         sodipodi:role="line"
         style="font-style:normal;font-variant:normal;font-weight:normal;font-stretch:normal;font-size:45px;line-height:1.25;font-family:'小赖字体 SC';-inkscape-font-specification:'小赖字体 SC';fill:#080600;fill-opacity:1;stroke-width:1.79999995;stroke-miterlimit:4;stroke-dasharray:none"
         x="2348.9402"
         y="450.08423"
         id="tspan4764">“从安全角度着想，</tspan><tspan
         sodipodi:role="line"
         style="font-style:normal;font-variant:normal;font-weight:normal;font-stretch:normal;font-size:45px;line-height:1.25;font-family:'小赖字体 SC';-inkscape-font-specification:'小赖字体 SC';fill:#080600;fill-opacity:1;stroke-width:1.79999995;stroke-miterlimit:4;stroke-dasharray:none"
         x="2348.9402"
         y="506.33423"
         id="tspan3509">不要把尝试结果</tspan><tspan
         sodipodi:role="line"
         style="font-style:normal;font-variant:normal;font-weight:normal;font-stretch:normal;font-size:45px;line-height:1.25;font-family:'小赖字体 SC';-inkscape-font-specification:'小赖字体 SC';fill:#080600;fill-opacity:1;stroke-width:1.79999995;stroke-miterlimit:4;stroke-dasharray:none"
         x="2348.9402"
         y="562.58423"
         id="tspan887-7">带回到现有维度。”</tspan></text>
    <text
       xml:space="preserve"
       style="font-style:normal;font-variant:normal;font-weight:normal;font-stretch:normal;line-height:0%;font-family:'小赖字体 SC';-inkscape-font-specification:'小赖字体 SC';text-align:center;letter-spacing:0px;word-spacing:0px;text-anchor:middle;fill:#000000;fill-opacity:1;stroke:none;stroke-width:1.79999995;stroke-miterlimit:4;stroke-dasharray:none"
       x="1934.8523"
       y="156.90096"
       id="text4246-3-7-3-2"
       transform="matrix(1,0,-0.36397023,1,0,0)"
       sodipodi:linespacing="0%"><tspan
         sodipodi:role="line"
         style="font-style:normal;font-variant:normal;font-weight:normal;font-stretch:normal;font-size:45px;line-height:1.25;font-family:'小赖字体 SC';-inkscape-font-specification:'小赖字体 SC';fill:#000000;fill-opacity:1;stroke-width:1.79999995;stroke-miterlimit:4;stroke-dasharray:none"
         x="1934.8523"
         y="156.90096"
         id="tspan4842">“不要</tspan><tspan
         sodipodi:role="line"
         style="font-style:normal;font-variant:normal;font-weight:normal;font-stretch:normal;font-size:45px;line-height:1.25;font-family:'小赖字体 SC';-inkscape-font-specification:'小赖字体 SC';fill:#000000;fill-opacity:1;stroke-width:1.79999995;stroke-miterlimit:4;stroke-dasharray:none"
         x="1934.8523"
         y="213.15096"
         id="tspan3499">消耗掉所有的魔力</tspan><tspan
         sodipodi:role="line"
         style="font-style:normal;font-variant:normal;font-weight:normal;font-stretch:normal;font-size:45px;line-height:1.25;font-family:'小赖字体 SC';-inkscape-font-specification:'小赖字体 SC';fill:#000000;fill-opacity:1;stroke-width:1.79999995;stroke-miterlimit:4;stroke-dasharray:none"
         x="1934.8523"
         y="269.40097"
         id="tspan3501">来建立小维度。</tspan></text>
    <text
       xml:space="preserve"
       style="font-style:normal;font-variant:normal;font-weight:normal;font-stretch:normal;line-height:0%;font-family:'小赖字体 SC';-inkscape-font-specification:'小赖字体 SC';text-align:center;letter-spacing:0px;word-spacing:0px;text-anchor:middle;fill:#483200;fill-opacity:1;stroke:none;stroke-width:1.29999995;stroke-miterlimit:4;stroke-dasharray:none"
       x="2384.8762"
       y="854.8537"
       id="text4246-3-7-3-7"
       transform="matrix(1,0,-0.36397023,1,0,0)"
       sodipodi:linespacing="0%"><tspan
         sodipodi:role="line"
         style="font-style:normal;font-variant:normal;font-weight:normal;font-stretch:normal;font-size:45px;line-height:1.25;font-family:'小赖字体 SC';-inkscape-font-specification:'小赖字体 SC';fill:#000000;fill-opacity:1;stroke-width:1.29999995;stroke-miterlimit:4;stroke-dasharray:none"
         x="2384.8762"
         y="854.8537"
         id="tspan3553">“不要期待任何</tspan><tspan
         sodipodi:role="line"
         style="font-style:normal;font-variant:normal;font-weight:normal;font-stretch:normal;font-size:45px;line-height:1.25;font-family:'小赖字体 SC';-inkscape-font-specification:'小赖字体 SC';fill:#000000;fill-opacity:1;stroke-width:1.29999995;stroke-miterlimit:4;stroke-dasharray:none"
         x="2384.8762"
         y="911.1037"
         id="tspan3557">小维度外的辅助…</tspan></text>
    <text
       xml:space="preserve"
       style="font-style:normal;font-variant:normal;font-weight:normal;font-stretch:normal;line-height:0%;font-family:'小赖字体 SC';-inkscape-font-specification:'小赖字体 SC';text-align:center;letter-spacing:0px;word-spacing:0px;text-anchor:middle;fill:#000000;fill-opacity:1;stroke:none"
       x="2246.3215"
       y="345.65146"
       id="text4246-3-7-61"
       sodipodi:linespacing="0%"><tspan
         sodipodi:role="line"
         style="font-style:normal;font-variant:normal;font-weight:normal;font-stretch:normal;font-size:45px;line-height:1.25;font-family:'小赖字体 SC';-inkscape-font-specification:'小赖字体 SC'"
         x="2246.3215"
         y="345.65146"
         id="tspan887-1">那是自然。</tspan></text>
    <text
       xml:space="preserve"
       style="font-style:normal;font-variant:normal;font-weight:normal;font-stretch:normal;line-height:0%;font-family:'小赖字体 SC';-inkscape-font-specification:'小赖字体 SC';text-align:center;letter-spacing:0px;word-spacing:0px;text-anchor:middle;fill:#000000;fill-opacity:1;stroke:#000000;stroke-width:0.60000002;stroke-miterlimit:4;stroke-dasharray:none;stroke-opacity:1"
       x="2135.0286"
       y="772.58179"
       id="text4246-3-7-61-9"
       sodipodi:linespacing="0%"><tspan
         sodipodi:role="line"
         style="font-style:normal;font-variant:normal;font-weight:normal;font-stretch:normal;font-size:45px;line-height:1.25;font-family:'小赖字体 SC';-inkscape-font-specification:'小赖字体 SC';stroke:#000000;stroke-width:0.60000002;stroke-miterlimit:4;stroke-dasharray:none;stroke-opacity:1"
         x="2135.0286"
         y="772.58179"
         id="tspan887-1-4">啊！这一条：</tspan></text>
    <text
       xml:space="preserve"
       style="font-style:normal;font-variant:normal;font-weight:normal;font-stretch:normal;line-height:0%;font-family:'小赖字体 SC';-inkscape-font-specification:'小赖字体 SC';text-align:center;letter-spacing:0px;word-spacing:0px;text-anchor:middle;fill:#000000;fill-opacity:1;stroke:none"
       x="2213.0144"
       y="675.17279"
       id="text4246-3-7-61-7"
       sodipodi:linespacing="0%"><tspan
         sodipodi:role="line"
         style="font-style:normal;font-variant:normal;font-weight:normal;font-stretch:normal;font-size:45px;line-height:1.25;font-family:'小赖字体 SC';-inkscape-font-specification:'小赖字体 SC'"
         x="2213.0144"
         y="675.17279"
         id="tspan887-1-8">噗…很明显嘛！</tspan></text>
    <text
       xml:space="preserve"
       style="font-style:normal;font-variant:normal;font-weight:normal;font-stretch:normal;line-height:0%;font-family:'小赖字体 SC';-inkscape-font-specification:'小赖字体 SC';text-align:center;letter-spacing:0px;word-spacing:0px;text-anchor:middle;fill:#000000;fill-opacity:1;stroke:none"
       x="1611.2759"
       y="186.1888"
       id="text4246-3-7-61-4"
       sodipodi:linespacing="0%"><tspan
         sodipodi:role="line"
         style="font-style:normal;font-variant:normal;font-weight:normal;font-stretch:normal;font-size:45px;line-height:1.25;font-family:'小赖字体 SC';-inkscape-font-specification:'小赖字体 SC'"
         x="1611.2759"
         y="186.1888"
         id="tspan887-1-5">嗯……</tspan></text>
    <text
       xml:space="preserve"
       style="font-style:normal;font-variant:normal;font-weight:normal;font-stretch:normal;line-height:0%;font-family:'小赖字体 SC';-inkscape-font-specification:'小赖字体 SC';text-align:center;letter-spacing:0px;word-spacing:0px;text-anchor:middle;fill:#483200;fill-opacity:1;stroke:#483200;stroke-width:1.29999995;stroke-miterlimit:4;stroke-dasharray:none;stroke-opacity:1"
       x="2450.2402"
       y="984.63995"
       id="text4246-3-7-3-7-0"
       transform="matrix(1,0,-0.36397023,1,0,0)"
       sodipodi:linespacing="0%"><tspan
         sodipodi:role="line"
         style="font-style:normal;font-variant:normal;font-weight:normal;font-stretch:normal;font-size:45px;line-height:1.25;font-family:'小赖字体 SC';-inkscape-font-specification:'小赖字体 SC';fill:#000000;fill-opacity:1;stroke:#000000;stroke-width:1.29999995;stroke-miterlimit:4;stroke-dasharray:none;stroke-opacity:1"
         x="2450.2402"
         y="984.63995"
         id="tspan5159">…任何人都不会</tspan><tspan
         sodipodi:role="line"
         style="font-style:normal;font-variant:normal;font-weight:normal;font-stretch:normal;font-size:45px;line-height:1.25;font-family:'小赖字体 SC';-inkscape-font-specification:'小赖字体 SC';fill:#000000;fill-opacity:1;stroke:#000000;stroke-width:1.29999995;stroke-miterlimit:4;stroke-dasharray:none;stroke-opacity:1"
         x="2450.2402"
         y="1040.89"
         id="tspan3549">注意到你在做什么！”</tspan></text>
    <text
       xml:space="preserve"
       style="font-style:normal;font-variant:normal;font-weight:normal;font-stretch:normal;line-height:0%;font-family:'小赖字体 SC';-inkscape-font-specification:'小赖字体 SC';text-align:center;letter-spacing:0px;word-spacing:0px;text-anchor:middle;fill:#000000;fill-opacity:1;stroke:none"
       x="1907.6078"
       y="2334.0767"
       id="text4246-3-7-6-1-7-6"
       sodipodi:linespacing="0%"><tspan
         sodipodi:role="line"
         style="font-style:normal;font-variant:normal;font-weight:normal;font-stretch:normal;font-size:45px;line-height:1.25;font-family:'小赖字体 SC';-inkscape-font-specification:'小赖字体 SC'"
         x="1907.6078"
         y="2334.0767"
         id="tspan1274-5">我希望她读懂了</tspan><tspan
         sodipodi:role="line"
         style="font-style:normal;font-variant:normal;font-weight:normal;font-stretch:normal;font-size:45px;line-height:1.25;font-family:'小赖字体 SC';-inkscape-font-specification:'小赖字体 SC'"
         x="1907.6078"
         y="2390.3267"
         id="tspan3581">我写在“毁灭咒语”一章</tspan><tspan
         sodipodi:role="line"
         style="font-style:normal;font-variant:normal;font-weight:normal;font-stretch:normal;font-size:45px;line-height:1.25;font-family:'小赖字体 SC';-inkscape-font-specification:'小赖字体 SC'"
         x="1907.6078"
         y="2446.5767"
         id="tspan3583">里的所有注意事项。</tspan></text>
    <text
       xml:space="preserve"
       style="font-style:normal;font-variant:normal;font-weight:normal;font-stretch:normal;line-height:0%;font-family:'小赖字体 SC';-inkscape-font-specification:'小赖字体 SC';text-align:center;letter-spacing:0px;word-spacing:0px;text-anchor:middle;fill:#000000;fill-opacity:1;stroke:none"
       x="516.01428"
       y="1473.6793"
       id="text4246-3-7-61-7-7"
       sodipodi:linespacing="0%"><tspan
         sodipodi:role="line"
         style="font-style:normal;font-variant:normal;font-weight:normal;font-stretch:normal;font-size:45px;line-height:1.25;font-family:'小赖字体 SC';-inkscape-font-specification:'小赖字体 SC'"
         x="516.01428"
         y="1473.6793"
         id="tspan5199">完美！</tspan></text>
    <text
       xml:space="preserve"
       style="font-style:normal;font-variant:normal;font-weight:normal;font-stretch:normal;line-height:0%;font-family:'小赖字体 SC';-inkscape-font-specification:'小赖字体 SC';text-align:center;letter-spacing:0px;word-spacing:0px;text-anchor:middle;fill:#000000;fill-opacity:1;stroke:#000000;stroke-width:0.89999998;stroke-miterlimit:4;stroke-dasharray:none;stroke-opacity:1"
       x="390.07968"
       y="1327.1586"
       id="text4246-3-7-61-7-7-2"
       sodipodi:linespacing="0%"><tspan
         sodipodi:role="line"
         style="font-style:normal;font-variant:normal;font-weight:normal;font-stretch:normal;font-size:45px;line-height:1.25;font-family:'小赖字体 SC';-inkscape-font-specification:'小赖字体 SC';stroke:#000000;stroke-width:0.89999998;stroke-miterlimit:4;stroke-dasharray:none;stroke-opacity:1"
         x="390.07968"
         y="1327.1586"
         id="tspan5199-4">任何人？</tspan></text>
    <text
       xml:space="preserve"
       style="font-style:normal;font-variant:normal;font-weight:normal;font-stretch:normal;line-height:0%;font-family:'小赖字体 SC';-inkscape-font-specification:'小赖字体 SC';text-align:center;letter-spacing:0px;word-spacing:0px;text-anchor:middle;fill:#000000;fill-opacity:1;stroke:none"
       x="452.13757"
       y="1391.4679"
       id="text4246-3-7-61-7-7-7"
       sodipodi:linespacing="0%"><tspan
         sodipodi:role="line"
         style="font-style:normal;font-variant:normal;font-weight:normal;font-stretch:normal;font-size:45px;line-height:1.25;font-family:'小赖字体 SC';-inkscape-font-specification:'小赖字体 SC'"
         x="452.13757"
         y="1391.4679"
         id="tspan5199-43">真的吗？</tspan></text>
  </g>
</svg>
