<?xml version="1.0" encoding="UTF-8" standalone="no"?>
<!-- Created with Inkscape (http://www.inkscape.org/) -->

<svg
   xmlns:dc="http://purl.org/dc/elements/1.1/"
   xmlns:cc="http://creativecommons.org/ns#"
   xmlns:rdf="http://www.w3.org/1999/02/22-rdf-syntax-ns#"
   xmlns:svg="http://www.w3.org/2000/svg"
   xmlns="http://www.w3.org/2000/svg"
   xmlns:xlink="http://www.w3.org/1999/xlink"
   xmlns:sodipodi="http://sodipodi.sourceforge.net/DTD/sodipodi-0.dtd"
   xmlns:inkscape="http://www.inkscape.org/namespaces/inkscape"
   id="svg2"
   version="1.1"
   inkscape:version="0.92.3 (2405546, 2018-03-11)"
   width="2481"
   height="3503"
   sodipodi:docname="E26P01.svg">
  <metadata
     id="metadata8">
    <rdf:RDF>
      <cc:Work
         rdf:about="">
        <dc:format>image/svg+xml</dc:format>
        <dc:type
           rdf:resource="http://purl.org/dc/dcmitype/StillImage" />
        <dc:title />
      </cc:Work>
    </rdf:RDF>
  </metadata>
  <defs
     id="defs6" />
  <sodipodi:namedview
     pagecolor="#ffffff"
     bordercolor="#666666"
     borderopacity="1"
     objecttolerance="10"
     gridtolerance="10"
     guidetolerance="10"
     inkscape:pageopacity="0"
     inkscape:pageshadow="2"
     inkscape:window-width="1920"
     inkscape:window-height="1025"
     id="namedview4"
     showgrid="false"
     inkscape:zoom="0.48912286"
     inkscape:cx="1316.0452"
     inkscape:cy="637.0074"
     inkscape:window-x="0"
     inkscape:window-y="27"
     inkscape:window-maximized="1"
     inkscape:current-layer="layer3"
     inkscape:snap-global="false" />
  <g
     inkscape:groupmode="layer"
     id="layer2"
     inkscape:label="artwork"
     sodipodi:insensitive="true">
    <image
       sodipodi:absref="/home/fanick/gitrepos/webcomics/ep26_Books-Are-Great/lang/cs/../gfx_Pepper-and-Carrot_by-David-Revoy_E26P01.png"
       xlink:href="../gfx_Pepper-and-Carrot_by-David-Revoy_E26P01.png"
       width="2481"
       height="3503"
       id="image10"
       x="0"
       y="0" />
  </g>
  <g
     inkscape:groupmode="layer"
     id="layer3"
     inkscape:label="speechbubbles"
     style="display:inline;opacity:1">
    <path
       style="fill:#ffffff;fill-opacity:1;stroke:none;stroke-width:1.55325639"
       d="m 263.13565,1927.064 c -74.9763,0.5243 -110.23163,-12.7609 -127.85539,-24.5204 -29.24284,-19.5124 -34.96195,-136.8759 23.96174,-160.2609 59.2338,-23.5081 174.74783,-18.2804 222.15712,26.9262 47.40911,45.2066 13.5968,104.7285 2.69592,116.9609 -10.90107,12.2323 -39.84583,40.425 -120.95939,40.8942 z"
       id="path3659-8"
       inkscape:connector-curvature="0"
       sodipodi:nodetypes="cssssc" />
    <path
       style="color:#000000;display:inline;overflow:visible;visibility:visible;fill:#ffffff;fill-opacity:1;fill-rule:nonzero;stroke:none;stroke-width:0.77001458px;marker:none;enable-background:accumulate"
       d="m 280.81032,1914.663 c 11.17842,15.8247 25.32183,43.4204 25.79652,49.4209 -6.73911,-0.5556 -13.09406,0.387 -18.03883,1.0204 1.81058,10.7946 32.21158,51.6223 41.64451,56.3046 -23.83945,-10.0592 -58.27989,-45.5693 -59.88737,-63.8703 6.68489,-2.1454 10.75049,-2.4727 14.26692,-3.6967 -0.36416,-9.3034 -20.80365,-30.8908 -20.80365,-30.8908 z"
       id="path5066"
       inkscape:connector-curvature="0"
       sodipodi:nodetypes="cccccccc" />
    <path
       style="color:#000000;display:inline;overflow:visible;visibility:visible;fill:#ffffff;fill-opacity:1;fill-rule:nonzero;stroke:none;stroke-width:1.0564214px;marker:none;enable-background:accumulate"
       d="m 1781.4916,1959.3191 c -35.2368,-49.7059 -33.9975,-154.5338 -23.9296,-176.9014 15.7442,-41.8224 53.4652,-49.2864 101.2868,-49.2864 47.8215,0 387.2606,-25.3961 436.3407,26.7951 49.0799,52.1912 33.6302,149.3892 -9.1574,210.2788 -42.7878,60.8897 -280.3427,48.4632 -280.3427,48.4632 0,0 -170.0839,4.0256 -224.1978,-59.3493 z"
       id="path3992"
       inkscape:connector-curvature="0"
       sodipodi:nodetypes="ccscccc" />
    <path
       style="color:#000000;display:inline;overflow:visible;visibility:visible;fill:#ffffff;fill-opacity:1;fill-rule:nonzero;stroke:none;stroke-width:1px;marker:none;enable-background:accumulate"
       d="m 1982.925,2247.2968 c 97.5172,-13.4683 140.8945,-73.5032 173.5649,-113.8088 15.274,-18.8437 -32.2063,-50.3843 -32.2063,-50.3843 l -20.4844,64.3961 c 4.4776,5.3732 -31.2523,71.0033 -120.8742,99.797 z"
       id="path4000"
       inkscape:connector-curvature="0"
       sodipodi:nodetypes="csccc" />
    <path
       style="color:#000000;display:inline;overflow:visible;visibility:visible;fill:#ffffff;fill-opacity:1;fill-rule:nonzero;stroke:none;stroke-width:0.97838116px;marker:none;enable-background:accumulate"
       d="m 1850.066,2073.1896 c 19.2043,-26.7624 33.4644,-78.3006 174.9042,-60.1781 75.7627,9.7072 161.9006,8.9563 152.9681,102.6247 -8.9325,93.6682 -134.3526,81.6168 -160.0335,82.7188 -25.6808,1.102 -146.825,0.014 -169.0215,-32.9265 -13.8945,-20.6202 -17.9826,-67.3741 1.1827,-92.2389 z"
       id="path4546-6"
       inkscape:connector-curvature="0"
       sodipodi:nodetypes="cssssc" />
    <path
       style="color:#000000;display:inline;overflow:visible;visibility:visible;opacity:1;vector-effect:none;fill:#ffffff;fill-opacity:1;fill-rule:nonzero;stroke:none;stroke-width:1.03262877;stroke-linecap:butt;stroke-linejoin:miter;stroke-miterlimit:4;stroke-dasharray:none;stroke-dashoffset:0;stroke-opacity:1;marker:none;paint-order:stroke fill markers;enable-background:accumulate"
       d="m 884.51324,2731.3616 c -29.22706,-59.4973 -26.09563,-175.5168 -17.74498,-202.2905 -4.89711,-40.0043 13.47267,-73.2862 59.49796,-66.9343 39.50967,5.4525 323.44208,-34.7211 364.15118,27.751 40.7089,62.4721 38.9646,183.3452 3.4747,256.2293 -35.4902,72.8842 -232.9728,52.1788 -232.9728,52.1788 -0.1864,0.4138 -138.1378,23.6083 -176.40606,-66.9343 z"
       id="path3992-0"
       inkscape:connector-curvature="0"
       sodipodi:nodetypes="ccscscc" />
    <path
       style="color:#000000;display:inline;overflow:visible;visibility:visible;fill:#ffffff;fill-opacity:1;fill-rule:nonzero;stroke:none;stroke-width:1.1471467px;marker:none;enable-background:accumulate"
       d="m 1107.7917,2663.674 c -41.0805,41.3971 -74.3212,126.4523 -32.6058,262.3106 -64.481,-107.4324 -40.7404,-218.5665 -31.5488,-251.0486 9.1915,-32.4819 64.1546,-11.262 64.1546,-11.262 z"
       id="path4008"
       inkscape:connector-curvature="0" />
    <path
       style="color:#000000;display:inline;overflow:visible;visibility:visible;fill:#ffffff;fill-opacity:1;fill-rule:nonzero;stroke:none;stroke-width:1.1471467px;marker:none;enable-background:accumulate"
       d="m 1891.9827,2656.832 c -40.4116,58.3597 -53.3089,167.7072 24.2468,263.2149 -108.4132,-99.3198 -82.2954,-214.0613 -72.6196,-244.9782 2.0322,-33.6961 48.3728,-18.2367 48.3728,-18.2367 z"
       id="path4008-0"
       inkscape:connector-curvature="0"
       sodipodi:nodetypes="cccc" />
    <path
       style="color:#000000;display:inline;overflow:visible;visibility:visible;opacity:1;fill:#ffffff;fill-opacity:1;fill-rule:nonzero;stroke:none;stroke-width:1.38467789px;marker:none;enable-background:accumulate"
       d="m 1845.4241,2722.2568 c -92.6163,-10.4242 -108.0458,-30.3133 -130.1359,-78.2771 -22.0902,-47.9639 19.2387,-182.3484 38.5715,-193.2681 12.3106,-4.169 214.692,-1.5291 294.776,9.4957 80.0843,11.0249 116.4378,3.778 142.7409,78.8148 22.7934,65.0243 -27.8182,163.0754 -133.721,178.3382 -105.9032,15.263 -212.2315,4.8965 -212.2315,4.8965 z"
       id="path3970"
       inkscape:connector-curvature="0"
       sodipodi:nodetypes="csccssc" />
    <path
       style="color:#000000;display:inline;overflow:visible;visibility:visible;opacity:1;vector-effect:none;fill:#ffffff;fill-opacity:1;fill-rule:nonzero;stroke:none;stroke-width:0.68380499;stroke-linecap:butt;stroke-linejoin:miter;stroke-miterlimit:4;stroke-dasharray:none;stroke-dashoffset:0;stroke-opacity:1;marker:none;paint-order:stroke fill markers;enable-background:accumulate"
       d="m 1280.1571,2633.581 c -21.8187,-34.9488 -19.481,-103.0986 -13.2471,-118.8253 -3.6557,-23.4987 10.0577,-43.0486 44.4166,-39.3175 29.4948,3.2028 241.4567,-20.395 271.8469,16.3012 30.3901,36.696 29.0879,107.6968 2.5939,150.5089 -26.4941,42.8121 -173.9193,30.6496 -173.9193,30.6496 -0.1391,0.2431 -103.1229,13.8677 -131.691,-39.3169 z"
       id="path3992-0-9"
       inkscape:connector-curvature="0"
       sodipodi:nodetypes="ccscscc" />
  </g>
  <g
     inkscape:groupmode="layer"
     id="layer1"
     inkscape:label="txt">
    <text
       xml:space="preserve"
       style="font-style:normal;font-variant:normal;font-weight:normal;font-stretch:normal;line-height:0%;font-family:Lavi;-inkscape-font-specification:Lavi;text-align:center;letter-spacing:0px;word-spacing:0px;text-anchor:middle;fill:#000000;fill-opacity:1;stroke:none"
       x="251.54498"
       y="1813.4113"
       id="text4246"><tspan
         sodipodi:role="line"
         style="font-size:45px;line-height:1.25"
         x="258.57623"
         y="1813.4113"
         id="tspan344">Knížky jsou </tspan><tspan
         sodipodi:role="line"
         style="font-size:45px;line-height:1.25"
         x="251.54498"
         y="1869.6613"
         id="tspan346">skvělé!</tspan></text>
    <text
       xml:space="preserve"
       style="font-style:normal;font-variant:normal;font-weight:normal;font-stretch:normal;line-height:0%;font-family:Lavi;-inkscape-font-specification:Lavi;text-align:center;letter-spacing:0px;word-spacing:0px;text-anchor:middle;fill:#000000;fill-opacity:1;stroke:none"
       x="2006.2861"
       y="2066.4292"
       id="text4246-3-5-9"><tspan
         sodipodi:role="line"
         style="font-size:45px;line-height:1.25"
         x="2013.4492"
         y="2066.4292"
         id="tspan958">Tohle </tspan><tspan
         sodipodi:role="line"
         style="font-size:45px;line-height:1.25"
         x="2013.4492"
         y="2122.6792"
         id="tspan394">je učiněný </tspan><tspan
         sodipodi:role="line"
         style="font-size:45px;line-height:1.25"
         x="2006.2861"
         y="2178.9292"
         id="tspan396">poklad.</tspan></text>
    <text
       xml:space="preserve"
       style="font-style:normal;font-variant:normal;font-weight:normal;font-stretch:normal;line-height:0%;font-family:Lavi;-inkscape-font-specification:Lavi;text-align:center;letter-spacing:0px;word-spacing:0px;text-anchor:middle;fill:#000000;fill-opacity:1;stroke:none"
       x="2037.9106"
       y="1779.5626"
       id="text4246-3-3"><tspan
         sodipodi:role="line"
         style="font-size:45px;line-height:1.25"
         x="2044.9419"
         y="1779.5626"
         id="tspan362">Tato unikátní kniha </tspan><tspan
         sodipodi:role="line"
         style="font-size:45px;line-height:1.25"
         x="2044.9419"
         y="1835.8126"
         id="tspan378">obsahuje poznámky od </tspan><tspan
         sodipodi:role="line"
         style="font-size:45px;line-height:1.25"
         x="2044.9419"
         y="1892.0626"
         id="tspan370">zkušeného cestovatele </tspan><tspan
         sodipodi:role="line"
         style="font-size:45px;line-height:1.25"
         x="2044.9419"
         y="1948.3126"
         id="tspan412">a popisuje všechno o této </tspan><tspan
         sodipodi:role="line"
         style="font-size:45px;line-height:1.25"
         x="2037.9106"
         y="2004.5626"
         id="tspan416">tvrzi.</tspan></text>
    <text
       xml:space="preserve"
       style="font-style:normal;font-variant:normal;font-weight:normal;font-stretch:normal;font-size:11.89694405px;line-height:0%;font-family:Lavi;-inkscape-font-specification:Lavi;text-align:center;letter-spacing:0px;word-spacing:0px;text-anchor:middle;fill:#000000;fill-opacity:1;stroke:none;stroke-width:0.99141198"
       x="1236.443"
       y="2516.9072"
       id="text4246-3-3-1"
       transform="scale(0.991412,1.0086624)"><tspan
         sodipodi:role="line"
         style="font-size:44.61354065px;line-height:1.25;stroke-width:0.99141198"
         x="1243.5446"
         y="2516.9072"
         id="tspan434">Kupříkdladu: toto ďábelské  oko </tspan><tspan
         sodipodi:role="line"
         style="font-size:44.61354065px;line-height:1.25;stroke-width:0.99141198"
         x="1236.443"
         y="2572.6741"
         id="tspan446">na vstupní bráně plive smrtící</tspan><tspan
         sodipodi:role="line"
         style="font-size:44.61354065px;line-height:1.25;stroke-width:0.99141198"
         x="1236.443"
         y="2628.4412"
         id="tspan473">ohnivé koule aby zapudilo</tspan><tspan
         sodipodi:role="line"
         style="font-size:44.61354065px;line-height:1.25;stroke-width:0.99141198"
         x="1243.5446"
         y="2684.208"
         id="tspan481">nezvané                     </tspan><tspan
         sodipodi:role="line"
         style="font-size:44.61354065px;line-height:1.25;stroke-width:0.99141198"
         x="1243.5446"
         y="2739.9749"
         id="tspan448"> návštěvníky.                      </tspan><tspan
         sodipodi:role="line"
         style="font-size:44.61354065px;line-height:1.25;stroke-width:0.99141198"
         x="1236.443"
         y="2759.3599"
         id="tspan428" /></text>
    <text
       xml:space="preserve"
       style="font-style:normal;font-variant:normal;font-weight:normal;font-stretch:normal;line-height:0%;font-family:Lavi;-inkscape-font-specification:Lavi;text-align:center;letter-spacing:0px;word-spacing:0px;text-anchor:middle;fill:#000000;fill-opacity:1;stroke:none"
       x="1947.2107"
       y="2509.6555"
       id="text4246-3-3-1-2"><tspan
         sodipodi:role="line"
         style="font-size:45px;line-height:1.25"
         x="1954.2419"
         y="2509.6555"
         id="tspan1230">Ovšem když se </tspan><tspan
         sodipodi:role="line"
         style="font-size:45px;line-height:1.25"
         x="1954.2419"
         y="2565.9055"
         id="tspan501">k němu připlížíš </tspan><tspan
         sodipodi:role="line"
         style="font-size:45px;line-height:1.25"
         x="1954.2419"
         y="2622.1555"
         id="tspan497">opatrně z boku </tspan><tspan
         sodipodi:role="line"
         style="font-size:45px;line-height:1.25"
         x="1947.2107"
         y="2678.4055"
         id="tspan511">mimo jeho pohled...</tspan></text>
  </g>
</svg>
