<?xml version="1.0" encoding="UTF-8" standalone="no"?>
<svg
   sodipodi:docname="E35P11.svg"
   height="3503"
   width="2481"
   inkscape:version="1.2.1 (9c6d41e410, 2022-07-14)"
   version="1.1"
   id="svg2"
   xmlns:inkscape="http://www.inkscape.org/namespaces/inkscape"
   xmlns:sodipodi="http://sodipodi.sourceforge.net/DTD/sodipodi-0.dtd"
   xmlns:xlink="http://www.w3.org/1999/xlink"
   xmlns="http://www.w3.org/2000/svg"
   xmlns:svg="http://www.w3.org/2000/svg"
   xmlns:rdf="http://www.w3.org/1999/02/22-rdf-syntax-ns#"
   xmlns:cc="http://creativecommons.org/ns#"
   xmlns:dc="http://purl.org/dc/elements/1.1/">
  <metadata
     id="metadata8">
    <rdf:RDF>
      <cc:Work
         rdf:about="">
        <dc:format>image/svg+xml</dc:format>
        <dc:type
           rdf:resource="http://purl.org/dc/dcmitype/StillImage" />
        <dc:title />
      </cc:Work>
    </rdf:RDF>
  </metadata>
  <defs
     id="defs6">
    <filter
       height="1.0177793"
       width="1.0057504"
       y="-0.0088896747"
       x="-0.0028751909"
       inkscape:label="deevad outline effect"
       id="filter4375-4-1-1-1-9-3-2-3-8-7-6-4-9"
       style="color-interpolation-filters:sRGB">
      <feFlood
         result="flood"
         flood-color="rgb(95,141,211)"
         flood-opacity="1"
         id="feFlood4377-7-9-0-8-1-6-9-6-7-5-32-7-4" />
      <feComposite
         result="composite1"
         operator="in"
         in="flood"
         in2="SourceGraphic"
         id="feComposite4379-3-8-8-2-77-7-1-0-9-9-0-6-8" />
      <feMorphology
         result="result3"
         radius="4"
         operator="dilate"
         id="feMorphology4393-1-0-49-8-9-5-2-6-2-2-6-5-1" />
      <feComposite
         result="composite2"
         operator="over"
         in="SourceGraphic"
         in2="result3"
         id="feComposite4385-9-5-7-0-8-3-7-2-0-2-1-6-2" />
    </filter>
  </defs>
  <sodipodi:namedview
     inkscape:pagecheckerboard="0"
     inkscape:snap-global="false"
     inkscape:document-rotation="0"
     inkscape:current-layer="layer3"
     inkscape:window-maximized="1"
     inkscape:window-y="36"
     inkscape:window-x="1283"
     inkscape:cy="1231.5089"
     inkscape:cx="1239.7533"
     inkscape:zoom="0.48517716"
     showgrid="false"
     id="namedview4"
     inkscape:window-height="1388"
     inkscape:window-width="1261"
     inkscape:pageshadow="2"
     inkscape:pageopacity="0"
     guidetolerance="10"
     gridtolerance="10"
     objecttolerance="10"
     borderopacity="1"
     bordercolor="#666666"
     pagecolor="#ffffff"
     inkscape:showpageshadow="2"
     inkscape:deskcolor="#d1d1d1" />
  <g
     sodipodi:insensitive="true"
     inkscape:label="artwork"
     id="layer2"
     inkscape:groupmode="layer">
    <image
       xlink:href="../gfx_Pepper-and-Carrot_by-David-Revoy_E35P11.png"
       width="2481"
       height="3503"
       id="image10"
       x="0"
       y="0" />
  </g>
  <g
     inkscape:label="speechbubbles"
     id="layer3"
     inkscape:groupmode="layer">
    <path
       sodipodi:nodetypes="zssssz"
       inkscape:connector-curvature="0"
       id="path4040-4-9-2"
       d="m 640.13614,1526.6704 c 37.1469,-24.9106 358.74559,-35.5556 443.92906,7.541 71.1007,35.9724 43.3598,122.5341 -19.8737,141.6334 -63.2329,19.099 -273.58571,13.6696 -365.77858,3.2265 -87.7804,-9.9423 -102.5202,-36.2614 -106.83805,-88.8787 -1.76226,-21.4761 11.41412,-38.612 48.56127,-63.5222 z"
       style="color:#000000;display:inline;overflow:visible;visibility:visible;fill:#ffffff;fill-opacity:1;fill-rule:nonzero;stroke:none;stroke-width:1.21525px;marker:none;enable-background:accumulate" />
    <path
       sodipodi:nodetypes="ccsc"
       inkscape:connector-curvature="0"
       id="path5010-4"
       d="m 669.06932,349.81223 c 33.46845,54.26318 16.77932,109.75225 -42.25383,148.97796 101.91057,-50.70471 112.5118,-145.0271 95.84592,-167.01491 -16.31806,-21.52888 -53.59209,18.03695 -53.59209,18.03695 z"
       style="color:#000000;display:inline;overflow:visible;visibility:visible;fill:#ffffff;fill-opacity:1;fill-rule:nonzero;stroke:none;stroke-width:1.36564px;marker:none;enable-background:accumulate" />
    <path
       sodipodi:nodetypes="csssc"
       inkscape:connector-curvature="0"
       id="path3280-8-1"
       d="m 1232.9062,90.296875 c -47.316,1.846763 -94.6232,6.908914 -139.7572,17.173655 -15.3101,3.98441 -29.2423,11.69661 -35.6242,22.41266 -12.4266,17.92021 -12.6878,39.16073 -3.9835,57.90197 8.9613,16.76154 30.0296,29.274 53.4992,35.724 24.8137,6.85665 51.721,8.30896 78.0438,10.01945 30.8568,1.73338 61.8915,2.61106 92.8219,1.41189 38.79,-2.24463 77.6417,-9.60428 110.5915,-24.38125 21.2498,-11.24286 31.2124,-30.84379 28.3678,-49.05363 -1.4776,-15.55356 -8.8651,-31.58897 -25.2585,-42.6438 -15.4089,-10.0076 -36.2023,-14.16997 -55.989,-18.05002 -33.4411,-6.371697 -67.9288,-10.820059 -102.7118,-10.514925 z"
       style="display:inline;fill:#ffffff;stroke:none;stroke-width:0.508534" />
    <path
       sodipodi:nodetypes="cscssssc"
       inkscape:connector-curvature="0"
       id="path4546-6-7"
       d="m 1954.0432,80.042241 c -36.3744,0.406432 -73.7631,6.568789 -103.7392,22.208449 -24.9852,13.16571 -45.9074,31.61855 -54.3354,53.53875 -4.6853,13.03951 -6.2346,26.75881 -4.113,40.16175 3.6109,21.10953 18.1249,40.74776 38.1285,56.00596 16.6774,12.70148 38.0746,22.1213 61.4713,26.47524 56.7933,12.34459 115.981,17.93543 175.0613,19.84518 56.153,1.52074 113.1294,-1.50162 167.1223,-13.43241 35.4184,-8.85512 68.8463,-24.40452 90.1684,-47.26665 17.3779,-19.38443 22.4439,-43.2101 21.4004,-65.9967 -0.6847,-21.44646 -8.7479,-43.71351 -28.6433,-60.02958 -18.8363,-15.127089 -46.5652,-22.876397 -74.0257,-24.641498 -67.8164,-7.607729 -136.6195,-5.079663 -204.9508,-6.383948 -27.8469,-0.270672 -55.6947,-0.607176 -83.5448,-0.484543 z"
       style="color:#000000;display:inline;overflow:visible;visibility:visible;fill:#ffffff;fill-opacity:1;fill-rule:nonzero;stroke:none;stroke-width:0.818997px;marker:none;enable-background:accumulate" />
    <path
       sodipodi:nodetypes="zssssz"
       inkscape:connector-curvature="0"
       id="path4040-4-9"
       d="m 552.76188,1388.2962 c 31.93806,-25.3329 308.44158,-39.6345 381.68011,2.4936 61.13111,35.164 37.27981,122.0411 -17.08671,141.8593 -54.36626,19.818 -235.22294,16.7802 -314.48834,7.3854 -75.47159,-8.9443 -88.14456,-35.0958 -91.85696,-87.6639 -1.51515,-21.4561 9.81361,-38.7418 41.7519,-64.0744 z"
       style="color:#000000;display:inline;overflow:visible;visibility:visible;fill:#ffffff;fill-opacity:1;fill-rule:nonzero;stroke:none;stroke-width:0.985823px;marker:none;enable-background:accumulate" />
    <path
       inkscape:connector-curvature="0"
       id="path1079"
       d="M 1085.5371 1635.3711 C 1052.8898 1636.0254 1020.2721 1637.7241 987.68188 1639.7022 C 967.39616 1641.1984 946.8575 1642.9465 927.41722 1649.3049 C 902.37529 1658.3442 882.43559 1679.0032 872.14074 1703.3192 C 867.40038 1714.6592 864.0808 1726.5633 861.61613 1738.589 C 859.36641 1750.7134 859.68421 1763.6035 864.5293 1775.0898 C 870.11617 1789.1838 879.50704 1801.3734 889.53711 1812.584 C 908.4962 1832.8007 934.12774 1847.0885 961.72534 1850.84 C 985.53689 1854.7634 1009.5998 1856.8771 1033.6332 1858.8993 C 1073.6819 1861.5709 1113.8633 1862.1241 1153.9807 1860.9939 C 1187.725 1859.951 1221.4648 1857.6599 1254.9312 1853.1421 C 1272.7188 1850.2909 1290.8599 1845.7776 1305.7903 1835.2475 C 1320.3 1824.7651 1330.1352 1808.5092 1333.8866 1791.1089 C 1337.6668 1777.854 1340.8885 1763.729 1337.7663 1749.9963 C 1333.8761 1733.5495 1325.2282 1718.8217 1317.123 1704.1738 C 1308.6807 1689.856 1297.7144 1676.364 1282.87 1668.3568 C 1264.9043 1658.097 1244.5739 1653.3561 1224.8492 1647.7395 C 1193.6568 1639.6004 1161.3366 1637.0569 1129.2077 1636.2733 C 1114.6575 1635.7282 1100.0998 1635.2439 1085.5371 1635.3711 z "
       style="fill:#ffffff;fill-rule:evenodd;stroke:none;stroke-width:0.952453px;stroke-linecap:butt;stroke-linejoin:miter;stroke-opacity:1" />
    <path
       sodipodi:nodetypes="csccc"
       inkscape:connector-curvature="0"
       id="path3072-12"
       d="m 1404.4998,1793.8153 c -45.9909,-29.4273 -78.0349,-27.5278 -104.8526,-18.0354 -25.7868,9.1275 -19.8278,10.3608 -19.8278,10.3608 l 10.5667,-48.0852 c -3.1179,-4.3789 71.5596,-1.8389 114.1137,55.7598 z"
       style="color:#000000;display:inline;overflow:visible;visibility:visible;fill:#ffffff;fill-opacity:1;fill-rule:nonzero;stroke:none;stroke-width:0.939237px;marker:none;enable-background:accumulate" />
    <path
       sodipodi:nodetypes="csssc"
       inkscape:connector-curvature="0"
       id="path3280-8-1-3"
       d="m 1327.112,164.63743 c -52.3304,0.57552 -105.2948,6.63836 -154.0901,24.20435 -40.0011,16.48507 -72.4211,48.70929 -83.6336,87.31527 -7.2935,26.68517 -6.5997,54.41901 -6.1931,81.71854 1.8451,31.04556 19.3743,60.05179 43.5488,81.78549 14.2857,13.10556 31.8781,22.91103 50.4788,30.23868 41.9239,17.03758 87.9294,24.72077 133.6664,26.12017 34.3712,0.82357 68.744,-0.16027 103.106,-0.65022 42.6573,-1.10856 85.6141,-2.94606 127.3407,-11.43318 23.1936,-4.94485 46.614,-12.18064 65.0437,-26.21227 24.1988,-18.43111 39.8127,-44.65135 47.8149,-72.00642 8.2077,-28.7348 6.1997,-59.20437 -1.834,-87.83366 -6.9262,-27.36281 -20.1004,-54.37528 -42.9058,-74.09834 -23.5915,-20.65926 -54.3606,-33.31474 -85.7755,-41.01927 -48.3471,-12.38136 -98.7649,-15.68721 -148.7252,-17.54069 -15.9428,-0.47804 -31.8938,-0.5672 -47.842,-0.58845 z"
       style="display:inline;fill:#ffffff;stroke:none;stroke-width:0.988861"
       inkscape:transform-center-x="-10.286839"
       inkscape:transform-center-y="27.577932" />
    <path
       sodipodi:nodetypes="csssc"
       inkscape:connector-curvature="0"
       id="path3280-8-1-1"
       d="m 2015.5479,209.41854 c -56.0686,0.51905 -113.1315,9.31627 -164.7742,36.71618 -28.2599,16.1073 -51.652,47.05952 -57.7992,84.39353 -5.9205,36.76262 -3.7497,75.2223 5.207,111.01093 10.7027,33.5826 34.5243,59.08314 61.2432,74.20908 39.3308,23.80845 83.5502,32.56366 127.1072,36.39776 59.0604,5.82125 118.4929,11.51027 177.7234,5.85396 45.3358,-4.51735 90.7726,-18.74311 129.5056,-48.02423 22.1711,-17.07448 42.9111,-38.87726 54.834,-67.51711 10.0593,-23.32748 12.4031,-50.59266 9.1582,-76.32597 -3.9622,-30.84309 -17.4181,-59.6668 -37.2172,-79.96465 -23.7034,-25.29889 -54.0555,-38.9551 -84.0481,-49.71079 -40.8073,-14.19688 -83.2091,-20.45096 -125.4878,-24.14535 -31.7705,-2.50813 -63.6222,-2.97503 -95.4521,-2.89334 z"
       style="display:inline;fill:#ffffff;stroke:none;stroke-width:0.967669" />
    <path
       sodipodi:nodetypes="csssc"
       inkscape:connector-curvature="0"
       id="path3280-8-1-1-8"
       d="m 2022.064,460.86461 c -48.4538,0.6016 -97.287,12.07597 -140.4545,37.31253 -23.85,14.63617 -41.9227,39.59712 -52.3691,67.55888 -10.0686,27.3649 -13.2225,57.83623 -9.5508,87.12615 3.0706,23.85535 11.5073,47.2563 26.1643,65.10283 20.23,25.04524 48.7119,40.61831 78.2064,46.03313 23.985,4.80232 48.396,5.60558 72.6949,6.18734 15.8557,0.76144 31.6862,2.09066 47.5521,2.60776 48.0012,2.03777 96.2964,1.66687 143.912,-6.18728 30.3547,-4.16968 61.4771,-4.1922 90.8863,-14.63291 23.3769,-8.5631 41.0855,-31.87173 47.7045,-58.13129 6.3296,-26.59876 6.8324,-54.46396 5.339,-81.79411 -1.7729,-23.98149 -10.4011,-47.26852 -24.5599,-65.34397 -16.9996,-21.77663 -39.5635,-37.06778 -63.0977,-48.27737 -30.3811,-14.37758 -62.4674,-23.95351 -95.0421,-29.42874 -42.1275,-7.18582 -84.8488,-8.31975 -127.3854,-8.13295 z"
       style="display:inline;fill:#ffffff;stroke:none;stroke-width:0.855595" />
    <path
       sodipodi:nodetypes="ccccccssc"
       inkscape:connector-curvature="0"
       id="path1081"
       d="m 1917.1509,703.14914 c -35.1448,34.55495 -40.918,43.76621 -48.2945,59.20991 -7.3765,15.44359 -1.4166,45.82505 15.3336,59.77726 16.7502,13.95231 20.6476,39.75145 6.4656,51.09426 -14.1819,11.34295 -70.6572,56.04997 -12.3413,98.68519 -52.1304,-50.93005 4.6214,-80.3316 15.046,-87.77901 10.4245,-7.44749 30.9525,-25.50425 13.4446,-59.50485 -17.5082,-34.00062 -21.7713,-50.818 31.7495,-83.72489 53.5207,-32.90685 -21.4035,-37.75787 -21.4035,-37.75787 z"
       style="fill:#ffffff;fill-rule:evenodd;stroke:none;stroke-width:1px;stroke-linecap:butt;stroke-linejoin:miter;stroke-opacity:1" />
    <path
       sodipodi:nodetypes="ccsc"
       inkscape:connector-curvature="0"
       id="path5010-4-3"
       d="m 1446.9857,482.25247 c 38.5518,83.9689 2.5856,139.06018 -54.1917,168.09629 98.918,-30.2652 116.1188,-134.92733 86.7076,-167.77583 -23.1309,-25.83416 -32.5159,-0.32046 -32.5159,-0.32046 z"
       style="color:#000000;display:inline;overflow:visible;visibility:visible;fill:#ffffff;fill-opacity:1;fill-rule:nonzero;stroke:none;stroke-width:1.4638px;marker:none;enable-background:accumulate" />
    <path
       sodipodi:nodetypes="cssssc"
       inkscape:connector-curvature="0"
       id="path4546-6-59"
       d="m 1708.9341,2344.6889 c 0.1396,-105.6475 -1.9817,-81.2211 156.3841,-79.1966 68.739,0.8787 150.308,10.6222 143.7753,157.3952 -5.1637,116.0161 -130.901,110.3132 -154.2725,113.5955 -23.2236,3.2615 -117.9728,-16.6744 -138.5725,-62.3724 -12.895,-28.6062 -8.0693,-101.383 -7.3144,-129.4217 z"
       style="color:#000000;display:inline;overflow:visible;visibility:visible;fill:#ffffff;fill-opacity:1;fill-rule:nonzero;stroke:none;stroke-width:0.861506px;marker:none;enable-background:accumulate" />
    <path
       sodipodi:nodetypes="cccccccccccccc"
       inkscape:connector-curvature="0"
       id="path3100-2"
       d="m 716.68885,64.490572 c -51.21537,2.780109 -101.35326,13.880605 -151.90087,21.52737 -31.86623,5.620503 -63.64093,15.580378 -90.04077,34.161868 -16.71493,11.89067 -29.72454,28.79142 -35.76024,48.02895 -9.6707,27.11956 -10.0673,56.60103 -5.18281,84.67146 3.89867,20.70237 12.43972,41.25142 27.91151,56.46597 15.39034,15.41286 34.60673,27.0811 55.37289,34.51504 17.9304,7.06745 36.74177,11.94147 55.86463,14.86066 42.70288,7.08454 86.15452,8.90319 129.42055,8.51018 44.24472,-0.70047 88.43096,-5.55311 131.64113,-14.78556 21.546,-4.30563 43.27645,-10.47128 61.42116,-22.89452 20.01739,-13.52942 35.90907,-32.71945 45.11637,-54.55522 4.02276,-9.66925 5.98885,-20.03339 6.35881,-30.42383 0.75187,-13.35348 0.8285,-26.73257 1.11561,-40.09965 0.10858,-40.36104 -3.48556,-80.79749 -11.87473,-120.365159 -3.13792,-3.110612 -8.04411,-1.692865 -11.94176,-2.927463 C 855.46678,71.711353 786.22538,64.24037 716.68885,64.490572 Z"
       style="fill:#ffffff;stroke:none;stroke-width:1.34187" />
    <path
       sodipodi:nodetypes="cscssc"
       inkscape:connector-curvature="0"
       id="path4186-80"
       d="m 1876.2442,2473.0319 c 29.6781,34.3855 -48.3918,61.0872 -32.7914,98.1006 6.1219,14.5249 50.1858,21.814 59.4409,88.3499 -23.107,-54.5774 -70.7535,-56.808 -83.5614,-79.4341 -24.3256,-42.971 15.5983,-74.4437 22.7675,-83.4264 9.5884,-12.0136 34.1444,-23.59 34.1444,-23.59 z"
       style="display:inline;fill:#ffffff;fill-rule:evenodd;stroke:none;stroke-width:1.14884px;stroke-linecap:butt;stroke-linejoin:miter;stroke-opacity:1" />
    <path
       sodipodi:nodetypes="zssssz"
       inkscape:connector-curvature="0"
       id="path4040-4-9-3"
       d="m 175.45541,2086.542 c 20.37142,-13.964 196.73696,-22.406 243.45157,0.5429 38.99198,19.1552 23.77862,66.8586 -10.8986,77.8463 -34.67713,10.9877 -150.03507,9.7123 -200.59387,4.7305 -48.13896,-4.7428 -56.22229,-19.0595 -58.59019,-47.8849 -0.96647,-11.7653 6.25949,-21.2709 26.63109,-35.2348 z"
       style="color:#000000;display:inline;overflow:visible;visibility:visible;fill:#ffffff;fill-opacity:1;fill-rule:nonzero;stroke:none;stroke-width:0.5831px;marker:none;enable-background:accumulate" />
    <path
       sodipodi:nodetypes="ccsc"
       inkscape:connector-curvature="0"
       id="path5010-4-5"
       d="m 354.58902,2078.2586 c 35.58146,-4.2267 52.48817,-58.2989 28.13393,-95.1145 44.43236,49.6051 29.57055,64.2564 4.74971,120.5184 -6.58837,14.934 -32.88364,-25.4039 -32.88364,-25.4039 z"
       style="color:#000000;display:inline;overflow:visible;visibility:visible;fill:#ffffff;fill-opacity:1;fill-rule:nonzero;stroke:none;stroke-width:0.816531px;marker:none;enable-background:accumulate" />
  </g>
  <g
     inkscape:label="txt"
     id="layer1"
     inkscape:groupmode="layer">
    <text
       id="text4246-3-2-2"
       y="167.93465"
       x="697.9989"
       style="font-style:normal;font-variant:normal;font-weight:normal;font-stretch:normal;font-size:45px;line-height:1.25;font-family:Lavi;-inkscape-font-specification:Lavi;text-align:center;letter-spacing:0px;word-spacing:0px;text-anchor:middle;fill:#000000;fill-opacity:1;stroke:none"
       xml:space="preserve"><tspan
         y="167.93465"
         x="697.9989"
         sodipodi:role="line"
         style="font-size:45px"
         id="tspan343">Bedankt dat Carrot</tspan><tspan
         y="224.18465"
         x="697.9989"
         sodipodi:role="line"
         style="font-size:45px"
         id="tspan347">wat schone kleren</tspan><tspan
         y="280.43463"
         x="697.9989"
         sodipodi:role="line"
         style="font-size:45px"
         id="tspan349">voor me mocht gaan</tspan><tspan
         y="336.68463"
         x="697.9989"
         sodipodi:role="line"
         style="font-size:45px"
         id="tspan227">halen.</tspan></text>
    <text
       id="text4246-3-2-2-3-3-3"
       y="179.79465"
       x="1235.6431"
       style="font-style:normal;font-variant:normal;font-weight:normal;font-stretch:normal;font-size:45px;line-height:1.25;font-family:Lavi;-inkscape-font-specification:Lavi;text-align:center;letter-spacing:0px;word-spacing:0px;text-anchor:middle;fill:#000000;fill-opacity:1;stroke:none"
       xml:space="preserve"><tspan
         id="tspan876-3"
         y="179.79465"
         x="1235.6431"
         sodipodi:role="line"
         style="font-size:45px">Geen probleem.</tspan></text>
    <text
       id="text4246-3-2-2-3-3"
       y="287.58704"
       x="1371.4664"
       style="font-style:normal;font-variant:normal;font-weight:normal;font-stretch:normal;font-size:45px;line-height:1.25;font-family:Lavi;-inkscape-font-specification:Lavi;text-align:center;letter-spacing:0px;word-spacing:0px;text-anchor:middle;fill:#000000;fill-opacity:1;stroke:none"
       xml:space="preserve"><tspan
         id="tspan934"
         y="287.58704"
         x="1371.4664"
         sodipodi:role="line"
         style="font-size:45px">Je hebt het me een stuk</tspan><tspan
         y="343.83704"
         x="1371.4664"
         sodipodi:role="line"
         style="font-size:45px"
         id="tspan360">gemakkelijker gemaakt,</tspan><tspan
         y="400.08704"
         x="1371.4664"
         sodipodi:role="line"
         style="font-size:45px"
         id="tspan362">dus het was het minste</tspan><tspan
         y="456.33704"
         x="1371.4664"
         sodipodi:role="line"
         style="font-size:45px"
         id="tspan364">dat ik kon doen.</tspan></text>
    <text
       id="text4246-3-2-2-3-3-67"
       y="139.10602"
       x="2072.8623"
       style="font-style:normal;font-variant:normal;font-weight:normal;font-stretch:normal;font-size:45px;line-height:1.25;font-family:Lavi;-inkscape-font-specification:Lavi;text-align:center;letter-spacing:0px;word-spacing:0px;text-anchor:middle;fill:#000000;fill-opacity:1;stroke:none"
       xml:space="preserve"><tspan
         y="139.10602"
         x="2072.8623"
         sodipodi:role="line"
         style="font-size:45px"
         id="tspan510">Maar weet je,</tspan><tspan
         y="195.35602"
         x="2072.8623"
         sodipodi:role="line"
         style="font-size:45px"
         id="tspan512">je hebt Wasabi behoorlijk</tspan><tspan
         y="251.60602"
         x="2072.8623"
         sodipodi:role="line"
         style="font-size:45px"
         id="tspan520">kwaad gemaakt.</tspan></text>
    <text
       id="text4246-3-2-2-3-3-67-2"
       y="319.32254"
       x="2070.6797"
       style="font-style:normal;font-variant:normal;font-weight:normal;font-stretch:normal;font-size:45px;line-height:1.25;font-family:Lavi;-inkscape-font-specification:Lavi;text-align:center;letter-spacing:0px;word-spacing:0px;text-anchor:middle;fill:#000000;fill-opacity:1;stroke:none"
       xml:space="preserve"><tspan
         y="319.32254"
         x="2070.6797"
         sodipodi:role="line"
         style="font-size:45px"
         id="tspan601">Ze eist perfectie.</tspan><tspan
         y="375.57254"
         x="2070.6797"
         sodipodi:role="line"
         style="font-size:45px"
         id="tspan605">Je hebt dat vervuild met</tspan><tspan
         y="431.82254"
         x="2070.6797"
         sodipodi:role="line"
         style="font-size:45px"
         id="tspan607">je viezigheid, je kleding,</tspan><tspan
         y="488.07254"
         x="2070.6797"
         sodipodi:role="line"
         style="font-size:45px"
         id="tspan609">en je aankomst.</tspan></text>
    <text
       id="text4246-3-2-2-3-3-67-2-3"
       y="567.71539"
       x="2078.1685"
       style="font-style:normal;font-variant:normal;font-weight:normal;font-stretch:normal;font-size:45px;line-height:1.25;font-family:Lavi;-inkscape-font-specification:Lavi;text-align:center;letter-spacing:0px;word-spacing:0px;text-anchor:middle;fill:#000000;fill-opacity:1;stroke:none"
       xml:space="preserve"><tspan
         id="tspan966"
         y="567.71539"
         x="2078.1685"
         sodipodi:role="line"
         style="font-size:45px">En je hebt haar</tspan><tspan
         y="623.96539"
         x="2078.1685"
         sodipodi:role="line"
         style="font-size:45px"
         id="tspan411">nog aangevallen ook!</tspan><tspan
         y="680.21539"
         x="2078.1685"
         sodipodi:role="line"
         style="font-size:45px"
         id="tspan419">Ik zou geen medelijden</tspan><tspan
         y="736.46539"
         x="2078.1685"
         sodipodi:role="line"
         style="font-size:45px"
         id="tspan500">verwachten.</tspan></text>
    <text
       id="text4246-3-2-2-3-3-6-67"
       y="2137.3069"
       x="301.52618"
       style="font-style:normal;font-variant:normal;font-weight:normal;font-stretch:normal;font-size:45px;line-height:1.25;font-family:Lavi;-inkscape-font-specification:Lavi;text-align:center;letter-spacing:0px;word-spacing:0px;text-anchor:middle;fill:#000000;fill-opacity:1;stroke:none"
       xml:space="preserve"><tspan
         id="tspan1191-3"
         y="2137.3069"
         x="301.52618"
         sodipodi:role="line"
         style="font-size:45px">Dat snap ik.</tspan></text>
    <text
       id="text4246-3-2-2-3-3-6"
       y="1438.3682"
       x="743.62054"
       style="font-style:normal;font-variant:normal;font-weight:normal;font-stretch:normal;font-size:45px;line-height:1.25;font-family:Lavi;-inkscape-font-specification:Lavi;text-align:center;letter-spacing:0px;word-spacing:0px;text-anchor:middle;fill:#000000;fill-opacity:1;stroke:none"
       xml:space="preserve"><tspan
         id="tspan980"
         y="1438.3682"
         x="743.62054"
         sodipodi:role="line"
         style="font-size:45px">Maar goed, ik</tspan><tspan
         y="1494.6182"
         x="743.62054"
         sodipodi:role="line"
         style="font-size:45px"
         id="tspan504">heb een dutje nodig.</tspan></text>
    <text
       id="text4246-3-2-2-3-3-6-6"
       y="1579.2286"
       x="863.08191"
       style="font-style:normal;font-variant:normal;font-weight:normal;font-stretch:normal;font-size:45px;line-height:1.25;font-family:Lavi;-inkscape-font-specification:Lavi;text-align:center;letter-spacing:0px;word-spacing:0px;text-anchor:middle;fill:#000000;fill-opacity:1;stroke:none"
       xml:space="preserve"><tspan
         id="tspan984"
         y="1579.2286"
         x="863.08191"
         sodipodi:role="line"
         style="font-size:45px">We vertrekken</tspan><tspan
         y="1635.4786"
         x="863.08191"
         sodipodi:role="line"
         style="font-size:45px"
         id="tspan508">wanneer ik wakker ben.</tspan></text>
    <text
       id="text4246-3-2-2-3-3-6-2"
       y="1713.861"
       x="1108.4032"
       style="font-style:normal;font-variant:normal;font-weight:normal;font-stretch:normal;font-size:45px;line-height:1.25;font-family:Lavi;-inkscape-font-specification:Lavi;text-align:center;letter-spacing:0px;word-spacing:0px;text-anchor:middle;fill:#000000;fill-opacity:1;stroke:none"
       xml:space="preserve"><tspan
         id="tspan998"
         y="1713.861"
         x="1108.4032"
         sodipodi:role="line"
         style="font-size:45px">Doe je eigen ding</tspan><tspan
         y="1770.111"
         x="1108.4032"
         sodipodi:role="line"
         style="font-size:45px"
         id="tspan521">zolang je maar in</tspan><tspan
         y="1826.361"
         x="1108.4032"
         sodipodi:role="line"
         style="font-size:45px"
         id="tspan525">de buurt blijft...</tspan></text>
    <text
       transform="matrix(0.71138619,-0.38856964,0.42362052,1.0933045,-1095.3818,1936.127)"
       id="text4580-5-0-6-2-8-5-9-9"
       y="1584.5073"
       x="787.65729"
       style="font-style:normal;font-variant:normal;font-weight:normal;font-stretch:normal;line-height:0%;font-family:Lavi;-inkscape-font-specification:Lavi;letter-spacing:0px;word-spacing:0px;display:inline;fill:#ffffff;fill-opacity:1;stroke:#5f8dd3;stroke-width:0.992362;stroke-miterlimit:4;stroke-dasharray:none;stroke-opacity:1;filter:url(#filter4375-4-1-1-1-9-3-2-3-8-7-6-4-9)"
       xml:space="preserve"><tspan
         style="font-size:70px;line-height:1.25;fill:#ffffff;stroke:#5f8dd3"
         y="1584.5073"
         x="787.65729"
         id="tspan4582-6-9-1-3-9-5-3-3"
         sodipodi:role="line"> Plets</tspan></text>
    <text
       id="text4246-3-2-2-3-3-6-2-9"
       y="2365.0232"
       x="1865.2649"
       style="font-style:normal;font-variant:normal;font-weight:normal;font-stretch:normal;font-size:45px;line-height:1.25;font-family:Lavi;-inkscape-font-specification:Lavi;text-align:center;letter-spacing:0px;word-spacing:0px;text-anchor:middle;fill:#000000;fill-opacity:1;stroke:none"
       xml:space="preserve"><tspan
         id="tspan1007"
         y="2365.0232"
         x="1865.2649"
         sodipodi:role="line"
         style="font-size:45px">Wat een</tspan><tspan
         y="2421.2732"
         x="1865.2649"
         sodipodi:role="line"
         style="font-size:45px"
         id="tspan678">bijzondere</tspan><tspan
         y="2477.5232"
         x="1865.2649"
         sodipodi:role="line"
         style="font-size:45px"
         id="tspan680">heks.</tspan></text>
  </g>
</svg>
