<?xml version="1.0" encoding="UTF-8" standalone="no"?>
<!-- Created with Inkscape (http://www.inkscape.org/) -->

<svg
   xmlns:dc="http://purl.org/dc/elements/1.1/"
   xmlns:cc="http://creativecommons.org/ns#"
   xmlns:rdf="http://www.w3.org/1999/02/22-rdf-syntax-ns#"
   xmlns:svg="http://www.w3.org/2000/svg"
   xmlns="http://www.w3.org/2000/svg"
   xmlns:xlink="http://www.w3.org/1999/xlink"
   xmlns:sodipodi="http://sodipodi.sourceforge.net/DTD/sodipodi-0.dtd"
   xmlns:inkscape="http://www.inkscape.org/namespaces/inkscape"
   id="svg2"
   version="1.1"
   inkscape:version="0.92.1 r15371"
   width="2646.3999"
   height="4803.2002"
   sodipodi:docname="Pepper-and-Carrot_by-David-Revoy_E15P09.svg">
  <metadata
     id="metadata8">
    <rdf:RDF>
      <cc:Work
         rdf:about="">
        <dc:format>image/svg+xml</dc:format>
        <dc:type
           rdf:resource="http://purl.org/dc/dcmitype/StillImage" />
        <dc:title />
      </cc:Work>
    </rdf:RDF>
  </metadata>
  <defs
     id="defs6" />
  <sodipodi:namedview
     pagecolor="#ffffff"
     bordercolor="#666666"
     borderopacity="1"
     objecttolerance="10"
     gridtolerance="10"
     guidetolerance="10"
     inkscape:pageopacity="0"
     inkscape:pageshadow="2"
     inkscape:window-width="2560"
     inkscape:window-height="1377"
     id="namedview4"
     showgrid="false"
     inkscape:zoom="0.69217786"
     inkscape:cx="1078.6254"
     inkscape:cy="4477.2861"
     inkscape:window-x="-8"
     inkscape:window-y="-8"
     inkscape:window-maximized="1"
     inkscape:current-layer="layer2"
     inkscape:object-nodes="true"
     showguides="true"
     inkscape:guide-bbox="true">
    <sodipodi:guide
       position="3897.1056,4709.6935"
       orientation="0,1"
       id="guide4214"
       inkscape:locked="false" />
  </sodipodi:namedview>
  <g
     inkscape:groupmode="layer"
     id="layer1"
     inkscape:label="artwork"
     style="display:inline"
     transform="translate(0,1092.2667)"
     sodipodi:insensitive="true">
    <image
       sodipodi:absref="D:\GitHub\peppercarrot\peppercarrot_ep15_translation\da\../gfx_Pepper-and-Carrot_by-David-Revoy_E15P09.png"
       xlink:href="../gfx_Pepper-and-Carrot_by-David-Revoy_E15P09.png"
       y="-1091.6022"
       x="0.58355081"
       id="image4223"
       style="image-rendering:optimizeQuality"
       preserveAspectRatio="none"
       height="4804.8418"
       width="2646.8735" />
  </g>
  <g
     inkscape:groupmode="layer"
     id="layer3"
     inkscape:label="speechbubbles"
     style="display:inline"
     transform="translate(0,1092.2667)">
    <path
       style="fill:#ffffff;stroke:none;stroke-width:1.06666672"
       d="m -2156.6811,689.27911 c 1.1337,-54.41685 28.3421,-109.96738 181.3895,-120.17053 153.0473,-10.20316 216.5337,52.14948 221.0685,96.36316 4.5347,44.21369 -88.4275,103.16527 -173.4538,104.29896 -85.0262,1.13367 -229.0042,-12.47053 -229.0042,-80.49159 z"
       id="path4279"
       inkscape:connector-curvature="0" />
    <path
       style="fill:#ffffff;stroke:none;stroke-width:1.06666672"
       d="m -1907.2705,957.96228 c 74.8231,-47.61474 94.0958,-132.64105 48.7484,-202.92948 -45.3474,-70.28843 -88.4274,-57.8179 -88.4274,-57.8179 l 37.4116,44.21369 c 0,0 104.299,104.29895 2.2674,216.53369 z"
       id="path4281"
       inkscape:connector-curvature="0"
       sodipodi:nodetypes="csccc" />
  </g>
  <g
     inkscape:groupmode="layer"
     id="layer2"
     inkscape:label="text"
     style="display:inline;opacity:0.85500004"
     transform="translate(0,1092.2667)">
    <text
       xml:space="preserve"
       style="font-style:normal;font-variant:normal;font-weight:normal;font-stretch:normal;font-size:12.80000019px;line-height:0%;font-family:Arial;-inkscape-font-specification:Arial;text-align:center;letter-spacing:0px;word-spacing:0px;text-anchor:middle;display:inline;fill:#000000;fill-opacity:1;stroke:none;stroke-width:1.06666672"
       x="1323.1893"
       y="3094.5823"
       id="text4221"><tspan
         sodipodi:role="line"
         id="tspan4223"
         x="1323.1893"
         y="3094.5823"
         style="font-style:normal;font-variant:normal;font-weight:normal;font-stretch:normal;font-size:44px;line-height:1.25;font-family:Lavi;-inkscape-font-specification:Lavi;stroke-width:1.06666672">Støt næste episode af Pepper&amp;Carrot; hver en krone gør en forskel</tspan></text>
    <text
       xml:space="preserve"
       style="font-style:normal;font-variant:normal;font-weight:normal;font-stretch:normal;font-size:12.80000019px;line-height:0%;font-family:Arial;-inkscape-font-specification:Arial;text-align:center;letter-spacing:0px;word-spacing:0px;text-anchor:middle;display:inline;fill:#a72f14;fill-opacity:1;stroke:none;stroke-width:1.06666672"
       x="1323.2468"
       y="3177.406"
       id="text4225"><tspan
         sodipodi:role="line"
         id="tspan4227"
         x="1323.2468"
         y="3177.406"
         style="font-style:normal;font-variant:normal;font-weight:normal;font-stretch:normal;font-size:64px;line-height:1.25;font-family:Lavi;-inkscape-font-specification:Lavi;stroke-width:1.06666672">https://www.patreon.com/davidrevoy</tspan></text>
    <text
       xml:space="preserve"
       style="font-style:normal;font-variant:normal;font-weight:normal;font-stretch:normal;font-size:12.80000019px;line-height:0%;font-family:Arial;-inkscape-font-specification:Arial;text-align:center;letter-spacing:0px;word-spacing:0px;text-anchor:middle;display:inline;opacity:0.85500004;fill:#000000;fill-opacity:1;stroke:none;stroke-width:1.06666672"
       x="1323.156"
       y="-920.93781"
       id="text4162"><tspan
         sodipodi:role="line"
         x="1323.156"
         y="-920.93781"
         style="font-style:normal;font-variant:normal;font-weight:normal;font-stretch:normal;font-size:60px;line-height:1.25;font-family:Lavi;-inkscape-font-specification:Lavi;stroke-width:1.06666672"
         id="tspan4166">Pepper&amp;Carrot er helt gratis, open-source,</tspan><tspan
         sodipodi:role="line"
         x="1323.156"
         y="-845.93781"
         style="font-style:normal;font-variant:normal;font-weight:normal;font-stretch:normal;font-size:60px;line-height:1.25;font-family:Lavi;-inkscape-font-specification:Lavi;stroke-width:1.06666672"
         id="tspan839">og sponsoreret af læsere. Denne episode kunne ikke</tspan><tspan
         sodipodi:role="line"
         x="1323.156"
         y="-770.93781"
         style="font-style:normal;font-variant:normal;font-weight:normal;font-stretch:normal;font-size:60px;line-height:1.25;font-family:Lavi;-inkscape-font-specification:Lavi;stroke-width:1.06666672"
         id="tspan841">være blevet til uden støtte fra de 686 tilhængere:</tspan></text>
    <text
       xml:space="preserve"
       style="font-style:normal;font-variant:normal;font-weight:normal;font-stretch:normal;font-size:12.80000019px;line-height:0%;font-family:Arial;-inkscape-font-specification:Arial;text-align:center;letter-spacing:0px;word-spacing:0px;text-anchor:middle;display:inline;opacity:0.85500004;fill:#000000;fill-opacity:1;stroke:none;stroke-width:1.06666672"
       x="1323.3638"
       y="3355.9409"
       id="text4170"><tspan
         sodipodi:role="line"
         id="tspan4172"
         x="1323.3638"
         y="3355.9409"
         style="font-style:normal;font-variant:normal;font-weight:normal;font-stretch:normal;font-size:31.96398354px;line-height:1.25;font-family:Lavi;-inkscape-font-specification:Lavi;stroke-width:1.06666672">Licens: Creative Commons Kreditering 4.0</tspan><tspan
         sodipodi:role="line"
         x="1323.3638"
         y="3395.896"
         style="font-style:normal;font-variant:normal;font-weight:normal;font-stretch:normal;font-size:31.96398354px;line-height:1.25;font-family:Lavi;-inkscape-font-specification:Lavi;stroke-width:1.06666672"
         id="tspan4174">Kildematerialet: tilgængelige på www.peppercarrot.com</tspan><tspan
         sodipodi:role="line"
         x="1323.3638"
         y="3435.8508"
         style="font-style:normal;font-variant:normal;font-weight:normal;font-stretch:normal;font-size:31.96398354px;line-height:1.25;font-family:Lavi;-inkscape-font-specification:Lavi;stroke-width:1.06666672"
         id="tspan4176">Værktøj: denne episode er 100% designet med fri software:</tspan><tspan
         sodipodi:role="line"
         x="1328.9824"
         y="3475.8059"
         style="font-style:normal;font-variant:normal;font-weight:normal;font-stretch:normal;font-size:31.96398354px;line-height:1.25;font-family:Lavi;-inkscape-font-specification:Lavi;stroke-width:1.06666672"
         id="tspan4178">Krita 2.9.11, Inkscape 0.91 på Linux Mint 17 </tspan></text>
  </g>
</svg>
