<?xml version="1.0" encoding="UTF-8" standalone="no"?>
<!-- Created with Inkscape (http://www.inkscape.org/) -->

<svg
   xmlns:dc="http://purl.org/dc/elements/1.1/"
   xmlns:cc="http://creativecommons.org/ns#"
   xmlns:rdf="http://www.w3.org/1999/02/22-rdf-syntax-ns#"
   xmlns:svg="http://www.w3.org/2000/svg"
   xmlns="http://www.w3.org/2000/svg"
   xmlns:xlink="http://www.w3.org/1999/xlink"
   xmlns:sodipodi="http://sodipodi.sourceforge.net/DTD/sodipodi-0.dtd"
   xmlns:inkscape="http://www.inkscape.org/namespaces/inkscape"
   id="svg2"
   version="1.1"
   inkscape:version="0.91 r13725"
   width="2481"
   height="3503"
   sodipodi:docname="go_E29P04.svg">
  <metadata
     id="metadata8">
    <rdf:RDF>
      <cc:Work
         rdf:about="">
        <dc:format>image/svg+xml</dc:format>
        <dc:type
           rdf:resource="http://purl.org/dc/dcmitype/StillImage" />
        <dc:title></dc:title>
      </cc:Work>
    </rdf:RDF>
  </metadata>
  <defs
     id="defs6">
    <filter
       style="color-interpolation-filters:sRGB"
       id="filter4375-4-1-1-1-9"
       inkscape:label="deevad outline effect">
      <feFlood
         id="feFlood4377-7-9-0-8-1"
         flood-opacity="1"
         flood-color="rgb(0,0,0)"
         result="flood" />
      <feComposite
         id="feComposite4379-3-8-8-2-77"
         in2="SourceGraphic"
         in="flood"
         operator="in"
         result="composite1" />
      <feMorphology
         id="feMorphology4393-1-0-49-8-9"
         operator="dilate"
         radius="3.5"
         result="result3" />
      <feComposite
         id="feComposite4385-9-5-7-0-8"
         in2="result3"
         in="SourceGraphic"
         operator="over"
         result="composite2" />
    </filter>
  </defs>
  <sodipodi:namedview
     pagecolor="#ffffff"
     bordercolor="#666666"
     borderopacity="1"
     objecttolerance="10"
     gridtolerance="10"
     guidetolerance="10"
     inkscape:pageopacity="0"
     inkscape:pageshadow="2"
     inkscape:window-width="959"
     inkscape:window-height="576"
     id="namedview4"
     showgrid="false"
     inkscape:zoom="0.46000001"
     inkscape:cx="876.27799"
     inkscape:cy="2147.1321"
     inkscape:window-x="65"
     inkscape:window-y="24"
     inkscape:window-maximized="1"
     inkscape:current-layer="layer3"
     inkscape:snap-global="false"
     showguides="false">
    <sodipodi:guide
       position="132.60869,3506.5217"
       orientation="-0.70710678,0.70710678"
       id="guide6185" />
  </sodipodi:namedview>
  <g
     inkscape:groupmode="layer"
     id="layer2"
     inkscape:label="artwork"
     sodipodi:insensitive="true">
    <image
       sodipodi:absref="/home/denez/Docs Activites/Activite 3- Projet Gallo/Projet ADG/AdG 2-Travaux/5-BD pepper trad/29-go/../gfx_Pepper-and-Carrot_by-David-Revoy_E29P04.png"
       xlink:href="../gfx_Pepper-and-Carrot_by-David-Revoy_E29P04.png"
       y="0"
       x="0"
       id="image10"
       height="3503"
       width="2481" />
  </g>
  <g
     inkscape:groupmode="layer"
     id="layer3"
     inkscape:label="speechbubbles">
    <path
       style="color:#000000;display:inline;overflow:visible;visibility:visible;fill:#ffffff;fill-opacity:1;fill-rule:nonzero;stroke:none;stroke-width:0.99999994px;marker:none;enable-background:accumulate"
       d="m 1710.3536,143.69857 c 38.4653,-16.14344 539.5978,-26.09856 609.1152,8.7992 44.1135,22.1448 26.8527,105.89105 -29.4733,121.93812 -66.2898,18.88571 -436.7897,13.76754 -529.9706,3.24064 -88.6522,-10.01529 -91.927,-44.31961 -96.3979,-77.64439 -1.8249,-13.6012 8.2611,-40.19009 46.7266,-56.33357 z"
       id="path4040-4-0"
       inkscape:connector-curvature="0"
       sodipodi:nodetypes="zssssz" />
    <path
       style="color:#000000;display:inline;overflow:visible;visibility:visible;fill:#ffffff;fill-opacity:1;fill-rule:nonzero;stroke:none;stroke-width:1px;marker:none;enable-background:accumulate"
       d="m 1655.9849,952.87507 c 1.5608,-25.12173 -4.2978,-54.76085 37.2797,-93.78134 29.6012,-27.78075 63.4981,-27.86688 187.9702,-29.76908 114.834,-3.9667 214.5898,49.33315 182.3091,140.12768 -3.5417,73.55807 -146.5433,66.60217 -176.4264,69.62197 -29.8831,3.02 -173.1697,2.1406 -201.4881,-21.5937 -17.7267,-14.857 -29.4902,-33.89293 -29.6445,-64.60553 z"
       id="path4546-6"
       inkscape:connector-curvature="0"
       sodipodi:nodetypes="csccssc" />
    <path
       style="color:#000000;display:inline;overflow:visible;visibility:visible;fill:#ffffff;fill-opacity:1;fill-rule:nonzero;stroke:none;stroke-width:1px;marker:none;enable-background:accumulate"
       d="m 723.26058,180.77898 c 26.24898,-35.34082 247.82043,-73.70115 325.69482,-0.87112 77.8744,72.83004 30.6391,160.22615 -14.043,188.03391 -44.68198,27.80788 -176.17478,58.26407 -236.17627,34.42878 C 738.73452,378.53526 691.99709,342.90613 688.946,269.95229 c -1.24527,-29.77538 8.06549,-53.83237 34.31458,-89.17331 z"
       id="path4040"
       inkscape:connector-curvature="0"
       sodipodi:nodetypes="zssssz" />
    <path
       style="fill:#ffffff;fill-opacity:1;fill-rule:evenodd;stroke:none;stroke-width:1px;stroke-linecap:butt;stroke-linejoin:miter;stroke-opacity:1"
       d="m 486.03269,429.00909 c -11.78237,3.45864 -26.01828,-0.74899 -34.57607,-8.15263 -7.08075,-6.68721 -17.01074,-13.3491 -17.7254,-21.98808 -0.78596,-9.91947 5.94499,-20.77271 -3.71288,-30.02739 -13.46238,-8.53432 -21.51604,-13.91901 -21.93366,-27.44905 -0.49458,-11.53162 0.14408,-22.67415 7.87162,-30.91503 6.46417,-5.69346 3.23184,-13.76292 -2.09911,-19.92549 -5.60383,-9.86661 -9.69639,-22.86862 0.75239,-30.68782 6.77543,-3.72535 13.38693,-7.01355 14.01709,-14.81183 -5.65837,-14.33832 -4.29949,-20.94883 -5.26776,-31.53175 -6.3628,-10.72007 1.1842,-37.81777 7.97176,-46.54931 5.04743,-6.06044 9.4892,-13.78623 21.16176,-13.93988 19.78178,-4.26035 47.13873,-2.23397 58.0381,-14.54687 7.12631,-6.99684 11.66176,-17.02823 25.03867,-18.85348 15.57743,-2.47843 30.87547,10.42367 45.07772,15.18682 13.85078,-10.36049 38.82264,-8.81162 46.36526,1.57953 4.18125,5.86329 23.50859,31.58085 24.60387,38.10889 4.07654,13.01954 -8.46305,35.1769 3.00617,46.49479 12.21903,8.19818 9.02444,27.91799 6.47032,38.44049 -3.66397,8.3406 2.16895,17.01373 3.53145,25.64816 2.3945,9.20505 -7.21523,19.20189 -5.36057,28.40299 5.23226,13.78778 11.10413,26.16521 6.10877,40.43019 -1.94079,12.46165 -3.38695,17.57342 -16.19914,24.41239 -4.18961,3.06174 -6.5178,8.81564 -7.63289,13.5487 -3.89219,11.6257 -7.1651,17.31781 -17.10219,27.30395 -8.57523,7.39843 -24.28097,9.1082 -37.41406,5.25094 -10.18808,-1.82229 -21.37158,-8.10109 -31.26965,-5.67643 -12.7847,5.27537 -16.21615,22.49725 -32.82987,20.94606 -8.87349,-0.86603 -15.42343,-6.38555 -24.05201,-7.97123 -4.21484,-1.11979 -8.51324,-2.00888 -12.83953,-2.72723 z"
       id="path4367"
       inkscape:connector-curvature="0"
       sodipodi:nodetypes="ccccccccccccccccccccccccccccccc" />
    <path
       style="fill:#ffffff;fill-opacity:1;fill-rule:evenodd;stroke:none;stroke-width:1px;stroke-linecap:butt;stroke-linejoin:miter;stroke-opacity:1"
       d="m 139.79531,261.41965 c -5.79206,-8.3218 1.39884,-18.7638 7.13211,-22.4599 6.42753,-6.8744 14.68565,-6.8194 22.40363,-6.3027 7.67766,1.352 13.30603,-5.27 18.29141,-12.1154 7.89065,-8.8817 19.3479,-11.9296 28.65929,-5.4527 6.92028,4.415 14.92276,9.8428 22.50809,4.778 9.04582,-5.1258 20.56004,-9.611 29.29148,-1.1515 6.21125,9.8244 16.52363,5.6471 24.12218,1.7701 9.75981,-4.5481 20.44142,-7.3093 30.52218,-2.8986 6.68399,2.5816 14.9733,3.8416 18.27081,13.568 3.98009,10.6522 8.26193,23.368 17.58319,26.5604 6.59787,2.7568 16.08895,4.4272 17.74994,15.516 -0.19334,9.8954 -3.68675,19.6529 -6.86389,28.2714 -9.39343,11.1665 -23.80101,2.5793 -35.73026,5.6713 -7.8,1.9912 -14.19832,13.88684 -27.23653,15.42663 -18.05433,2.57938 -21.72666,-7.09909 -32.68569,-2.35549 -12.92394,4.4331 -16.45515,-0.91191 -28.70038,7.06989 -13.94377,7.417 -30.3487,5.0132 -42.5837,-6.9075 -5.25111,-5.9244 -17.54194,2.19307 -24.22848,3.32597 -8.93158,0.3998 -13.51391,2.3025 -20.11112,-7.8758 -5.28858,-7.2593 -3.86593,-4.964 -7.3887,-13.0375 -3.68296,-7.9711 -12.23691,-9.7059 -14.80815,-19.1363 -1.96953,-7.794 4.86047,-14.1129 3.80259,-22.2643 z"
       id="path4367-3"
       inkscape:connector-curvature="0"
       sodipodi:nodetypes="ccccccccccccccccccccccc" />
    <path
       style="color:#000000;display:inline;overflow:visible;visibility:visible;fill:#ffffff;fill-opacity:1;fill-rule:nonzero;stroke:none;stroke-width:0.99999994px;marker:none;enable-background:accumulate"
       d="m 2031.8964,983.96009 c -1.1542,-24.3534 28.7276,-60.90845 61.9435,-76.04632 49.3393,-22.48605 73.8298,-13.35688 115.5651,-12.32237 38.7688,0.96098 100.8166,8.64077 133.3902,35.72901 25.1999,20.95619 40.7013,53.71523 34.9304,79.29859 -5.771,25.5831 -14.4666,60.0076 -57.6495,67.065 -46.3139,7.5691 -143.2034,1.1602 -187.3497,2.5323 -39.4834,1.2273 -63.4813,-7.5245 -84.2568,-25.5833 -21.0623,-18.3079 -15.419,-46.3196 -16.5732,-70.67291 z"
       id="path3373"
       inkscape:connector-curvature="0"
       sodipodi:nodetypes="zsssssssz" />
    <path
       style="fill:#ffffff;fill-rule:evenodd;stroke:none;stroke-width:0.99999994px;stroke-linecap:butt;stroke-linejoin:miter;stroke-opacity:1"
       d="m 832.55736,1238.8071 c 51.61633,3.0029 127.19966,-11.1991 85.47005,-56.4076 82.33609,22.6347 149.79129,39.4033 279.16279,-23.8558 -10.9487,70.0777 47.9392,63.5303 101.0278,50.0763 -50.9503,23.5816 40.5075,37.0947 89.7037,38.4193 -104.0698,51.0055 -48.0016,57.9295 -1.3154,65.9836 -93.7567,-3.0565 -84.6394,27.6016 -65.6186,44.8166 -87.737,-36.8979 -211.1762,-15.1246 -197.6911,10.8227 -39.1425,-14.9426 -70.1355,-55.3718 -167.32507,3.9175 35.73902,-51.1837 -11.10689,-45.8113 -86.95096,-20.5803 11.88641,-17.4339 82.5328,-43.9446 -36.46321,-41.1609 74.32705,-16.5736 89.91383,-39.0245 0,-72.0314 z"
       id="path4584"
       inkscape:connector-curvature="0"
       sodipodi:nodetypes="cccccccccccc" />
    <path
       style="color:#000000;display:inline;overflow:visible;visibility:visible;fill:#ffffff;fill-opacity:1;fill-rule:nonzero;stroke:none;stroke-width:1px;marker:none;enable-background:accumulate"
       d="m 1324.2833,1484.7539 c -74.0623,-16.7815 -162.4554,-85.4407 -173.3256,-102.2336 5.7646,-4.0191 72.5018,-4.3109 72.5018,-4.3109 -25.8476,-20.7242 -129.727,-70.2911 -122.0213,-64.8466 -4.5243,-14.4638 68.3453,-13.6441 68.3453,-13.6441 0,0 96.3576,81.9196 112.2383,92.2829 -16.3671,10.5299 -65.2194,8.0221 -73.0419,9.9521 2.0894,11.1694 89.3696,76.2156 115.3034,82.8002 z"
       id="path4456"
       inkscape:connector-curvature="0"
       sodipodi:nodetypes="cccccccc" />
    <path
       style="fill:#ffffff;stroke:none"
       d="m 2131.7915,445.15271 c 52.0797,-62.97217 40.5599,-106.89763 -10.3849,-161.57773 -30.8676,-33.13074 -53.0957,-49.56362 -53.0957,-49.56362 l 44.4365,-11.17106 49.9606,31.26438 c 0,0 89.2487,110.10775 -30.9165,191.04803 z"
       id="path3063"
       inkscape:connector-curvature="0"
       sodipodi:nodetypes="cscccc" />
    <path
       style="color:#000000;display:inline;overflow:visible;visibility:visible;fill:#ffffff;fill-opacity:1;fill-rule:nonzero;stroke:none;stroke-width:1px;marker:none;enable-background:accumulate"
       d="m 2058.5978,778.45752 c 9.1284,42.15323 9.9229,57.84514 -32.0252,91.28724 -41.9482,33.44204 -30.1382,47.46229 -30.1382,47.46229 l 35.2785,-4.99268 c 0,0 84.878,-77.03313 26.8849,-133.75685 z"
       id="path3072"
       inkscape:connector-curvature="0" />
    <path
       style="color:#000000;display:inline;overflow:visible;visibility:visible;fill:#ffffff;fill-opacity:1;fill-rule:nonzero;stroke:none;stroke-width:1px;marker:none;enable-background:accumulate"
       d="m 927.43282,520.21556 c 19.56717,-37.91334 24.33095,-91.92051 -16.62461,-116.94423 -32.00795,-36.20829 -9.67863,-17.32971 -9.67863,-17.32971 l 32.39871,9.54307 c 0,0 63.63839,61.67926 -6.09547,124.73087 z"
       id="path3072-1"
       inkscape:connector-curvature="0"
       sodipodi:nodetypes="ccccc" />
    <path
       style="fill:#ffffff;stroke:none;stroke-width:1"
       d="m 481.33413,569.27984 c -26.16799,-11.86997 -29.23382,-39.59074 -20.73941,-48.80022 8.49436,-9.2095 12.7305,-19.1347 12.40759,-27.59531 -0.32293,-8.46061 -5.50646,-17.21425 -10.12026,-24.21281 -4.61385,-6.99861 0.88784,-16.71803 5.41776,-24.19003 4.52995,-7.47208 25.74725,-46.21168 25.74725,-46.21168 0,0 -33.81232,12.14437 -40.8764,20.86652 -7.0641,8.72215 -8.88284,16.10827 -10.78771,20.43039 -1.90487,4.32223 -5.43175,20.28888 -2.44001,28.74234 2.99167,8.45347 10.76629,15.12526 14.36709,20.98686 3.60084,5.86151 2.03948,12.29665 -2.9751,20.77153 -5.01458,8.47491 -9.53561,29.71668 2.24235,44.7525 6.98238,8.91376 16.67122,13.76389 27.75685,14.45991 z"
       id="path3023"
       inkscape:connector-curvature="0"
       sodipodi:nodetypes="csssscssssssc"
       inkscape:transform-center-x="-13.368944"
       inkscape:transform-center-y="102.37524" />
    <path
       style="opacity:1;fill:#ffffff;fill-rule:evenodd;stroke:none;stroke-width:0.99999994px;stroke-linecap:butt;stroke-linejoin:miter;stroke-opacity:1"
       d="m 309.34922,457.71799 c -15.64979,-24.8542 8.77501,-47.91607 8.58626,-62.92677 -0.19481,-15.49635 -40.69805,-21.31418 -41.62679,-35.6781 -0.92874,-14.36402 24.25197,-42.90833 22.3945,-65.352 -1.85748,-22.44378 -33.11728,-22.62637 -30.33094,3.4084 2.78634,26.03475 -20.58525,41.20496 -15.67743,61.79602 8.18516,34.34048 37.35935,31.20382 47.00302,40.86297 6.38476,6.395 -4.2802,22.87728 -1.49386,38.139 2.78634,15.26172 11.14524,19.75048 11.14524,19.75048 z"
       id="path4272"
       inkscape:connector-curvature="0"
       sodipodi:nodetypes="csssssssc" />
  </g>
  <g
     inkscape:groupmode="layer"
     id="layer1"
     inkscape:label="txt">
    <text
       xml:space="preserve"
       style="font-style:normal;font-variant:normal;font-weight:normal;font-stretch:normal;line-height:0%;font-family:Lavi;-inkscape-font-specification:Lavi;text-align:center;letter-spacing:0px;word-spacing:0px;text-anchor:middle;fill:#000000;fill-opacity:1;stroke:none"
       x="253.03223"
       y="285.49896"
       id="text4246"
       sodipodi:linespacing="0%"><tspan
         sodipodi:role="line"
         style="font-size:37.33333206px;line-height:1.20000005"
         x="253.03223"
         y="285.49896"
         id="tspan4252">Oh erc’h !</tspan></text>
    <text
       xml:space="preserve"
       style="font-style:normal;font-variant:normal;font-weight:normal;font-stretch:normal;line-height:0%;font-family:Lavi;-inkscape-font-specification:Lavi;text-align:center;letter-spacing:0px;word-spacing:0px;text-anchor:middle;fill:#000000;fill-opacity:1;stroke:none"
       x="538.82965"
       y="200.31061"
       id="text4246-3"
       sodipodi:linespacing="0%"><tspan
         sodipodi:role="line"
         style="font-size:37.33333206px;line-height:1.20000005"
         x="538.82965"
         y="200.31061"
         id="tspan847">Berk !</tspan><tspan
         sodipodi:role="line"
         style="font-size:37.33333206px;line-height:1.20000005"
         x="538.82965"
         y="245.11061"
         id="tspan6239">Ste boêze</tspan><tspan
         sodipodi:role="line"
         style="font-size:37.33333206px;line-height:1.20000005"
         x="538.82965"
         y="289.91061"
         id="tspan6241">taet den</tspan><tspan
         sodipodi:role="line"
         style="font-size:37.33333206px;line-height:1.20000005"
         x="538.82965"
         y="334.7106"
         id="tspan6243">le bèq a</tspan><tspan
         sodipodi:role="line"
         style="font-size:37.33333206px;line-height:1.20000005"
         x="538.82965"
         y="379.51062"
         id="tspan6245">qheuq’un !</tspan></text>
    <text
       xml:space="preserve"
       style="font-style:normal;font-variant:normal;font-weight:normal;font-stretch:normal;line-height:0%;font-family:Lavi;-inkscape-font-specification:Lavi;text-align:center;letter-spacing:0px;word-spacing:0px;text-anchor:middle;fill:#000000;fill-opacity:1;stroke:none"
       x="892.04926"
       y="202.70126"
       id="text4246-9"
       sodipodi:linespacing="0%"><tspan
         sodipodi:role="line"
         style="font-size:45px;line-height:1.20000005"
         x="892.04926"
         y="202.70126"
         id="tspan891">Hâhâ !</tspan><tspan
         sodipodi:role="line"
         style="font-size:45px;line-height:1.20000005"
         x="892.04926"
         y="256.70126"
         id="tspan6258">Émayant come</tspan><tspan
         sodipodi:role="line"
         style="font-size:45px;line-height:1.20000005"
         x="892.04926"
         y="310.70126"
         id="tspan6264">a chaqe fais,</tspan><tspan
         sodipodi:role="line"
         style="font-size:45px;line-height:1.20000005"
         x="892.04926"
         y="364.70126"
         id="tspan6256">Pepper !</tspan></text>
    <text
       xml:space="preserve"
       style="font-style:normal;font-variant:normal;font-weight:normal;font-stretch:normal;line-height:0%;font-family:Lavi;-inkscape-font-specification:Lavi;text-align:center;letter-spacing:0px;word-spacing:0px;text-anchor:middle;fill:#000000;fill-opacity:1;stroke:none"
       x="2008.9222"
       y="191.46317"
       id="text4246-9-2"
       sodipodi:linespacing="0%"><tspan
         sodipodi:role="line"
         style="font-size:45px;line-height:1.20000005"
         x="2008.9222"
         y="191.46317"
         id="tspan873">Bon, en te remerciant,</tspan><tspan
         sodipodi:role="line"
         style="font-size:45px;line-height:1.20000005"
         x="2008.9222"
         y="245.46317"
         id="tspan6268">Pepper, pour ton « espllas ».</tspan></text>
    <text
       xml:space="preserve"
       style="font-style:normal;font-variant:normal;font-weight:normal;font-stretch:normal;line-height:0%;font-family:Lavi;-inkscape-font-specification:Lavi;text-align:center;letter-spacing:0px;word-spacing:0px;text-anchor:middle;fill:#000000;fill-opacity:1;stroke:none"
       x="1856.4309"
       y="892.82959"
       id="text4246-9-2-6"
       sodipodi:linespacing="0%"><tspan
         sodipodi:role="line"
         style="font-size:41.25px;line-height:1.20000005"
         x="1856.4309"
         y="892.82959"
         id="tspan956">Il ét d’oure</tspan><tspan
         sodipodi:role="line"
         style="font-size:41.25px;line-height:1.20000005"
         x="1856.4309"
         y="942.32959"
         id="tspan6277"> d’aler a la musse,</tspan><tspan
         sodipodi:role="line"
         style="font-size:41.25px;line-height:1.20000005"
         x="1856.4309"
         y="991.82959"
         id="tspan6275">vouz sonjez pas ?</tspan></text>
    <text
       xml:space="preserve"
       style="font-style:normal;font-variant:normal;font-weight:normal;font-stretch:normal;font-size:10.59237862px;line-height:0%;font-family:Lavi;-inkscape-font-specification:Lavi;text-align:center;letter-spacing:0px;word-spacing:0px;text-anchor:middle;fill:#000000;fill-opacity:1;stroke:none;stroke-width:0.99999994"
       x="2204.8386"
       y="952.71265"
       id="text4246-3-2"
       sodipodi:linespacing="0%"><tspan
         sodipodi:role="line"
         style="font-size:37.33333206px;line-height:1.20000005;stroke-width:0.99999994"
         x="2204.8386"
         y="952.71265"
         id="tspan1004">E de laver</tspan><tspan
         sodipodi:role="line"
         style="font-size:37.33333206px;line-height:1.20000005;stroke-width:0.99999994"
         x="2204.8386"
         y="997.51263"
         id="tspan6286">lours maens</tspan><tspan
         sodipodi:role="line"
         style="font-size:37.33333206px;line-height:1.20000005;stroke-width:0.99999994"
         x="2204.8386"
         y="1042.3126"
         id="tspan6284">pour qheuq’ûnes.</tspan></text>
    <text
       xml:space="preserve"
       style="font-style:normal;font-variant:normal;font-weight:normal;font-stretch:normal;line-height:0%;font-family:Lavi;-inkscape-font-specification:Lavi;text-align:center;letter-spacing:0px;word-spacing:0px;text-anchor:middle;fill:#000000;fill-opacity:1;stroke:none"
       x="1111.5612"
       y="1247.6182"
       id="text4246-9-2-6-2"
       sodipodi:linespacing="0%"><tspan
         sodipodi:role="line"
         style="font-size:45px;line-height:1.20000005"
         x="1111.5612"
         y="1247.6182"
         id="tspan1035">Eh !</tspan><tspan
         sodipodi:role="line"
         style="font-size:45px;line-height:1.20000005"
         x="1111.5612"
         y="1301.6182"
         id="tspan6290">Maez esperez-mai !</tspan></text>
    <text
       xml:space="preserve"
       style="font-style:normal;font-variant:normal;font-weight:normal;font-stretch:normal;font-size:14.62346077px;line-height:0%;font-family:Lavi;-inkscape-font-specification:Lavi;text-align:center;letter-spacing:0px;word-spacing:0px;text-anchor:middle;fill:#ffffff;fill-opacity:0.78431373;stroke:none;stroke-width:0.99999994"
       x="1377.6285"
       y="2198.0491"
       id="text4246-7"
       transform="matrix(0.79017753,-0.5292546,0.38466968,1.0078897,0,0)"><tspan
         sodipodi:role="line"
         style="font-style:normal;font-variant:normal;font-weight:bold;font-stretch:normal;font-size:58.49384308px;line-height:1.20000005;font-family:Lavi;-inkscape-font-specification:'Lavi Bold';fill:#ffffff;fill-opacity:0.78431373;stroke-width:0.82059908"
         x="1377.6285"
         y="2198.0491"
         id="tspan4252-5">Poc !</tspan></text>
    <text
       xml:space="preserve"
       style="font-style:normal;font-variant:normal;font-weight:normal;font-stretch:normal;font-size:11.79470253px;line-height:0%;font-family:Lavi;-inkscape-font-specification:Lavi;text-align:center;letter-spacing:0px;word-spacing:0px;text-anchor:middle;fill:#ffffff;fill-opacity:0.78431373;stroke:none;stroke-width:0.99999994"
       x="-544.74127"
       y="2437.7266"
       id="text4246-7-9"
       transform="matrix(0.80236382,-0.52121629,0.39060214,0.99258189,0,0)"><tspan
         sodipodi:role="line"
         style="font-style:normal;font-variant:normal;font-weight:bold;font-stretch:normal;font-size:47.17881012px;line-height:1.20000005;font-family:Lavi;-inkscape-font-specification:'Lavi Bold';fill:#ffffff;fill-opacity:0.78431373;stroke-width:0.82059908"
         x="-544.74127"
         y="2437.7266"
         id="tspan4252-5-2">Poc !</tspan></text>
    <text
       xml:space="preserve"
       style="font-style:normal;font-variant:normal;font-weight:normal;font-stretch:normal;font-size:11.79470253px;line-height:0%;font-family:Lavi;-inkscape-font-specification:Lavi;text-align:center;letter-spacing:0px;word-spacing:0px;text-anchor:middle;fill:#ffffff;fill-opacity:0.78431373;stroke:none;stroke-width:0.99999994"
       x="-369.83539"
       y="2519.6321"
       id="text4246-7-9-2"
       transform="matrix(0.80236382,-0.52121629,0.39060214,0.99258189,0,0)"><tspan
         sodipodi:role="line"
         style="font-style:normal;font-variant:normal;font-weight:bold;font-stretch:normal;font-size:47.17881012px;line-height:1.20000005;font-family:Lavi;-inkscape-font-specification:'Lavi Bold';fill:#ffffff;fill-opacity:0.78431373;stroke-width:0.82059908"
         x="-369.83539"
         y="2519.6321"
         id="tspan4252-5-2-8">Poc !</tspan></text>
    <text
       xml:space="preserve"
       style="font-style:normal;font-variant:normal;font-weight:normal;font-stretch:normal;line-height:0%;font-family:Lavi;-inkscape-font-specification:Lavi;letter-spacing:0px;word-spacing:0px;fill:#000000;fill-opacity:1;stroke:none;stroke-width:0;stroke-miterlimit:4;stroke-dasharray:none;stroke-opacity:1;filter:url(#filter4375-4-1-1-1-9)"
       x="787.65729"
       y="1584.5073"
       id="text4580"
       transform="matrix(1.0211987,-1.0799997,0.40321163,1.6505895,-232.24531,872.73654)"><tspan
         sodipodi:role="line"
         id="tspan4582"
         x="787.65729"
         y="1584.5073"
         style="font-size:70px;line-height:1.25;fill:#ffffff;stroke:none;stroke-width:0;stroke-miterlimit:4;stroke-dasharray:none">P<tspan
   style="font-size:56.01517868px;stroke:none;stroke-width:0;stroke-miterlimit:4;stroke-dasharray:none"
   id="tspan1119">AF </tspan><tspan
   style="font-size:80.40014648px;stroke:none;stroke-width:0;stroke-miterlimit:4;stroke-dasharray:none"
   id="tspan4617">!</tspan></tspan></text>
    <text
       xml:space="preserve"
       style="font-style:normal;font-variant:normal;font-weight:normal;font-stretch:normal;font-size:15.75232887px;line-height:0%;font-family:Lavi;-inkscape-font-specification:Lavi;text-align:center;letter-spacing:0px;word-spacing:0px;text-anchor:middle;opacity:1;fill:#ffffff;fill-opacity:0.84180789;stroke:none;stroke-width:0.99999994"
       x="1879.0814"
       y="2486.6555"
       id="text4246-7-9-2-3"
       transform="matrix(0.98943475,-0.09116349,0.01957156,1.0088748,0,0)"><tspan
         sodipodi:role="line"
         style="font-style:normal;font-variant:normal;font-weight:bold;font-stretch:normal;font-size:63.00931549px;line-height:1.20000005;font-family:Lavi;-inkscape-font-specification:'Lavi Bold';fill:#ffffff;fill-opacity:0.84180789;stroke-width:0.82059902"
         x="1879.0814"
         y="2486.6555"
         id="tspan4252-5-2-8-6">?</tspan></text>
  </g>
</svg>
