<?xml version="1.0" encoding="UTF-8" standalone="no"?>
<svg
   xmlns:dc="http://purl.org/dc/elements/1.1/"
   xmlns:cc="http://creativecommons.org/ns#"
   xmlns:rdf="http://www.w3.org/1999/02/22-rdf-syntax-ns#"
   xmlns:svg="http://www.w3.org/2000/svg"
   xmlns="http://www.w3.org/2000/svg"
   xmlns:xlink="http://www.w3.org/1999/xlink"
   xmlns:sodipodi="http://sodipodi.sourceforge.net/DTD/sodipodi-0.dtd"
   xmlns:inkscape="http://www.inkscape.org/namespaces/inkscape"
   id="svg2"
   version="1.1"
   inkscape:version="1.0.1 (3bc2e813f5, 2020-09-07)"
   width="2481"
   height="3503"
   sodipodi:docname="E35P07.svg">
  <metadata
     id="metadata8">
    <rdf:RDF>
      <cc:Work
         rdf:about="">
        <dc:format>image/svg+xml</dc:format>
        <dc:type
           rdf:resource="http://purl.org/dc/dcmitype/StillImage" />
        <dc:title />
      </cc:Work>
    </rdf:RDF>
  </metadata>
  <defs
     id="defs6">
    <filter
       style="color-interpolation-filters:sRGB"
       id="filter4375-4-1-1-1-9-5-8-8-5-5-3-8"
       inkscape:label="soundFX1"
       x="-0.044353127"
       y="-0.0023842071"
       width="1.0467294"
       height="1.0447156">
      <feFlood
         id="feFlood4377-7-9-0-8-1-7-3-1-2-7-6-7"
         flood-opacity="1"
         flood-color="rgb(255,255,255)"
         result="flood" />
      <feComposite
         id="feComposite4379-3-8-8-2-77-4-1-0-6-4-7-9"
         in2="SourceGraphic"
         in="flood"
         operator="in"
         result="composite1"
         baseFrequency="0.053999999999999999 0.053999999999999999" />
      <feMorphology
         id="feMorphology4393-1-0-49-8-9-3-0-1-9-9-5-2"
         operator="dilate"
         radius="2.9756367599225957"
         result="result3" />
      <feComposite
         id="feComposite4385-9-5-7-0-8-8-7-5-4-9-3-0"
         in2="result3"
         in="SourceGraphic"
         operator="over"
         result="fbSourceGraphic" />
      <feColorMatrix
         result="fbSourceGraphicAlpha"
         in="fbSourceGraphic"
         values="0 0 0 -1 0 0 0 0 -1 0 0 0 0 -1 0 0 0 0 1 0"
         id="feColorMatrix4544-9-4-4-5-2" />
      <feTurbulence
         id="feTurbulence4546-3-6-5-6-3"
         type="fractalNoise"
         numOctaves="5"
         seed="174"
         baseFrequency="0.053999999999999999 0.054054054054054057"
         result="turbulence" />
      <feDisplacementMap
         id="feDisplacementMap4548-8-0-9-2-7"
         in2="turbulence"
         in="fbSourceGraphic"
         scale="6.6"
         yChannelSelector="G"
         xChannelSelector="R"
         result="fbSourceGraphic" />
      <feColorMatrix
         result="fbSourceGraphicAlpha"
         in="fbSourceGraphic"
         values="0 0 0 -1 0 0 0 0 -1 0 0 0 0 -1 0 0 0 0 1 0"
         id="feColorMatrix4670-7-7-3-9-5" />
      <feFlood
         id="feFlood4672-4-4-5-1-9"
         flood-opacity="1"
         flood-color="rgb(255,255,255)"
         result="flood"
         in="fbSourceGraphic" />
      <feComposite
         id="feComposite4674-8-3-7-2-22"
         in2="fbSourceGraphic"
         in="flood"
         operator="in"
         result="composite1" />
      <feGaussianBlur
         id="feGaussianBlur4676-3-7-08-7-8"
         in="composite1"
         stdDeviation="0"
         result="blur" />
      <feOffset
         id="feOffset4678-6-9-1-0-9"
         dx="-6.3258232761971414"
         dy="6"
         result="offset" />
      <feComposite
         id="feComposite4680-4-0-9-9-7"
         in2="offset"
         in="fbSourceGraphic"
         operator="over"
         result="composite2" />
    </filter>
  </defs>
  <sodipodi:namedview
     pagecolor="#ffffff"
     bordercolor="#666666"
     borderopacity="1"
     objecttolerance="10"
     gridtolerance="10"
     guidetolerance="10"
     inkscape:pageopacity="0"
     inkscape:pageshadow="2"
     inkscape:window-width="1366"
     inkscape:window-height="715"
     id="namedview4"
     showgrid="false"
     inkscape:zoom="0.42919518"
     inkscape:cx="1217.6762"
     inkscape:cy="2735.5015"
     inkscape:window-x="-8"
     inkscape:window-y="-8"
     inkscape:window-maximized="1"
     inkscape:current-layer="layer1"
     inkscape:document-rotation="0"
     inkscape:snap-global="false"
     inkscape:pagecheckerboard="0" />
  <g
     inkscape:groupmode="layer"
     id="layer2"
     inkscape:label="artwork"
     sodipodi:insensitive="true">
    <image
       sodipodi:absref="D:\Projects\lang\gfx_Pepper-and-Carrot_by-David-Revoy_E35P07.png"
       xlink:href="../gfx_Pepper-and-Carrot_by-David-Revoy_E35P07.png"
       width="2481"
       height="3503"
       id="image10"
       x="0"
       y="0" />
  </g>
  <g
     inkscape:groupmode="layer"
     id="layer3"
     inkscape:label="speechbubbles">
    <path
       style="fill:#ffffff;stroke:none;stroke-width:1.12314"
       d="m 1991.8054,263.19583 c -36.7748,0.62171 -74.0491,11.04993 -101.1715,31.85068 -26.0606,20.2574 -42.1843,47.76653 -50.6568,76.09246 -5.7357,18.72268 -8.8219,38.80633 -2.0402,57.63846 8.1626,21.89649 28.3977,39.64025 52.122,51.09041 35.1343,17.30299 76.9008,23.6952 117.5012,22.6264 42.532,-0.84374 85.417,-3.80681 126.4351,-13.55419 21.0978,-5.62985 41.5565,-15.68475 53.3603,-31.53395 11.0478,-14.73548 13.8064,-32.59295 12.3819,-49.58206 -1.2365,-28.608 -11.6796,-56.83009 -29.7013,-81.32235 -12.9981,-18.05336 -29.1674,-35.42179 -51.4119,-46.33695 -19.1791,-9.61687 -41.8081,-12.68066 -63.8057,-14.59908 -20.9087,-1.96975 -41.9827,-2.41924 -63.0131,-2.36983 z"
       id="path3280-8"
       inkscape:connector-curvature="0"
       sodipodi:nodetypes="csssc" />
    <path
       style="fill:#ffffff;fill-rule:evenodd;stroke:none;stroke-width:0.934796px;stroke-linecap:butt;stroke-linejoin:miter;stroke-opacity:1"
       d="m 1937.2471,432.07438 c -6.2176,11.12141 -85.6078,33.31577 -108.1931,83.17757 30.1276,-36.25015 118.0705,-48.01797 132.9745,-62.07815 51.3058,-16.19189 -3.5494,-23.72277 -24.7814,-21.09942 z"
       id="path4186"
       inkscape:connector-curvature="0"
       sodipodi:nodetypes="cccc" />
    <path
       style="fill:#ffffff;fill-rule:evenodd;stroke:none;stroke-width:1px;stroke-linecap:butt;stroke-linejoin:miter;stroke-opacity:1"
       d="m 1557.7613,1692.8906 134.1326,-31.6108 -24.0947,-23.8017 91.2177,-24.1969 -16.3502,-24.7111 -106.501,38.013 26.5589,28.0558 z"
       id="path4667"
       inkscape:connector-curvature="0" />
    <path
       style="color:#000000;display:inline;overflow:visible;visibility:visible;fill:#ffffff;fill-opacity:1;fill-rule:nonzero;stroke:none;stroke-width:1.12843px;marker:none;enable-background:accumulate"
       d="m 391.5769,3167.8318 c -7.23811,18.6619 -52.05781,10.3174 -67.0863,6.0688 30.29393,21.9362 29.23779,35.0172 -11.89282,35.9167 66.66118,33.4978 16.76424,34.0668 -4.37526,28.9926 34.17899,17.7527 36.20827,33.9683 1.44476,42.1393 62.25111,2.2759 47.18102,15.2452 23.61283,33.8563 27.56221,-11.85 70.07971,-19.7446 71.58827,13.2682 39.93547,-27.7008 60.54023,-26.571 74.98161,6.3976 12.06307,-27.7524 53.13847,-32.0237 68.84482,-1.3015 13.53004,-40.6183 61.80672,-33.5147 90.54409,-12.8552 -16.13182,-14.4659 -5.1314,-37.249 49.86772,-31.0622 -4.42692,-12.9748 2.53485,-29.0046 30.3088,-26.096 -31.99215,-8.6461 -37.88812,-16.8174 21.51402,-23.7957 -45.20156,-2.0802 -87.35236,-4.9518 -34.32109,-32.8773 -16.63734,-1.1704 -58.67096,30.7099 -40.26671,-40.548 -48.72724,19.8167 -97.37037,20.7746 -94.85121,-23.6066 -18.11546,23.5432 -49.53633,34.5732 -63.20604,4.1646 -11.28433,27.7421 -45.55915,15.049 -63.36432,-4.5901 -11.76476,18.6771 -19.50089,52.7905 -53.34317,25.9285 z"
       id="path3549-3-7-8"
       inkscape:connector-curvature="0"
       sodipodi:nodetypes="ccccccccccccccccccc" />
    <path
       style="color:#000000;display:inline;overflow:visible;visibility:visible;fill:#ffffff;fill-opacity:1;fill-rule:nonzero;stroke:none;stroke-width:1.16364px;marker:none;enable-background:accumulate"
       d="m 395.81511,2961.831 c 49.93583,48.8251 -50.28024,31.843 -69.50282,25.1113 50.24165,17.1839 38.97715,45.8172 -13.10153,54.7994 89.91485,47.025 19.39571,62.685 1.64351,63.3727 59.66399,19.8137 46.59952,34.9995 35.97724,59.5468 116.66131,-28.0798 35.28719,48.3103 35.39607,81.0032 5.81374,-14.7054 95.11913,-153.1756 35.09509,-9.627 45.36025,-47.558 99.9955,-78.278 104.33371,4.9486 18.2764,-41.8692 36.49795,-59.5645 35.09508,-9.6272 45.2832,-64.9499 110.96232,-47.8415 151.89672,-29.4843 -53.14869,-49.318 -20.75846,-45.6445 38.28865,-31.9223 -68.70005,-33.8189 -62.86679,-49.2603 16.90128,-45.188 -35.24359,-11.7374 -41.73889,-23.8445 23.70058,-36.8734 -50.29023,-2.1242 -105.5241,-20.0784 -37.80926,-48.2745 -25.50325,2.4736 -120.84775,-3.4268 -41.53933,-72.5016 -62.24462,25.9941 -126.32108,36.5031 -107.31113,-18.8551 -53.06049,33.6197 -58.62464,54.0036 -69.62981,8.9335 -18.76703,39.1146 -43.14223,14.8875 -69.80422,-4.2956 19.40109,30.5823 -23.93488,48.6141 -69.62983,8.9335 z"
       id="path3549-3-7"
       inkscape:connector-curvature="0"
       sodipodi:nodetypes="ccccccccccccccccccc" />
    <path
       style="fill:#ffffff;fill-rule:evenodd;stroke:none;stroke-width:1.61403px;stroke-linecap:butt;stroke-linejoin:miter;stroke-opacity:1"
       d="m 559.65143,2966.4499 c 7.81388,-49.8207 8.23157,-62.9667 6.02019,-75.0728 -2.2114,-12.106 -16.03862,-8.1385 -26.02653,-3.643 -6.53887,2.9161 -28.34548,24.9309 -13.34891,-11.2886 14.99673,-36.2194 33.04009,-86.6247 37.65555,-102.5126 -15.5946,27.8024 -42.45502,71.0937 -50.25242,84.9947 -7.79723,13.9012 -19.54665,39.459 -22.39666,47.151 -3.46707,9.3577 -1.1372,19.0591 14.63013,17.8664 24.66487,-3.6362 41.86312,-37.8298 13.23772,21.5203 -28.62567,59.3501 4.95095,150.5651 4.95095,150.5651 z"
       id="path1089"
       inkscape:connector-curvature="0"
       sodipodi:nodetypes="csccccscccc" />
    <path
       style="color:#000000;display:inline;overflow:visible;visibility:visible;fill:#ffffff;fill-opacity:1;fill-rule:nonzero;stroke:none;stroke-width:1.40431px;marker:none;enable-background:accumulate"
       d="m 1744.6585,1453.8765 c -3.1503,48.6591 -62.8402,17.166 -91.1853,4.779 33.7842,27.417 59.4297,64.0159 -15.0206,61.7165 83.6043,48.5917 27.7128,46.2144 14.2372,58.5349 65.6448,16.7461 46.7788,38.1907 4.6433,49.8573 75.4522,0.7126 57.1864,17.8157 28.6202,42.4272 33.4073,-16.1132 84.9411,-27.7 86.7696,14.4289 48.4043,-36.8032 73.3787,-36.0864 90.8825,5.5302 14.6212,-35.8861 64.4072,-42.7926 83.4443,-4.0909 16.3993,-52.3774 74.9137,-45.0033 109.7451,-19.619 -19.5527,-17.9151 -6.2194,-47.4142 60.4431,-41.4485 -5.3657,-16.4227 3.0724,-37.1504 36.7361,-34.4133 -38.7765,-9.9194 -45.9227,-20.1524 26.0764,-31.1638 -54.7872,-1.064 -105.8767,-3.2467 -41.5994,-40.799 -20.1654,-0.9086 -68.0105,30.4261 -45.7033,-61.2732 -59.0606,27.0391 -121.1216,40.8619 -118.0682,-15.9354 -21.9571,30.7214 -60.0412,45.923 -76.6097,7.5504 -13.6775,35.8456 -55.2208,20.8356 -76.8017,-3.6302 -14.2596,24.2796 -35.5906,40.6784 -76.6096,7.5489 z"
       id="path3549-3-7-8-6"
       inkscape:connector-curvature="0"
       sodipodi:nodetypes="ccccccccccccccccccc" />
  </g>
  <g
     inkscape:groupmode="layer"
     id="layer1"
     inkscape:label="txt">
    <text
       xml:space="preserve"
       style="font-style:normal;font-variant:normal;font-weight:normal;font-stretch:normal;font-size:45px;line-height:1.25;font-family:Lavi;-inkscape-font-specification:Lavi;text-align:center;letter-spacing:0px;word-spacing:0px;text-anchor:middle;fill:#000000;fill-opacity:1;stroke:none"
       x="2016.3785"
       y="338.14099"
       id="text4246-3-2-2"><tspan
         style="font-size:45px"
         sodipodi:role="line"
         x="2016.3785"
         y="338.14099"
         id="tspan886">Bagus!</tspan><tspan
         style="font-size:45px"
         sodipodi:role="line"
         x="2016.3785"
         y="394.39099"
         id="tspan58">Mereka</tspan><tspan
         style="font-size:45px"
         sodipodi:role="line"
         x="2016.3785"
         y="450.64099"
         id="tspan66">mengikuti kita!</tspan></text>
    <text
       xml:space="preserve"
       style="font-style:normal;font-variant:normal;font-weight:normal;font-stretch:normal;font-size:45px;line-height:1.25;font-family:Lavi;-inkscape-font-specification:Lavi;text-align:center;letter-spacing:0px;word-spacing:0px;text-anchor:middle;fill:#000000;fill-opacity:1;stroke:none"
       x="1899.5864"
       y="1553.5004"
       id="text4246-3-2-2-3"><tspan
         style="font-size:45px"
         sodipodi:role="line"
         x="1899.5864"
         y="1553.5004"
         id="tspan922">Kita akan segera</tspan><tspan
         style="font-size:45px"
         sodipodi:role="line"
         x="1899.5864"
         y="1609.7504"
         id="tspan70">lepas dari mereka.</tspan></text>
    <text
       xml:space="preserve"
       style="font-style:normal;font-variant:normal;font-weight:normal;font-stretch:normal;font-size:50.2786px;line-height:1.25;font-family:Lavi;-inkscape-font-specification:Lavi;text-align:center;letter-spacing:0px;word-spacing:0px;text-anchor:middle;fill:#000000;fill-opacity:1;stroke:none;stroke-width:1.1173"
       x="531.13611"
       y="3067.8477"
       id="text4246-3-2-2-3-3"><tspan
         style="font-style:normal;font-variant:normal;font-weight:bold;font-stretch:normal;font-size:50.2786px;font-family:Lavi;-inkscape-font-specification:'Lavi Bold';stroke-width:1.1173"
         sodipodi:role="line"
         x="531.13611"
         y="3067.8477"
         id="tspan896">Aku tak sabar</tspan><tspan
         style="font-style:normal;font-variant:normal;font-weight:bold;font-stretch:normal;font-size:50.2786px;font-family:Lavi;-inkscape-font-specification:'Lavi Bold';stroke-width:1.1173"
         sodipodi:role="line"
         x="531.13611"
         y="3130.6958"
         id="tspan74">melihatnya!</tspan></text>
    <text
       xml:space="preserve"
       style="font-style:normal;font-variant:normal;font-weight:normal;font-stretch:normal;font-size:57.3248px;line-height:1.25;font-family:Lavi;-inkscape-font-specification:Lavi;text-align:center;letter-spacing:0px;word-spacing:0px;text-anchor:middle;fill:#000000;fill-opacity:1;stroke:none;stroke-width:1.27388"
       x="517.26379"
       y="3258.7009"
       id="text4246-3-2-2-3-3-3"><tspan
         style="font-style:normal;font-variant:normal;font-weight:bold;font-stretch:normal;font-size:57.3248px;font-family:Lavi;-inkscape-font-specification:'Lavi Bold';stroke-width:1.27388"
         sodipodi:role="line"
         x="517.26379"
         y="3258.7009"
         id="tspan1015">Muhahaha!</tspan></text>
    <text
       xml:space="preserve"
       style="font-style:normal;font-variant:normal;font-weight:normal;font-stretch:normal;font-size:105.817px;line-height:1.25;font-family:Lavi;-inkscape-font-specification:Lavi;letter-spacing:0px;word-spacing:0px;fill:#000000;fill-opacity:1;stroke:#030303;stroke-width:0.716208;stroke-miterlimit:4;stroke-dasharray:none;stroke-opacity:1;filter:url(#filter4375-4-1-1-1-9-5-8-8-5-5-3-8)"
       x="787.65729"
       y="1584.5073"
       id="text4580-6-0-0-0-9-3-36"
       transform="matrix(1.0545214,-0.26714456,-0.41513081,1.2309466,1890.7199,857.1408)"><tspan
         style="font-size:195.17px;fill:#000000;fill-opacity:1;stroke:#030303;stroke-width:0.716208;stroke-miterlimit:4;stroke-dasharray:none;stroke-opacity:1"
         sodipodi:role="line"
         id="tspan876-6-1"
         x="787.65729"
         y="1584.5073">!<tspan
   style="font-size:173.821px;fill:#000000;stroke:#030303;stroke-opacity:1"
   id="tspan1317">!</tspan><tspan
   id="tspan1322"
   style="font-size:152.472px;fill:#000000;stroke:#030303;stroke-opacity:1">!</tspan></tspan></text>
  </g>
</svg>
