<?xml version="1.0" encoding="UTF-8" standalone="no"?>
<!-- Created with Inkscape (http://www.inkscape.org/) -->

<svg
   id="svg2"
   version="1.1"
   inkscape:version="1.1.1 (3bf5ae0d25, 2021-09-20)"
   width="2481"
   height="3503"
   sodipodi:docname="E36P05.svg"
   xmlns:inkscape="http://www.inkscape.org/namespaces/inkscape"
   xmlns:sodipodi="http://sodipodi.sourceforge.net/DTD/sodipodi-0.dtd"
   xmlns:xlink="http://www.w3.org/1999/xlink"
   xmlns="http://www.w3.org/2000/svg"
   xmlns:svg="http://www.w3.org/2000/svg"
   xmlns:rdf="http://www.w3.org/1999/02/22-rdf-syntax-ns#"
   xmlns:cc="http://creativecommons.org/ns#"
   xmlns:dc="http://purl.org/dc/elements/1.1/">
  <metadata
     id="metadata8">
    <rdf:RDF>
      <cc:Work
         rdf:about="">
        <dc:format>image/svg+xml</dc:format>
        <dc:type
           rdf:resource="http://purl.org/dc/dcmitype/StillImage" />
        <dc:title />
      </cc:Work>
    </rdf:RDF>
  </metadata>
  <defs
     id="defs6">
    <filter
       inkscape:collect="always"
       style="color-interpolation-filters:sRGB"
       id="filter71410"
       x="-0.017062446"
       y="-0.056154443"
       width="1.0341249"
       height="1.1123089">
      <feGaussianBlur
         inkscape:collect="always"
         stdDeviation="2.9583482"
         id="feGaussianBlur71412" />
    </filter>
    <filter
       style="color-interpolation-filters:sRGB"
       id="filter4375-4-1-1-1-9-5-8-8-53"
       inkscape:label="soundFX1-Hippiah"
       x="-0.0014349399"
       y="-0.0055581411"
       width="1.0206821"
       height="1.0801105">
      <feFlood
         id="feFlood4377-7-9-0-8-1-7-3-1-4"
         flood-opacity="1"
         flood-color="rgb(43,143,96)"
         result="flood" />
      <feComposite
         id="feComposite4379-3-8-8-2-77-4-1-0-9"
         in2="SourceGraphic"
         in="flood"
         operator="in"
         result="composite1"
         baseFrequency="0.053999999999999999 0.053999999999999999" />
      <feMorphology
         id="feMorphology4393-1-0-49-8-9-3-0-1-0"
         operator="dilate"
         radius="6.2000000000000002"
         result="result3" />
      <feComposite
         id="feComposite4385-9-5-7-0-8-8-7-5-20"
         in2="result3"
         in="SourceGraphic"
         operator="over"
         result="fbSourceGraphic" />
      <feColorMatrix
         result="fbSourceGraphicAlpha"
         in="fbSourceGraphic"
         values="0 0 0 -1 0 0 0 0 -1 0 0 0 0 -1 0 0 0 0 1 0"
         id="feColorMatrix4544-9-1" />
      <feTurbulence
         id="feTurbulence4546-3-96"
         type="fractalNoise"
         numOctaves="5"
         seed="174"
         baseFrequency="0.053999999999999999 0.054054054054054057"
         result="turbulence" />
      <feDisplacementMap
         id="feDisplacementMap4548-8-21"
         in2="turbulence"
         in="fbSourceGraphic"
         scale="6.6"
         yChannelSelector="G"
         xChannelSelector="R"
         result="fbSourceGraphic" />
      <feColorMatrix
         result="fbSourceGraphicAlpha"
         in="fbSourceGraphic"
         values="0 0 0 -1 0 0 0 0 -1 0 0 0 0 -1 0 0 0 0 1 0"
         id="feColorMatrix4670-7-2" />
      <feFlood
         id="feFlood4672-4-0"
         flood-opacity="1"
         flood-color="rgb(39,84,60)"
         result="flood"
         in="fbSourceGraphic" />
      <feComposite
         id="feComposite4674-8-73"
         in2="fbSourceGraphic"
         in="flood"
         operator="in"
         result="composite1" />
      <feGaussianBlur
         id="feGaussianBlur4676-3-1"
         in="composite1"
         stdDeviation="0"
         result="blur" />
      <feOffset
         id="feOffset4678-6-1"
         dx="6"
         dy="6"
         result="offset" />
      <feComposite
         id="feComposite4680-4-90"
         in2="offset"
         in="fbSourceGraphic"
         operator="over"
         result="composite2" />
    </filter>
    <filter
       style="color-interpolation-filters:sRGB"
       id="filter4375-4-1-1-1-9-5-8-8-53-3"
       inkscape:label="soundFX1-Hippiah"
       x="-0.0022562984"
       y="-0.0053672555"
       width="1.0325204"
       height="1.0773592">
      <feFlood
         id="feFlood4377-7-9-0-8-1-7-3-1-4-1"
         flood-opacity="1"
         flood-color="rgb(47,114,125)"
         result="flood" />
      <feComposite
         id="feComposite4379-3-8-8-2-77-4-1-0-9-9"
         in2="SourceGraphic"
         in="flood"
         operator="in"
         result="composite1"
         baseFrequency="0.053999999999999999 0.053999999999999999" />
      <feMorphology
         id="feMorphology4393-1-0-49-8-9-3-0-1-0-4"
         operator="dilate"
         radius="6.2000000000000002"
         result="result3" />
      <feComposite
         id="feComposite4385-9-5-7-0-8-8-7-5-20-7"
         in2="result3"
         in="SourceGraphic"
         operator="over"
         result="fbSourceGraphic" />
      <feColorMatrix
         result="fbSourceGraphicAlpha"
         in="fbSourceGraphic"
         values="0 0 0 -1 0 0 0 0 -1 0 0 0 0 -1 0 0 0 0 1 0"
         id="feColorMatrix4544-9-1-8" />
      <feTurbulence
         id="feTurbulence4546-3-96-4"
         type="fractalNoise"
         numOctaves="5"
         seed="174"
         baseFrequency="0.053999999999999999 0.054054054054054057"
         result="turbulence" />
      <feDisplacementMap
         id="feDisplacementMap4548-8-21-5"
         in2="turbulence"
         in="fbSourceGraphic"
         scale="6.6"
         yChannelSelector="G"
         xChannelSelector="R"
         result="fbSourceGraphic" />
      <feColorMatrix
         result="fbSourceGraphicAlpha"
         in="fbSourceGraphic"
         values="0 0 0 -1 0 0 0 0 -1 0 0 0 0 -1 0 0 0 0 1 0"
         id="feColorMatrix4670-7-2-0" />
      <feFlood
         id="feFlood4672-4-0-3"
         flood-opacity="1"
         flood-color="rgb(39,84,60)"
         result="flood"
         in="fbSourceGraphic" />
      <feComposite
         id="feComposite4674-8-73-6"
         in2="fbSourceGraphic"
         in="flood"
         operator="in"
         result="composite1" />
      <feGaussianBlur
         id="feGaussianBlur4676-3-1-1"
         in="composite1"
         stdDeviation="0"
         result="blur" />
      <feOffset
         id="feOffset4678-6-1-0"
         dx="6"
         dy="6"
         result="offset" />
      <feComposite
         id="feComposite4680-4-90-6"
         in2="offset"
         in="fbSourceGraphic"
         operator="over"
         result="composite2" />
    </filter>
    <filter
       style="color-interpolation-filters:sRGB"
       id="filter5561-7-8-9"
       inkscape:label="Roughen"
       x="-0.0028573685"
       y="-0.0079730206"
       width="1.0057147"
       height="1.015946">
      <feFlood
         id="feFlood5563-4-9-0"
         flood-opacity="1"
         flood-color="rgb(88,149,175)"
         result="flood" />
      <feComposite
         id="feComposite5565-6-3-0"
         in2="SourceGraphic"
         in="flood"
         operator="in"
         result="composite1" />
      <feMorphology
         id="feMorphology5567-3-48-3"
         operator="dilate"
         radius="5.2907629363257902"
         result="result3" />
      <feComposite
         id="feComposite5569-6-6-5"
         in2="result3"
         in="SourceGraphic"
         operator="over"
         result="fbSourceGraphic" />
      <feColorMatrix
         result="fbSourceGraphicAlpha"
         in="fbSourceGraphic"
         values="0 0 0 -1 0 0 0 0 -1 0 0 0 0 -1 0 0 0 0 1 0"
         id="feColorMatrix4681-5-3" />
      <feTurbulence
         id="feTurbulence4683-3-9"
         type="fractalNoise"
         numOctaves="1"
         seed="33"
         baseFrequency="0.016687459970111018 0.019900000000000001"
         result="turbulence" />
      <feDisplacementMap
         id="feDisplacementMap4685-0-6"
         in2="turbulence"
         in="fbSourceGraphic"
         scale="37.8"
         yChannelSelector="G"
         xChannelSelector="R" />
    </filter>
    <filter
       style="color-interpolation-filters:sRGB"
       id="filter5561-7-8-9-6"
       inkscape:label="Roughen"
       x="-0.0017769722"
       y="-0.0069074383"
       width="1.0035539"
       height="1.0138149">
      <feFlood
         id="feFlood5563-4-9-0-9"
         flood-opacity="1"
         flood-color="rgb(145,96,23)"
         result="flood" />
      <feComposite
         id="feComposite5565-6-3-0-3"
         in2="SourceGraphic"
         in="flood"
         operator="in"
         result="composite1" />
      <feMorphology
         id="feMorphology5567-3-48-3-7"
         operator="dilate"
         radius="5.2907629363257902"
         result="result3" />
      <feComposite
         id="feComposite5569-6-6-5-4"
         in2="result3"
         in="SourceGraphic"
         operator="over"
         result="fbSourceGraphic" />
      <feColorMatrix
         result="fbSourceGraphicAlpha"
         in="fbSourceGraphic"
         values="0 0 0 -1 0 0 0 0 -1 0 0 0 0 -1 0 0 0 0 1 0"
         id="feColorMatrix4681-5-3-5" />
      <feTurbulence
         id="feTurbulence4683-3-9-2"
         type="fractalNoise"
         numOctaves="3"
         seed="33"
         baseFrequency="0.025919978584009393 0.010629603437233135"
         result="turbulence" />
      <feDisplacementMap
         id="feDisplacementMap4685-0-6-5"
         in2="turbulence"
         in="fbSourceGraphic"
         scale="37.8"
         yChannelSelector="G"
         xChannelSelector="R" />
    </filter>
    <filter
       style="color-interpolation-filters:sRGB"
       id="filter5561-7-8-9-4"
       inkscape:label="Roughen"
       x="-0.0028573685"
       y="-0.0079730206"
       width="1.0057147"
       height="1.015946">
      <feFlood
         id="feFlood5563-4-9-0-3"
         flood-opacity="1"
         flood-color="rgb(88,149,175)"
         result="flood" />
      <feComposite
         id="feComposite5565-6-3-0-0"
         in2="SourceGraphic"
         in="flood"
         operator="in"
         result="composite1" />
      <feMorphology
         id="feMorphology5567-3-48-3-78"
         operator="dilate"
         radius="5.2907629363257902"
         result="result3" />
      <feComposite
         id="feComposite5569-6-6-5-6"
         in2="result3"
         in="SourceGraphic"
         operator="over"
         result="fbSourceGraphic" />
      <feColorMatrix
         result="fbSourceGraphicAlpha"
         in="fbSourceGraphic"
         values="0 0 0 -1 0 0 0 0 -1 0 0 0 0 -1 0 0 0 0 1 0"
         id="feColorMatrix4681-5-3-8" />
      <feTurbulence
         id="feTurbulence4683-3-9-8"
         type="fractalNoise"
         numOctaves="1"
         seed="33"
         baseFrequency="0.016687459970111018 0.019900000000000001"
         result="turbulence" />
      <feDisplacementMap
         id="feDisplacementMap4685-0-6-4"
         in2="turbulence"
         in="fbSourceGraphic"
         scale="37.8"
         yChannelSelector="G"
         xChannelSelector="R" />
    </filter>
    <filter
       style="color-interpolation-filters:sRGB"
       id="filter4375-4-1-1-1-9-5-8-3-4"
       inkscape:label="Drop Shadow"
       x="-0.0007699657"
       y="-0.0039836934"
       width="1.015765"
       height="1.0815659">
      <feFlood
         id="feFlood4377-7-9-0-8-1-7-3-6"
         flood-opacity="1"
         flood-color="rgb(39,39,39)"
         result="flood" />
      <feComposite
         id="feComposite4379-3-8-8-2-77-4-1-7"
         in2="SourceGraphic"
         in="flood"
         operator="in"
         result="composite1" />
      <feMorphology
         id="feMorphology4393-1-0-49-8-9-3-0-5"
         operator="dilate"
         radius="6.2000000000000002"
         result="result3" />
      <feComposite
         id="feComposite4385-9-5-7-0-8-8-7-3"
         in2="result3"
         in="SourceGraphic"
         operator="over"
         result="fbSourceGraphic" />
      <feColorMatrix
         result="fbSourceGraphicAlpha"
         in="fbSourceGraphic"
         values="0 0 0 -1 0 0 0 0 -1 0 0 0 0 -1 0 0 0 0 1 0"
         id="feColorMatrix4544-5" />
      <feTurbulence
         id="feTurbulence4546-6"
         type="fractalNoise"
         numOctaves="3"
         seed="37"
         baseFrequency="0.129 0.0050000000000000001"
         result="turbulence" />
      <feDisplacementMap
         id="feDisplacementMap4548-2"
         in2="turbulence"
         in="fbSourceGraphic"
         scale="6.6"
         yChannelSelector="G"
         xChannelSelector="R"
         result="fbSourceGraphic" />
      <feColorMatrix
         result="fbSourceGraphicAlpha"
         in="fbSourceGraphic"
         values="0 0 0 -1 0 0 0 0 -1 0 0 0 0 -1 0 0 0 0 1 0"
         id="feColorMatrix4670-9-3" />
      <feFlood
         id="feFlood4672-1-0"
         flood-opacity="0.40999999999999998"
         flood-color="rgb(34,52,102)"
         result="flood"
         in="fbSourceGraphic" />
      <feComposite
         id="feComposite4674-2-3"
         in2="fbSourceGraphic"
         in="flood"
         operator="in"
         result="composite1" />
      <feGaussianBlur
         id="feGaussianBlur4676-7"
         in="composite1"
         stdDeviation="0"
         result="blur" />
      <feOffset
         id="feOffset4678-0-0"
         dx="6"
         dy="6"
         result="offset" />
      <feComposite
         id="feComposite4680-9"
         in2="offset"
         in="fbSourceGraphic"
         operator="over"
         result="composite2" />
    </filter>
    <filter
       style="color-interpolation-filters:sRGB"
       id="filter4375-4-1-1-1-9-5-8-3-4-2"
       inkscape:label="Drop Shadow"
       x="-0.0007699657"
       y="-0.0039836934"
       width="1.015765"
       height="1.0815659">
      <feFlood
         id="feFlood4377-7-9-0-8-1-7-3-6-0"
         flood-opacity="1"
         flood-color="rgb(39,39,39)"
         result="flood" />
      <feComposite
         id="feComposite4379-3-8-8-2-77-4-1-7-6"
         in2="SourceGraphic"
         in="flood"
         operator="in"
         result="composite1" />
      <feMorphology
         id="feMorphology4393-1-0-49-8-9-3-0-5-8"
         operator="dilate"
         radius="6.2000000000000002"
         result="result3" />
      <feComposite
         id="feComposite4385-9-5-7-0-8-8-7-3-9"
         in2="result3"
         in="SourceGraphic"
         operator="over"
         result="fbSourceGraphic" />
      <feColorMatrix
         result="fbSourceGraphicAlpha"
         in="fbSourceGraphic"
         values="0 0 0 -1 0 0 0 0 -1 0 0 0 0 -1 0 0 0 0 1 0"
         id="feColorMatrix4544-5-2" />
      <feTurbulence
         id="feTurbulence4546-6-6"
         type="fractalNoise"
         numOctaves="3"
         seed="37"
         baseFrequency="0.129 0.0050000000000000001"
         result="turbulence" />
      <feDisplacementMap
         id="feDisplacementMap4548-2-6"
         in2="turbulence"
         in="fbSourceGraphic"
         scale="6.6"
         yChannelSelector="G"
         xChannelSelector="R"
         result="fbSourceGraphic" />
      <feColorMatrix
         result="fbSourceGraphicAlpha"
         in="fbSourceGraphic"
         values="0 0 0 -1 0 0 0 0 -1 0 0 0 0 -1 0 0 0 0 1 0"
         id="feColorMatrix4670-9-3-4" />
      <feFlood
         id="feFlood4672-1-0-9"
         flood-opacity="0.40999999999999998"
         flood-color="rgb(34,52,102)"
         result="flood"
         in="fbSourceGraphic" />
      <feComposite
         id="feComposite4674-2-3-5"
         in2="fbSourceGraphic"
         in="flood"
         operator="in"
         result="composite1" />
      <feGaussianBlur
         id="feGaussianBlur4676-7-0"
         in="composite1"
         stdDeviation="0"
         result="blur" />
      <feOffset
         id="feOffset4678-0-0-4"
         dx="6"
         dy="6"
         result="offset" />
      <feComposite
         id="feComposite4680-9-8"
         in2="offset"
         in="fbSourceGraphic"
         operator="over"
         result="composite2" />
    </filter>
    <filter
       style="color-interpolation-filters:sRGB"
       id="filter4375-4-1-1-1-9-5-8-3-4-2-2"
       inkscape:label="Drop Shadow"
       x="-0.00074021408"
       y="-0.0039836934"
       width="1.0151558"
       height="1.0815659">
      <feFlood
         id="feFlood4377-7-9-0-8-1-7-3-6-0-2"
         flood-opacity="1"
         flood-color="rgb(39,39,39)"
         result="flood" />
      <feComposite
         id="feComposite4379-3-8-8-2-77-4-1-7-6-6"
         in2="SourceGraphic"
         in="flood"
         operator="in"
         result="composite1" />
      <feMorphology
         id="feMorphology4393-1-0-49-8-9-3-0-5-8-1"
         operator="dilate"
         radius="6.2000000000000002"
         result="result3" />
      <feComposite
         id="feComposite4385-9-5-7-0-8-8-7-3-9-0"
         in2="result3"
         in="SourceGraphic"
         operator="over"
         result="fbSourceGraphic" />
      <feColorMatrix
         result="fbSourceGraphicAlpha"
         in="fbSourceGraphic"
         values="0 0 0 -1 0 0 0 0 -1 0 0 0 0 -1 0 0 0 0 1 0"
         id="feColorMatrix4544-5-2-6" />
      <feTurbulence
         id="feTurbulence4546-6-6-1"
         type="fractalNoise"
         numOctaves="3"
         seed="37"
         baseFrequency="0.129 0.0050000000000000001"
         result="turbulence" />
      <feDisplacementMap
         id="feDisplacementMap4548-2-6-5"
         in2="turbulence"
         in="fbSourceGraphic"
         scale="6.6"
         yChannelSelector="G"
         xChannelSelector="R"
         result="fbSourceGraphic" />
      <feColorMatrix
         result="fbSourceGraphicAlpha"
         in="fbSourceGraphic"
         values="0 0 0 -1 0 0 0 0 -1 0 0 0 0 -1 0 0 0 0 1 0"
         id="feColorMatrix4670-9-3-4-9" />
      <feFlood
         id="feFlood4672-1-0-9-4"
         flood-opacity="0.40999999999999998"
         flood-color="rgb(34,52,102)"
         result="flood"
         in="fbSourceGraphic" />
      <feComposite
         id="feComposite4674-2-3-5-9"
         in2="fbSourceGraphic"
         in="flood"
         operator="in"
         result="composite1" />
      <feGaussianBlur
         id="feGaussianBlur4676-7-0-0"
         in="composite1"
         stdDeviation="0"
         result="blur" />
      <feOffset
         id="feOffset4678-0-0-4-9"
         dx="6"
         dy="6"
         result="offset" />
      <feComposite
         id="feComposite4680-9-8-1"
         in2="offset"
         in="fbSourceGraphic"
         operator="over"
         result="composite2" />
    </filter>
    <filter
       style="color-interpolation-filters:sRGB"
       id="filter4375-4-1-1-1-9-5-8-3-4-2-2-9"
       inkscape:label="Drop Shadow"
       x="-0.0007699657"
       y="-0.0039836934"
       width="1.015765"
       height="1.0815659">
      <feFlood
         id="feFlood4377-7-9-0-8-1-7-3-6-0-2-7"
         flood-opacity="1"
         flood-color="rgb(39,39,39)"
         result="flood" />
      <feComposite
         id="feComposite4379-3-8-8-2-77-4-1-7-6-6-7"
         in2="SourceGraphic"
         in="flood"
         operator="in"
         result="composite1" />
      <feMorphology
         id="feMorphology4393-1-0-49-8-9-3-0-5-8-1-6"
         operator="dilate"
         radius="6.2000000000000002"
         result="result3" />
      <feComposite
         id="feComposite4385-9-5-7-0-8-8-7-3-9-0-7"
         in2="result3"
         in="SourceGraphic"
         operator="over"
         result="fbSourceGraphic" />
      <feColorMatrix
         result="fbSourceGraphicAlpha"
         in="fbSourceGraphic"
         values="0 0 0 -1 0 0 0 0 -1 0 0 0 0 -1 0 0 0 0 1 0"
         id="feColorMatrix4544-5-2-6-3" />
      <feTurbulence
         id="feTurbulence4546-6-6-1-6"
         type="fractalNoise"
         numOctaves="3"
         seed="37"
         baseFrequency="0.129 0.0050000000000000001"
         result="turbulence" />
      <feDisplacementMap
         id="feDisplacementMap4548-2-6-5-5"
         in2="turbulence"
         in="fbSourceGraphic"
         scale="6.6"
         yChannelSelector="G"
         xChannelSelector="R"
         result="fbSourceGraphic" />
      <feColorMatrix
         result="fbSourceGraphicAlpha"
         in="fbSourceGraphic"
         values="0 0 0 -1 0 0 0 0 -1 0 0 0 0 -1 0 0 0 0 1 0"
         id="feColorMatrix4670-9-3-4-9-6" />
      <feFlood
         id="feFlood4672-1-0-9-4-3"
         flood-opacity="0.40999999999999998"
         flood-color="rgb(34,52,102)"
         result="flood"
         in="fbSourceGraphic" />
      <feComposite
         id="feComposite4674-2-3-5-9-9"
         in2="fbSourceGraphic"
         in="flood"
         operator="in"
         result="composite1" />
      <feGaussianBlur
         id="feGaussianBlur4676-7-0-0-4"
         in="composite1"
         stdDeviation="0"
         result="blur" />
      <feOffset
         id="feOffset4678-0-0-4-9-8"
         dx="6"
         dy="6"
         result="offset" />
      <feComposite
         id="feComposite4680-9-8-1-1"
         in2="offset"
         in="fbSourceGraphic"
         operator="over"
         result="composite2" />
    </filter>
    <filter
       style="color-interpolation-filters:sRGB"
       id="filter4375-4-1-1-1-9-5-8-3-4-2-2-9-8"
       inkscape:label="Drop Shadow"
       x="-0.00075316656"
       y="-0.0039836934"
       width="1.0154211"
       height="1.0815659">
      <feFlood
         id="feFlood4377-7-9-0-8-1-7-3-6-0-2-7-8"
         flood-opacity="1"
         flood-color="rgb(39,39,39)"
         result="flood" />
      <feComposite
         id="feComposite4379-3-8-8-2-77-4-1-7-6-6-7-5"
         in2="SourceGraphic"
         in="flood"
         operator="in"
         result="composite1" />
      <feMorphology
         id="feMorphology4393-1-0-49-8-9-3-0-5-8-1-6-0"
         operator="dilate"
         radius="6.2000000000000002"
         result="result3" />
      <feComposite
         id="feComposite4385-9-5-7-0-8-8-7-3-9-0-7-9"
         in2="result3"
         in="SourceGraphic"
         operator="over"
         result="fbSourceGraphic" />
      <feColorMatrix
         result="fbSourceGraphicAlpha"
         in="fbSourceGraphic"
         values="0 0 0 -1 0 0 0 0 -1 0 0 0 0 -1 0 0 0 0 1 0"
         id="feColorMatrix4544-5-2-6-3-6" />
      <feTurbulence
         id="feTurbulence4546-6-6-1-6-3"
         type="fractalNoise"
         numOctaves="3"
         seed="37"
         baseFrequency="0.129 0.0050000000000000001"
         result="turbulence" />
      <feDisplacementMap
         id="feDisplacementMap4548-2-6-5-5-8"
         in2="turbulence"
         in="fbSourceGraphic"
         scale="6.6"
         yChannelSelector="G"
         xChannelSelector="R"
         result="fbSourceGraphic" />
      <feColorMatrix
         result="fbSourceGraphicAlpha"
         in="fbSourceGraphic"
         values="0 0 0 -1 0 0 0 0 -1 0 0 0 0 -1 0 0 0 0 1 0"
         id="feColorMatrix4670-9-3-4-9-6-5" />
      <feFlood
         id="feFlood4672-1-0-9-4-3-6"
         flood-opacity="0.40999999999999998"
         flood-color="rgb(34,52,102)"
         result="flood"
         in="fbSourceGraphic" />
      <feComposite
         id="feComposite4674-2-3-5-9-9-1"
         in2="fbSourceGraphic"
         in="flood"
         operator="in"
         result="composite1" />
      <feGaussianBlur
         id="feGaussianBlur4676-7-0-0-4-1"
         in="composite1"
         stdDeviation="0"
         result="blur" />
      <feOffset
         id="feOffset4678-0-0-4-9-8-5"
         dx="6"
         dy="6"
         result="offset" />
      <feComposite
         id="feComposite4680-9-8-1-1-9"
         in2="offset"
         in="fbSourceGraphic"
         operator="over"
         result="composite2" />
    </filter>
  </defs>
  <sodipodi:namedview
     pagecolor="#1e1e1e"
     bordercolor="#111111"
     borderopacity="1"
     objecttolerance="10"
     gridtolerance="10"
     guidetolerance="10"
     inkscape:pageopacity="0"
     inkscape:pageshadow="2"
     inkscape:window-width="1920"
     inkscape:window-height="1007"
     id="namedview4"
     showgrid="false"
     inkscape:zoom="0.46000003"
     inkscape:cx="1429.3477"
     inkscape:cy="3416.3041"
     inkscape:window-x="0"
     inkscape:window-y="0"
     inkscape:window-maximized="1"
     inkscape:current-layer="layer3"
     inkscape:pagecheckerboard="0"
     inkscape:snap-global="false" />
  <g
     inkscape:groupmode="layer"
     id="layer2"
     inkscape:label="artwork"
     sodipodi:insensitive="true">
    <image
       xlink:href="../gfx_Pepper-and-Carrot_by-David-Revoy_E36P05.png"
       y="0"
       x="0"
       id="image10"
       height="3503.4727"
       width="2481" />
  </g>
  <g
     inkscape:groupmode="layer"
     id="layer4"
     inkscape:label="speechbubbles-whisper"
     style="display:inline;opacity:0.7;mix-blend-mode:screen;filter:url(#filter71410)">
    <path
       style="fill:#cdf0ff;fill-opacity:1;stroke:none;stroke-width:0.594265"
       d="m 1559.3151,770.21016 c -49.4451,0.32284 -99.233,0.68213 -148.0279,9.49729 -21.2977,3.78568 -41.968,13.16213 -57.2587,28.48292 -12.5549,13.44165 -18.4848,31.7244 -19.8302,49.68364 -0.9356,12.74689 0.2601,25.74406 4.1918,37.94899 4.1458,11.85025 12.2675,22.62712 23.5793,28.64158 14.9997,8.64985 32.4448,11.53168 49.4144,13.84251 38.2414,4.92371 76.8878,3.63255 115.3474,4.46466 47.4133,0.46204 94.8137,-1.04223 142.2197,-1.50549 14.5547,-0.40827 29.5116,-1.40835 43.0647,-7.1095 10.8035,-4.47148 20.4679,-11.97893 26.4975,-21.98035 6.7821,-10.81476 9.4526,-23.63064 9.8102,-36.2123 1.3589,-17.73188 0.5566,-36.21764 -6.8486,-52.70097 -7.0011,-14.88165 -20.3712,-26.19569 -35.506,-32.60226 -17.276,-7.74187 -35.9109,-11.99758 -54.544,-15.13588 -30.4285,-4.86942 -61.3523,-5.39585 -92.1096,-5.31484 z"
       id="path3280-8-0"
       inkscape:connector-curvature="0"
       sodipodi:nodetypes="csssc" />
    <path
       style="display:inline;opacity:1;mix-blend-mode:normal;fill:#cdf0ff;fill-opacity:1;stroke:none;stroke-width:0.640728;filter:url(#filter71410)"
       d="m 1510.5889,648.50693 c -57.9256,0.32037 -116.2529,0.67687 -173.4167,9.42412 -24.9506,3.75651 -49.1663,13.06071 -67.0794,28.26344 -14.7083,13.33809 -21.6553,31.47996 -23.2313,49.30083 -1.0962,12.64866 0.3045,25.54568 4.9107,37.65657 4.8569,11.75895 14.3714,22.45277 27.6234,28.42089 17.5723,8.58321 38.0095,11.44282 57.8897,13.73586 44.8003,4.88577 90.0751,3.60455 135.1312,4.43026 55.5452,0.45847 111.0753,-1.03421 166.6123,-1.49391 17.0511,-0.40512 34.5732,-1.39749 50.4508,-7.05471 12.6564,-4.43702 23.9784,-11.88663 31.0422,-21.81098 7.9453,-10.73144 11.0738,-23.44857 11.4929,-35.93328 1.5918,-17.59524 0.6519,-35.93857 -8.0235,-52.29489 -8.2017,-14.76698 -23.865,-25.99384 -41.5956,-32.35105 -20.2391,-7.68221 -42.0703,-11.90514 -63.8991,-15.01926 -35.6474,-4.8319 -71.8749,-5.35427 -107.9076,-5.27389 z"
       id="path3280-8-0-5"
       inkscape:connector-curvature="0"
       sodipodi:nodetypes="csssc"
       transform="matrix(1.1736564,0,0,0.80830275,-214.45776,142.35622)" />
    <path
       style="color:#000000;display:inline;overflow:visible;visibility:visible;fill:#cdf0ff;fill-opacity:1;fill-rule:nonzero;stroke:none;stroke-width:1.5882px;marker:none;enable-background:accumulate"
       d="m 424.63667,372.42773 c -18.15838,0.35119 -36.25271,2.0841 -54.38848,2.95124 -53.38294,2.9774 -107.41266,1.63162 -159.96699,12.89642 -20.85894,4.41733 -41.68728,11.1059 -59.26098,23.51414 -13.24547,9.237 -24.4496,21.86424 -30.30349,37.05469 -5.42529,13.33163 -7.09732,27.87732 -6.64658,42.18071 0.24606,18.90357 1.73052,37.90177 5.9923,56.35398 3.70351,14.18309 11.0729,27.55741 22.0293,37.41992 18.63468,17.9054 42.77055,29.06558 67.50989,35.70521 30.25871,7.85957 61.67998,9.05138 92.75671,10.42565 47.83402,1.61213 95.69612,0.24803 143.53549,-0.33609 68.25155,-1.64732 136.6805,-4.72764 204.20452,-15.36437 16.99206,-3.52167 34.07278,-10.76908 45.47779,-24.30953 12.05008,-14.85928 16.97857,-33.84743 20.82902,-52.20651 6.6435,-34.08196 4.93722,-70.49296 -8.92556,-102.62699 -10.17779,-21.00893 -30.94968,-35.81708 -53.54551,-40.72158 -21.91536,-6.00123 -44.44742,-9.23505 -66.76398,-13.321 -34.84787,-4.88867 -70.15071,-4.21452 -105.13306,-7.61979 -19.09384,-1.49773 -38.24735,-2.22389 -57.40039,-1.9961 z"
       id="path3365-7"
       inkscape:connector-curvature="0"
       sodipodi:nodetypes="cscsccc" />
    <path
       style="color:#000000;display:inline;overflow:visible;visibility:visible;fill:#cdf0ff;fill-opacity:1;fill-rule:nonzero;stroke:none;stroke-width:0.97384px;marker:none;enable-background:accumulate"
       d="m 155.44483,304.74624 c 4.7427,-52.30469 52.85575,-89.75145 176.17186,-77.62792 66.05484,6.49326 141.10257,11.3354 134.92224,87.97148 -6.18042,76.63608 -114.09876,72.67968 -136.41441,74.06386 -22.31579,1.38525 -138.25243,-8.79398 -158.11509,-35.26692 -12.43359,-16.57112 -17.19933,-32.92641 -16.5646,-49.1405 z"
       id="path4546-6-21"
       inkscape:connector-curvature="0"
       sodipodi:nodetypes="cssssc" />
    <path
       style="color:#000000;display:inline;overflow:visible;visibility:visible;fill:#cdf0ff;fill-opacity:1;fill-rule:nonzero;stroke:none;stroke-width:1.16605px;marker:none;enable-background:accumulate"
       d="m 576.7625,783.79063 c 6.87857,43.45749 58.0929,91.09727 131.04664,66.83739 -39.36853,34.33047 -133.85457,42.9943 -166.01805,-46.38918 -12.49502,-34.72413 6.28964,-25.83481 14.11032,-29.48502 7.82082,-3.65023 20.86109,9.03681 20.86109,9.03681 z"
       id="path4064-5"
       inkscape:connector-curvature="0"
       sodipodi:nodetypes="ccszc" />
    <path
       style="color:#000000;display:inline;overflow:visible;visibility:visible;fill:#cdf0ff;fill-opacity:1;fill-rule:nonzero;stroke:none;stroke-width:1.06937px;marker:none;enable-background:accumulate"
       d="m 445.19746,614.30945 c -55.85031,1.92697 -111.8743,0.5922 -167.59885,4.77368 -37.73422,4.25202 -75.41059,13.83876 -106.83692,32.30621 -22.73789,15.56992 -35.20953,39.7437 -37.85066,63.90834 -3.84655,27.12845 -4.24293,55.0649 3.98429,81.67359 7.89954,20.28069 27.49853,36.0393 49.78496,45.56301 28.76014,12.6848 61.2607,17.08838 93.03184,21.09961 46.44485,5.30006 93.37502,7.81359 140.24835,7.16264 36.64087,-0.55283 73.07647,-4.15256 109.5217,-7.07217 28.04873,-2.29707 56.90462,-4.14282 82.93366,-13.98108 36.34778,-13.92932 64.59357,-43.16773 70.44314,-76.60266 3.88529,-20.53231 1.26154,-41.4202 -1.83478,-61.89338 -3.70269,-20.31428 -11.59035,-41.02111 -28.56739,-56.36836 -16.69922,-15.17098 -40.03088,-24.37854 -64.08811,-27.87816 -40.5985,-7.75805 -82.19733,-11.45427 -123.77704,-12.55891 -6.46392,-0.11204 -12.92896,-0.14928 -19.39419,-0.13236 z"
       id="path4546-6-2"
       inkscape:connector-curvature="0"
       sodipodi:nodetypes="cssssssscc" />
    <path
       inkscape:connector-curvature="0"
       style="color:#000000;display:inline;overflow:visible;visibility:visible;fill:#cdf0ff;fill-opacity:1;fill-rule:nonzero;stroke:none;stroke-width:0.766576px;marker:none;enable-background:accumulate"
       d="m 1550.7033,101.80337 -23.3981,27.04329 -0.7307,-6.75989 -8.7789,5.21811 c -36.8975,-6.60013 -83.8758,-5.22468 -120.6429,-0.48508 l -10.2376,-4.73303 -1.4853,6.41047 c -1.6762,0.26529 -3.334,0.53528 -4.9484,0.8137 l -11.115,-5.87295 1.3901,7.70679 c -0.2011,0.041 -0.399,0.083 -0.5986,0.12463 l -15.4146,-6.47893 2.8487,9.48193 c -0.7198,0.19862 -1.4246,0.39791 -2.1114,0.59876 l -19.7487,-14.13681 7.9861,18.46172 c -1.1636,0.57189 -2.1679,1.14514 -3.0218,1.71905 l -10.0831,-6.6598 4.9457,11.1778 c -1.1204,1.06818 -2.1789,2.1119 -3.1937,3.13868 l -12.7191,-1.46981 7.0612,7.6176 c -8.3456,9.91765 -11.4204,18.31754 -10.8151,28.05866 0.1214,1.95526 0.3496,3.84951 0.6712,5.68962 l -2.7669,4.60721 4.4291,2.04767 c 0.7148,2.17072 1.5795,4.25591 2.5872,6.2578 l -11.4044,12.65364 h 13.8925 l -11.6991,10.81735 21.843,-7.57239 c 0.2771,0.24201 0.5615,0.47956 0.8443,0.71837 l -7.3321,12.93953 15.3552,-4.05738 -14.6232,14.87473 29.9784,-8.78922 -4.3868,15.55037 19.0114,-10.1417 1.7374,-0.0254 c 5.2267,1.74068 10.6711,3.35241 16.2961,4.85646 29.672,7.93381 85.1123,2.68289 124.7087,-5.66279 l 19.5835,7.59314 -6.3887,-10.63164 c 0.4179,-0.10577 0.814,-0.21383 1.2261,-0.32011 l 20.5176,11.62732 -4.3868,-9.46479 19.7421,8.11238 -12.4298,-16.22602 10.967,4.73302 -7.7297,-8.16854 c 0.9047,-0.47867 1.8051,-0.97994 2.7008,-1.50284 l 10.1479,2.23465 -6.287,-4.65001 c 1.4895,-0.99449 2.9535,-2.04544 4.3789,-3.15329 l 15.8005,3.74585 -8.6455,-10.12462 c 0.8644,-0.88589 1.7039,-1.79237 2.5092,-2.72086 h 11.9859 l -5.4889,-9.22657 c 7.7986,-14.16969 7.6163,-31.28727 -9.9918,-47.65425 l 3.0508,-5.99512 -8.7749,0.67564 0.7321,-18.92972 -13.8938,6.7599 4.388,-14.19789 -8.775,6.76115 0.7307,-25.0153 z"
       id="path4040-0" />
    <path
       style="color:#000000;display:inline;overflow:visible;visibility:visible;fill:#cdf0ff;fill-opacity:1;fill-rule:nonzero;stroke:none;stroke-width:1.0095px;marker:none;enable-background:accumulate"
       d="m 1555.5293,187.06396 c -30.0498,0.11683 -60.6481,4.85061 -87.1444,16.97028 -21.9823,10.84887 -36.6351,31.29585 -37.0815,52.51254 -0.6183,9.54938 1.1798,19.84255 8.7388,27.44604 7.6146,7.9071 17.9613,13.6889 28.704,18.32386 18.867,7.35179 40.0732,8.07668 60.5185,9.34063 52.3494,3.08134 104.9162,1.90588 157.2542,-0.71092 15.9432,-0.98614 32.4245,-3.29892 46.0738,-10.60708 11.6881,-6.36267 19.8672,-16.81831 22.2456,-28.21042 2.6957,-12.19992 0.2547,-24.83182 -4.5774,-36.45127 -3.5252,-8.05689 -8.3279,-15.9164 -15.3958,-22.25491 -7.1182,-6.10138 -16.6958,-9.9721 -26.7027,-11.57556 -15.4223,-3.1774 -31.2306,-4.79219 -46.7564,-7.56221 -34.9269,-5.08354 -70.4235,-7.3591 -105.8767,-7.22098 z"
       id="path3525"
       inkscape:connector-curvature="0" />
    <path
       style="color:#000000;display:inline;overflow:visible;visibility:visible;opacity:1;mix-blend-mode:normal;fill:#cdf0ff;fill-opacity:1;fill-rule:nonzero;stroke:none;stroke-width:1.1427px;marker:none;filter:url(#filter71410);enable-background:accumulate"
       d="m 1558.7077,251.21979 c -38.5028,0.11683 -77.7085,4.85061 -111.6582,16.97028 -28.166,10.84887 -46.9406,31.29585 -47.5126,52.51254 -0.7922,9.54938 1.5117,19.84255 11.1971,27.44604 9.7566,7.9071 23.0138,13.6889 36.7784,18.32386 24.1743,7.35179 51.3458,8.07668 77.5425,9.34063 67.0753,3.08134 134.4293,1.90588 201.49,-0.71092 20.428,-0.98614 41.5455,-3.29892 59.0344,-10.60708 14.9759,-6.36267 25.4559,-16.81831 28.5034,-28.21042 3.4539,-12.19992 0.3262,-24.83182 -5.8651,-36.45127 -4.5169,-8.05689 -10.6705,-15.9164 -19.7266,-22.25491 -9.1206,-6.10138 -21.3924,-9.9721 -34.2142,-11.57556 -19.7606,-3.1774 -40.0159,-4.79219 -59.909,-7.56221 -44.752,-5.08354 -90.2339,-7.3591 -135.6601,-7.22098 z"
       id="path3525-3"
       inkscape:connector-curvature="0"
       transform="matrix(1.1327308,0,0,1.0389355,-223.53206,-7.8474403)" />
    <path
       style="color:#000000;display:inline;overflow:visible;visibility:visible;fill:#cdf0ff;fill-opacity:1;fill-rule:nonzero;stroke:none;stroke-width:1.01303px;marker:none;enable-background:accumulate"
       d="m 1597.2558,371.70754 c 10.4512,19.41838 40.774,81.79773 50.6468,88.07436 2.8896,-9.82512 5.7473,-17.90146 11.17,-24.35407 7.0349,9.03181 16.3243,42.36729 48.0374,59.29587 -29.3145,-31.82897 -38.9085,-82.28038 -41.2774,-102.11115 -7.0014,10.53422 -13.5965,22.36641 -19.0054,34.45882 -8.2948,-14.89318 -25.007,-65.72521 -25.007,-65.72521 z"
       id="path5066"
       inkscape:connector-curvature="0"
       inkscape:transform-center-x="-84.299102"
       inkscape:transform-center-y="74.621182"
       sodipodi:nodetypes="cccccccc" />
    <path
       style="color:#000000;display:inline;overflow:visible;visibility:visible;fill:#cdf0ff;fill-opacity:1;fill-rule:nonzero;stroke:none;stroke-width:1.38277px;marker:none;enable-background:accumulate"
       d="m 1981.8401,813.76945 c -53.8668,0.51886 -108.54,-0.54624 -161.1836,12.65569 -27.5691,7.10335 -54.8439,17.50406 -77.7233,34.78415 -18.1737,15.29 -27.4079,39.20037 -28.0449,62.58383 -1.2897,30.47278 9.735,62.03534 32.2499,83.06728 15.3164,13.5835 34.8789,21.0338 54.2662,26.6919 30.5233,7.8948 62.1281,9.8803 93.4393,12.3434 35.1127,2.4435 70.3296,1.5182 105.4838,0.7853 45.1543,-0.3947 90.4033,0.2097 135.4194,-3.9626 41.5022,-3.4998 82.994,-9.0313 123.3324,-19.6109 22.434,-8.5052 39.5672,-27.63903 49.131,-49.26475 10.9065,-25.5233 11.4269,-54.76192 4.0938,-81.31877 -5.8726,-19.97581 -18.1531,-38.97497 -36.7481,-49.162 -16.0227,-8.70483 -34.1411,-12.25743 -51.8665,-15.69333 -30.359,-5.1372 -61.1655,-6.55943 -91.7717,-9.54253 -49.9213,-3.87143 -100.029,-4.48376 -150.0777,-4.35667 z"
       id="path4546"
       inkscape:connector-curvature="0"
       sodipodi:nodetypes="cssssc" />
    <path
       style="color:#000000;display:inline;overflow:visible;visibility:visible;fill:#cdf0ff;fill-opacity:1;fill-rule:nonzero;stroke:none;stroke-width:0.842081px;marker:none;enable-background:accumulate"
       d="m 1506.5532,595.26091 c 75.4519,60.39743 56.9468,85.78975 35.0694,108.60088 -9.7816,43.4519 27.8915,11.49337 27.8915,11.49337 0,0 16.3645,5.723 18.2949,-4.40932 5.7529,-30.19196 13.8625,-84.43858 -81.2558,-115.68493 z"
       id="path3072-7"
       inkscape:connector-curvature="0"
       sodipodi:nodetypes="cccsc" />
    <path
       style="color:#000000;display:inline;overflow:visible;visibility:visible;fill:#cdf0ff;fill-opacity:1;fill-rule:nonzero;stroke:none;stroke-width:0.938813px;marker:none;enable-background:accumulate"
       d="m 253.20094,1145.215 c 28.42179,-15.7636 321.78005,-30.9961 390.91557,3.7944 53.8629,27.1049 29.74735,105.0589 -11.76361,124.2324 -41.51099,19.1743 -241.92308,29.4293 -298.88365,21.6731 -51.22196,-6.9737 -104.987,-23.4385 -107.82159,-70.8683 -1.15685,-19.3575 -0.86852,-63.0679 27.55328,-78.8316 z"
       id="path4040-5"
       inkscape:connector-curvature="0"
       sodipodi:nodetypes="zssssz" />
    <path
       style="color:#000000;display:inline;overflow:visible;visibility:visible;fill:#cdf0ff;fill-opacity:1;fill-rule:nonzero;stroke:none;stroke-width:0.872516px;marker:none;enable-background:accumulate"
       d="m 406.87389,1255.1023 c 7.94954,36.9036 7.20414,99.0576 -50.66037,104.8276 39.14102,-0.7724 74.40634,-0.2804 77.3845,-97.7159 0.96501,-31.5719 -10.96916,-19.1536 -16.68888,-19.9997 -5.7198,-0.8461 -10.03525,12.888 -10.03525,12.888 z"
       id="path4064-5-1"
       inkscape:connector-curvature="0"
       sodipodi:nodetypes="ccszc" />
    <path
       style="color:#000000;display:inline;overflow:visible;visibility:visible;fill:#cdf0ff;fill-opacity:1;fill-rule:nonzero;stroke:none;stroke-width:1.31264px;marker:none;enable-background:accumulate"
       d="m 730.74522,1249.4441 c 6.47179,-5.9701 34.9189,-24.0438 31.83381,-3.5846 45.88114,-26.1636 79.62975,-16.1529 114.06795,-8.1987 11.27502,-7.9276 15.15378,-20.2625 45.1963,-17.006 -2.52844,-8.0185 9.02715,-13.3723 33.15048,-16.349 -30.02175,-5.1804 -34.62217,-10.2131 24.30121,-14.8745 -43.81689,-1.0346 -84.57577,-2.5806 -28.97702,-20.1937 -16.07219,-0.6313 -57.82112,14.121 -30.0272,-30.1635 -30.97678,13.9167 -62.38245,21.4274 -92.94277,-8.8505 -14.05743,11.6469 -32.919,19.4006 -62.23177,2.9372 -9.63843,11.6112 -49.54359,12.1106 -63.62076,9.5613 26.53043,13.43 23.70968,21.5438 -16.54671,22.3337 61.7901,24.3693 7.79754,20.168 -4.33923,26.0185 50.82923,8.7464 25.02912,18.5677 13.41633,28.5233 60.42563,1.0597 37.0306,16.9649 36.71938,29.8465 z"
       id="path3549-3-3"
       inkscape:connector-curvature="0"
       sodipodi:nodetypes="ccccccccccccccc" />
    <path
       style="color:#000000;display:inline;overflow:visible;visibility:visible;fill:#cdf0ff;fill-opacity:1;fill-rule:nonzero;stroke:none;stroke-width:1.06861px;marker:none;enable-background:accumulate"
       d="m 1042.3158,1153.2394 c -23.4082,0.2777 -46.80755,1.2417 -70.18197,2.5507 -23.13719,1.3906 -46.54866,3.8321 -68.54631,11.8333 -22.19431,8.2998 -40.36211,27.7386 -47.32985,51.1665 -3.16191,11.4896 -4.27096,23.5362 -4.03601,35.4589 0.42579,14.576 3.13526,29.1989 8.70735,42.6164 7.68025,15.4197 21.09781,26.6418 34.90914,35.891 22.13512,14.1909 48.11329,20.361 73.79738,22.5964 28.36018,2.7843 56.86477,3.2067 85.30757,4.4986 37.852,0.7971 76.3332,-4.5475 111.3717,-19.9576 16.1604,-7.1721 31.8575,-17.2503 42.0837,-32.4296 9.4465,-14.1356 13.0264,-31.8694 11.5235,-48.8637 -1.0679,-12.0122 -3.6193,-23.9908 -8.2989,-35.0656 -5.0506,-11.9232 -13.0262,-22.5311 -23.2395,-30.1549 -16.3913,-12.8336 -35.9285,-20.2591 -55.3002,-26.7169 -29.3424,-9.3594 -60.0915,-13.6867 -90.7676,-13.4235 z"
       id="path3525-0"
       inkscape:connector-curvature="0" />
    <path
       style="color:#000000;display:inline;overflow:visible;visibility:visible;fill:#cdf0ff;fill-opacity:1;fill-rule:nonzero;stroke:none;stroke-width:0.826729px;marker:none;enable-background:accumulate"
       d="m 857.93027,1278.1338 c -25.84472,-12.074 -72.33153,-26.7304 -120.7757,37.9223 2.50649,-13.8385 51.01915,-90.6993 133.13792,-64.4425 23.82869,7.6191 8.70285,12.8385 5.48327,18.4333 -3.21963,5.5949 -17.84549,8.0869 -17.84549,8.0869 z"
       id="path4064-5-5"
       inkscape:connector-curvature="0"
       sodipodi:nodetypes="ccszc" />
  </g>
  <g
     inkscape:groupmode="layer"
     id="layer3"
     inkscape:label="speechbubbles"
     style="display:inline">
    <path
       style="fill:#ffffff;fill-rule:evenodd;stroke:none;stroke-width:1.12112px;stroke-linecap:butt;stroke-linejoin:miter;stroke-opacity:1"
       d="m 1769.7468,2272.4595 c 1.1285,-22.1113 -9.6724,-63.1783 -48.4987,-20.2826 20.8633,-51.1394 6.264,-57.6216 -11.5917,-60.0028 16.9868,-18.4342 32.2701,-37.5994 18.3461,-69.2988 25.6249,-10.3624 35.0645,-36.1309 32.2911,-73.5246 20.0636,29.2108 39.5648,45.3444 55.5127,-21.1279 0.3918,52.0385 28.0473,61.4392 50.5536,5.9159 -8.3861,43.3235 -1.8397,54.4 15.8506,41.4104 -13.145,27.2641 -13.5592,47.9501 -0.5367,61.693 -30.034,28.839 -28.9937,46.3692 -3.3138,54.932 -44.3667,7.5195 -43.7153,43.308 -49.4378,70.1441 -14.905,-41.7496 -62.9392,-0.094 -59.1754,10.1413 z"
       id="path1087"
       inkscape:connector-curvature="0"
       sodipodi:nodetypes="cccccccccccc" />
    <path
       style="fill:#ffffff;fill-rule:evenodd;stroke:none;stroke-width:1.06373px;stroke-linecap:butt;stroke-linejoin:miter;stroke-opacity:1"
       d="m 1770.2493,2231.6638 c -19.0777,43.0082 -23.2758,54.3372 -25.8221,64.7397 -2.5463,10.4023 5.6859,6.8223 12.1263,2.8326 4.2084,-2.5888 21.9688,-21.8087 3.3636,9.5674 -18.6054,31.376 -43.0605,75.0078 -50.224,88.7479 16.3572,-24.1323 43.1378,-61.7395 51.3165,-73.8057 8.1784,-12.066 21.9004,-34.2199 25.6816,-40.8795 4.5995,-8.1013 6.3566,-16.4311 -2.0206,-15.2185 -13.6412,3.4217 -32.7515,33.0786 -0.2047,-18.3826 32.5467,-51.461 43.1335,-129.6409 43.1335,-129.6409 z"
       id="path1089"
       inkscape:connector-curvature="0"
       sodipodi:nodetypes="csccccscccc" />
    <path
       style="fill:#ffffff;fill-rule:evenodd;stroke:none;stroke-width:0.831706px;stroke-linecap:butt;stroke-linejoin:miter;stroke-opacity:1"
       d="m 2089.1948,2042.5405 c 9.4166,21.5114 20.7662,29.1104 37.7343,-3.7245 2.3125,14.6705 13.7478,28.4717 59.0934,-5.2702 -26.0259,38.4364 -15.1091,39.8147 0,36.9882 -21.9503,48.2289 -6.7376,48.3526 4.9838,44.1126 -26.9012,30.947 -23.3763,43.3188 -10.6795,50.0906 -9.0703,17.7859 -15.4069,34.7091 3.5597,43.6527 -14.8331,6.4979 -35.836,7.2569 -29.1906,33.7361 -19.617,-30.1872 -29.9942,-12.4155 -45.3597,6.4619 -12.1812,-14.2433 -30.8229,-32.8743 -64.9953,-4.1024 18.9252,-29.3587 11.4374,-41.8271 -3.5599,-49.4934 28.1754,-29.7325 6.1806,-35.852 -15.6633,-42.0415 39.4909,-8.3812 28.2675,-35.6906 17.7993,-62.7193 18.4904,3.2477 37.0465,6.9038 46.2778,-47.6908 z"
       id="path4489"
       inkscape:connector-curvature="0"
       sodipodi:nodetypes="cccccccccccccc" />
    <path
       style="display:inline;fill:#ffffff;fill-rule:evenodd;stroke:none;stroke-width:0.613269px;stroke-linecap:butt;stroke-linejoin:miter;stroke-opacity:1"
       d="m 2050.4839,2346.9651 c 30.4226,-62.3404 57.7024,-138.4267 45.1473,-145.322 l 45.6441,-4.5536 c 12.2842,-6.1841 -67.8344,105.652 -90.7914,149.8756 z"
       id="path1881"
       sodipodi:nodetypes="cccc" />
    <path
       style="fill:#ffffff;fill-rule:evenodd;stroke:none;stroke-width:0.894962px;stroke-linecap:butt;stroke-linejoin:miter;stroke-opacity:1"
       d="m 237.24122,2792.221 c 55.18203,23.2835 136.6324,72.5815 64.58166,-30.1389 41.27661,22.7296 96.25686,69.6195 104.94249,26.7208 15.36945,14.3332 22.71527,8.3302 11.95151,-23.6451 41.73583,37.2743 58.26226,19.8291 79.36737,12.3223 28.39262,26.8218 45.51973,19.2559 52.13831,-20.3869 1.65747,81.2826 61.3551,17.1923 110.011,-21.3637 -1.31516,18.7109 -26.83042,72.8372 21.40707,19.0307 -1.85278,26.9803 1.35953,48.6889 112.74885,-42.191 -44.69804,76.5968 -21.44466,58.0472 4.40738,35.8591 -35.67385,81.5351 70.53616,23.3615 99.9543,13.068 -73.12925,44.7279 -138.40975,87.5699 5.27997,80.1994 -32.0169,10.9696 -28.45529,10.6403 -48.72485,16.0653 -31.56791,10.3568 -67.52071,31.1746 -80.62054,68.4068 -58.49156,-20.0272 -94.16081,29.3978 -92.20826,70.3509 -58.86206,-57.4487 -91.07788,-54.1787 -93.12564,17.8354 -36.969,-57.7809 -69.76066,-67.0591 -96.3531,-4.3589 -10.46198,-74.7544 -54.5744,-41.4246 -89.34581,-38.0979 -13.47834,-27.7842 -57.32524,-4.8065 -103.49906,22.0606 66.69312,-69.6003 14.42003,-60.155 -70.08785,-29.292 98.49443,-55.12 80.82273,-73.0034 -25.13897,-62.5858 128.66168,-17.689 97.6944,-61.0111 32.31417,-109.8591 z"
       id="path740849"
       sodipodi:nodetypes="cccccccccccccccccccccc" />
    <path
       style="fill:#ffffff;fill-rule:evenodd;stroke:none;stroke-width:0.848683px;stroke-linecap:butt;stroke-linejoin:miter;stroke-opacity:1"
       d="m 119.16471,3153.4072 c 78.68664,-57.6007 123.21997,-82.1486 205.1307,-133.2401 -7.83771,1.1428 -16.85169,0.5498 -33.95583,2.4746 44.40967,-31.9361 127.98192,-84.356 177.31274,-111.978 l 39.30638,8.6938 c -33.90117,21.5568 -100.1754,49.5671 -144.53011,78.987 13.36537,1.1076 45.30961,-6.8913 51.44897,-3.6006 -109.39776,65.0579 -192.92074,101.1133 -294.71285,158.6633 z"
       id="path743009"
       sodipodi:nodetypes="cccccccc" />
    <path
       style="fill:#ffffff;fill-rule:evenodd;stroke:none;stroke-width:0.981483px;stroke-linecap:butt;stroke-linejoin:miter;stroke-opacity:1"
       d="m 969.29403,2814.1682 c 49.83687,34.419 85.95337,49.6883 37.63107,-52.8939 45.6234,32.8277 77.1352,35.587 62.8421,-59.2517 59.1869,65.7766 84.6436,62.9578 94.4492,28.31 61.1558,48.4731 109.0849,-0.5939 122.6054,-31.0677 28.8548,32.283 89.8911,35.1752 137.4399,-17.2822 -5.5901,31.3357 -25.4265,77.4885 83.8413,-10.6346 -44.9304,69.3282 -8.782,74.9442 61.5381,47.4431 -42.665,45.4774 -73.8005,88.6536 -10.8506,89.8307 -32.5044,19.2762 -20.7669,30.6099 -13.0043,33.9358 -27.6321,13.0132 -5.5633,21.6154 17.1946,30.1563 -64.6888,40.0865 -45.7956,56.6219 -48.8884,79.3524 -53.0496,9.0944 -47.7699,26.4001 -50.4154,42.5902 -51.1512,-65.7696 -56.3472,13.2563 -52.9514,33.2131 -22.4368,-64.3737 -65.3407,-25.7231 -95.669,20.2685 22.6698,-65.6298 -8.3621,-99.773 -67.9129,-20.1748 4.9905,-29.3996 -14.8063,-82.9692 -78.1932,-4.4867 8.0175,-35.6684 -3.0639,-31.7758 -23.9665,-7.5399 20.7908,-63.7722 -41.7703,-38.0662 -76.4059,-11.0928 5.2873,-31.2935 4.4024,-28.8325 -17.5797,-29.9753 -4.4756,-48.7182 -33.7765,-76.2056 -56.86477,-102.0676 17.36727,-15.5992 -17.65884,-45.5188 -24.8396,-58.6329 z"
       id="path745117"
       sodipodi:nodetypes="cccccccccccccccccccccc" />
    <path
       style="display:inline;fill:#ffffff;fill-rule:evenodd;stroke:none;stroke-width:1.09388px;stroke-linecap:butt;stroke-linejoin:miter;stroke-opacity:1"
       d="m 177.86407,2697.2946 c 47.90566,21.6368 75.19343,8.3633 74.37112,-52.5065 22.85548,63.6753 38.71618,76.888 48.12256,43.5373 30.25915,24.9975 49.15855,15.3651 64.16338,-6.1391 5.59272,25.2745 17.58629,13.7119 27.96607,11.4366 3.41869,5.5123 -8.32306,21.143 39.11376,-2.7246 3.07278,7.4349 7.21204,13.6947 34.99817,-6.0995 7.19853,30.6817 30.29471,-4.6372 53.95565,-42.3005 -14.74145,44.9309 -8.62874,50.4931 10.20784,32.0347 -8.61198,18.7461 -13.76277,33.1127 18.95726,-0.4382 -11.20164,34.1522 18.18597,8.6341 65.62171,-43.4165 -23.72808,37.3908 -86.64962,102.6042 -45.20602,93.7312 -5.77956,10.9066 -26.39496,21.9 34.99818,32.4137 -11.46127,8.1225 -46.4522,1.2036 -17.26343,28.1581 3.91068,3.1031 -9.18139,6.4792 15.80521,13.2457 -14.74988,0.7883 -23.79556,3.8794 -10.20784,16.107 -26.92392,1.8446 -16.85016,15.1053 2.91654,31.3568 -38.98962,-19.5416 -41.13532,-10.8782 -42.28959,-1.4556 -48.86541,-27.0523 -51.73383,-16.7885 -58.33019,-9.5492 -23.81827,2.5265 -47.63654,0.8099 -71.45479,38.4728 -6.2377,-21.411 -18.74349,-37.1548 -71.45458,-16.5463 23.1442,-30.2123 -9.7815,-9.2244 -34.99819,4.724 13.80917,-36.2974 -21.2367,-9.9894 -65.6217,28.2865 24.85542,-41.0019 -3.37447,-24.3491 -45.20603,7.0762 15.80521,-39.456 -9.93514,-55.3433 -71.45468,-50.9333 29.44516,-16.504 46.6159,-35.3714 16.04093,-63.4312 34.46673,5.8259 44.74767,-3.6324 20.41558,-34.9648 37.59401,24.0313 20.50143,-14.4067 5.83308,-50.0753 z"
       id="path4508"
       inkscape:connector-curvature="0"
       sodipodi:nodetypes="cccccccccccccccccccccccccccc" />
  </g>
  <g
     inkscape:groupmode="layer"
     id="layer1"
     inkscape:label="txt"
     style="display:inline">
    <text
       id="text4246-4-2"
       y="289.32565"
       x="313.24973"
       style="font-style:normal;font-variant:normal;font-weight:normal;font-stretch:normal;line-height:0%;font-family:Lavi;-inkscape-font-specification:Lavi;text-align:center;letter-spacing:0px;word-spacing:0px;text-anchor:middle;fill:#000000;fill-opacity:1;stroke:none"
       xml:space="preserve"><tspan
         y="289.32565"
         x="313.24973"
         style="font-size:45px;line-height:1.25"
         sodipodi:role="line"
         id="tspan2721">És horrible,</tspan><tspan
         y="345.57565"
         x="313.24973"
         style="font-size:45px;line-height:1.25"
         sodipodi:role="line"
         id="tspan3499">Pepper.</tspan></text>
    <text
       id="text4246-4-2-3"
       y="465.25284"
       x="425.94839"
       style="font-style:normal;font-variant:normal;font-weight:normal;font-stretch:normal;line-height:0%;font-family:Lavi;-inkscape-font-specification:Lavi;text-align:center;letter-spacing:0px;word-spacing:0px;text-anchor:middle;fill:#000000;fill-opacity:1;stroke:none"
       xml:space="preserve"><tspan
         y="465.25284"
         x="425.94839"
         style="font-size:45px;line-height:1.25"
         sodipodi:role="line"
         id="tspan536142">Wasabi vol <tspan
   style="font-weight:bold"
   id="tspan24701">dominar totes</tspan></tspan><tspan
         y="521.50281"
         x="425.94839"
         style="font-size:45px;line-height:1.25"
         sodipodi:role="line"
         id="tspan12873"><tspan
   style="font-weight:bold"
   id="tspan24703">les altres escoles de màgia</tspan>,</tspan><tspan
         y="577.75281"
         x="425.94839"
         style="font-size:45px;line-height:1.25"
         sodipodi:role="line"
         id="tspan21503"> purament i simplement...</tspan></text>
    <text
       id="text4246-4-2-3-2-0"
       y="703.06622"
       x="404.14056"
       style="font-style:normal;font-variant:normal;font-weight:normal;font-stretch:normal;line-height:0%;font-family:Lavi;-inkscape-font-specification:Lavi;text-align:center;letter-spacing:0px;word-spacing:0px;text-anchor:middle;fill:#000000;fill-opacity:1;stroke:none"
       xml:space="preserve"><tspan
         y="703.06622"
         x="404.14056"
         style="font-size:45px;line-height:1.25"
         sodipodi:role="line"
         id="tspan16982">Sortirà a l'albada</tspan><tspan
         y="759.31622"
         x="404.14056"
         style="font-size:45px;line-height:1.25"
         sodipodi:role="line"
         id="tspan28088">amb un exèrcit de bruixes</tspan><tspan
         y="815.56622"
         x="404.14056"
         style="font-size:45px;line-height:1.25"
         sodipodi:role="line"
         id="tspan32942"> cap a Qualicity...</tspan></text>
    <text
       id="text4246-4-2-3-2-8-2"
       y="200.74683"
       x="1447.0979"
       style="font-style:normal;font-variant:normal;font-weight:normal;font-stretch:normal;line-height:0%;font-family:Lavi;-inkscape-font-specification:Lavi;text-align:center;letter-spacing:0px;word-spacing:0px;text-anchor:middle;fill:#000000;fill-opacity:1;stroke:none"
       xml:space="preserve"><tspan
         y="200.74683"
         x="1447.0979"
         style="font-size:45px;line-height:1.25"
         sodipodi:role="line"
         id="tspan397614-2">Oh, no!</tspan></text>
    <text
       id="text4246-4-2-3-2-8"
       y="265.43832"
       x="1596.2267"
       style="font-style:normal;font-variant:normal;font-weight:normal;font-stretch:normal;font-size:12.7131px;line-height:0%;font-family:Lavi;-inkscape-font-specification:Lavi;text-align:center;letter-spacing:0px;word-spacing:0px;text-anchor:middle;fill:#000000;fill-opacity:1;stroke:none;stroke-width:1.05942"
       xml:space="preserve"><tspan
         y="265.43832"
         x="1596.2267"
         style="font-style:normal;font-variant:normal;font-weight:bold;font-stretch:normal;font-size:47.674px;line-height:1.25;font-family:Lavi;-inkscape-font-specification:'Lavi Bold';stroke-width:1.05942"
         sodipodi:role="line"
         id="tspan397614">Coriander!</tspan></text>
    <text
       id="text4246-4-2-3-2-8-2-6"
       y="335.67358"
       x="1603.3292"
       style="font-style:normal;font-variant:normal;font-weight:normal;font-stretch:normal;line-height:0%;font-family:Lavi;-inkscape-font-specification:Lavi;text-align:center;letter-spacing:0px;word-spacing:0px;text-anchor:middle;display:inline;fill:#000000;fill-opacity:1;stroke:none"
       xml:space="preserve"><tspan
         y="335.67358"
         x="1603.3292"
         style="font-size:45px;line-height:1.25"
         sodipodi:role="line"
         id="tspan397614-2-7">I el seu reialme!</tspan></text>
    <text
       id="text4246-4-2-3-2-89-3"
       y="749.40149"
       x="1536.5179"
       style="font-style:normal;font-variant:normal;font-weight:normal;font-stretch:normal;line-height:0%;font-family:Lavi;-inkscape-font-specification:Lavi;text-align:center;letter-spacing:0px;word-spacing:0px;text-anchor:middle;display:inline;fill:#000000;fill-opacity:1;stroke:none"
       xml:space="preserve"><tspan
         y="749.40149"
         x="1536.5179"
         style="font-size:45px;line-height:1.25"
         sodipodi:role="line"
         id="tspan437866-6">I la màgia Zombiah!</tspan></text>
    <text
       id="text4246-4-2-3-2-89"
       y="847.81287"
       x="1536.8999"
       style="font-style:normal;font-variant:normal;font-weight:normal;font-stretch:normal;line-height:0%;font-family:Lavi;-inkscape-font-specification:Lavi;text-align:center;letter-spacing:0px;word-spacing:0px;text-anchor:middle;fill:#000000;fill-opacity:1;stroke:none"
       xml:space="preserve"><tspan
         y="847.81287"
         x="1536.8999"
         style="font-size:45px;line-height:1.25"
         sodipodi:role="line"
         id="tspan437866">L'hem d'avisar</tspan><tspan
         y="904.06287"
         x="1536.8999"
         style="font-size:45px;line-height:1.25"
         sodipodi:role="line"
         id="tspan64660">de seguida!</tspan></text>
    <text
       id="text4246-4-2-3-2-89-1"
       y="887.9967"
       x="2023.741"
       style="font-style:normal;font-variant:normal;font-weight:normal;font-stretch:normal;line-height:0%;font-family:Lavi;-inkscape-font-specification:Lavi;text-align:center;letter-spacing:0px;word-spacing:0px;text-anchor:middle;fill:#000000;fill-opacity:1;stroke:none"
       xml:space="preserve"><tspan
         y="887.9967"
         x="2023.741"
         style="font-size:45px;line-height:1.25"
         sodipodi:role="line"
         id="tspan589172">Ens esperen un pilot i un</tspan><tspan
         y="944.2467"
         x="2023.741"
         style="font-size:45px;line-height:1.25"
         sodipodi:role="line"
         id="tspan72501">drac a la plataforma,</tspan><tspan
         y="1000.4967"
         x="2023.741"
         style="font-size:45px;line-height:1.25"
         sodipodi:role="line"
         id="tspan74743">per treure'ns d'aquí.</tspan></text>
    <text
       id="text4246-4-2-3-2-89-1-3"
       y="1199.1016"
       x="444.24368"
       style="font-style:normal;font-variant:normal;font-weight:normal;font-stretch:normal;font-size:42px;line-height:0%;font-family:Lavi;-inkscape-font-specification:Lavi;text-align:center;letter-spacing:0px;word-spacing:0px;text-anchor:middle;fill:#000000;fill-opacity:1;stroke:none"
       xml:space="preserve"><tspan
         y="1199.1016"
         x="444.24368"
         style="font-size:42px;line-height:1.25"
         sodipodi:role="line"
         id="tspan601787">Ja està, al final</tspan><tspan
         y="1251.6016"
         x="444.24368"
         style="font-size:42px;line-height:1.25"
         sodipodi:role="line"
         id="tspan81847">ha saltat el pany!</tspan></text>
    <text
       xml:space="preserve"
       style="font-style:normal;font-variant:normal;font-weight:normal;font-stretch:normal;line-height:0%;font-family:Lavi;-inkscape-font-specification:Lavi;letter-spacing:0px;word-spacing:0px;opacity:1;fill:#c6fffd;fill-opacity:1;stroke:#ffffff;stroke-width:0.966714;stroke-miterlimit:4;stroke-dasharray:none;stroke-opacity:1;filter:url(#filter4375-4-1-1-1-9-5-8-8-53-3)"
       x="787.65729"
       y="1584.5073"
       id="text4580-6-0-0-5"
       transform="matrix(0.38167106,-0.131018,-0.06124078,0.5210622,213.83481,667.63947)"><tspan
         sodipodi:role="line"
         id="tspan4582-1-1-0-67"
         x="787.65729"
         y="1584.5073"
         style="font-size:70px;line-height:1.25;fill:#c6fffd;fill-opacity:1;stroke:#ffffff;stroke-width:0.966714;stroke-miterlimit:4;stroke-dasharray:none;stroke-opacity:1"><tspan
           style="font-size:93.1495px;fill:#c6fffd;fill-opacity:1;stroke:#ffffff;stroke-width:0.966714;stroke-miterlimit:4;stroke-dasharray:none;stroke-opacity:1"
           id="tspan4315-8-9-7">Xing!</tspan></tspan></text>
    <text
       id="text4246-4-2-3-2-89-1-3-5"
       y="1197.9653"
       x="808.99341"
       style="font-style:normal;font-variant:normal;font-weight:normal;font-stretch:normal;font-size:42px;line-height:0%;font-family:Lavi;-inkscape-font-specification:Lavi;text-align:center;letter-spacing:0px;word-spacing:0px;text-anchor:middle;fill:#000000;fill-opacity:1;stroke:none;stroke-width:0.892381"
       xml:space="preserve"><tspan
         y="1197.9653"
         x="808.99341"
         style="font-size:42px;line-height:1.25;stroke-width:0.892381"
         sodipodi:role="line"
         id="tspan601787-4">Bravo!</tspan></text>
    <text
       id="text4246-4-2-3-2-89-1-3-5-7"
       y="1252.2755"
       x="1034.8755"
       style="font-style:normal;font-variant:normal;font-weight:normal;font-stretch:normal;font-size:42px;line-height:0%;font-family:Lavi;-inkscape-font-specification:Lavi;text-align:center;letter-spacing:0px;word-spacing:0px;text-anchor:middle;fill:#000000;fill-opacity:1;stroke:none;stroke-width:0.892381"
       xml:space="preserve"><tspan
         y="1252.2755"
         x="1034.8755"
         style="font-size:42px;line-height:1.25;stroke-width:0.892381"
         sodipodi:role="line"
         id="tspan98339">Agafaré el Carrot </tspan><tspan
         y="1304.7755"
         x="1034.8755"
         style="font-size:42px;line-height:1.25;stroke-width:0.892381"
         sodipodi:role="line"
         id="tspan100729">i el meu barret.</tspan></text>
    <text
       xml:space="preserve"
       style="color:#000000;font-style:normal;font-variant:normal;font-weight:normal;font-stretch:normal;line-height:0%;font-family:Arial;-inkscape-font-specification:Arial;letter-spacing:9.01069px;word-spacing:0px;clip-rule:nonzero;display:inline;overflow:visible;visibility:visible;isolation:auto;mix-blend-mode:normal;color-interpolation:sRGB;color-interpolation-filters:linearRGB;solid-color:#000000;solid-opacity:1;fill:#d7e3f4;fill-opacity:1;fill-rule:nonzero;stroke:#ffffff;stroke-width:1.1156;stroke-linecap:butt;stroke-linejoin:miter;stroke-miterlimit:4;stroke-dasharray:none;stroke-dashoffset:0;stroke-opacity:1;marker:none;filter:url(#filter5561-7-8-9);color-rendering:auto;image-rendering:auto;shape-rendering:auto;text-rendering:auto;enable-background:accumulate"
       x="1705.2566"
       y="1742.2045"
       id="text4251-9-3"
       transform="matrix(0.46605294,-0.42399792,0.36516967,0.87774403,-35.309183,659.89053)"><tspan
         sodipodi:role="line"
         id="tspan4253-3-7"
         x="1705.2566"
         y="1742.2045"
         style="font-style:normal;font-variant:normal;font-weight:normal;font-stretch:normal;font-size:160.12px;line-height:1.25;font-family:Lavi;-inkscape-font-specification:Lavi;fill:#d7e3f4;fill-opacity:1"><tspan
           style="font-size:90px;fill:#d7e3f4;fill-opacity:1"
           id="tspan4349-9-9">iiiic!</tspan></tspan></text>
    <text
       xml:space="preserve"
       style="color:#000000;font-style:normal;font-variant:normal;font-weight:normal;font-stretch:normal;line-height:0%;font-family:Arial;-inkscape-font-specification:Arial;letter-spacing:9.01069px;word-spacing:0px;clip-rule:nonzero;display:inline;overflow:visible;visibility:visible;isolation:auto;mix-blend-mode:normal;color-interpolation:sRGB;color-interpolation-filters:linearRGB;solid-color:#000000;solid-opacity:1;fill:#eaeab1;fill-opacity:1;fill-rule:nonzero;stroke:#ffffff;stroke-width:1.1156;stroke-linecap:butt;stroke-linejoin:miter;stroke-miterlimit:4;stroke-dasharray:none;stroke-dashoffset:0;stroke-opacity:1;marker:none;filter:url(#filter5561-7-8-9-6);color-rendering:auto;image-rendering:auto;shape-rendering:auto;text-rendering:auto;enable-background:accumulate"
       x="1705.2566"
       y="1742.2045"
       id="text4251-9-3-4"
       transform="matrix(0.38674208,-0.29679826,0.72566441,0.90119606,170.06794,464.42382)"><tspan
         sodipodi:role="line"
         id="tspan4253-3-7-7"
         x="1705.2566"
         y="1742.2045"
         style="font-style:normal;font-variant:normal;font-weight:normal;font-stretch:normal;font-size:90px;line-height:1.25;font-family:Lavi;-inkscape-font-specification:Lavi;fill:#eaeab1;fill-opacity:1"><tspan
           style="font-size:79.3466px"
           id="tspan136679">Fuuuuu</tspan><tspan
           style="font-size:103.317px"
           id="tspan160865">!</tspan></tspan></text>
    <text
       xml:space="preserve"
       style="color:#000000;font-style:normal;font-variant:normal;font-weight:normal;font-stretch:normal;line-height:0%;font-family:Arial;-inkscape-font-specification:Arial;letter-spacing:9.01069px;word-spacing:0px;clip-rule:nonzero;display:inline;overflow:visible;visibility:visible;isolation:auto;mix-blend-mode:normal;color-interpolation:sRGB;color-interpolation-filters:linearRGB;solid-color:#000000;solid-opacity:1;fill:#d7e3f4;fill-opacity:1;fill-rule:nonzero;stroke:#ffffff;stroke-width:1.1156;stroke-linecap:butt;stroke-linejoin:miter;stroke-miterlimit:4;stroke-dasharray:none;stroke-dashoffset:0;stroke-opacity:1;marker:none;filter:url(#filter5561-7-8-9-4);color-rendering:auto;image-rendering:auto;shape-rendering:auto;text-rendering:auto;enable-background:accumulate"
       x="1705.2566"
       y="1742.2045"
       id="text4251-9-3-3"
       transform="matrix(0.45234231,-0.36477271,0.35442689,0.88178533,782.99861,726.06166)"><tspan
         sodipodi:role="line"
         id="tspan4253-3-7-1"
         x="1705.2566"
         y="1742.2045"
         style="font-style:normal;font-variant:normal;font-weight:normal;font-stretch:normal;font-size:160.12px;line-height:1.25;font-family:Lavi;-inkscape-font-specification:Lavi;fill:#d7e3f4;fill-opacity:1"><tspan
           style="font-size:90px;fill:#d7e3f4;fill-opacity:1"
           id="tspan4349-9-9-49">iiiic!</tspan></tspan></text>
    <g
       id="text4251-g894"
       transform="translate(-294.71653,-1245.0637)">
      <text
         xml:space="preserve"
         style="font-style:normal;font-variant:normal;font-weight:normal;font-stretch:normal;line-height:0%;font-family:Lavi;-inkscape-font-specification:Lavi;letter-spacing:0px;word-spacing:0px;display:inline;fill:#ffffff;fill-opacity:1;stroke:#000000;stroke-width:0.649528;stroke-miterlimit:4;stroke-dasharray:none;stroke-opacity:1;filter:url(#filter4375-4-1-1-1-9-5-8-3-4)"
         x="787.65729"
         y="1584.5073"
         id="text4580-6-0-3"
         transform="matrix(0.56396936,0.29200899,-0.49083985,0.74440634,2289.6299,1539.4683)"
         inkscape:transform-center-x="-5.9254429"
         inkscape:transform-center-y="0.58615246"><tspan
           sodipodi:role="line"
           id="tspan4582-1-1-6"
           x="787.65729"
           y="1584.5073"
           style="font-style:normal;font-variant:normal;font-weight:normal;font-stretch:normal;font-size:70px;line-height:1.25;font-family:Combah;-inkscape-font-specification:Combah;fill:#ffffff;fill-opacity:1;stroke:#000000;stroke-width:0.649528;stroke-opacity:1"><tspan
             style="font-style:normal;font-variant:normal;font-weight:normal;font-stretch:normal;font-size:93.1495px;font-family:Combah;-inkscape-font-specification:Combah;fill:#ffffff;fill-opacity:1;stroke:#000000;stroke-width:0.649528;stroke-opacity:1"
             id="tspan4315-8-0">CLANG</tspan><tspan
             style="font-style:normal;font-variant:normal;font-weight:normal;font-stretch:normal;font-size:114.732px;font-family:Combah;-inkscape-font-specification:Combah;fill:#ffffff;fill-opacity:1;stroke:#000000;stroke-width:0.649528;stroke-opacity:1"
             id="tspan4313-2-6">!</tspan></tspan></text>
    </g>
    <g
       id="text4251-g894-7-7-2-8"
       transform="matrix(0.08279068,-0.70073798,0.69675909,0.08896039,-1012.5833,3236.9208)">
      <text
         xml:space="preserve"
         style="font-style:normal;font-variant:normal;font-weight:normal;font-stretch:normal;line-height:0%;font-family:Lavi;-inkscape-font-specification:Lavi;letter-spacing:0px;word-spacing:0px;display:inline;fill:#ffffff;fill-opacity:1;stroke:#000000;stroke-width:0.649528;stroke-miterlimit:4;stroke-dasharray:none;stroke-opacity:1;filter:url(#filter4375-4-1-1-1-9-5-8-3-4-2-2-9-8)"
         x="787.65729"
         y="1584.5073"
         id="text4580-6-0-3-1-7-9-4"
         transform="matrix(0.56396936,0.29200899,-0.49083985,0.74440634,2281.3949,1535.2837)"
         inkscape:transform-center-x="-5.9254429"
         inkscape:transform-center-y="0.58615246"><tspan
           sodipodi:role="line"
           id="tspan4582-1-1-6-7-1-3-8"
           x="787.65729"
           y="1584.5073"
           style="font-style:normal;font-variant:normal;font-weight:normal;font-stretch:normal;font-size:70px;line-height:1.25;font-family:Combah;-inkscape-font-specification:Combah;fill:#ffffff;fill-opacity:1;stroke:#000000;stroke-width:0.649528;stroke-opacity:1"><tspan
             style="font-style:normal;font-variant:normal;font-weight:normal;font-stretch:normal;font-size:93.1495px;font-family:Combah;-inkscape-font-specification:Combah;fill:#ffffff;fill-opacity:1;stroke:#000000;stroke-width:0.649528;stroke-opacity:1"
             id="tspan4315-8-0-2-1-9-1">CLUNK</tspan><tspan
             style="font-style:normal;font-variant:normal;font-weight:normal;font-stretch:normal;font-size:114.732px;font-family:Combah;-inkscape-font-specification:Combah;fill:#ffffff;fill-opacity:1;stroke:#000000;stroke-width:0.649528;stroke-opacity:1"
             id="tspan4313-2-6-7-5-0-0">!</tspan></tspan></text>
    </g>
    <g
       id="text4251-g894-7"
       transform="matrix(0.2660753,-0.65352272,0.64804701,0.27096543,-962.9723,2539.9528)">
      <text
         xml:space="preserve"
         style="font-style:normal;font-variant:normal;font-weight:normal;font-stretch:normal;line-height:0%;font-family:Lavi;-inkscape-font-specification:Lavi;letter-spacing:0px;word-spacing:0px;display:inline;fill:#ffffff;fill-opacity:1;stroke:#000000;stroke-width:0.649528;stroke-miterlimit:4;stroke-dasharray:none;stroke-opacity:1;filter:url(#filter4375-4-1-1-1-9-5-8-3-4-2)"
         x="787.65729"
         y="1584.5073"
         id="text4580-6-0-3-1"
         transform="matrix(0.56396936,0.29200899,-0.49083985,0.74440634,2281.3949,1535.2837)"
         inkscape:transform-center-x="-5.9254429"
         inkscape:transform-center-y="0.58615246"><tspan
           sodipodi:role="line"
           id="tspan4582-1-1-6-7"
           x="787.65729"
           y="1584.5073"
           style="font-style:normal;font-variant:normal;font-weight:normal;font-stretch:normal;font-size:70px;line-height:1.25;font-family:Combah;-inkscape-font-specification:Combah;fill:#ffffff;fill-opacity:1;stroke:#000000;stroke-width:0.649528;stroke-opacity:1"><tspan
             style="font-style:normal;font-variant:normal;font-weight:normal;font-stretch:normal;font-size:93.1495px;font-family:Combah;-inkscape-font-specification:Combah;fill:#ffffff;fill-opacity:1;stroke:#000000;stroke-width:0.649528;stroke-opacity:1"
             id="tspan4315-8-0-2">CLANG</tspan><tspan
             style="font-style:normal;font-variant:normal;font-weight:normal;font-stretch:normal;font-size:114.732px;font-family:Combah;-inkscape-font-specification:Combah;fill:#ffffff;fill-opacity:1;stroke:#000000;stroke-width:0.649528;stroke-opacity:1"
             id="tspan4313-2-6-7">!</tspan></tspan></text>
    </g>
    <g
       id="text4251-g894-7-7"
       transform="matrix(0.45457311,-0.53967703,0.53296055,0.45753715,-1047.5736,1867.716)">
      <text
         xml:space="preserve"
         style="font-style:normal;font-variant:normal;font-weight:normal;font-stretch:normal;line-height:0%;font-family:Lavi;-inkscape-font-specification:Lavi;letter-spacing:0px;word-spacing:0px;display:inline;fill:#ffffff;fill-opacity:1;stroke:#000000;stroke-width:0.649528;stroke-miterlimit:4;stroke-dasharray:none;stroke-opacity:1;filter:url(#filter4375-4-1-1-1-9-5-8-3-4-2-2)"
         x="787.65729"
         y="1584.5073"
         id="text4580-6-0-3-1-7"
         transform="matrix(0.56396936,0.29200899,-0.49083985,0.74440634,2281.3949,1535.2837)"
         inkscape:transform-center-x="-5.9254429"
         inkscape:transform-center-y="0.58615246"><tspan
           sodipodi:role="line"
           id="tspan4582-1-1-6-7-1"
           x="787.65729"
           y="1584.5073"
           style="font-style:normal;font-variant:normal;font-weight:normal;font-stretch:normal;font-size:70px;line-height:1.25;font-family:Combah;-inkscape-font-specification:Combah;fill:#ffffff;fill-opacity:1;stroke:#000000;stroke-width:0.649528;stroke-opacity:1"><tspan
             style="font-style:normal;font-variant:normal;font-weight:normal;font-stretch:normal;font-size:93.1495px;font-family:Combah;-inkscape-font-specification:Combah;fill:#ffffff;fill-opacity:1;stroke:#000000;stroke-width:0.649528;stroke-opacity:1"
             id="tspan4315-8-0-2-1">CLANK</tspan><tspan
             style="font-style:normal;font-variant:normal;font-weight:normal;font-stretch:normal;font-size:114.732px;font-family:Combah;-inkscape-font-specification:Combah;fill:#ffffff;fill-opacity:1;stroke:#000000;stroke-width:0.649528;stroke-opacity:1"
             id="tspan4313-2-6-7-5">!</tspan></tspan></text>
    </g>
    <g
       id="text4251-g894-7-7-2"
       transform="matrix(0.23227068,-0.66628698,0.66106879,0.23743471,-799.5741,2807.9446)">
      <text
         xml:space="preserve"
         style="font-style:normal;font-variant:normal;font-weight:normal;font-stretch:normal;line-height:0%;font-family:Lavi;-inkscape-font-specification:Lavi;letter-spacing:0px;word-spacing:0px;display:inline;fill:#ffffff;fill-opacity:1;stroke:#000000;stroke-width:0.649528;stroke-miterlimit:4;stroke-dasharray:none;stroke-opacity:1;filter:url(#filter4375-4-1-1-1-9-5-8-3-4-2-2-9)"
         x="787.65729"
         y="1584.5073"
         id="text4580-6-0-3-1-7-9"
         transform="matrix(0.56396936,0.29200899,-0.49083985,0.74440634,2281.3949,1535.2837)"
         inkscape:transform-center-x="-5.9254429"
         inkscape:transform-center-y="0.58615246"><tspan
           sodipodi:role="line"
           id="tspan4582-1-1-6-7-1-3"
           x="787.65729"
           y="1584.5073"
           style="font-style:normal;font-variant:normal;font-weight:normal;font-stretch:normal;font-size:70px;line-height:1.25;font-family:Combah;-inkscape-font-specification:Combah;fill:#ffffff;fill-opacity:1;stroke:#000000;stroke-width:0.649528;stroke-opacity:1"><tspan
             style="font-style:normal;font-variant:normal;font-weight:normal;font-stretch:normal;font-size:93.1495px;font-family:Combah;-inkscape-font-specification:Combah;fill:#ffffff;fill-opacity:1;stroke:#000000;stroke-width:0.649528;stroke-opacity:1"
             id="tspan4315-8-0-2-1-9">CLANG</tspan><tspan
             style="font-style:normal;font-variant:normal;font-weight:normal;font-stretch:normal;font-size:114.732px;font-family:Combah;-inkscape-font-specification:Combah;fill:#ffffff;fill-opacity:1;stroke:#000000;stroke-width:0.649528;stroke-opacity:1"
             id="tspan4313-2-6-7-5-0">!</tspan></tspan></text>
    </g>
    <text
       xml:space="preserve"
       style="font-style:normal;font-variant:normal;font-weight:normal;font-stretch:normal;font-size:27.2915px;line-height:0%;font-family:Lavi;-inkscape-font-specification:Lavi;text-align:center;letter-spacing:0px;word-spacing:0px;text-anchor:middle;display:inline;fill:#000000;fill-opacity:1;stroke:none;stroke-width:1.12112"
       x="2884.5964"
       y="1786.5194"
       id="text4246-3-5"
       transform="matrix(0.81263366,0,-0.31508537,1.2305668,0,0)"><tspan
         sodipodi:role="line"
         style="font-style:normal;font-variant:normal;font-weight:bold;font-stretch:normal;font-size:102.343px;line-height:1.2;font-family:Lavi;-inkscape-font-specification:'Lavi Bold';stroke-width:1.12112"
         x="2884.5964"
         y="1786.5194"
         id="tspan872-2"><tspan
   id="tspan714918"
   style="font-style:normal;font-variant:normal;font-weight:bold;font-stretch:normal;font-size:70.343px;font-family:Lavi;-inkscape-font-specification:'Lavi Bold'">!</tspan><tspan
   style="font-style:normal;font-variant:normal;font-weight:bold;font-stretch:normal;font-size:82.343px;font-family:Lavi;-inkscape-font-specification:'Lavi Bold'"
   id="tspan706548">!</tspan>!</tspan></text>
    <text
       xml:space="preserve"
       style="font-style:normal;font-variant:normal;font-weight:normal;font-stretch:normal;font-size:27.2915px;line-height:0%;font-family:Lavi;-inkscape-font-specification:Lavi;text-align:center;letter-spacing:0px;word-spacing:0px;text-anchor:middle;fill:#000000;fill-opacity:1;stroke:none;stroke-width:1.12112"
       x="3270.3779"
       y="1775.1808"
       id="text4246-3-5-3"
       transform="matrix(0.81263366,0,-0.31508537,1.2305668,0,0)"><tspan
         sodipodi:role="line"
         style="font-style:normal;font-variant:normal;font-weight:bold;font-stretch:normal;font-size:102.343px;line-height:1.2;font-family:Lavi;-inkscape-font-specification:'Lavi Bold';stroke-width:1.12112"
         x="3270.3779"
         y="1775.1808"
         id="tspan872-2-0"><tspan
   id="tspan714918-4"
   style="font-style:normal;font-variant:normal;font-weight:bold;font-stretch:normal;font-size:70.343px;font-family:Lavi;-inkscape-font-specification:'Lavi Bold'">!</tspan><tspan
   style="font-style:normal;font-variant:normal;font-weight:bold;font-stretch:normal;font-size:82.343px;font-family:Lavi;-inkscape-font-specification:'Lavi Bold'"
   id="tspan706548-4">!</tspan>!</tspan></text>
    <text
       id="text4246-4-2-3-2-89-1-3-5-7-4-36"
       y="2633.928"
       x="928.99988"
       style="font-style:normal;font-variant:normal;font-weight:normal;font-stretch:normal;font-size:77.051px;line-height:0%;font-family:Lavi;-inkscape-font-specification:Lavi;text-align:center;letter-spacing:2.03292px;word-spacing:0px;text-anchor:middle;display:inline;fill:#000000;fill-opacity:1;stroke:none;stroke-width:1.14598"
       xml:space="preserve"
       transform="matrix(0.93037166,-0.07161155,-0.19071907,1.0895191,0,0)"><tspan
         y="2633.928"
         x="930.01636"
         style="font-style:normal;font-variant:normal;font-weight:bold;font-stretch:normal;font-size:77.051px;font-family:Lavi;-inkscape-font-specification:'Lavi Bold';stroke-width:1.14598"
         sodipodi:role="line"
         id="tspan719137-75">GUÀRDIA!</tspan></text>
    <text
       id="text4246-4-2-3-2-89-1-3-5-7-4"
       y="2712.519"
       x="1131.059"
       style="font-style:normal;font-variant:normal;font-weight:normal;font-stretch:normal;font-size:74.9842px;line-height:0%;font-family:Lavi;-inkscape-font-specification:Lavi;text-align:center;letter-spacing:1.8073px;word-spacing:0px;text-anchor:middle;fill:#000000;fill-opacity:1;stroke:none;stroke-width:1.11523"
       xml:space="preserve"
       transform="matrix(0.91671819,-0.09510693,-0.17722707,1.1092346,0,0)"><tspan
         y="2712.519"
         x="1131.9626"
         style="font-style:normal;font-variant:normal;font-weight:bold;font-stretch:normal;font-size:74.9842px;line-height:1.25;font-family:Lavi;-inkscape-font-specification:'Lavi Bold';stroke-width:1.11523"
         sodipodi:role="line"
         id="tspan719137">VENIU!</tspan></text>
    <text
       id="text4246-4-2-3-2-89-1-3-5-7-4-3"
       y="2858.9712"
       x="1556.0331"
       style="font-style:normal;font-variant:normal;font-weight:normal;font-stretch:normal;font-size:48.9104px;line-height:0%;font-family:Lavi;-inkscape-font-specification:Lavi;text-align:center;letter-spacing:0px;word-spacing:0px;text-anchor:middle;fill:#000000;fill-opacity:1;stroke:none;stroke-width:0.727446"
       xml:space="preserve"
       transform="matrix(0.97563945,-0.08959889,-0.08011561,1.0323263,0,0)"><tspan
         y="2858.9712"
         x="1556.0331"
         style="font-style:normal;font-variant:normal;font-weight:bold;font-stretch:normal;font-size:48.9104px;line-height:1.25;font-family:Lavi;-inkscape-font-specification:'Lavi Bold';stroke-width:0.727446"
         sodipodi:role="line"
         id="tspan195493">UN INTRÚS ESTÀ</tspan><tspan
         y="2920.1091"
         x="1556.0331"
         style="font-style:normal;font-variant:normal;font-weight:bold;font-stretch:normal;font-size:48.9104px;line-height:1.25;font-family:Lavi;-inkscape-font-specification:'Lavi Bold';stroke-width:0.727446"
         sodipodi:role="line"
         id="tspan198977"> ALLIBERANT LA </tspan><tspan
         y="2981.2471"
         x="1556.0331"
         style="font-style:normal;font-variant:normal;font-weight:bold;font-stretch:normal;font-size:48.9104px;line-height:1.25;font-family:Lavi;-inkscape-font-specification:'Lavi Bold';stroke-width:0.727446"
         sodipodi:role="line"
         id="tspan202987">PRESONERA!</tspan></text>
  </g>
</svg>
