<?xml version="1.0" encoding="UTF-8" standalone="no"?>
<!-- Created with Inkscape (http://www.inkscape.org/) -->

<svg
   id="svg2"
   version="1.1"
   inkscape:version="1.1 (c4e8f9ed74, 2021-05-24)"
   width="2481"
   height="3503"
   sodipodi:docname="E32P02.svg"
   xmlns:inkscape="http://www.inkscape.org/namespaces/inkscape"
   xmlns:sodipodi="http://sodipodi.sourceforge.net/DTD/sodipodi-0.dtd"
   xmlns:xlink="http://www.w3.org/1999/xlink"
   xmlns="http://www.w3.org/2000/svg"
   xmlns:svg="http://www.w3.org/2000/svg"
   xmlns:rdf="http://www.w3.org/1999/02/22-rdf-syntax-ns#"
   xmlns:cc="http://creativecommons.org/ns#"
   xmlns:dc="http://purl.org/dc/elements/1.1/">
  <metadata
     id="metadata8">
    <rdf:RDF>
      <cc:Work
         rdf:about="">
        <dc:format>image/svg+xml</dc:format>
        <dc:type
           rdf:resource="http://purl.org/dc/dcmitype/StillImage" />
        <dc:title />
      </cc:Work>
    </rdf:RDF>
  </metadata>
  <defs
     id="defs6" />
  <sodipodi:namedview
     pagecolor="#ffffff"
     bordercolor="#666666"
     borderopacity="1"
     objecttolerance="10"
     gridtolerance="10"
     guidetolerance="10"
     inkscape:pageopacity="0"
     inkscape:pageshadow="2"
     inkscape:window-width="1920"
     inkscape:window-height="1011"
     id="namedview4"
     showgrid="false"
     inkscape:zoom="1.3010765"
     inkscape:cx="1576.0026"
     inkscape:cy="2949.865"
     inkscape:window-x="0"
     inkscape:window-y="0"
     inkscape:window-maximized="1"
     inkscape:current-layer="layer1"
     inkscape:snap-global="false"
     inkscape:pagecheckerboard="0" />
  <g
     inkscape:groupmode="layer"
     id="layer2"
     inkscape:label="artwork"
     sodipodi:insensitive="true">
    <image
       xlink:href="../gfx_Pepper-and-Carrot_by-David-Revoy_E32P02.png"
       width="2481"
       height="3503"
       id="image10"
       x="0"
       y="0" />
  </g>
  <g
     inkscape:groupmode="layer"
     id="layer3"
     inkscape:label="speechbubbles"
     style="display:inline">
    <path
       style="color:#000000;display:inline;overflow:visible;visibility:visible;fill:#ffffff;fill-opacity:1;fill-rule:nonzero;stroke:none;stroke-width:0.954816px;marker:none;enable-background:accumulate"
       d="m 301.71805,231.7097 c 5.19409,-11.91191 27.09807,-10.35714 34.85005,-6.88777 -14.68316,-15.76338 -13.19475,-24.29557 8.90488,-23.01859 -34.13869,-29.32322 -4.45519,-21.96956 2.15989,-27.58853 -27.98685,-12.03499 -13.90144,-21.19366 -7.60914,-31.23081 -33.19117,-4.31913 -20.48077,-20.09598 -20.41952,-33.85861 -3.50308,6.04503 -18.97496,23.87538 -17.45493,2.15371 -24.19846,18.01788 -52.10587,28.19627 -50.32565,-8.16064 -10.80923,17.11068 -20.46421,23.73765 -17.45499,2.1537 -24.97245,25.56728 -43.6004,13.0793 -62.57946,2.75558 -6.12413,7.88519 -8.13603,20.87834 -24.66128,15.81142 1.4568,8.71095 -4.85705,13.82885 -18.07875,15.74111 16.53031,7.12336 19.11296,12.74994 -13.20455,14.63056 24.07047,3.41721 46.45068,7.21359 16.06916,23.12231 8.83105,1.52313 31.63234,-12.05491 16.74638,33.84865 16.8922,-13.25277 34.08025,-19.63185 51.11973,14.36509 11.36598,-14.61943 28.97795,-20.42829 34.15696,0.13771 3.52564,-8.08563 14.74033,-9.94983 24.01369,-9.23486 3.21141,3.76064 6.40639,8.7291 9.61062,15.12224 7.62042,-11.71675 17.92004,-19.01709 34.15691,0.13773 z"
       id="path3549-3-7-5"
       inkscape:connector-curvature="0"
       sodipodi:nodetypes="cccccccccccccccccccc" />
    <path
       style="color:#000000;display:inline;overflow:visible;visibility:visible;fill:#ffffff;fill-opacity:1;fill-rule:nonzero;stroke:none;stroke-width:0.90038055px;marker:none;enable-background:accumulate"
       d="m 488.02539,117.04492 c -43.36645,1.3872 -87.07806,9.51496 -126.39412,28.37405 -27.16622,13.98704 -45.41393,42.51815 -49.09939,72.58419 -4.40338,28.23568 -0.12028,58.39433 14.89077,82.99821 10.22415,13.84081 25.81988,21.96458 40.31304,30.52003 23.89633,14.30829 49.69504,26.62403 77.52826,30.55502 31.47768,5.19976 63.53486,4.01527 95.26928,2.58956 28.57369,-2.14058 57.49759,-9.02478 81.77996,-24.77181 26.47283,-16.7871 47.47006,-43.16897 55.02079,-73.86292 6.77172,-26.96736 4.13917,-56.89816 -10.24414,-81.02344 C 655.5035,165.85138 636.06472,152.7485 615.53147,144.71888 580.56021,130.50081 543.8185,119.2794 505.91276,117.257 c -5.95564,-0.31714 -11.92611,-0.42708 -17.88737,-0.21208 z"
       id="path3970-3"
       inkscape:connector-curvature="0"
       sodipodi:nodetypes="cccscsc" />
    <path
       style="color:#000000;display:inline;overflow:visible;visibility:visible;fill:#ffffff;fill-opacity:1;fill-rule:nonzero;stroke:none;stroke-width:1px;marker:none;enable-background:accumulate"
       d="m 577.63531,468.51204 c 24.15675,-46.43871 15.15598,-67.79787 10.19676,-83.83511 -5.04081,0.18752 -14.08073,-1.23448 -14.08073,-1.23448 0,0 -7.00281,-32.37916 -13.50272,-43.8635 -6.49993,-11.48435 -19.9552,-4.33851 -19.9552,-4.33851 0,0 12.13026,63.2638 10.96525,77.57434 13.78917,-1.09946 20.70461,0.20644 25.45323,-2.31613 5.66701,8.19382 8.96155,41.29633 0.92341,58.01339 z"
       id="path4456-8"
       inkscape:connector-curvature="0" />
    <path
       style="color:#000000;display:inline;overflow:visible;visibility:visible;opacity:1;fill:#ffffff;fill-opacity:1;fill-rule:nonzero;stroke:none;stroke-width:0.93505698px;marker:none;enable-background:accumulate"
       d="m 819.86025,625.23467 c 30.39576,-45.16756 214.01605,-59.34939 263.46515,13.30349 34.4611,50.6312 25.5548,130.36782 -8.3705,173.00242 -32.8736,41.31286 -172.14295,32.39541 -212.67386,19.52271 -36.44759,-11.57441 -74.70469,-36.48936 -76.72168,-102.80163 -0.82312,-27.064 3.90514,-57.85944 34.30089,-103.02699 z"
       id="path4040-5"
       inkscape:connector-curvature="0"
       sodipodi:nodetypes="zssssz" />
    <path
       style="color:#000000;display:inline;overflow:visible;visibility:visible;fill:#ffffff;fill-opacity:1;fill-rule:nonzero;stroke:none;stroke-width:1px;marker:none;enable-background:accumulate"
       d="m 1172.2087,638.16525 c -22.426,10.78245 -21.9205,17.27525 -23.5228,31.76828 -1.6032,14.49315 -6.5002,31.6111 -27.1248,48.30404 -30.1996,17.58679 -94.1328,69.98654 -71.7029,5.83439 5.3345,-23.46958 48.5109,-22.99772 64.4153,-32.38817 15.9045,-9.39055 14.6245,-34.55514 25.6984,-44.48017 11.0738,-9.92492 18.2375,-9.80409 32.2368,-9.03837 z"
       id="path4538-0"
       inkscape:connector-curvature="0"
       sodipodi:nodetypes="ccccccc" />
    <path
       style="fill:#ffffff;stroke:none;stroke-width:1"
       d="m 756.05473,530.38172 c -8.49811,-38.80164 14.62297,-88.11058 118.3853,-88.14796 108.97067,-0.0389 129.09427,25.32295 130.34437,89.39769 1.5946,81.72984 -59.84346,84.82282 -124.19822,86.44662 -98.87092,2.49471 -123.99904,-30.03767 -124.53145,-87.69635 z"
       id="path3280-10"
       inkscape:connector-curvature="0"
       sodipodi:nodetypes="csssc" />
    <path
       style="display:inline;fill:#ffffff;fill-rule:evenodd;stroke:none;stroke-width:1px;stroke-linecap:butt;stroke-linejoin:miter;stroke-opacity:1"
       d="m 1429.8027,2558.7383 c 1.1434,83.556 -36.7936,98.1743 -103.3945,62.2285 20.3927,50.8236 44.1556,105.7613 -8.1094,67.8848 33.8277,46.1464 19.5346,57.7631 -28.3828,45.2558 42.5069,42.4785 18.6353,66.0928 -22.3008,84.8555 27.441,0.6495 49.7523,3.6856 66.6875,9.2207 -28.428,12.3695 -52.3396,11.9323 -52.3396,11.9323 0,0 27.3548,9.4949 39.7534,21.61 4.7218,8.6293 -1.1772,19.5993 -26.1846,2.4279 0,0 7.0745,10.8395 10.0571,16.8816 -7.9985,-1.392 -14.6267,-6.5084 -36.7706,-22.5706 25.3177,27.9782 37.8533,49.5137 1.5957,46.461 17.3253,20.7761 4.96,23.3642 -14.8868,21.3652 33.0219,15.2284 15.2075,17.3687 20.2247,22.7402 37.167,45.6384 -9.2653,28.0498 -25.2422,37.4766 81.5878,28.4818 53.117,40.1481 44.5566,54.8574 56.2569,-4.1188 -13.2526,49.8315 -31.4128,87.9182 42.8312,-34.7278 72.6377,-57.5369 55.0847,-10.0041 46.3778,-42.059 38.4046,-22.1564 25.4648,3.4082 26.6358,-22.9597 34.4251,-13.5217 11.3262,49.0117 34.528,-50.0042 68.1244,-96.7046 75.5137,-50.3144 38.7413,-23.0015 43.8334,-12.9656 47.4062,-1.4414 65.406,-24.759 48.4969,-4.4182 52.6758,4.3711 14.0937,-1.1098 31.0393,-15.4504 36.6738,22.6914 21.7205,-28.2308 47.7874,-38.275 86.5352,4.7304 15.0852,-46.7456 28.8113,-37.1935 53.123,21.3223 3.3968,-89.1587 40.9893,-102.7342 103.6602,-60.8731 -17.0421,-55.2759 -28.9133,-62.5172 19.7461,-19.3574 -30.3275,-51.0007 -15.8353,-62.6312 29.9746,-46.7539 -38.945,-47.5497 -14.5148,-71.4639 26.209,-89.3008 -21.0809,-1.7028 -38.9489,-4.8342 -53.4903,-9.4472 -0.8763,-2.69 6.1814,-10.5879 27.5888,-13.5832 -30.0305,0 -26.8763,-4.1096 -25.2958,-14.0612 2.3979,-9.9516 13.9011,-7.4757 50.4235,-0.9377 -21.3034,-14.4681 -62.0546,-30.8829 -17.1961,-33.9063 -23.437,-12.7672 -15.0264,-37.4375 39.1789,-5.5331 -27.4807,-24.8715 -41.4857,-44.3728 -4.0547,-43.3711 -18.8904,-18.5446 -6.3147,-21.5953 14.1914,-20.7402 -34.7377,-12.554 -16.5359,-15.4673 -21.9727,-20.2344 -40.5797,-40.7819 8.0661,-26.7052 24,-36.3379 -85.3518,-22.4665 -56.6913,-34.8334 -48.6562,-49.0273 -57.617,6.7273 29.8596,-74.4218 62.8476,-122.5704 -65.9476,65.1359 -106.8034,96.2647 -91.2304,50.9141 -45.489,41.7047 -38.3283,22.6848 -26.3555,-1.8848 -26.1875,22.8335 -34.6856,14.4049 -14.1914,-45.2578 -32.8945,48.5294 -65.004,93.9211 -75.0117,50.9141 -38.6297,23.4915 -44.3843,14.3665 -48.6563,3.7715 -65.949,26.498 -49.6241,6.6097 -54.3769,-1.3965 -14.4305,1.7582 -31.1058,16.037 -38.8809,-19.3457 -20.8606,27.512 -47.1353,38.2388 -89.2031,0 -13.0772,44.4881 -35.1274,24.2932 -66.9024,-66 z"
       id="path4508-2"
       inkscape:connector-curvature="0"
       sodipodi:nodetypes="ccccccccccccccccccccccccccccccccccccccccccccccccccc" />
    <path
       style="color:#000000;display:inline;overflow:visible;visibility:visible;fill:#ffffff;fill-opacity:1;fill-rule:nonzero;stroke:none;stroke-width:0.99999988px;marker:none;enable-background:accumulate"
       d="m 1159.215,2912.3636 c 24.9289,15.9696 53.0046,32.3355 73.7186,51.7212 l -4.4671,-22.5612 c 12.3017,3.6243 20.5576,9.2984 29.8695,16.4802 l 0.282,-14.4184 c 28.8782,8.8394 47.895,25.3613 71.6781,38.17 l -1.1627,-32.9839 c -26.1704,-10.6456 -58.8089,-18.5611 -82.5747,-33.2158 l 0.2558,18.7223 c -9.1838,-4.1156 -21.518,-9.7867 -29.518,-15.5652 l 2.2339,19.9359 z"
       id="path4032-7"
       inkscape:connector-curvature="0"
       sodipodi:nodetypes="cccccccccccc" />
    <path
       style="fill:#ffffff;fill-rule:evenodd;stroke:none;stroke-width:1px;stroke-linecap:butt;stroke-linejoin:miter;stroke-opacity:1"
       d="m 1753.7087,204.34351 c 1.185,-20.50278 15.4056,-58.09068 36.7365,-64.92493 21.3308,-6.83426 80.5831,-6.83426 92.4336,-3.41661 11.8505,3.41661 30.8112,28.4752 35.5515,38.72712 4.7402,10.25086 17.7757,46.69954 -3.5551,61.50728 -21.3309,14.80774 -42.6617,26.19782 -65.1777,25.0586 -22.5159,-1.13922 -67.5477,-9.1127 -78.2131,-22.78016 -10.6654,-13.66852 -17.7757,-34.1713 -17.7757,-34.1713 z"
       id="path1355"
       inkscape:connector-curvature="0" />
    <path
       style="fill:#ffffff;stroke:none"
       d="m 1847.3696,354.09054 c -13.8328,-28.3217 -7.9502,-36.13851 -0.501,-44.49778 7.4497,-8.36018 15.1632,-15.13458 14.5125,-22.36198 -0.6506,-7.22728 -5.6372,-15.60621 -10.1839,-21.34253 -4.5468,-5.73632 4.0413,-9.66514 7.9076,-16.31667 3.8657,-6.6508 10.7042,-47.80659 10.7042,-47.80659 0,0 -26.0852,17.5715 -32.236,25.43439 -6.1509,7.86277 -8.4405,10.70667 -10.0173,14.51431 -1.5759,3.80696 -4.0646,13.75357 -0.9533,20.82655 3.1118,7.07218 9.494,12.21912 13.0595,17.0376 3.5649,4.81933 -1.3116,12.15392 -5.5827,19.6909 -4.2712,7.53691 -6.1414,13.7099 -2.3508,27.83912 3.2494,12.11102 15.6412,26.98268 15.6412,26.98268 z"
       id="path3023-4"
       inkscape:connector-curvature="0"
       sodipodi:nodetypes="csssscssssssc" />
    <path
       style="color:#000000;display:inline;overflow:visible;visibility:visible;fill:#ffffff;fill-opacity:1;fill-rule:nonzero;stroke:none;stroke-width:1px;marker:none;enable-background:accumulate"
       d="m 1776.3464,1315.529 c 3.2527,-11.321 20.627,-46.387 25.7118,-9.291 37.4381,-49.672 83.6395,-32.169 93.8806,-24.931 -4.7258,-14.705 4.8022,-41.137 32.0153,-34.638 -5.1706,-14.206 2.6362,-24.873 22.022,-32.381 -27.4731,-6.646 -33.2796,-15.291 15.0553,-28.938 -37.6389,2.046 -72.8702,2.901 -32.2408,-33.757 -13.9008,0.297 -43.8343,30.571 -36.8893,-51.608 -21.0909,27.809 -44.9596,44.128 -82.345,-7.637 -7.5628,22.215 -20.6761,37.852 -51.7969,10.837 -3.8196,21.757 -37.5549,26.216 -50.4824,22.884 27.6128,21.802 28.2717,36.657 -5.6527,41.671 61.708,38.345 14.2263,35.6 6.113,47.213 46.5049,11.207 28.2717,31.183 22.1502,50.136 51.7672,-3.483 37.8708,27.229 42.4589,50.44 z"
       id="path3549-3-8"
       inkscape:connector-curvature="0"
       sodipodi:nodetypes="ccccccccccccccc" />
    <path
       style="color:#000000;display:inline;overflow:visible;visibility:visible;fill:#ffffff;fill-opacity:1;fill-rule:nonzero;stroke:none;stroke-width:1px;marker:none;enable-background:accumulate"
       d="m 1862.3291,1246.0499 c 14.3861,24.2296 28.6134,53.9163 31.3484,61.3263 -9.104,1.8541 -16.3446,4.7584 -22.9617,5.3139 6.2417,13.3724 31.8119,68.3466 45.0873,79.3414 -33.7825,-25.8525 -61.563,-70.2493 -70.1237,-92.8544 8.499,-2.3387 14.007,-2.5569 18.4447,-3.9047 -3.7254,-11.4708 -23.6989,-46.1206 -23.6989,-46.1206 z"
       id="path5066-8"
       inkscape:connector-curvature="0"
       sodipodi:nodetypes="cccccccc" />
    <path
       style="fill:#ffffff;stroke:none;stroke-width:0.900671"
       d="m 585.03709,1483.669 c -1.1141,-27.1718 18.86144,-95.1953 116.30132,-90.0791 97.43992,5.1162 127.93706,35.0056 130.7925,83.3044 4.51709,76.4076 -46.74592,96.826 -120.35503,102.4861 -75.88298,5.8339 -127.91649,-46.6144 -126.73879,-95.7114 z"
       id="path3280-7"
       inkscape:connector-curvature="0"
       sodipodi:nodetypes="csssc" />
    <path
       style="color:#000000;display:inline;overflow:visible;visibility:visible;fill:#ffffff;fill-opacity:1;fill-rule:nonzero;stroke:none;stroke-width:1px;marker:none;enable-background:accumulate"
       d="m 869.08895,1636.9955 c -67.24677,1.2844 -93.00504,-48.0053 -100.0269,-87.4546 -9.92573,-55.7646 -2.09042,-31.0329 -2.09042,-31.0329 l -33.99104,26.0816 c -4.43616,0.2077 36.58553,127.7062 136.10836,92.4059 z"
       id="path3072-12"
       inkscape:connector-curvature="0"
       sodipodi:nodetypes="csccc" />
    <path
       style="fill:#ffffff;fill-rule:evenodd;stroke:none;stroke-width:1.19294px;stroke-linecap:butt;stroke-linejoin:miter;stroke-opacity:1"
       d="m 509.45662,1378.9971 c 1.53808,-19.455 19.99539,-55.122 47.6815,-61.607 27.68597,-6.485 104.59153,-6.485 119.97267,-3.242 15.38114,3.242 39.99093,27.02 46.14342,36.748 6.15248,9.727 23.07171,44.313 -4.61426,58.364 -27.68611,14.051 -55.37207,24.859 -84.59627,23.778 -29.22419,-1.081 -87.67244,-8.647 -101.51535,-21.616 -13.84306,-12.97 -23.07171,-32.425 -23.07171,-32.425 z"
       id="path1355-3"
       inkscape:connector-curvature="0" />
  </g>
  <g
     inkscape:groupmode="layer"
     id="layer1"
     inkscape:label="txt">
    <text
       xml:space="preserve"
       style="font-style:normal;font-variant:normal;font-weight:normal;font-stretch:normal;font-size:15.4016px;line-height:0%;font-family:'Nanum Pen Script OTF';-inkscape-font-specification:'Nanum Pen Script OTF';text-align:center;letter-spacing:0px;word-spacing:0px;text-anchor:middle;fill:#000000;fill-opacity:1;stroke:none;stroke-width:1.28346"
       x="622.6217"
       y="1394.5255"
       id="text7796"><tspan
         sodipodi:role="line"
         style="font-style:normal;font-variant:normal;font-weight:normal;font-stretch:normal;font-size:57.7559px;line-height:1.2;font-family:'Nanum Pen Script OTF';-inkscape-font-specification:'Nanum Pen Script OTF';stroke-width:1.28346"
         x="622.6217"
         y="1394.5255"
         id="tspan7794">반가워요!</tspan></text>
    <text
       xml:space="preserve"
       style="font-style:normal;font-variant:normal;font-weight:normal;font-stretch:normal;font-size:15.6446px;line-height:0%;font-family:'Nanum Pen Script OTF';-inkscape-font-specification:'Nanum Pen Script OTF';text-align:center;letter-spacing:0px;word-spacing:0px;text-anchor:middle;display:inline;fill:#000000;fill-opacity:1;stroke:none;stroke-width:1.30371"
       x="2269.2927"
       y="1117.1726"
       id="text7806"
       transform="matrix(0.89365154,0,-0.19329856,1.1190044,0,0)"><tspan
         sodipodi:role="line"
         style="font-style:normal;font-variant:normal;font-weight:normal;font-stretch:normal;font-size:135.972px;line-height:1.25;font-family:'Nanum Pen Script OTF';-inkscape-font-specification:'Nanum Pen Script OTF';letter-spacing:-6.51856px;stroke-width:1.30371"
         x="2266.0334"
         y="1117.1726"
         id="tspan7804">?!!</tspan></text>
    <text
       xml:space="preserve"
       style="font-style:normal;font-variant:normal;font-weight:bold;font-stretch:normal;font-size:17.8243px;line-height:1;font-family:'Nanum Pen Script OTF';-inkscape-font-specification:'Nanum Pen Script OTF Bold';text-align:center;letter-spacing:18.0583px;word-spacing:0px;text-anchor:middle;fill:#000000;fill-opacity:1;stroke:#000000;stroke-width:1.87003;stroke-opacity:1"
       x="1640.9194"
       y="2858.7021"
       id="text7822"
       transform="scale(0.94973823,1.0529217)"><tspan
         sodipodi:role="line"
         style="font-style:normal;font-variant:normal;font-weight:bold;font-stretch:normal;font-size:66.8411px;font-family:'Nanum Pen Script OTF';-inkscape-font-specification:'Nanum Pen Script OTF Bold';letter-spacing:1.13653px;stroke:#000000;stroke-width:1.87003;stroke-opacity:1"
         x="1640.9194"
         y="2858.7021"
         id="tspan45866">난 제대로 된  전투용</tspan><tspan
         sodipodi:role="line"
         style="font-style:normal;font-variant:normal;font-weight:bold;font-stretch:normal;font-size:66.8411px;font-family:'Nanum Pen Script OTF';-inkscape-font-specification:'Nanum Pen Script OTF Bold';letter-spacing:1.13653px;stroke:#000000;stroke-width:1.87003;stroke-opacity:1"
         x="1641.4877"
         y="2925.5432"
         id="tspan45872">마녀가 필요하다고!</tspan></text>
    <text
       xml:space="preserve"
       style="font-style:normal;font-variant:normal;font-weight:bold;font-stretch:normal;font-size:21.625px;line-height:0%;font-family:'Nanum Pen Script OTF';-inkscape-font-specification:'Nanum Pen Script OTF Bold';text-align:center;letter-spacing:0px;word-spacing:0px;text-anchor:middle;fill:#000000;fill-opacity:1;stroke:#000000;stroke-width:1.80208;stroke-opacity:1"
       x="238.77643"
       y="196.28221"
       id="text7764"><tspan
         sodipodi:role="line"
         style="font-style:normal;font-variant:normal;font-weight:bold;font-stretch:normal;font-size:81.0938px;line-height:1.25;font-family:'Nanum Pen Script OTF';-inkscape-font-specification:'Nanum Pen Script OTF Bold';stroke:#000000;stroke-width:1.80208;stroke-opacity:1"
         x="238.77643"
         y="196.28221"
         id="tspan7760">장군!</tspan><tspan
         sodipodi:role="line"
         x="238.77643"
         y="233.4502"
         id="tspan7762"
         style="font-style:normal;font-variant:normal;font-weight:bold;font-stretch:normal;font-size:81.0938px;line-height:1.25;font-family:'Nanum Pen Script OTF';-inkscape-font-specification:'Nanum Pen Script OTF Bold';stroke:#000000;stroke-width:1.80208;stroke-opacity:1" /></text>
    <text
       xml:space="preserve"
       style="font-style:normal;font-variant:normal;font-weight:normal;font-stretch:normal;font-size:15.2072px;line-height:1;font-family:'Nanum Pen Script OTF';-inkscape-font-specification:'Nanum Pen Script OTF';text-align:center;letter-spacing:0px;word-spacing:0px;text-anchor:middle;fill:#000000;fill-opacity:1;stroke:none;stroke-width:1.26727"
       x="491.11267"
       y="209.6749"
       id="text7772"><tspan
         sodipodi:role="line"
         style="font-style:normal;font-variant:normal;font-weight:normal;font-stretch:normal;font-size:57.0268px;font-family:'Nanum Pen Script OTF';-inkscape-font-specification:'Nanum Pen Script OTF';stroke-width:1.26727"
         x="491.11267"
         y="209.6749"
         id="tspan7770">내가 요구한 대로</tspan><tspan
         sodipodi:role="line"
         style="font-style:normal;font-variant:normal;font-weight:normal;font-stretch:normal;font-size:57.0268px;font-family:'Nanum Pen Script OTF';-inkscape-font-specification:'Nanum Pen Script OTF';stroke-width:1.26727"
         x="491.11267"
         y="266.70169"
         id="tspan11446">마녀를</tspan><tspan
         sodipodi:role="line"
         style="font-style:normal;font-variant:normal;font-weight:normal;font-stretch:normal;font-size:57.0268px;font-family:'Nanum Pen Script OTF';-inkscape-font-specification:'Nanum Pen Script OTF';stroke-width:1.26727"
         x="491.11267"
         y="323.72849"
         id="tspan11448">모집하였는가?</tspan></text>
    <text
       xml:space="preserve"
       style="font-style:normal;font-variant:normal;font-weight:normal;font-stretch:normal;font-size:16.5397px;line-height:1;font-family:'Nanum Pen Script OTF';-inkscape-font-specification:'Nanum Pen Script OTF';text-align:center;letter-spacing:0px;word-spacing:0px;text-anchor:middle;fill:#000000;fill-opacity:1;stroke:none;stroke-width:1.37831"
       x="883.91052"
       y="519.83734"
       id="text7778"><tspan
         sodipodi:role="line"
         style="font-style:normal;font-variant:normal;font-weight:normal;font-stretch:normal;font-size:62.0239px;font-family:'Nanum Pen Script OTF';-inkscape-font-specification:'Nanum Pen Script OTF';stroke-width:1.37831"
         x="883.91052"
         y="519.83734"
         id="tspan7776">그렇습니다,</tspan><tspan
         sodipodi:role="line"
         style="font-style:normal;font-variant:normal;font-weight:normal;font-stretch:normal;font-size:62.0239px;font-family:'Nanum Pen Script OTF';-inkscape-font-specification:'Nanum Pen Script OTF';stroke-width:1.37831"
         x="883.91052"
         y="581.86127"
         id="tspan20850">폐하!</tspan></text>
    <text
       xml:space="preserve"
       style="font-style:normal;font-variant:normal;font-weight:normal;font-stretch:normal;font-size:16.2306px;line-height:1;font-family:'Nanum Pen Script OTF';-inkscape-font-specification:'Nanum Pen Script OTF';text-align:center;letter-spacing:0px;word-spacing:0px;text-anchor:middle;display:inline;fill:#000000;fill-opacity:1;stroke:none;stroke-width:1.35255"
       x="949.64368"
       y="676.9411"
       id="text7786"><tspan
         sodipodi:role="line"
         style="font-style:normal;font-variant:normal;font-weight:normal;font-stretch:normal;font-size:60.8648px;font-family:'Nanum Pen Script OTF';-inkscape-font-specification:'Nanum Pen Script OTF';stroke-width:1.35255"
         x="949.64368"
         y="676.9411"
         id="tspan7784">폐하 옆에</tspan><tspan
         sodipodi:role="line"
         style="font-style:normal;font-variant:normal;font-weight:normal;font-stretch:normal;font-size:60.8648px;font-family:'Nanum Pen Script OTF';-inkscape-font-specification:'Nanum Pen Script OTF';stroke-width:1.35255"
         x="949.64368"
         y="737.80591"
         id="tspan24059">대기하고</tspan><tspan
         sodipodi:role="line"
         style="font-style:normal;font-variant:normal;font-weight:normal;font-stretch:normal;font-size:60.8648px;font-family:'Nanum Pen Script OTF';-inkscape-font-specification:'Nanum Pen Script OTF';stroke-width:1.35255"
         x="949.64368"
         y="798.67072"
         id="tspan24061">있사옵니다.</tspan></text>
    <text
       xml:space="preserve"
       style="font-style:normal;font-variant:normal;font-weight:bold;font-stretch:normal;font-size:25.5538px;line-height:0%;font-family:'Nanum Pen Script OTF';-inkscape-font-specification:'Nanum Pen Script OTF Bold';text-align:center;letter-spacing:0px;word-spacing:0px;text-anchor:middle;fill:#000000;fill-opacity:1;stroke:none;stroke-width:1.60641"
       x="1860.3346"
       y="217.00363"
       id="text7792"
       transform="scale(0.98795945,1.0121873)"><tspan
         sodipodi:role="line"
         style="font-style:normal;font-variant:normal;font-weight:bold;font-stretch:normal;font-size:95.8268px;line-height:1.2;font-family:'Nanum Pen Script OTF';-inkscape-font-specification:'Nanum Pen Script OTF Bold';stroke-width:1.60641"
         x="1860.3346"
         y="217.00363"
         id="tspan7790"><tspan
           style="font-style:normal;font-variant:normal;font-weight:bold;font-stretch:normal;font-family:'Nanum Pen Script OTF';-inkscape-font-specification:'Nanum Pen Script OTF Bold';stroke-width:1.60641"
           id="tspan7788">...?</tspan></tspan></text>
    <text
       xml:space="preserve"
       style="font-style:normal;font-variant:normal;font-weight:normal;font-stretch:normal;font-size:14.9179px;line-height:1;font-family:'Nanum Pen Script OTF';-inkscape-font-specification:'Nanum Pen Script OTF';text-align:center;letter-spacing:0px;word-spacing:0px;text-anchor:middle;fill:#000000;fill-opacity:1;stroke:none;stroke-width:1.24316"
       x="702.3927"
       y="1476.5289"
       id="text7802"><tspan
         sodipodi:role="line"
         style="font-style:normal;font-variant:normal;font-weight:normal;font-stretch:normal;font-size:55.9421px;font-family:'Nanum Pen Script OTF';-inkscape-font-specification:'Nanum Pen Script OTF';stroke-width:1.24316"
         x="702.3927"
         y="1476.5289"
         id="tspan7800">제 이름은</tspan><tspan
         sodipodi:role="line"
         style="font-style:normal;font-variant:normal;font-weight:normal;font-stretch:normal;font-size:55.9421px;font-family:'Nanum Pen Script OTF';-inkscape-font-specification:'Nanum Pen Script OTF';stroke-width:1.24316"
         x="702.3927"
         y="1532.4711"
         id="tspan36945">후추...</tspan></text>
    <text
       xml:space="preserve"
       style="font-style:normal;font-variant:normal;font-weight:bold;font-stretch:normal;font-size:33.2653px;line-height:0%;font-family:'Nanum Pen Script OTF';-inkscape-font-specification:'Nanum Pen Script OTF Bold';text-align:center;letter-spacing:33.7022px;word-spacing:0px;text-anchor:middle;fill:#000000;fill-opacity:1;stroke:#000000;stroke-width:3.772;stroke-opacity:1"
       x="2299.5608"
       y="2629.3923"
       id="text7810"
       transform="matrix(0.94427779,0,-0.21829887,1.0590104,0,0)"><tspan
         sodipodi:role="line"
         style="font-style:normal;font-variant:normal;font-weight:bold;font-stretch:normal;font-size:124.745px;line-height:1.2;font-family:'Nanum Pen Script OTF';-inkscape-font-specification:'Nanum Pen Script OTF Bold';letter-spacing:4.63117px;stroke:#000000;stroke-width:3.772;stroke-opacity:1"
         x="2301.8765"
         y="2629.3923"
         id="tspan7808">예끼 이놈!!!</tspan></text>
    <text
       xml:space="preserve"
       style="font-style:normal;font-variant:normal;font-weight:bold;font-stretch:normal;font-size:17.8476px;line-height:1;font-family:'Nanum Pen Script OTF';-inkscape-font-specification:'Nanum Pen Script OTF Bold';text-align:center;letter-spacing:18.082px;word-spacing:0px;text-anchor:middle;fill:#000000;fill-opacity:1;stroke:#000000;stroke-width:1.86636;stroke-opacity:1"
       x="1653.3162"
       y="2723.3118"
       id="text7816"
       transform="scale(0.94973823,1.0529217)"><tspan
         sodipodi:role="line"
         style="font-style:normal;font-variant:normal;font-weight:bold;font-stretch:normal;font-size:66.9287px;font-family:'Nanum Pen Script OTF';-inkscape-font-specification:'Nanum Pen Script OTF Bold';letter-spacing:1.13803px;stroke:#000000;stroke-width:1.86636;stroke-opacity:1"
         x="1653.3162"
         y="2723.3118"
         id="tspan7814">왜 이런 꼬맹이를</tspan><tspan
         sodipodi:role="line"
         style="font-style:normal;font-variant:normal;font-weight:bold;font-stretch:normal;font-size:66.9287px;font-family:'Nanum Pen Script OTF';-inkscape-font-specification:'Nanum Pen Script OTF Bold';letter-spacing:1.13803px;stroke:#000000;stroke-width:1.86636;stroke-opacity:1"
         x="1653.8851"
         y="2790.2405"
         id="tspan38769">데리고 온 거야?!</tspan></text>
  </g>
</svg>
