<?xml version="1.0" encoding="UTF-8" standalone="no"?>
<svg
   xmlns:dc="http://purl.org/dc/elements/1.1/"
   xmlns:cc="http://creativecommons.org/ns#"
   xmlns:rdf="http://www.w3.org/1999/02/22-rdf-syntax-ns#"
   xmlns:svg="http://www.w3.org/2000/svg"
   xmlns="http://www.w3.org/2000/svg"
   xmlns:xlink="http://www.w3.org/1999/xlink"
   xmlns:sodipodi="http://sodipodi.sourceforge.net/DTD/sodipodi-0.dtd"
   xmlns:inkscape="http://www.inkscape.org/namespaces/inkscape"
   id="svg2"
   version="1.1"
   inkscape:version="1.0.2 (e86c870879, 2021-01-15)"
   width="2481"
   height="3503"
   sodipodi:docname="E32P05.svg">
  <metadata
     id="metadata8">
    <rdf:RDF>
      <cc:Work
         rdf:about="">
        <dc:format>image/svg+xml</dc:format>
        <dc:type
           rdf:resource="http://purl.org/dc/dcmitype/StillImage" />
        <dc:title />
      </cc:Work>
    </rdf:RDF>
  </metadata>
  <defs
     id="defs6">
    <filter
       style="color-interpolation-filters:sRGB"
       id="filter4375-4-1-1-1-9-6-9-2-1-7-1"
       inkscape:label="deevad outline effect">
      <feFlood
         id="feFlood4377-7-9-0-8-1-0-2-2-06-3-9"
         flood-opacity="1"
         flood-color="rgb(0,0,0)"
         result="flood" />
      <feComposite
         id="feComposite4379-3-8-8-2-77-6-0-8-3-6-4"
         in2="SourceGraphic"
         in="flood"
         operator="in"
         result="composite1" />
      <feMorphology
         id="feMorphology4393-1-0-49-8-9-2-2-9-2-1-7"
         operator="dilate"
         radius="4"
         result="result3" />
      <feComposite
         id="feComposite4385-9-5-7-0-8-6-3-7-0-2-8"
         in2="result3"
         in="SourceGraphic"
         operator="over"
         result="composite2" />
    </filter>
    <filter
       style="color-interpolation-filters:sRGB"
       id="filter4375-4-1-1-1-9-6-9-2-1-7-1-2"
       inkscape:label="deevad outline effect">
      <feFlood
         id="feFlood4377-7-9-0-8-1-0-2-2-06-3-9-7"
         flood-opacity="1"
         flood-color="rgb(0,0,0)"
         result="flood" />
      <feComposite
         id="feComposite4379-3-8-8-2-77-6-0-8-3-6-4-0"
         in2="SourceGraphic"
         in="flood"
         operator="in"
         result="composite1" />
      <feMorphology
         id="feMorphology4393-1-0-49-8-9-2-2-9-2-1-7-9"
         operator="dilate"
         radius="4"
         result="result3" />
      <feComposite
         id="feComposite4385-9-5-7-0-8-6-3-7-0-2-8-3"
         in2="result3"
         in="SourceGraphic"
         operator="over"
         result="composite2" />
    </filter>
    <filter
       style="color-interpolation-filters:sRGB"
       id="filter4375-4-1-1-1-9"
       inkscape:label="deevad outline effect">
      <feFlood
         id="feFlood4377-7-9-0-8-1"
         flood-opacity="1"
         flood-color="rgb(0,0,0)"
         result="flood" />
      <feComposite
         id="feComposite4379-3-8-8-2-77"
         in2="SourceGraphic"
         in="flood"
         operator="in"
         result="composite1" />
      <feMorphology
         id="feMorphology4393-1-0-49-8-9"
         operator="dilate"
         radius="4"
         result="result3" />
      <feComposite
         id="feComposite4385-9-5-7-0-8"
         in2="result3"
         in="SourceGraphic"
         operator="over"
         result="composite2" />
    </filter>
    <filter
       inkscape:collect="always"
       style="color-interpolation-filters:sRGB"
       id="filter1101"
       x="-0.12972304"
       width="1.2594461"
       y="-0.36928496"
       height="1.7385699">
      <feGaussianBlur
         inkscape:collect="always"
         stdDeviation="22.559027"
         id="feGaussianBlur1103" />
    </filter>
  </defs>
  <sodipodi:namedview
     pagecolor="#ffffff"
     bordercolor="#666666"
     borderopacity="1"
     objecttolerance="10"
     gridtolerance="10"
     guidetolerance="10"
     inkscape:pageopacity="0"
     inkscape:pageshadow="2"
     inkscape:window-width="1280"
     inkscape:window-height="662"
     id="namedview4"
     showgrid="false"
     inkscape:zoom="0.37405949"
     inkscape:cx="1313.1936"
     inkscape:cy="1934.0306"
     inkscape:window-x="0"
     inkscape:window-y="28"
     inkscape:window-maximized="1"
     inkscape:current-layer="layer1"
     inkscape:snap-global="false"
     inkscape:document-rotation="0" />
  <g
     inkscape:groupmode="layer"
     id="layer2"
     inkscape:label="artwork"
     sodipodi:insensitive="true">
    <image
       sodipodi:absref="/home/cherry/Workspace/peppercarrot/webcomics/ep32_The-Battlefield/lang/gfx_Pepper-and-Carrot_by-David-Revoy_E32P05.png"
       xlink:href="../gfx_Pepper-and-Carrot_by-David-Revoy_E32P05.png"
       width="2481"
       height="3503"
       id="image10"
       x="0"
       y="0" />
  </g>
  <g
     inkscape:groupmode="layer"
     id="layer3"
     inkscape:label="speechbubbles"
     style="display:inline">
    <path
       style="display:inline;fill:#ffffff;fill-rule:evenodd;stroke:none;stroke-width:0.882216px;stroke-linecap:butt;stroke-linejoin:miter;stroke-opacity:1"
       d="m 1208.6241,1463.957 c -0.758,10.9428 -0.2487,22.5718 -4.3413,32.5871 -5.3544,10.9342 -15.5075,16.623 -25.3096,17.0951 -9.2421,0.5421 -18.5472,-1.3381 -27.2581,-5.3189 -2.5468,1.8776 -1.9016,6.844 0.2258,8.8192 4.9739,9.2679 9.9627,19.4396 10.2859,31.0363 0.5808,8.0174 -2.3818,17.061 -8.4392,20.2527 -4.5843,2.5551 -9.6992,2.0176 -14.5604,1.6848 1.2936,3.2226 3.9378,4.9871 5.5855,7.8619 3.4672,4.5439 6.9119,10.4496 6.2585,17.1846 -0.952,9.2375 -7.018,16.5786 -13.8555,18.8827 -2.5689,1.6961 -5.1377,3.3923 -7.7066,5.0884 12.6833,-0.8155 25.6949,-2.7152 38.1217,1.7226 6.9778,3.3543 8.8297,16.9548 3.171,23.1699 -4.2378,6.3539 -9.5292,11.3083 -14.3925,16.8125 18.2118,-3.4291 36.4006,-9.3587 54.9418,-7.7721 5.0206,0.3856 10.3715,1.4594 14.2725,5.9033 3.2481,3.3093 5.8208,7.6649 7.5413,12.5017 5.794,2.6087 11.8318,-0.3538 17.3853,-2.5664 12.7938,-5.4376 25.086,-12.9953 38.3593,-16.4376 2.7929,0.7788 5.1269,3.5474 6.1398,6.9493 6.2382,2.2412 12.4403,-1.3097 18.5189,-2.7571 4.8569,-1.3461 9.7536,-2.7699 14.7475,-2.8015 2.4124,3.638 5.6401,7.4776 9.6574,6.9019 12.0083,0.835 24.4016,-0.6599 35.9817,4.3807 7.2021,4.1195 12.816,11.8812 16.6131,20.6256 12.3039,-8.9909 22.8679,-22.0493 36.4512,-28.0098 9.3374,-4.3383 20.7727,-2.6979 28.1758,6.2522 2.0875,2.5261 3.8853,5.411 5.5876,8.3669 5.4271,-5.1811 10.0798,-12.4992 16.9525,-14.5117 10.0048,-3.9962 20.6299,-1.6573 30.6427,1.0176 8.8581,2.161 17.6615,4.68 26.4182,7.4375 -4.7598,-5.1788 -8.7468,-12.5211 -8.7513,-20.8125 1.2774,-6.7253 6.7084,-11.6557 12.0698,-10.9355 -1.5339,-4.2752 -2.2525,-10.1594 0.6202,-13.7996 4.5604,-5.6264 11.1827,-6.5322 17.1786,-7.2891 1.5831,-0.2719 3.1662,-0.5438 4.7492,-0.8156 -10.6217,-7.597 -13.5278,-28.2054 -5.6017,-40.0703 5.2124,-7.0826 11.6996,-12.34 18.3404,-16.9258 -9.5315,-0.6773 -19.1966,2.2892 -28.6209,-0.584 -5.2627,-4.2904 -7.4548,-12.2299 -11.4426,-18.0419 -2.2093,-5.7999 0.062,-13.0044 4.0113,-16.5283 8.5187,-11.0312 16.6683,-22.641 23.3029,-35.6784 3.8507,-7.1868 7.3952,-14.6358 10.8096,-22.1752 -11.2716,19.6818 -27.0047,35.769 -45.4267,42.6724 -6.1103,2.4632 -12.39,5.5553 -18.9111,4.5815 -3.2524,-1.9666 -6.0211,-5.992 -9.8808,-5.7344 -6.8725,3.3561 -13.745,6.7122 -20.6175,10.0683 -2.0262,-2.0256 -3.5407,-4.8843 -4.2488,-8.0566 -6.6282,0.411 -13.5002,-1.0989 -19.2143,-5.6133 -2.8299,-5.9477 -3.2214,-13.616 -1.1705,-20.0469 -9.2451,8.4929 -17.2426,18.932 -25.8817,28.3672 -8.8148,-2.193 -16.0941,-10.7951 -25.2979,-10.9922 -24.8315,-2.6757 -49.8103,-5.4418 -74.726,-3.0677 -12.0397,2.452 -24.1717,6.9416 -36.4546,4.6844 -12.0263,-1.6019 -24.3629,-4.4384 -36.3254,-0.6881 -5.9831,1.796 -12.8118,2.7429 -18.2819,-1.6373 -8.7217,-6.4628 -14.2542,-17.6313 -20.7375,-27.1508 -1.7816,-2.7756 -3.6121,-5.4987 -5.4726,-8.1873 -0.063,0.6992 -0.1268,1.3984 -0.19,2.0976 z"
       id="path4508-9"
       inkscape:connector-curvature="0"
       sodipodi:nodetypes="cccccccccccccccccccccccccccccccccccccccccccccccccccc" />
    <path
       style="display:inline;fill:#ffffff;fill-rule:evenodd;stroke:none;stroke-width:0.887116px;stroke-linecap:butt;stroke-linejoin:miter;stroke-opacity:1"
       d="m 1258.4654,1551.6001 c -0.4791,14.9763 -2.5704,30.4744 -9.1763,43.1992 -11.7134,9.9032 -28.5284,8.0436 -38.9045,-3.9336 -2.7752,1.0549 -2.2473,5.9619 -0.5173,7.9977 3.5928,13.7745 7.2736,27.5385 9.9625,41.6546 -3.5329,4.279 -10.1134,2.8847 -12.3641,-2.6171 1.0757,8.6577 7.1609,15.0735 7.3056,24.0527 -2.5518,6.8509 -7.1231,8.5402 -15.8357,10.7721 4.1807,6.4634 9.151,13.6119 8.8107,22.5472 -0.2858,10.3506 -7.0616,18.5756 -14.3853,21.838 -0.9625,0.4177 -0.5413,1.3365 0.331,1.0804 12.8268,2.5904 26.4353,0.1279 38.6064,6.9673 8.6754,3.8318 16.1252,14.403 15.7626,26.5313 -0.1434,2.4172 -0.9762,4.6955 -0.9945,7.1289 7.8577,-3.685 15.5999,-8.7143 24.1303,-9.1211 3.3898,2.217 4.1182,8.9238 1.2681,12.1739 9.7359,-0.8761 16.5411,-12.6591 26.449,-12.661 3.2013,-0.2209 6.2209,3.728 5.5899,7.7668 1.501,2.4778 4.497,-3.4752 6.4785,-3.6732 5.6277,-1.7096 4.7461,-2.3202 10.6214,-2.6628 2.0972,1.0566 4.7561,1.9214 7.2407,6.7575 4.1588,-1.6599 6.0598,-3.2964 8.7157,-3.2618 8.6071,-1.9429 14.0415,-9.5681 26.114,-4.0373 8.0381,2.6901 12.1101,11.4501 16.6108,16.5363 2.5285,-4.9904 5.5307,-8.3773 8.1358,-11.6886 4.6897,-9.0484 13.4222,-11.7554 21.728,-13.0204 7.1161,-2.4924 14.4743,1.1364 21.6734,4.914 4.4015,2.837 8.3133,6.8716 12.992,9.009 3.6671,-2.9935 7.6521,-7.6176 12.3632,-5.8788 4.8719,1.2629 9.1381,4.7237 13.8498,6.6014 -2.772,-5.2749 -7.1034,-9.9378 -7.4025,-16.6953 1.8104,-4.1426 5.5953,-5.7219 8.9749,-6.8906 -0.1556,-5.8386 3.5491,-10.7273 7.6638,-12.6035 0.8663,-4.2932 -3.049,-6.3524 -4.3102,-9.6772 -3.1036,-6.1856 -1.7855,-16.333 4.0776,-18.9876 3.3764,-1.6863 7.1973,-1.1902 10.4956,-3.2024 -0.1417,-3.6135 -3.6346,-3.559 -5.661,-4.4551 -5.8824,-2.3525 -12.4886,-5.8666 -15.0284,-13.6003 -1.0155,-4.5717 1.9479,-8.5977 2.0292,-12.9751 -1.491,-3.1602 -5.1287,-5.5187 -4.2454,-9.8157 2.1725,-12.6493 9.8652,-21.8467 15.282,-32.3092 8.1013,-14.1637 16.2026,-28.3274 24.3038,-42.4911 -13.2607,16.7767 -26.4708,33.8856 -41.9265,47.4531 -3.7149,-0.2747 -5.8168,-6.8783 -3.2969,-10.3574 -5.5613,1.8352 -9.3674,7.7663 -14.3393,11.041 -1.9755,-3.2623 -1.712,-8.188 0.3366,-11.2968 -2.5858,-2.8821 -6.115,2.6571 -8.5676,-0.7012 -3.2446,-4.4836 -1.6874,-10.9601 -0.9601,-16.2618 0.8417,-5.1539 2.0836,-10.1858 2.9522,-15.332 -8.6399,12.8442 -14.699,28.756 -25.6193,38.929 -1.8489,1.8328 -4.6235,2.7874 -6.5471,0.5686 -1.8245,-1.538 -3.1145,-4.1363 -3.2736,-6.9312 -6.6269,0.8047 -12.4818,7.2402 -19.3486,5.5059 -7.2387,-4.4956 -15.8256,-2.5912 -22.8822,1.5215 -6.8075,-0.014 -11.9341,-8.2277 -18.8874,-7.1392 -4.3361,-0.9398 -7.1145,-5.8572 -9.4912,-9.9732 -4.2826,-0.6012 -6.5366,5.1911 -10.1434,6.9807 -8.8134,5.829 -19.9125,2.6338 -27.4205,-4.9761 -1.7447,-2.1426 -4.3002,-4.8476 -6.7868,-2.7953 -2.8245,1.7483 -3.9275,6.6255 -7.1438,7.4051 -5.2338,0.772 -9.708,-5.2245 -10.3583,-11.485 -5.6722,-15.108 -10.0825,-30.9005 -14.9897,-46.4174 -0.016,0.9974 -0.031,1.9948 -0.048,2.9922 z"
       id="path4508-9-6"
       inkscape:connector-curvature="0"
       sodipodi:nodetypes="cccccccccccccccccccccccccccccccccccccccccccccccccccccccccccccccc" />
    <path
       style="color:#000000;display:inline;overflow:visible;visibility:visible;fill:#ffffff;fill-opacity:1;fill-rule:nonzero;stroke:none;stroke-width:0.99999994px;marker:none;enable-background:accumulate"
       d="m 1322.5586,1728.1016 c -11.0094,9.9702 -17.1146,23.8053 -25.197,35.9928 -5.7365,9.1028 -17.9114,24.8135 -26.046,32.2016 7.6812,0.2097 5.7344,0.8326 10.9478,2.0534 3.3706,1.3513 7.7807,2.3941 9.3038,6.0235 -1.4478,7.677 -8.2527,12.4101 -13.2117,17.8317 -21.2393,19.7738 -50.3466,30.4414 -79.2715,30.188 30.5673,5.5836 63.676,0.269 89.5548,-17.4158 15.5847,-11.4657 31.0045,-29.6098 44.4036,-43.4287 -3.8521,-0.6581 -8.7325,-0.5391 -12.6274,-0.7071 -7.2015,-0.9549 -9.1708,-6.0664 -6.2213,-10.4154 3.8653,-10.2383 12.9809,-16.9751 20.7567,-24.1405 4.6114,-3.9349 9.2499,-7.8384 13.8074,-11.8359 -7.5773,-6.8137 -16.4342,-11.9448 -25.0566,-17.289 -0.3809,0.3138 -0.7617,0.6276 -1.1426,0.9414 z"
       id="path5066-6"
       inkscape:connector-curvature="0"
       sodipodi:nodetypes="ccccccccccccccc" />
    <path
       style="color:#000000;display:inline;overflow:visible;visibility:visible;fill:#ffffff;fill-opacity:1;fill-rule:nonzero;stroke:none;stroke-width:0.954233px;marker:none;enable-background:accumulate"
       d="m 1447.7429,355.47571 c -36.7477,1.56885 -73.863,9.04093 -106.4216,26.42932 -13.1228,7.72462 -24.4705,19.97094 -27.588,35.07399 -1.1722,14.86684 5.8465,29.5407 16.4669,39.81667 10.7321,9.68135 25.1382,13.94957 39.1828,16.32272 49.2098,11.04226 99.7965,15.05977 150.188,15.05427 30.1219,1.1268 60.5791,1.52522 90.2895,-4.25109 20.2681,-2.77574 40.646,-7.29498 58.7739,-16.97571 14.4158,-7.2199 26.6587,-19.95299 30.7583,-35.62661 2.6958,-11.99215 0.4199,-24.79439 -5.119,-35.6868 -5.1133,-9.0593 -14.1576,-15.62515 -24.2348,-18.38008 -18.0528,-6.23528 -37.1416,-8.50314 -55.871,-11.8868 -55.0446,-8.17039 -110.8486,-9.72031 -166.425,-9.88988 z"
       id="path3365-74"
       inkscape:connector-curvature="0"
       sodipodi:nodetypes="csssssc" />
    <path
       style="display:inline;fill:#ffffff;fill-rule:evenodd;stroke:none;stroke-width:1.0971px;stroke-linecap:butt;stroke-linejoin:miter;stroke-opacity:1"
       d="m 1461.2178,167.00136 c -35.0173,0.38599 -70.6616,-1.22989 -104.8765,6.98826 -22.8384,5.52943 -44.1503,19.43318 -54.1813,39.54702 -7.0467,15.81305 -1.2213,34.66567 11.4078,46.63739 6.9945,6.76206 14.7608,13.60859 24.6623,16.42522 9.1445,2.54143 18.7548,0.99986 28.127,1.29424 17.196,-0.14066 34.3889,0.44407 51.5418,1.51249 67.9556,2.41748 135.9839,1.62733 203.9609,0.57368 22.4238,-0.7183 45.5297,-1.89015 66.3845,-10.24833 13.3316,-5.74789 24.5901,-16.63156 27.7624,-30.14875 4.2827,-14.82251 1.1431,-32.22842 -11.1799,-43.13396 -11.524,-10.48285 -26.7468,-16.54769 -41.8252,-21.35899 -19.9197,-5.79725 -41.0273,-6.40673 -61.7444,-6.02763 -27.3003,-0.37607 -54.5972,-0.89413 -81.8893,-1.61992 -19.3801,-0.44807 -38.7652,-0.48431 -58.1501,-0.44072 z"
       id="path1297"
       inkscape:connector-curvature="0" />
    <path
       style="display:inline;fill:#ffffff;fill-rule:evenodd;stroke:none;stroke-width:0.929978px;stroke-linecap:butt;stroke-linejoin:miter;stroke-opacity:1"
       d="m 1594.7951,252.50814 c -59.4535,1.77494 -118.9263,3.24363 -178.3505,5.52596 -15.2519,0.69871 -30.5879,1.01859 -45.6544,3.09172 -17.2843,2.26187 -34.4922,5.72587 -50.1846,11.71623 -13.9091,6.32355 -23.2386,16.69928 -31.9609,26.71346 -4.3674,5.01777 -7.3464,10.79583 -7.4755,16.84411 -0.6404,10.42023 3.4044,20.59792 7.7407,30.37677 3.991,8.27025 10.7386,15.87887 20.1341,21.22381 11.1108,6.74975 23.6673,12.48359 37.5161,15.38389 9.5103,2.011 19.4529,2.24383 29.2649,2.01843 23.9941,-0.0459 47.9875,0.0358 71.981,0.096 66.6507,-0.007 133.4225,0.0651 199.8777,-4.26415 14.0611,-0.94665 28.0855,-3.2061 41.1133,-7.35339 10.7078,-3.32413 19.7494,-8.99403 27.7566,-15.1729 7.4397,-5.87951 13.1722,-13.25448 14.4524,-21.41392 2.4302,-11.66225 0.9422,-23.5057 1.7055,-35.24234 -0.6883,-9.38999 -7.974,-17.89599 -17.6481,-23.60854 -14.3921,-9.80447 -31.8062,-17.47836 -51.0242,-20.31775 -15.0784,-2.49107 -30.4498,-3.82337 -45.7851,-5.04602 -7.8015,-0.47701 -15.633,-0.65577 -23.459,-0.57135 z"
       id="path1299"
       inkscape:connector-curvature="0" />
    <path
       style="display:inline;fill:#ffffff;fill-rule:evenodd;stroke:none;stroke-width:1px;stroke-linecap:butt;stroke-linejoin:miter;stroke-opacity:1"
       d="m 1516.8322,467.18878 c -6.6131,0.47706 -14.4131,0.53134 -19.0606,6.05273 -9.2681,15.84095 -16.7496,33.90699 -15.1611,52.61768 2.1917,20.11622 13.9704,37.89228 28.3815,51.53834 8.5346,8.09616 15.6793,18.09456 18.3938,29.69937 4.3317,16.40289 0.7816,35.11834 -10.8279,47.78415 -2.1207,2.52133 -4.4197,4.88481 -6.7453,7.21593 17.3235,-9.37091 31.4532,-26.25408 34.2349,-46.13162 1.2634,-15.92483 -6.122,-31.08454 -15.4694,-43.50249 -9.5013,-13.2266 -21.135,-25.79068 -25.2403,-41.97989 -3.1205,-17.66298 3.3092,-35.58183 12.9847,-50.18689 1.9316,-3.08666 4.9581,-6.76026 3.4836,-10.5888 -1.0225,-1.66362 -3.0088,-2.74768 -4.9739,-2.51851 z"
       id="path1303"
       inkscape:connector-curvature="0"
       sodipodi:nodetypes="cccccccc" />
    <path
       style="color:#000000;display:inline;overflow:visible;visibility:visible;fill:#ffffff;fill-opacity:1;fill-rule:nonzero;stroke:none;stroke-width:1px;marker:none;filter:url(#filter1101);enable-background:accumulate"
       d="m 2064.5541,245.38398 c -39.6392,1.7245 -79.6747,9.93788 -114.7951,29.05136 -14.1553,8.49097 -26.3959,21.95224 -29.7587,38.55366 -1.2644,16.34177 6.3065,32.47141 17.7626,43.76686 11.5765,10.64183 27.1161,15.33349 42.2658,17.94208 53.0817,12.13776 107.6486,16.55384 162.005,16.5478 32.4919,1.23859 65.3456,1.67653 97.3937,-4.67284 21.8628,-3.05112 43.8441,-8.01871 63.3983,-18.65986 15.5501,-7.93618 28.7562,-21.93251 33.1784,-39.16111 2.9079,-13.18188 0.453,-27.25422 -5.5218,-39.22726 -5.5156,-9.95807 -15.2715,-17.17531 -26.1416,-20.20356 -19.4733,-6.85388 -40.064,-9.34673 -60.267,-13.06608 -59.3757,-8.98097 -119.5704,-10.68466 -179.5196,-10.87105 z"
       id="path3365-74-3"
       inkscape:connector-curvature="0"
       sodipodi:nodetypes="csssssc" />
  </g>
  <g
     inkscape:groupmode="layer"
     id="layer1"
     inkscape:label="txt"
     style="display:inline">
    <text
       xml:space="preserve"
       style="font-style:normal;font-variant:normal;font-weight:normal;font-stretch:normal;font-size:16.3639px;line-height:0%;font-family:'Nanum Pen Script OTF';-inkscape-font-specification:'Nanum Pen Script OTF';text-align:center;letter-spacing:0px;word-spacing:0px;text-anchor:middle;fill:#000000;fill-opacity:1;stroke:none;stroke-width:1.36366"
       x="1509.6188"
       y="243.90454"
       id="text88"><tspan
         sodipodi:role="line"
         style="font-style:normal;font-variant:normal;font-weight:normal;font-stretch:normal;font-size:61.3648px;line-height:1.2;font-family:'Nanum Pen Script OTF';-inkscape-font-specification:'Nanum Pen Script OTF';stroke-width:1.36366"
         x="1509.6188"
         y="243.90454"
         id="tspan86">그렇게 급했어, 당근?</tspan></text>
    <text
       xml:space="preserve"
       style="font-style:normal;font-variant:normal;font-weight:normal;font-stretch:normal;line-height:0%;font-family:'Nanum Pen Script OTF';-inkscape-font-specification:'Nanum Pen Script OTF';letter-spacing:0px;word-spacing:0px;fill:#000000;fill-opacity:1;stroke:#000000;stroke-width:0.15808956;stroke-miterlimit:4;stroke-dasharray:none;stroke-opacity:1;filter:url(#filter4375-4-1-1-1-9);"
       x="787.65729"
       y="1584.5073"
       id="text118"
       transform="matrix(1.2595456,-0.51859808,-0.23253069,1.8035464,256.99544,729.89635)"><tspan
         sodipodi:role="line"
         id="tspan116"
         x="787.65729"
         y="1584.5073"
         style="font-style:normal;font-variant:normal;font-weight:normal;font-stretch:normal;font-size:70px;line-height:1.25;font-family:'Nanum Pen Script OTF';-inkscape-font-specification:'Nanum Pen Script OTF';fill:#ffffff;stroke-width:0.15808956;"><tspan
           style="font-style:normal;font-variant:normal;font-weight:normal;font-stretch:normal;font-size:80.4001px;font-family:'Nanum Pen Script OTF';-inkscape-font-specification:'Nanum Pen Script OTF';stroke-width:0.15808956;"
           id="tspan114">쩌적!</tspan></tspan></text>
    <text
       xml:space="preserve"
       style="font-style:normal;font-variant:normal;font-weight:normal;font-stretch:normal;font-size:15.4586px;line-height:0.9;font-family:'Nanum Pen Script OTF';-inkscape-font-specification:'Nanum Pen Script OTF';text-align:center;letter-spacing:0px;word-spacing:0px;text-anchor:middle;fill:#000000;fill-opacity:1;stroke:none;stroke-width:1.28822"
       x="1509.3143"
       y="340.66492"
       id="text96"><tspan
         sodipodi:role="line"
         x="1509.3143"
         y="340.66492"
         style="font-style:normal;font-variant:normal;font-weight:normal;font-stretch:normal;font-size:57.9695px;font-family:'Nanum Pen Script OTF';-inkscape-font-specification:'Nanum Pen Script OTF';stroke-width:1.28822"
         id="tspan124">그거라도 맛있게 먹어.</tspan></text>
    <text
       xml:space="preserve"
       style="font-style:normal;font-variant:normal;font-weight:normal;font-stretch:normal;font-size:15.577px;line-height:0%;font-family:'Nanum Pen Script OTF';-inkscape-font-specification:'Nanum Pen Script OTF';text-align:center;letter-spacing:0px;word-spacing:0px;text-anchor:middle;fill:#000000;fill-opacity:1;stroke:none;stroke-width:1.29808"
       x="1521.1965"
       y="441.34595"
       id="text100"><tspan
         sodipodi:role="line"
         style="font-style:normal;font-variant:normal;font-weight:normal;font-stretch:normal;font-size:58.4137px;line-height:1.2;font-family:'Nanum Pen Script OTF';-inkscape-font-specification:'Nanum Pen Script OTF';stroke-width:1.29808"
         x="1521.1965"
         y="441.34595"
         id="tspan98">꼴이 이게 뭐야...</tspan></text>
    <text
       xml:space="preserve"
       style="font-style:normal;font-variant:normal;font-weight:normal;font-stretch:normal;line-height:0%;font-family:'Nanum Pen Script OTF';-inkscape-font-specification:'Nanum Pen Script OTF';letter-spacing:0px;word-spacing:0px;display:inline;fill:#ffffff;fill-opacity:1;stroke:#ffffff;stroke-width:1.14998;stroke-miterlimit:4;stroke-dasharray:none;stroke-opacity:1;filter:url(#filter4375-4-1-1-1-9-6-9-2-1-7-1)"
       x="787.65729"
       y="1584.5073"
       id="text104"
       transform="matrix(1.0828659,0.00268183,-0.24356603,1.252306,1531.6142,-1651.7354)"><tspan
         sodipodi:role="line"
         id="tspan102"
         x="787.65729"
         y="1584.5073"
         style="font-style:normal;font-variant:normal;font-weight:normal;font-stretch:normal;font-size:70px;line-height:1.25;font-family:'Nanum Pen Script OTF';-inkscape-font-specification:'Nanum Pen Script OTF';letter-spacing:3.44995px;fill:#ffffff;fill-opacity:1;stroke:#ffffff;stroke-width:1.14998;stroke-miterlimit:4;stroke-dasharray:none;stroke-opacity:1">... 꼴이 ...</tspan></text>
    <text
       xml:space="preserve"
       style="font-style:normal;font-variant:normal;font-weight:normal;font-stretch:normal;font-size:19.1387px;line-height:0%;font-family:'Nanum Pen Script OTF';-inkscape-font-specification:'Nanum Pen Script OTF';text-align:center;letter-spacing:0px;word-spacing:0px;text-anchor:middle;display:inline;fill:#000000;fill-opacity:1;stroke:#000000;stroke-width:1.5;stroke-miterlimit:4;stroke-dasharray:none;stroke-opacity:1"
       x="1770.2887"
       y="1420.2484"
       id="text108"
       transform="matrix(0.87552817,0,-0.14342897,1.1421677,0,0)"><tspan
         sodipodi:role="line"
         style="font-style:normal;font-variant:normal;font-weight:normal;font-stretch:normal;font-size:89.7319px;line-height:1.25;font-family:'Nanum Pen Script OTF';-inkscape-font-specification:'Nanum Pen Script OTF';stroke:#000000;stroke-width:1.5;stroke-miterlimit:4;stroke-dasharray:none;stroke-opacity:1"
         x="1770.2887"
         y="1420.2484"
         id="tspan106">인상착의!</tspan></text>
    <text
       xml:space="preserve"
       style="font-style:normal;font-variant:normal;font-weight:normal;font-stretch:normal;font-size:16.2342px;line-height:0%;font-family:'Nanum Pen Script OTF';-inkscape-font-specification:'Nanum Pen Script OTF';text-align:center;letter-spacing:0px;word-spacing:0px;text-anchor:middle;display:inline;fill:#000000;fill-opacity:1;stroke:#000000;stroke-width:1.5;stroke-miterlimit:4;stroke-dasharray:none;stroke-opacity:1"
       x="1620.3905"
       y="1596.0663"
       id="text112"
       transform="matrix(0.92759422,0,-0.09976132,1.0780576,0,0)"><tspan
         sodipodi:role="line"
         style="font-style:normal;font-variant:normal;font-weight:normal;font-stretch:normal;font-size:76.1144px;line-height:1.25;font-family:'Nanum Pen Script OTF';-inkscape-font-specification:'Nanum Pen Script OTF';stroke:#000000;stroke-width:1.5;stroke-miterlimit:4;stroke-dasharray:none;stroke-opacity:1"
         x="1620.3905"
         y="1596.0663"
         id="tspan110">그거지!</tspan></text>
  </g>
</svg>
