<?xml version="1.0" encoding="UTF-8" standalone="no"?>
<svg
   xmlns:dc="http://purl.org/dc/elements/1.1/"
   xmlns:cc="http://creativecommons.org/ns#"
   xmlns:rdf="http://www.w3.org/1999/02/22-rdf-syntax-ns#"
   xmlns:svg="http://www.w3.org/2000/svg"
   xmlns="http://www.w3.org/2000/svg"
   xmlns:xlink="http://www.w3.org/1999/xlink"
   xmlns:sodipodi="http://sodipodi.sourceforge.net/DTD/sodipodi-0.dtd"
   xmlns:inkscape="http://www.inkscape.org/namespaces/inkscape"
   id="svg2"
   version="1.1"
   inkscape:version="1.0.2 (e86c870879, 2021-01-15)"
   width="2481"
   height="3503"
   sodipodi:docname="E34P03.svg">
  <metadata
     id="metadata8">
    <rdf:RDF>
      <cc:Work
         rdf:about="">
        <dc:format>image/svg+xml</dc:format>
        <dc:type
           rdf:resource="http://purl.org/dc/dcmitype/StillImage" />
        <dc:title />
      </cc:Work>
    </rdf:RDF>
  </metadata>
  <defs
     id="defs6" />
  <sodipodi:namedview
     pagecolor="#ffffff"
     bordercolor="#666666"
     borderopacity="1"
     objecttolerance="10"
     gridtolerance="10"
     guidetolerance="10"
     inkscape:pageopacity="0"
     inkscape:pageshadow="2"
     inkscape:window-width="1920"
     inkscape:window-height="967"
     id="namedview4"
     showgrid="false"
     inkscape:zoom="0.56568545"
     inkscape:cx="1128.2748"
     inkscape:cy="616.73673"
     inkscape:window-x="0"
     inkscape:window-y="72"
     inkscape:window-maximized="1"
     inkscape:current-layer="layer1"
     inkscape:document-rotation="0"
     borderlayer="true" />
  <g
     inkscape:groupmode="layer"
     id="layer2"
     inkscape:label="artwork"
     sodipodi:insensitive="true">
    <image
       sodipodi:absref="/felles/omsetting/pepper-carrot/webcomics/new-ep34_The-Knighting-of-Shichimi/lang/gfx_Pepper-and-Carrot_by-David-Revoy_E34P03.png"
       xlink:href="../gfx_Pepper-and-Carrot_by-David-Revoy_E34P03.png"
       y="0"
       x="0"
       id="image10"
       height="3503"
       width="2481" />
  </g>
  <g
     inkscape:groupmode="layer"
     id="layer3"
     inkscape:label="speechbubbles"
     style="display:inline">
    <path
       style="color:#000000;display:inline;overflow:visible;visibility:visible;fill:#ffffff;fill-opacity:1;fill-rule:nonzero;stroke:none;stroke-width:1.23876px;marker:none;enable-background:accumulate"
       d="m 1201.2365,2139.3379 c -61.2186,2.7009 -120.6582,4.2922 -180.8489,14.8809 -23.81324,5.7535 -48.22365,23.9111 -64.68106,41.591 -16.31703,17.9307 -24.73341,41.1654 -28.01154,64.3773 -4.51147,30.5246 3.69952,62.0353 20.30547,88.2998 10.96205,18.8819 26.38951,36.1306 46.76557,46.2308 26.16236,13.8689 55.38186,21.1305 84.14996,28.3633 27.3077,6.3665 55.1677,10.3157 83.0462,13.6191 34.4543,3.6393 69.3116,4.4547 103.8336,1.135 26.2728,-2.4578 52.5397,-6.1326 77.966,-13.0202 30.6537,-8.5032 60.1699,-22.472 83.4315,-43.5168 17.3433,-15.7564 30.4391,-35.7587 37.1268,-57.6766 7.3529,-22.9296 9.8346,-47.3314 6.81,-71.143 -3.4802,-24.3825 -10.2768,-58.6908 -32.4394,-73.9868 -66.702,-35.7755 -139.1986,-34.3532 -206.8574,-38.376 -10.1884,-0.5416 -20.3919,-0.8433 -30.5968,-0.7778 z"
       id="path4546-6-08-2"
       inkscape:connector-curvature="0"
       sodipodi:nodetypes="cssssccccccccccc" />
    <path
       style="color:#000000;display:inline;overflow:visible;visibility:visible;fill:#ffffff;fill-opacity:1;fill-rule:nonzero;stroke:none;stroke-width:0.586403px;marker:none;enable-background:accumulate"
       d="m 786.34677,2123.5123 c 5.02464,-42.62 47.16918,-72.3401 153.25243,-60.2559 56.824,6.4733 121.4295,11.7571 114.7301,74.2181 -6.6996,62.4603 -99.65607,57.3161 -118.91724,58.0513 -19.26129,0.7346 -119.01807,-9.6322 -135.66614,-31.5981 -10.42127,-13.7499 -14.23657,-27.1885 -13.39915,-40.4154 z"
       id="path4546-6-08"
       inkscape:connector-curvature="0"
       sodipodi:nodetypes="cssssc" />
    <path
       style="fill:#ffffff;fill-rule:evenodd;stroke:none;stroke-width:1.25695px;stroke-linecap:butt;stroke-linejoin:miter;stroke-opacity:1"
       d="m 1471.3459,2456.5997 c -67.1764,-16.6519 -104.4231,-46.199 -116.7263,-96.6707 l -26.7459,22.416 c 34.4783,64.0674 88.4565,69.7439 143.4722,74.2547 z"
       id="path1291"
       inkscape:connector-curvature="0"
       sodipodi:nodetypes="cccc" />
    <path
       style="fill:#ffffff;stroke:none;stroke-width:0.972698"
       d="m 2043.8469,294.17773 c -32.4248,0.87259 -64.786,4.12342 -96.9993,8.63598 -22.9546,3.45619 -46.3569,8.7612 -66.7385,22.80258 -14.0006,9.86351 -25.2863,25.65948 -31.1001,44.13553 -2.6521,8.45302 -4.1678,17.61391 -3.0003,26.6585 2.1157,20.45788 13.3242,38.69489 28.2316,48.01837 19.2702,13.04305 41.3097,17.35954 62.634,22.56825 44.3939,10.19294 89.7675,12.72511 134.8486,11.01783 21.0004,-0.94521 42.0056,-2.71212 62.832,-6.20311 19.2851,-3.55066 38.7528,-9.33854 55.6269,-21.70917 14.4886,-11.42475 24.5808,-31.58925 24.6256,-52.91361 0.3944,-26.36472 -12.0376,-51.3424 -29.5638,-65.9823 -8.8637,-7.63135 -19.1571,-12.19522 -29.5249,-15.7183 -30.838,-11.56823 -62.8305,-18.49494 -95.0162,-20.92918 -5.6139,-0.32876 -11.2356,-0.44763 -16.8556,-0.38137 z"
       id="path3100-2-0"
       inkscape:connector-curvature="0" />
    <path
       style="fill:#ffffff;stroke:none;stroke-width:1.18283"
       d="m 2077.417,247.4485 c -5.3597,58.07386 -81.724,73.80425 -136.0578,73.87191 -92.3991,4.35437 -186.032,-2.91346 -276.1642,-21.54286 -58.203,-16.08413 -86.4924,-90.80562 -38.206,-128.46041 49.5257,-29.32136 113.1404,-26.7993 170.293,-32.43727 80.8347,-2.96731 164.5617,-2.91152 240.2556,29.62082 33.721,14.78235 45.4049,47.65096 39.8794,78.94781 z"
       id="path3100-2"
       inkscape:connector-curvature="0"
       sodipodi:nodetypes="ccccccc" />
    <path
       style="color:#000000;display:inline;overflow:visible;visibility:visible;fill:#ffffff;fill-opacity:1;fill-rule:nonzero;stroke:none;stroke-width:1.05505px;marker:none;enable-background:accumulate"
       d="m 954.3418,195.82812 c -45.87505,2.03401 -90.50389,15.24857 -132.65874,32.85513 -15.88073,6.22943 -32.79797,11.45143 -45.81804,22.97323 -14.02348,12.65962 -22.59215,30.17634 -28.17223,47.96153 -8.54435,28.65768 -10.7449,58.72572 -11.54367,88.47688 -0.41844,14.64761 -0.22398,29.38485 2.27607,43.86211 2.82333,16.71154 7.67467,33.16764 15.09561,48.42875 11.30881,21.82722 30.71463,38.47622 52.13963,49.97101 21.39559,11.47124 45.2899,17.61326 69.33549,20.16862 23.84715,2.78717 47.88886,3.73359 71.88735,3.54457 32.30255,-0.63034 64.91303,-4.68184 95.38533,-15.83114 26.8709,-10.79549 48.2885,-32.97903 60.4625,-59.01558 13.0838,-26.594 21.7985,-55.34529 25.7259,-84.71932 3.6767,-29.74198 1.7999,-60.624 -8.6815,-88.88171 -8.6775,-22.66449 -24.0909,-42.57121 -43.5152,-57.06671 -22.4585,-17.60082 -47.7099,-31.34722 -73.7901,-42.76461 -15.25658,-6.15258 -31.57975,-10.32098 -48.1284,-9.96276 z"
       id="path4040-40"
       inkscape:connector-curvature="0"
       sodipodi:nodetypes="zssssz" />
    <path
       style="fill:#ffffff;stroke:none;stroke-width:1.36939"
       d="m 891.44958,88.826334 c -28.62883,0.336902 -57.58036,3.363847 -84.82335,13.397696 -16.24058,5.96492 -32.27393,13.84832 -45.22145,26.26982 -9.08629,8.95523 -15.82948,20.99968 -17.74081,34.25248 -2.87793,17.39156 1.58576,35.79962 11.2912,49.90043 13.39742,20.82892 35.62185,34.44258 58.90249,36.76059 35.60514,5.3918 71.6447,4.07814 107.48729,4.28932 27.93652,-0.11683 56.17032,-0.50982 83.53915,-7.2605 18.689,-4.74747 37.0351,-13.23746 51.2954,-27.44646 10.5646,-10.80905 17.6038,-26.23856 17.1317,-42.17946 -0.2874,-19.07421 -9.1662,-37.26922 -22.2803,-49.721 -14.6342,-14.31521 -33.2201,-22.89254 -52.07873,-28.366649 -27.55202,-7.935641 -56.2302,-8.997119 -84.57571,-9.729496 -7.64118,-0.160188 -15.28437,-0.243815 -22.92688,-0.166771 z"
       id="path3280-1"
       inkscape:connector-curvature="0"
       sodipodi:nodetypes="csssc" />
    <path
       style="color:#000000;display:inline;overflow:visible;visibility:visible;fill:#ffffff;fill-opacity:1;fill-rule:nonzero;stroke:none;stroke-width:0.990091px;marker:none;enable-background:accumulate"
       d="m 488.9942,566.25992 c -18.78498,50.92279 -2.84901,105.08842 13.19711,114.63467 -28.06687,-12.75099 -51.50197,-72.60161 -41.41962,-110.56135 11.40195,-31.85325 28.22251,-4.07332 28.22251,-4.07332 z"
       id="path4480-2"
       inkscape:connector-curvature="0"
       sodipodi:nodetypes="cccc"
       inkscape:transform-center-x="54.91025"
       inkscape:transform-center-y="-145.58616" />
    <path
       style="color:#000000;display:inline;overflow:visible;visibility:visible;fill:#ffffff;fill-opacity:1;fill-rule:nonzero;stroke:none;stroke-width:1.13562px;marker:none;enable-background:accumulate"
       d="m 483.00827,297.6875 c -29.68587,1.10447 -59.78164,2.45433 -88.5018,12.06047 -13.50287,4.51242 -26.37447,11.90596 -37.10261,22.52811 -11.60094,11.226 -20.39129,25.98295 -26.3767,42.01454 -9.48855,25.14979 -12.61614,53.24409 -10.36707,80.48657 2.45165,25.70322 12.41522,50.02788 26.74122,69.64919 6.78537,9.12778 15.18941,16.53943 24.49195,21.86991 17.31374,10.48909 35.91309,18.00794 54.92648,23.07165 24.78517,6.46133 50.19128,9.71941 75.58879,9.86819 16.13878,0.0503 32.3592,-1.41819 48.06153,-5.93268 21.25903,-5.85062 41.86465,-15.22908 60.62601,-28.27101 18.52109,-13.84482 33.33572,-35.23298 38.79015,-60.26879 7.37344,-30.49731 7.87083,-63.19529 1.6148,-94.0132 -3.24628,-15.33854 -9.38649,-29.94598 -18.51661,-41.72532 -8.86055,-11.77457 -20.33185,-20.62277 -32.74061,-26.54042 -22.07753,-11.3088 -45.97021,-16.56294 -69.66016,-20.99145 -15.75141,-2.60316 -31.66479,-3.89644 -47.57537,-3.80576 z"
       id="path4546-6-5-5"
       inkscape:connector-curvature="0"
       sodipodi:nodetypes="cssssc" />
    <path
       style="color:#000000;display:inline;overflow:visible;visibility:visible;fill:#ffffff;fill-opacity:1;fill-rule:nonzero;stroke:none;stroke-width:0.878626px;marker:none;enable-background:accumulate"
       d="m 280.03711,122.38281 c -33.79477,0.68643 -68.02945,4.60046 -99.77231,16.78803 -17.23206,6.90084 -33.18544,18.89121 -41.6431,35.74547 -9.88288,20.64639 -10.45282,45.06065 -3.60005,66.71181 4.53119,13.43431 13.76714,25.42778 26.2788,32.30259 19.49064,11.5596 41.77723,17.42486 64.07206,20.50986 17.17101,2.38165 34.46105,3.75524 51.7079,5.44806 31.56947,2.56675 63.42574,2.91769 94.90088,-1.01693 28.89544,-3.55299 73.99238,-9.83841 101.10099,-20.742 32.64106,-16.42947 41.73043,-40.68886 37.5365,-84.92033 -3.60016,-15.96647 -12.91349,-30.7211 -26.39467,-40.14017 -16.42622,-11.79649 -36.42107,-16.96784 -55.99513,-20.73869 -30.1949,-5.68926 -60.95953,-7.12509 -91.57175,-8.89364 -18.85659,-0.90071 -37.74247,-1.35513 -56.62012,-1.05406 z"
       id="path4546-6-5-3"
       inkscape:connector-curvature="0"
       sodipodi:nodetypes="cssssccccccccc" />
    <path
       id="path1081"
       style="fill:#ffffff;fill-rule:evenodd;stroke:none;stroke-width:1px;stroke-linecap:butt;stroke-linejoin:miter;stroke-opacity:1"
       d="m 293.67188,278.28125 c -10.34602,0.0639 -20.49884,2.27426 -30.72657,3.55078 -2.69982,4.93778 -4.08222,10.48922 -6.23101,15.68234 -5.67931,15.85263 -11.23804,31.88728 -14.15471,48.50943 -1.55744,12.04107 -0.85288,24.84605 5.20433,35.64519 9.1497,17.95023 22.70579,33.83652 27.94646,53.6304 3.09231,10.90551 5.52274,22.36337 4.35032,33.73572 -2.11881,9.59327 -8.21891,17.62309 -11.87847,26.63366 -6.87167,15.32803 -10.49807,32.77889 -6.43519,49.37594 1.01596,4.68537 2.40213,9.28257 3.95804,13.81467 -2.44284,-26.62563 4.52474,-54.43511 21.1636,-75.60842 5.87927,-7.58781 10.3557,-16.41037 11.5087,-26.03213 2.42129,-15.20105 -1.52987,-30.55332 -7.50308,-44.47184 -6.35087,-15.65438 -14.74681,-30.53834 -19.38839,-46.84497 -2.53518,-14.1623 4.48464,-27.52853 11.07638,-39.5497 6.64471,-12.19187 14.72253,-23.64193 20.19033,-36.44305 2.35665,-5.59735 -3.25033,-12.19349 -9.08074,-11.62802 z" />
    <path
       style="color:#000000;display:inline;overflow:visible;visibility:visible;fill:#ffffff;fill-opacity:1;fill-rule:nonzero;stroke:none;stroke-width:0.747612px;marker:none;enable-background:accumulate"
       d="m 899.59119,531.93304 c -2.31202,46.97432 46.46212,99.91514 106.27011,73.88577 -68.51547,11.60614 -80.86302,-50.88993 -74.49691,-77.22915 6.052,-16.0625 -31.7732,3.34338 -31.7732,3.34338 z"
       id="path3978-4"
       inkscape:connector-curvature="0"
       sodipodi:nodetypes="cccc" />
    <path
       style="fill:#ffffff;fill-rule:evenodd;stroke:none;stroke-width:1.17292px;stroke-linecap:butt;stroke-linejoin:miter;stroke-opacity:1"
       d="m 2105.6372,449.67287 c 46.9908,56.36735 25.0644,96.94489 0.9732,119.18809 57.8143,-39.15954 50.7085,-84.22782 24.8731,-138.46075 -6.4903,-8.77797 -25.8463,19.27266 -25.8463,19.27266 z"
       id="path1359"
       inkscape:connector-curvature="0"
       sodipodi:nodetypes="cccc" />
    <path
       style="color:#000000;display:inline;overflow:visible;visibility:visible;fill:#ffffff;fill-opacity:1;fill-rule:nonzero;stroke:none;stroke-width:0.548604px;marker:none;enable-background:accumulate"
       d="m 764.3724,1784.4258 c -19.8469,0.867 -40.06572,5.9216 -57.02523,18.3531 -11.86118,9.5893 -18.29834,26.9834 -16.82394,43.572 0.47913,13.3373 4.36932,27.3028 13.28147,36.2633 9.79093,9.28 22.50085,12.594 34.66784,15.0694 17.62571,3.3542 35.46567,5.3796 53.33029,5.6186 23.81276,-0.1737 47.71507,-5.0256 69.85656,-15.3087 9.16966,-4.6176 18.08318,-11.9976 21.97504,-23.0724 8.21203,-22.3457 0.0206,-50.8982 -18.06176,-63.133 -13.10487,-9.2197 -28.54494,-12.1995 -43.52769,-14.2998 -19.1371,-2.4933 -38.42548,-3.2792 -57.67258,-3.0625 z"
       id="path4546-6-5-3-5"
       inkscape:connector-curvature="0"
       sodipodi:nodetypes="cssssc" />
    <path
       style="color:#000000;display:inline;overflow:visible;visibility:visible;fill:#ffffff;fill-opacity:1;fill-rule:nonzero;stroke:none;stroke-width:0.710537px;marker:none;enable-background:accumulate"
       d="m 849.98651,1849.2956 c 26.9288,18.2447 60.46856,37.1401 111.40082,-0.4118 -51.33263,27.0778 -81.7058,-0.5873 -98.47579,-20.0818 -9.1535,-13.7188 -12.92502,20.4935 -12.92503,20.4936 z"
       id="path3978-4-3"
       inkscape:connector-curvature="0"
       sodipodi:nodetypes="cccc" />
  </g>
  <g
     inkscape:groupmode="layer"
     id="layer1"
     inkscape:label="txt">
    <text
       xml:space="preserve"
       style="font-style:normal;font-variant:normal;font-weight:normal;font-stretch:normal;font-size:45px;line-height:1.25;font-family:Lavi;-inkscape-font-specification:Lavi;text-align:center;letter-spacing:0px;word-spacing:0px;text-anchor:middle;fill:#000000;fill-opacity:1;stroke:none"
       x="320.80261"
       y="195.2039"
       id="text4246-3-2-2-6-3-7-9-3"><tspan
         style="font-size:45px"
         sodipodi:role="line"
         x="320.80261"
         y="195.2039"
         id="tspan850">Er ho ein av</tspan><tspan
         style="font-size:45px"
         sodipodi:role="line"
         x="320.80261"
         y="251.4539"
         id="tspan883">gjestane dine?</tspan></text>
    <text
       xml:space="preserve"
       style="font-style:normal;font-variant:normal;font-weight:normal;font-stretch:normal;font-size:45px;line-height:1.25;font-family:Lavi;-inkscape-font-specification:Lavi;text-align:center;letter-spacing:0px;word-spacing:0px;text-anchor:middle;fill:#000000;fill-opacity:1;stroke:none"
       x="488.13004"
       y="372.7894"
       id="text4246-3-2-2-6-3-7-9-3-3"><tspan
         style="font-size:45px"
         sodipodi:role="line"
         x="488.13004"
         y="372.7894"
         id="tspan890">Ja, det er</tspan><tspan
         style="font-size:45px"
         sodipodi:role="line"
         x="488.13004"
         y="429.0394"
         id="tspan896">veninna mi</tspan><tspan
         style="font-size:45px"
         sodipodi:role="line"
         x="488.13004"
         y="485.2894"
         id="tspan898">Pepar – alt</tspan><tspan
         style="font-size:45px"
         sodipodi:role="line"
         x="488.13004"
         y="541.53943"
         id="tspan886">i orden.</tspan></text>
    <text
       xml:space="preserve"
       style="font-style:normal;font-variant:normal;font-weight:normal;font-stretch:normal;font-size:45px;line-height:1.25;font-family:Lavi;-inkscape-font-specification:Lavi;text-align:center;letter-spacing:0px;word-spacing:0px;text-anchor:middle;fill:#000000;fill-opacity:1;stroke:none"
       x="909.48517"
       y="158.51166"
       id="text4246-3-2-2-6-3-7-9-3-3-5"><tspan
         style="font-size:45px"
         sodipodi:role="line"
         x="909.48517"
         y="158.51166"
         id="tspan906">Gjekk det</tspan><tspan
         style="font-size:45px"
         sodipodi:role="line"
         x="909.48517"
         y="214.76166"
         id="tspan910">bra, Gulrot?</tspan></text>
    <text
       xml:space="preserve"
       style="font-style:normal;font-variant:normal;font-weight:normal;font-stretch:normal;font-size:40px;line-height:1.25;font-family:Lavi;-inkscape-font-specification:Lavi;text-align:center;letter-spacing:0px;word-spacing:0px;text-anchor:middle;fill:#000000;fill-opacity:1;stroke:none"
       x="933.35266"
       y="301.34482"
       id="text4246-3-2-2-6-3-7-9-3-3-5-9"><tspan
         sodipodi:role="line"
         x="933.35266"
         y="301.34482"
         style="font-size:40px"
         id="tspan897">Lei for det der.</tspan><tspan
         sodipodi:role="line"
         x="933.35266"
         y="351.34482"
         style="font-size:40px"
         id="tspan926">Eg har enno ikkje</tspan><tspan
         sodipodi:role="line"
         x="933.35266"
         y="401.34482"
         style="font-size:40px"
         id="tspan928">heilt fått dreisen</tspan><tspan
         sodipodi:role="line"
         x="933.35266"
         y="451.34482"
         style="font-size:40px"
         id="tspan930">på å landa</tspan><tspan
         sodipodi:role="line"
         x="933.35266"
         y="501.34482"
         style="font-size:40px"
         id="tspan944">med hyperfart.</tspan></text>
    <text
       xml:space="preserve"
       style="font-style:normal;font-variant:normal;font-weight:normal;font-stretch:normal;font-size:45px;line-height:1.25;font-family:Lavi;-inkscape-font-specification:Lavi;text-align:center;letter-spacing:0px;word-spacing:0px;text-anchor:middle;fill:#000000;fill-opacity:1;stroke:none"
       x="1836.0614"
       y="221.09926"
       id="text4246-3-2-2-6-3-7-9-3-3-5-9-2"><tspan
         style="font-size:45px"
         sodipodi:role="line"
         x="1836.0614"
         y="221.09926"
         id="tspan1045">Igjen, orsak til alle</tspan><tspan
         style="font-size:45px"
         sodipodi:role="line"
         x="1836.0614"
         y="277.34924"
         id="tspan952">for bryet ...</tspan></text>
    <text
       xml:space="preserve"
       style="font-style:normal;font-variant:normal;font-weight:normal;font-stretch:normal;font-size:45px;line-height:1.25;font-family:Lavi;-inkscape-font-specification:Lavi;text-align:center;letter-spacing:0px;word-spacing:0px;text-anchor:middle;fill:#000000;fill-opacity:1;stroke:none"
       x="2033.1246"
       y="375.12671"
       id="text4246-3-2-2-6-3-7-9-3-3-5-9-2-6"><tspan
         style="font-size:45px"
         sodipodi:role="line"
         x="2033.1246"
         y="375.12671"
         id="tspan8459">... og for</tspan><tspan
         style="font-size:45px"
         sodipodi:role="line"
         x="2033.1246"
         y="431.37671"
         id="tspan956">kleda mine ...</tspan></text>
    <text
       xml:space="preserve"
       style="font-style:normal;font-variant:normal;font-weight:normal;font-stretch:normal;font-size:45px;line-height:1.25;font-family:Lavi;-inkscape-font-specification:Lavi;text-align:center;letter-spacing:0px;word-spacing:0px;text-anchor:middle;fill:#000000;fill-opacity:1;stroke:none"
       x="786.03345"
       y="1857.4686"
       id="text4246-3-2-2-6-3-7-9-3-3-5-9-2-6-3"><tspan
         style="font-size:45px"
         sodipodi:role="line"
         x="786.03345"
         y="1857.4686"
         id="tspan8459-7">Tji-hi!</tspan></text>
    <text
       xml:space="preserve"
       style="font-style:normal;font-variant:normal;font-weight:normal;font-stretch:normal;font-size:45px;line-height:1.25;font-family:Lavi;-inkscape-font-specification:Lavi;text-align:center;letter-spacing:0px;word-spacing:0px;text-anchor:middle;fill:#000000;fill-opacity:1;stroke:none"
       x="922.21698"
       y="2143.4609"
       id="text4246-3-2-2-6-3-7-9-3-3-5-9-2-6-1"><tspan
         style="font-size:45px"
         sodipodi:role="line"
         x="922.21698"
         y="2143.4609"
         id="tspan1077-7">Shichimi,</tspan></text>
    <text
       xml:space="preserve"
       style="font-style:normal;font-variant:normal;font-weight:normal;font-stretch:normal;font-size:45px;line-height:1.25;font-family:Lavi;-inkscape-font-specification:Lavi;text-align:center;letter-spacing:0px;word-spacing:0px;text-anchor:middle;fill:#000000;fill-opacity:1;stroke:none"
       x="1199.9572"
       y="2228.157"
       id="text4246-3-2-2-6-3-7-9-3-3-5-9-2-6-1-9"><tspan
         style="font-size:45px"
         x="1199.9572"
         y="2228.157"
         sodipodi:role="line"
         id="tspan1137">denne unge heksa som</tspan><tspan
         style="font-size:45px"
         x="1199.9572"
         y="2284.407"
         sodipodi:role="line"
         id="tspan968">nettopp kom, er ho<tspan
   style="font-style:italic"
   id="tspan970" /></tspan><tspan
         style="font-size:45px"
         x="1199.9572"
         y="2340.657"
         sodipodi:role="line"
         id="tspan976"><tspan
   style="font-style:italic"
   id="tspan978">verkeleg</tspan> ei veninne</tspan><tspan
         style="font-size:45px"
         x="1199.9572"
         y="2396.907"
         sodipodi:role="line"
         id="tspan980">av deg?</tspan></text>
  </g>
</svg>
