<?xml version="1.0" encoding="UTF-8" standalone="no"?>
<!-- Created with Inkscape (http://www.inkscape.org/) -->

<svg
   xmlns:dc="http://purl.org/dc/elements/1.1/"
   xmlns:cc="http://creativecommons.org/ns#"
   xmlns:rdf="http://www.w3.org/1999/02/22-rdf-syntax-ns#"
   xmlns:svg="http://www.w3.org/2000/svg"
   xmlns="http://www.w3.org/2000/svg"
   xmlns:xlink="http://www.w3.org/1999/xlink"
   xmlns:sodipodi="http://sodipodi.sourceforge.net/DTD/sodipodi-0.dtd"
   xmlns:inkscape="http://www.inkscape.org/namespaces/inkscape"
   id="svg2"
   version="1.1"
   inkscape:version="0.92.4 (5da689c313, 2019-01-14)"
   width="2481"
   height="3503"
   sodipodi:docname="E37P01.svg">
  <metadata
     id="metadata8">
    <rdf:RDF>
      <cc:Work
         rdf:about="">
        <dc:format>image/svg+xml</dc:format>
        <dc:type
           rdf:resource="http://purl.org/dc/dcmitype/StillImage" />
        <dc:title />
      </cc:Work>
    </rdf:RDF>
  </metadata>
  <defs
     id="defs6" />
  <sodipodi:namedview
     pagecolor="#ffffff"
     bordercolor="#666666"
     borderopacity="1"
     objecttolerance="10"
     gridtolerance="10"
     guidetolerance="10"
     inkscape:pageopacity="0"
     inkscape:pageshadow="2"
     inkscape:window-width="1858"
     inkscape:window-height="1057"
     id="namedview4"
     showgrid="false"
     inkscape:zoom="0.45720279"
     inkscape:cx="1145.8856"
     inkscape:cy="767.54976"
     inkscape:window-x="54"
     inkscape:window-y="-8"
     inkscape:window-maximized="1"
     inkscape:current-layer="layer3"
     inkscape:pagecheckerboard="0"
     inkscape:showpageshadow="0"
     inkscape:deskcolor="#d1d1d1"
     showguides="false" />
  <g
     inkscape:groupmode="layer"
     id="layer2"
     inkscape:label="artwork"
     sodipodi:insensitive="true">
    <image
       sodipodi:absref="D:\Documents\code\webcomics\ep37_The-Tears-of-the-Phoenix\lang\id\../gfx_Pepper-and-Carrot_by-David-Revoy_E37P01.png"
       xlink:href="../gfx_Pepper-and-Carrot_by-David-Revoy_E37P01.png"
       width="2481"
       height="3503"
       id="image10"
       x="0"
       y="0" />
  </g>
  <g
     inkscape:groupmode="layer"
     id="layer3"
     inkscape:label="speechbubbles">
    <path
       style="color:#000000;display:inline;overflow:visible;visibility:visible;fill:#ffffff;fill-opacity:1;fill-rule:nonzero;stroke:none;stroke-width:0.999998px;marker:none;enable-background:accumulate"
       d="m 1957.6629,2315.1087 c 15.8896,4.7552 27.218,-10.2594 36.5884,-10.1737 9.3705,0.085 20.4858,-1.4767 31.5776,-11.7728 11.8207,-15.5362 46.6253,-47.4088 4.9039,-39.2982 -15.2177,1.3778 -15.6011,25.3088 -21.9093,33.4823 -6.3081,8.1734 -14.6485,3.6312 -21.2243,9.0949 -6.5758,5.4636 -12.6894,16.2295 -29.9363,18.6675 z"
       id="path4538-0"
       inkscape:connector-curvature="0"
       sodipodi:nodetypes="ccccccc" />
    <path
       style="color:#000000;display:inline;overflow:visible;visibility:visible;fill:#ffffff;fill-opacity:1;fill-rule:nonzero;stroke:none;stroke-width:1px;marker:none;enable-background:accumulate"
       d="m 2249.24,3145.8561 c 34.555,29.8645 38.7386,62.8188 5.9526,98.2544 -21.168,42.3886 0.4462,38.3212 0.4462,38.3212 l 34.145,-19.6238 c 0,0 46.2012,-75.3554 -40.5438,-116.9518 z"
       id="path3072-56-6"
       inkscape:connector-curvature="0"
       sodipodi:nodetypes="ccccc" />
    <path
       style="color:#000000;display:inline;overflow:visible;visibility:visible;fill:#ffffff;fill-opacity:1;fill-rule:nonzero;stroke:none;stroke-width:1.33704627px;marker:none;enable-background:accumulate"
       d="m 842.54831,2234.3704 c -32.52757,0.667 -65.68064,0.5678 -96.47819,10.1173 -18.07906,5.5745 -35.15003,16.2146 -45.10096,33.3187 -11.63606,19.5988 -11.2747,46.2069 -2.58795,68.9801 4.07349,10.567 9.71074,20.6616 16.82013,29.4264 7.72147,9.3324 17.85716,16.4797 28.86901,19.6119 31.91925,11.5633 65.12318,14.3241 97.69856,15.485 34.06571,0.8973 67.98558,-0.3057 101.63317,-3.0891 28.36901,-2.7804 56.86632,-7.7974 82.07652,-20.6774 15.222,-8.1013 29.2538,-20.3565 35.3682,-37.8994 8.533,-24.2539 2.9913,-55.3961 -15.4087,-75.8136 -14.7064,-15.6635 -34.6353,-23.2508 -53.83493,-27.8613 -31.70712,-7.4778 -63.74448,-8.8065 -95.56412,-10.5704 -17.85832,-0.8334 -35.73669,-1.5798 -53.49074,-1.0282 z"
       id="path4546-6-21-1"
       inkscape:connector-curvature="0"
       sodipodi:nodetypes="cssssc" />
    <path
       style="color:#000000;display:inline;overflow:visible;visibility:visible;fill:#ffffff;fill-opacity:1;fill-rule:nonzero;stroke:none;stroke-width:1.24776px;marker:none;enable-background:accumulate"
       d="m 849.18072,2151.1293 c -18.14856,0.3855 -36.60784,0.3282 -54.22804,5.8465 -10.34202,3.2213 -20.37079,9.3697 -26.75086,19.2536 -7.4408,11.3254 -8.54323,26.7013 -4.82103,39.861 1.75096,6.1063 4.39595,11.9396 7.92602,17.0045 3.84313,5.3928 9.13788,9.5229 15.11734,11.3329 17.21046,6.682 35.56772,8.2774 53.65329,8.9483 18.9285,0.5184 37.87868,-0.1767 56.75468,-1.7852 15.93601,-1.6067 32.05304,-4.5058 46.7246,-11.9486 8.8747,-4.6815 17.29002,-11.7632 21.55478,-21.9007 5.94067,-14.0154 4.38006,-32.0113 -4.86713,-43.8099 -7.42318,-9.0513 -18.15062,-13.4357 -28.61755,-16.0999 -17.29268,-4.3212 -35.07036,-5.089 -52.70551,-6.1083 -9.90514,-0.4816 -19.8257,-0.9129 -29.74059,-0.5942 z"
       id="path4546-6-21-1-7"
       inkscape:connector-curvature="0"
       sodipodi:nodetypes="cssssc" />
    <path
       style="color:#000000;display:inline;overflow:visible;visibility:visible;fill:#ffffff;fill-opacity:1;fill-rule:nonzero;stroke:none;stroke-width:0.999999px;marker:none;enable-background:accumulate"
       d="m 1112.0298,2244.6942 c -36.4729,-14.2248 -66.2411,-6.7142 -86.7414,26.8513 -30.09489,27.8109 -33.25183,11.7546 -33.25183,11.7546 l 6.41738,-29.5186 c 0,0 50.85485,-55.2993 113.57585,-9.0873 z"
       id="path3072-56"
       inkscape:connector-curvature="0"
       sodipodi:nodetypes="ccccc" />
    <path
       style="fill:#ffffff;stroke:none;stroke-width:1.17470813"
       d="m 2086.7435,2130.2227 c -35.0706,0.7098 -71.578,3.8196 -102.6937,18.0493 -38.7962,20.1271 -52.8946,65.6376 -30.698,98.4221 9.698,14.9187 26.6379,26.1644 46.0253,31.8566 23.6115,7.3377 49.0051,9.1734 73.7499,12.5354 64.6513,7.0828 131.2574,5.6916 194.5314,-7.8795 18.476,-3.8228 38.1588,-11.3204 46.2331,-26.3501 9.6452,-18.7115 13.5794,-53.1158 7.9632,-72.5979 -5.984,-19.0215 -27.1394,-28.6486 -46.6149,-40.6013 -22.1237,-11.7846 -44.9954,-8.3144 -70.458,-10.6657 -39.2361,-2.9007 -78.6785,-2.8165 -118.0383,-2.7689 z"
       id="path3280-10"
       inkscape:connector-curvature="0"
       sodipodi:nodetypes="csssccccccc" />
    <path
       style="color:#000000;display:inline;overflow:visible;visibility:visible;fill:#ffffff;fill-opacity:1;fill-rule:nonzero;stroke:none;stroke-width:1.28407884px;marker:none;enable-background:accumulate"
       d="m 2086.4689,2518.166 c -36.8901,0.9363 -74.4056,1.7668 -109.9886,12.0113 -25.0882,6.8578 -48.6556,20.7208 -63.6084,41.2543 -18.3972,23.5737 -31.4494,51.5852 -33.4839,81.0407 -1.6255,23.694 2.8477,47.952 14.0218,69.295 7.8973,14.9518 20.2696,28.0601 36.1578,35.7008 17.1477,8.629 36.6063,11.8881 55.7856,13.3455 24.6981,2.3581 49.4381,4.3135 74.1205,6.8204 57.3014,5.2663 114.9501,9.2286 172.5376,6.4035 38.6662,-1.3068 77.3507,-2.0736 116.032,-2.801 20.0581,-0.7449 40.4052,-1.8946 59.6856,-7.5533 12.7949,-5.4078 20.3699,-18.7912 20.0951,-31.7639 2.027,-24.2364 -5.797,-48.1727 -16.8331,-69.7861 -10.2512,-20.2484 -21.7713,-39.9024 -31.8492,-60.2308 -10.3278,-19.2648 -22.9514,-38.313 -41.7836,-51.1448 -22.7924,-15.8932 -50.5448,-23.6852 -78.0531,-28.6034 -46.1435,-8.3198 -93.1383,-11.0345 -139.9635,-13.459 -10.9515,-0.4069 -21.9126,-0.5958 -32.8726,-0.5292 z"
       id="path4546-6-21-1-2"
       inkscape:connector-curvature="0"
       sodipodi:nodetypes="cssssccccccccc" />
    <path
       style="color:#000000;display:inline;overflow:visible;visibility:visible;fill:#ffffff;fill-opacity:1;fill-rule:nonzero;stroke:none;stroke-width:0.999994px;marker:none;enable-background:accumulate"
       d="m 2072.4015,2461.8063 c 23.2757,17.8081 28.2898,43.1252 10.979,76.5719 -9.716,36.9964 3.1402,30.1775 3.1402,30.1775 l 19.3218,-21.1913 c 0,0 22.491,-67.2 -33.441,-85.5581 z"
       id="path3072-56-7"
       inkscape:connector-curvature="0"
       sodipodi:nodetypes="ccccc" />
    <path
       style="color:#000000;display:inline;overflow:visible;visibility:visible;fill:#ffffff;fill-opacity:1;fill-rule:nonzero;stroke:none;stroke-width:0.95024192px;marker:none;enable-background:accumulate"
       d="m 2179.6516,3221.6447 c -35.4599,0.8969 -71.5507,5.9031 -103.1788,19.6335 -23.3075,9.6608 -40.4286,27.9981 -47.2995,48.4978 -8.7624,23.0221 -10.29,48.6774 0.7627,71.3727 9.1959,18.7117 28.6033,33.1483 50.7943,41.3679 29.8433,11.6076 62.3988,17.6647 94.9393,21.5819 48.0673,5.3987 97.0686,5.3301 145.1033,-0.256 27.185,-3.6883 54.6085,-10.9734 75.9286,-25.7609 23.0784,-16.0986 35.4344,-41.5616 32.9147,-66.2288 -1.8317,-28.3039 -16.9462,-56.3979 -43.3573,-75.0584 -21.2938,-15.4701 -48.7598,-24.1007 -76.5448,-28.0085 -42.8151,-6.7074 -86.6265,-7.0468 -130.0625,-7.1412 z"
       id="path4040-40"
       inkscape:connector-curvature="0"
       sodipodi:nodetypes="zssssz" />
  </g>
  <g
     inkscape:groupmode="layer"
     id="layer1"
     inkscape:label="txt"
     style="display:inline">
    <text
       xml:space="preserve"
       style="font-style:normal;font-variant:normal;font-weight:normal;font-stretch:normal;font-size:45.33330154px;line-height:125%;font-family:Lavi;-inkscape-font-specification:Lavi;text-align:center;letter-spacing:0px;word-spacing:0px;text-anchor:middle;fill:#000000;fill-opacity:1;stroke:none"
       x="870.99451"
       y="2214.8057"
       id="text4246-70-2-2-2-7-4-9-9-6-1-2-3-9"><tspan
         sodipodi:role="line"
         style="font-size:45.33330154px"
         x="870.99451"
         y="2214.8057"
         id="tspan2979">Fiuh...</tspan></text>
    <text
       xml:space="preserve"
       style="font-style:normal;font-variant:normal;font-weight:normal;font-stretch:normal;font-size:45.33330154px;line-height:125%;font-family:Lavi;-inkscape-font-specification:Lavi;text-align:center;letter-spacing:0px;word-spacing:0px;text-anchor:middle;fill:#000000;fill-opacity:1;stroke:none"
       x="874.24341"
       y="2307.0212"
       id="text4246-70-2-2-2-7-4-9-9-6-1-2-3-9-3"><tspan
         sodipodi:role="line"
         style="font-size:45.33330154px"
         x="874.24341"
         y="2307.0212"
         id="tspan982">Senangya</tspan><tspan
         sodipodi:role="line"
         style="font-size:45.33330154px"
         x="874.24341"
         y="2363.688"
         id="tspan37">sudah di sini!</tspan></text>
    <text
       xml:space="preserve"
       style="font-style:normal;font-variant:normal;font-weight:normal;font-stretch:normal;font-size:45.33330154px;line-height:125%;font-family:Lavi;-inkscape-font-specification:Lavi;text-align:center;letter-spacing:0px;word-spacing:0px;text-anchor:middle;fill:#000000;fill-opacity:1;stroke:none"
       x="2133.7485"
       y="2193.677"
       id="text4246-70-2-2-2-7-4-9-9-6-1-2-3-9-3-5"><tspan
         sodipodi:role="line"
         style="font-size:45.33330154px"
         x="2133.7485"
         y="2193.677"
         id="tspan1026">Oh, waktunya</tspan><tspan
         sodipodi:role="line"
         style="font-size:45.33330154px"
         x="2133.7485"
         y="2250.3438"
         id="tspan41">belanja.</tspan></text>
    <text
       xml:space="preserve"
       style="font-style:normal;font-variant:normal;font-weight:normal;font-stretch:normal;font-size:45.33330154px;line-height:125%;font-family:Lavi;-inkscape-font-specification:Lavi;text-align:center;letter-spacing:0px;word-spacing:0px;text-anchor:middle;fill:#000000;fill-opacity:1;stroke:none"
       x="2146.6697"
       y="2594.6836"
       id="text4246-70-2-2-2-7-4-9-9-6-1-2-3-9-3-5-2"><tspan
         sodipodi:role="line"
         style="font-size:45.33330154px"
         x="2146.6697"
         y="2594.6836"
         id="tspan1196">Ayo makan dulu</tspan><tspan
         sodipodi:role="line"
         style="font-size:45.33330154px"
         x="2146.6697"
         y="2651.3503"
         id="tspan48">sebelum kita naik</tspan><tspan
         sodipodi:role="line"
         style="font-size:45.33330154px"
         x="2146.6697"
         y="2708.0168"
         id="tspan50">ke gunung berapinya.</tspan></text>
    <text
       xml:space="preserve"
       style="font-style:normal;font-variant:normal;font-weight:normal;font-stretch:normal;font-size:45.33330154px;line-height:125%;font-family:Lavi;-inkscape-font-specification:Lavi;text-align:center;letter-spacing:0px;word-spacing:0px;text-anchor:middle;fill:#000000;fill-opacity:1;stroke:none"
       x="2232.5703"
       y="3300.489"
       id="text4246-70-2-2-2-7-4-9-9-6-1-2-3-9-3-5-2-0"><tspan
         sodipodi:role="line"
         style="font-size:45.33330154px"
         x="2232.5703"
         y="3300.489"
         id="tspan1238">Aku <tspan
   style="font-style:italic"
   id="tspan57">tahu</tspan> kamu</tspan><tspan
         sodipodi:role="line"
         style="font-size:45.33330154px"
         x="2232.5703"
         y="3357.1558"
         id="tspan55">pasti mau juga!</tspan></text>
  </g>
</svg>
