<?xml version="1.0" encoding="UTF-8" standalone="no"?>
<!-- Created with Inkscape (http://www.inkscape.org/) -->

<svg
   xmlns:dc="http://purl.org/dc/elements/1.1/"
   xmlns:cc="http://creativecommons.org/ns#"
   xmlns:rdf="http://www.w3.org/1999/02/22-rdf-syntax-ns#"
   xmlns:svg="http://www.w3.org/2000/svg"
   xmlns="http://www.w3.org/2000/svg"
   xmlns:xlink="http://www.w3.org/1999/xlink"
   xmlns:sodipodi="http://sodipodi.sourceforge.net/DTD/sodipodi-0.dtd"
   xmlns:inkscape="http://www.inkscape.org/namespaces/inkscape"
   id="svg2"
   version="1.1"
   inkscape:version="0.92.4 (5da689c313, 2019-01-14)"
   width="2481"
   height="3503"
   sodipodi:docname="E37P03.svg">
  <metadata
     id="metadata8">
    <rdf:RDF>
      <cc:Work
         rdf:about="">
        <dc:format>image/svg+xml</dc:format>
        <dc:type
           rdf:resource="http://purl.org/dc/dcmitype/StillImage" />
        <dc:title />
      </cc:Work>
    </rdf:RDF>
  </metadata>
  <defs
     id="defs6" />
  <sodipodi:namedview
     pagecolor="#ffffff"
     bordercolor="#666666"
     borderopacity="1"
     objecttolerance="10"
     gridtolerance="10"
     guidetolerance="10"
     inkscape:pageopacity="0"
     inkscape:pageshadow="2"
     inkscape:window-width="1858"
     inkscape:window-height="1057"
     id="namedview4"
     showgrid="false"
     inkscape:zoom="0.52900002"
     inkscape:cx="1191.8714"
     inkscape:cy="591.6824"
     inkscape:window-x="54"
     inkscape:window-y="-8"
     inkscape:window-maximized="1"
     inkscape:current-layer="layer1"
     inkscape:pagecheckerboard="0"
     inkscape:showpageshadow="0"
     inkscape:deskcolor="#d1d1d1" />
  <g
     inkscape:groupmode="layer"
     id="layer2"
     inkscape:label="artwork"
     sodipodi:insensitive="true">
    <image
       sodipodi:absref="D:\Documents\code\webcomics\ep37_The-Tears-of-the-Phoenix\lang\id\../gfx_Pepper-and-Carrot_by-David-Revoy_E37P03.png"
       xlink:href="../gfx_Pepper-and-Carrot_by-David-Revoy_E37P03.png"
       width="2481"
       height="3503"
       id="image10"
       x="0"
       y="0" />
  </g>
  <g
     inkscape:groupmode="layer"
     id="layer3"
     inkscape:label="speechbubbles">
    <path
       style="fill:#ffffff;stroke:none"
       d="m 372.15291,547.54276 c -24.56923,-19.74397 -22.57209,-29.32044 -19.38779,-40.05561 3.18412,-10.73531 7.28186,-20.14814 3.61763,-26.41179 -3.66404,-6.26351 -11.74206,-11.72395 -18.29755,-14.98031 -6.55548,-3.25646 -0.45551,-10.46603 0.21288,-18.13003 0.66831,-7.66412 -10.65562,-47.81818 -10.65562,-47.81818 0,0 -16.12893,27.00135 -18.3493,36.73423 -2.22054,9.73275 -3.08233,13.28039 -2.88893,17.39675 0.19358,4.1165 2.17394,14.17648 7.99925,19.25288 5.82532,5.0764 13.79112,7.01762 19.0679,9.86162 5.27689,2.84391 3.98478,11.55697 3.32674,20.195 -0.65814,8.63801 0.27632,15.01927 9.71886,26.19244 8.09394,9.57758 25.63593,17.763 25.63593,17.763 z"
       id="path3023-2"
       inkscape:connector-curvature="0"
       sodipodi:nodetypes="csssscssssssc" />
    <path
       style="color:#000000;display:inline;overflow:visible;visibility:visible;fill:#ffffff;fill-opacity:1;fill-rule:nonzero;stroke:none;stroke-width:0.999998px;marker:none;enable-background:accumulate"
       d="m 403.42298,834.07226 c -16.6818,-24.82678 6.70933,-94.25013 56.4409,-100.94979 -22.32483,1.35916 -74.47842,-5.24564 -96.28686,102.62894 -9.86485,48.79671 26.31789,-1.15111 26.31789,-1.15111 z"
       id="path4035-4"
       inkscape:connector-curvature="0"
       sodipodi:nodetypes="ccscc" />
    <path
       style="color:#000000;display:inline;overflow:visible;visibility:visible;fill:#ffffff;fill-opacity:1;fill-rule:nonzero;stroke:none;stroke-width:1px;marker:none;enable-background:accumulate"
       d="m 287.22173,764.37695 c -38.96189,0.65395 -78.11944,10.64091 -111.12094,30.8291 -22.1425,14.35978 -38.29561,36.96183 -44.14449,62.03048 -6.79053,27.64899 -2.07119,58.40272 15.35681,81.67937 14.2336,18.66671 36.17978,30.59043 58.9706,36.99009 25.33592,7.0944 51.95492,7.29143 78.11836,8.10392 29.63759,0.58466 59.36834,-0.30844 88.79903,-3.84444 25.5416,-3.97417 51.10124,-12.284 71.31109,-28.25968 16.30294,-13.60004 25.1995,-34.21323 25.96591,-54.75252 3.35157,-38.39787 -13.54001,-78.58273 -45.67966,-102.11056 -19.7039,-14.56477 -44.15856,-21.56538 -68.38358,-25.33285 -22.83479,-3.77078 -46.02641,-5.53145 -69.19313,-5.33291 z"
       id="path4040-4-5-3"
       inkscape:connector-curvature="0"
       sodipodi:nodetypes="zssssz" />
    <path
       style="color:#000000;display:inline;overflow:visible;visibility:visible;fill:#ffffff;fill-opacity:1;fill-rule:nonzero;stroke:none;stroke-width:1.10572588px;marker:none;enable-background:accumulate"
       d="m 272.83097,132.725 c -31.38712,0.49851 -63.2199,3.80931 -93.07118,16.40091 -14.34693,6.02079 -27.73654,15.6409 -38.51525,28.75615 -13.81628,16.51608 -23.44069,38.47702 -25.93643,62.00929 -3.13315,25.35197 -1.28787,51.06699 0.0651,76.50055 1.70883,22.76584 6.44939,46.18125 18.37403,64.33378 15.61424,24.53461 39.44104,39.67166 64.06086,45.80592 28.15297,7.38931 57.10969,6.64855 85.73879,7.23177 28.64066,-0.14373 57.54665,-0.55111 85.69499,-7.72451 24.5611,-6.82205 48.70267,-19.12569 67.642,-39.83904 14.14784,-16.87953 21.14629,-40.90486 22.77779,-64.61688 3.30286,-33.44075 2.7442,-68.34405 -7.11907,-100.18063 -9.07913,-28.93374 -27.31413,-53.56312 -50.38922,-66.60287 -22.98041,-13.65593 -48.72851,-17.59769 -73.90058,-20.18191 -18.43467,-1.77115 -36.94009,-1.96082 -55.42185,-1.89253 z"
       id="path4040-4-5-3-5"
       inkscape:connector-curvature="0"
       sodipodi:nodetypes="zssssz" />
    <path
       style="display:inline;fill:#ffffff;stroke:none;stroke-width:1.01856"
       d="m 1372.5254,123.51953 c -49.0999,0.40617 -98.8591,6.64811 -144.6858,25.03838 -22.42,9.07708 -39.9322,28.11364 -49.6266,50.016 -5.787,12.8048 -8.5445,26.79015 -9.0565,40.7888 -1.5478,23.1199 1.8324,47.55822 14.8496,67.21746 12.9635,19.23993 33.686,31.55093 54.9012,39.83371 38.9659,15.60249 81.156,23.25833 123.1223,22.07801 38.3334,-1.53179 75.8506,-10.72042 114.1171,-13.02056 43.3862,-3.50776 87.2968,-4.49918 129.795,-14.81556 16.3525,-3.50551 31.3942,-13.04546 41.0145,-26.79384 8.0005,-11.01375 11.7541,-24.37021 14.6104,-37.49384 4.2366,-21.58647 3.3274,-44.2787 -3.0936,-65.34013 -7.9185,-23.36708 -25.2443,-43.07285 -46.8166,-54.86138 -29.9719,-17.65084 -64.9605,-23.35061 -98.981,-27.51709 -46.4966,-5.47922 -93.4123,-5.11327 -140.15,-5.12996 z"
       id="path3280-8-2"
       inkscape:connector-curvature="0"
       sodipodi:nodetypes="csssc" />
    <path
       style="color:#000000;display:inline;overflow:visible;visibility:visible;fill:#ffffff;fill-opacity:1;fill-rule:nonzero;stroke:none;stroke-width:1.27965128px;marker:none;enable-background:accumulate"
       d="m 1477.5099,316.34575 c -45.8142,0.54579 -92.1678,10.51171 -130.4207,31.91726 -35.0521,20.92206 -58.2491,55.7678 -58.4942,91.85988 -0.1007,29.88576 17.9261,58.98976 46.0375,77.37675 23.9831,15.9915 53.5663,24.82632 83.2585,30.36634 46.5719,9.0101 94.6536,12.66936 142.4105,10.49002 30.402,-1.28262 60.5514,-5.07121 90.505,-9.43355 21.8344,-3.33511 43.7049,-8.1032 63.0956,-17.35535 18.7649,-8.67602 34.9912,-21.41085 45.2876,-37.1609 15.5417,-23.42465 19.1854,-51.55204 13.018,-77.60935 -7.3507,-30.23848 -30.5769,-57.96054 -63.4214,-72.70049 -27.7135,-13.04578 -59.3552,-18.64859 -90.5948,-22.28941 -43.2006,-4.70412 -86.8523,-4.7414 -130.3373,-5.46449 -3.4482,-0.009 -6.8962,-8.2e-4 -10.3443,0.003 z"
       id="path3365-7"
       inkscape:connector-curvature="0"
       sodipodi:nodetypes="cscsccc" />
    <path
       style="fill:#ffffff;fill-rule:evenodd;stroke:none;stroke-width:0.999999px;stroke-linecap:butt;stroke-linejoin:miter;stroke-opacity:1"
       d="m 1615.4482,493.17881 c -6.3324,4.61753 23.1312,48.65505 53.6406,67.52901 38.9988,24.12578 112.2777,14.3494 131.5101,5.98579 -39.7827,19.67647 -151.2589,38.53306 -215.4148,-49.39071 -15.2092,-20.84384 30.2641,-24.12409 30.2641,-24.12409 z"
       id="path1357"
       inkscape:connector-curvature="0"
       inkscape:transform-center-x="-30.354172"
       inkscape:transform-center-y="-147.57618"
       sodipodi:nodetypes="cscsc" />
    <path
       style="color:#000000;display:inline;overflow:visible;visibility:visible;fill:#ffffff;fill-opacity:1;fill-rule:nonzero;stroke:none;stroke-width:1.44436px;marker:none;enable-background:accumulate"
       d="m 130.0861,2768.4588 c 4.1646,-39.7667 52.76306,-68.7922 178.71482,-61.119 67.46643,4.1101 144.08544,6.8552 138.76731,65.1114 -5.31819,58.2567 -115.45731,56.5921 -138.20384,57.9201 -22.74661,1.3284 -141.14535,-4.9608 -161.7482,-24.8113 -12.89682,-12.426 -17.96894,-24.7842 -17.53009,-37.1012 z"
       id="path4546-6-5"
       inkscape:connector-curvature="0"
       sodipodi:nodetypes="cssssc" />
    <path
       style="color:#000000;display:inline;overflow:visible;visibility:visible;fill:#ffffff;fill-opacity:1;fill-rule:nonzero;stroke:none;stroke-width:1.61865723px;marker:none;enable-background:accumulate"
       d="m 832.23778,3230.3551 c 4.86334,-72.4835 61.61564,-125.3888 208.69942,-111.4026 78.786,7.4914 168.2601,12.4949 162.0497,118.6795 -6.2103,106.1854 -134.8287,103.1513 -161.3917,105.5719 -26.563,2.4214 -164.82653,-9.0423 -188.88612,-45.224 -15.06066,-22.6489 -20.98377,-45.1745 -20.4713,-67.6248 z"
       id="path4546-6-5-2"
       inkscape:connector-curvature="0"
       sodipodi:nodetypes="cssssc" />
    <path
       style="fill:#ffffff;fill-rule:evenodd;stroke:none;stroke-width:1px;stroke-linecap:butt;stroke-linejoin:miter;stroke-opacity:1"
       d="m 1373.2637,3271.7707 c 22.5866,-17.8161 34.5507,-17.0035 58.8747,-18.7273 24.3239,-1.7244 84.3852,-5.6068 108.13,-1.0095 23.745,4.5978 46.3316,9.7705 52.123,16.0922 5.7914,6.3217 19.6908,24.7127 19.6908,32.7588 0,8.0461 8.108,34.4827 -6.9497,51.7245 -15.0577,17.2414 -30.1154,29.8854 -57.3351,29.3105 -27.2198,-0.5748 -64.8641,0 -82.8176,0.5749 -17.9534,0.5741 -72.972,-6.8972 -82.8174,-21.8393 -9.8454,-14.9426 -23.7449,-37.3566 -21.4283,-50.0006 2.3166,-12.6435 12.5296,-38.8842 12.5296,-38.8842 z"
       id="path1289"
       inkscape:connector-curvature="0"
       sodipodi:nodetypes="csssssssscc" />
    <path
       style="fill:#ffffff;fill-rule:evenodd;stroke:none;stroke-width:1px;stroke-linecap:butt;stroke-linejoin:miter;stroke-opacity:1"
       d="m 1520.7213,3290.478 c 0,0 0.2613,-30.8716 9.7849,-41.8248 9.5236,-10.953 35.9725,-32.826 61.189,-35.0384 -49.4537,-3.6057 -69.9603,11.1043 -78.3427,19.1018 -8.3839,7.9982 -32.4023,48.2786 -32.4023,48.2786 z"
       id="path1367-3"
       inkscape:connector-curvature="0" />
    <path
       style="color:#000000;display:inline;overflow:visible;visibility:visible;fill:#ffffff;fill-opacity:1;fill-rule:nonzero;stroke:none;stroke-width:1px;marker:none;enable-background:accumulate"
       d="m 371.05804,2770.2315 c -13.44223,35.2759 -28.63005,94.9961 57.30853,115.005 -17.80709,4.5085 -119.29491,-9.1273 -91.99905,-114.8163 7.92058,-30.6682 15.69642,-16.5134 23.06049,-15.8694 7.36416,0.6441 11.63003,15.6807 11.63003,15.6807 z"
       id="path4064-5"
       inkscape:connector-curvature="0"
       sodipodi:nodetypes="ccszc" />
    <path
       style="color:#000000;display:inline;overflow:visible;visibility:visible;fill:#ffffff;fill-opacity:1;fill-rule:nonzero;stroke:none;stroke-width:1px;marker:none;enable-background:accumulate"
       d="m 985.81867,3194.6677 c 41.23993,-57.572 33.73823,-151.8082 -50.60213,-153.341 81.57176,24.5899 42.90889,109.9963 14.4588,139.3816 -19.62934,16.6806 36.14333,13.9594 36.14333,13.9594 z"
       id="path3978-4"
       inkscape:connector-curvature="0"
       sodipodi:nodetypes="cccc" />
  </g>
  <g
     inkscape:groupmode="layer"
     id="layer1"
     inkscape:label="txt">
    <text
       xml:space="preserve"
       style="font-style:normal;font-variant:normal;font-weight:normal;font-stretch:normal;font-size:45.33330154px;line-height:125%;font-family:Lavi;-inkscape-font-specification:Lavi;text-align:center;letter-spacing:0px;word-spacing:0px;text-anchor:middle;fill:#000000;fill-opacity:1;stroke:none"
       x="290.60724"
       y="216.41437"
       id="text4246-70-2-2-2-7-4-9-9-6-1-2-3-9-2-7-9-3"><tspan
         sodipodi:role="line"
         style="font-size:45.33330154px"
         x="290.60724"
         y="216.41437"
         id="tspan1051">Mereka benar-</tspan><tspan
         sodipodi:role="line"
         style="font-size:45.33330154px"
         x="290.60724"
         y="273.08099"
         id="tspan52">benar pasang</tspan><tspan
         sodipodi:role="line"
         style="font-size:45.33330154px"
         x="290.60724"
         y="329.74762"
         id="tspan54">poster ini di</tspan><tspan
         sodipodi:role="line"
         style="font-size:45.33330154px"
         x="290.60724"
         y="386.41425"
         id="tspan56">mana-mana.</tspan></text>
    <text
       xml:space="preserve"
       style="font-style:normal;font-variant:normal;font-weight:normal;font-stretch:normal;font-size:45.33330154px;line-height:125%;font-family:Lavi;-inkscape-font-specification:Lavi;text-align:center;letter-spacing:0px;word-spacing:0px;text-anchor:middle;fill:#000000;fill-opacity:1;stroke:none"
       x="297.66208"
       y="832.55078"
       id="text4246-70-2-2-2-7-4-9-9-6-1-2-3-9-2-7-9-3-3"><tspan
         sodipodi:role="line"
         style="font-size:45.33330154px"
         x="297.66208"
         y="832.55078"
         id="tspan1165">Bahkan</tspan><tspan
         sodipodi:role="line"
         style="font-size:45.33330154px"
         x="297.66208"
         y="889.21741"
         id="tspan63">sampai di</tspan><tspan
         sodipodi:role="line"
         style="font-size:45.33330154px"
         x="297.66208"
         y="945.88403"
         id="tspan65">pelosok.</tspan></text>
    <text
       xml:space="preserve"
       style="font-style:normal;font-variant:normal;font-weight:normal;font-stretch:normal;font-size:45.33330154px;line-height:125%;font-family:Lavi;-inkscape-font-specification:Lavi;text-align:center;letter-spacing:0px;word-spacing:0px;text-anchor:middle;fill:#000000;fill-opacity:1;stroke:none"
       x="1423.1024"
       y="199.99611"
       id="text4246-70-2-2-2-7-4-9-9-6-1-2-3-9-2-7-9-3-6"><tspan
         sodipodi:role="line"
         style="font-size:45.33330154px"
         x="1423.1024"
         y="199.99611"
         id="tspan1175">Ayo kita buruan</tspan><tspan
         sodipodi:role="line"
         style="font-size:45.33330154px"
         x="1423.1024"
         y="256.66275"
         id="tspan72">pindah sebelum kita</tspan><tspan
         sodipodi:role="line"
         style="font-size:45.33330154px"
         x="1423.1024"
         y="313.32938"
         id="tspan74">dikenali.</tspan></text>
    <text
       xml:space="preserve"
       style="font-style:normal;font-variant:normal;font-weight:normal;font-stretch:normal;font-size:45.33330154px;line-height:125%;font-family:Lavi;-inkscape-font-specification:Lavi;text-align:center;letter-spacing:0px;word-spacing:0px;text-anchor:middle;fill:#000000;fill-opacity:1;stroke:none"
       x="1535.2148"
       y="394.40094"
       id="text4246-70-2-2-2-7-4-9-9-6-1-2-3-9-2-7-9-3-6-7"><tspan
         sodipodi:role="line"
         style="font-size:45.33330154px"
         x="1535.2148"
         y="394.40094"
         id="tspan1237">Kita punya</tspan><tspan
         sodipodi:role="line"
         style="font-size:45.33330154px"
         x="1535.2148"
         y="451.06757"
         id="tspan81">masalah yang lebih</tspan><tspan
         sodipodi:role="line"
         style="font-size:45.33330154px"
         x="1535.2148"
         y="507.73419"
         id="tspan83">besar sekarang...</tspan></text>
    <text
       xml:space="preserve"
       style="font-style:normal;font-variant:normal;font-weight:normal;font-stretch:normal;font-size:45.33330154px;line-height:125%;font-family:Lavi;-inkscape-font-specification:Lavi;text-align:center;letter-spacing:0px;word-spacing:0px;text-anchor:middle;fill:#000000;fill-opacity:1;stroke:none"
       x="294.23251"
       y="2781.9722"
       id="text4246-70-2-2-2-7-4-9-9-6-1-2-3-9-2-7-9-3-6-7-3"><tspan
         sodipodi:role="line"
         style="font-size:45.33330154px"
         x="294.23251"
         y="2781.9722"
         id="tspan62644">Sinar itu...</tspan></text>
    <text
       xml:space="preserve"
       style="font-style:normal;font-variant:normal;font-weight:normal;font-stretch:normal;font-size:45.33330154px;line-height:125%;font-family:Lavi;-inkscape-font-specification:Lavi;text-align:center;letter-spacing:0px;word-spacing:0px;text-anchor:middle;fill:#000000;fill-opacity:1;stroke:none"
       x="1022.1557"
       y="3187.2583"
       id="text4246-70-2-2-2-7-4-9-9-6-1-2-3-9-2-7-9-3-6-7-3-6"><tspan
         sodipodi:role="line"
         style="font-size:45.33330154px"
         x="1022.1557"
         y="3187.2583"
         id="tspan1298">Kita pasti</tspan><tspan
         sodipodi:role="line"
         style="font-size:45.33330154px"
         x="1022.1557"
         y="3243.925"
         id="tspan90">sudah dekat</tspan><tspan
         sodipodi:role="line"
         style="font-size:45.33330154px"
         x="1022.1557"
         y="3300.5916"
         id="tspan92">ke sarangnya.</tspan></text>
    <text
       xml:space="preserve"
       style="font-style:normal;font-variant:normal;font-weight:normal;font-stretch:normal;font-size:48.525px;line-height:125%;font-family:Lavi;-inkscape-font-specification:Lavi;text-align:center;letter-spacing:0px;word-spacing:0px;text-anchor:middle;fill:#000000;fill-opacity:1;stroke:none;stroke-width:1"
       x="1490.6833"
       y="3328.5591"
       id="text4246-70-2-2-2-7-4-9-9-6-1-2-3-9-2-7-9-3-6-7-3-6-7"><tspan
         sodipodi:role="line"
         style="font-style:normal;font-variant:normal;font-weight:bold;font-stretch:normal;font-size:48.525px;font-family:Lavi;-inkscape-font-specification:'Lavi Bold';stroke-width:1"
         x="1490.6833"
         y="3328.5591"
         id="tspan121879-0">Bingo!</tspan></text>
  </g>
</svg>
