<?xml version="1.0" encoding="UTF-8" standalone="no"?>
<!-- Created with Inkscape (http://www.inkscape.org/) -->

<svg
   xmlns:dc="http://purl.org/dc/elements/1.1/"
   xmlns:cc="http://creativecommons.org/ns#"
   xmlns:rdf="http://www.w3.org/1999/02/22-rdf-syntax-ns#"
   xmlns:svg="http://www.w3.org/2000/svg"
   xmlns="http://www.w3.org/2000/svg"
   xmlns:xlink="http://www.w3.org/1999/xlink"
   xmlns:sodipodi="http://sodipodi.sourceforge.net/DTD/sodipodi-0.dtd"
   xmlns:inkscape="http://www.inkscape.org/namespaces/inkscape"
   id="svg2"
   version="1.1"
   inkscape:version="0.92.4 (5da689c313, 2019-01-14)"
   width="2481"
   height="3503"
   sodipodi:docname="E37P04.svg">
  <metadata
     id="metadata8">
    <rdf:RDF>
      <cc:Work
         rdf:about="">
        <dc:format>image/svg+xml</dc:format>
        <dc:type
           rdf:resource="http://purl.org/dc/dcmitype/StillImage" />
        <dc:title />
      </cc:Work>
    </rdf:RDF>
  </metadata>
  <defs
     id="defs6">
    <filter
       inkscape:label="Ripple"
       inkscape:menu="Distort"
       inkscape:menu-tooltip="Horizontal rippling of edges"
       style="color-interpolation-filters:sRGB"
       id="filter4265-7-37"
       y="0"
       x="0"
       width="1"
       height="1">
      <feTurbulence
         numOctaves="1"
         baseFrequency="0.002 0.107"
         id="feTurbulence4267-7-7" />
      <feColorMatrix
         values="5 0 0 0 0 0 0 0 0 0 0 0 0 0 0 0 0 0 4 0 "
         result="result91"
         id="feColorMatrix4269-1-2" />
      <feDisplacementMap
         yChannelSelector="A"
         xChannelSelector="R"
         scale="14.3"
         in="SourceGraphic"
         in2="result91"
         id="feDisplacementMap4271-2-64" />
    </filter>
    <filter
       inkscape:label="Magmah-FX"
       inkscape:menu="Distort"
       inkscape:menu-tooltip="Horizontal rippling of edges"
       style="color-interpolation-filters:sRGB"
       id="filter4265-7"
       y="0"
       x="0"
       width="1"
       height="1">
      <feTurbulence
         numOctaves="1"
         baseFrequency="0.002 0.107"
         id="feTurbulence4267-7" />
      <feColorMatrix
         values="5 0 0 0 0 0 0 0 0 0 0 0 0 0 0 0 0 0 4 0 "
         result="result91"
         id="feColorMatrix4269-1" />
      <feDisplacementMap
         yChannelSelector="A"
         xChannelSelector="R"
         scale="14.3"
         in="SourceGraphic"
         in2="result91"
         id="feDisplacementMap4271-2" />
    </filter>
    <filter
       style="color-interpolation-filters:sRGB"
       inkscape:label="Magmah-spell-glow"
       id="filter4751"
       x="-0.035967053"
       y="-0.17833759"
       width="1.0719341"
       height="1.3566752">
      <feFlood
         flood-opacity="1"
         flood-color="rgb(255,255,255)"
         result="flood"
         id="feFlood4753" />
      <feComposite
         in="flood"
         in2="SourceGraphic"
         operator="in"
         result="composite1"
         id="feComposite4755" />
      <feGaussianBlur
         in="composite1"
         stdDeviation="5.4"
         result="blur"
         id="feGaussianBlur4757" />
      <feOffset
         dx="0"
         dy="0"
         result="offset"
         id="feOffset4759" />
      <feComposite
         in="SourceGraphic"
         in2="offset"
         operator="over"
         result="composite2"
         id="feComposite4761" />
    </filter>
  </defs>
  <sodipodi:namedview
     pagecolor="#ffffff"
     bordercolor="#666666"
     borderopacity="1"
     objecttolerance="10"
     gridtolerance="10"
     guidetolerance="10"
     inkscape:pageopacity="0"
     inkscape:pageshadow="2"
     inkscape:window-width="1858"
     inkscape:window-height="1057"
     id="namedview4"
     showgrid="false"
     inkscape:zoom="0.52487078"
     inkscape:cx="1105.9865"
     inkscape:cy="1407.013"
     inkscape:window-x="54"
     inkscape:window-y="-8"
     inkscape:window-maximized="1"
     inkscape:current-layer="layer3"
     inkscape:pagecheckerboard="0"
     inkscape:showpageshadow="0"
     inkscape:deskcolor="#d1d1d1" />
  <g
     inkscape:groupmode="layer"
     id="layer2"
     inkscape:label="artwork"
     sodipodi:insensitive="true">
    <image
       sodipodi:absref="D:\Documents\code\webcomics\ep37_The-Tears-of-the-Phoenix\lang\id\../gfx_Pepper-and-Carrot_by-David-Revoy_E37P04.png"
       xlink:href="../gfx_Pepper-and-Carrot_by-David-Revoy_E37P04.png"
       width="2481"
       height="3503"
       id="image10"
       x="0"
       y="0" />
  </g>
  <g
     inkscape:groupmode="layer"
     id="layer3"
     inkscape:label="speechbubbles">
    <path
       style="color:#000000;display:inline;overflow:visible;visibility:visible;fill:#ffffff;fill-opacity:1;fill-rule:nonzero;stroke:none;stroke-width:1.08773196px;marker:none;enable-background:accumulate"
       d="m 342.68218,1471.0051 c -58.66275,0.4446 -117.90193,2.1374 -175.31906,18.6515 -24.71644,8.5376 -46.29837,33.1206 -52.75934,64.5132 -3.32166,19.7768 2.01285,39.7745 8.47869,57.6573 8.43711,23.1806 25.89607,39.7282 44.99144,47.5739 41.16324,20.144 85.78616,23.3415 129.37223,27.9854 21.24378,2.3951 42.50798,4.9559 63.85987,4.9907 41.87379,0.5818 83.72639,-2.6567 125.60047,-1.4672 26.39827,-0.086 52.94002,-3.6945 78.27645,-13.2309 17.98812,-6.1159 36.10801,-13.0225 52.21342,-25.0041 18.75567,-15.1135 33.88251,-39.1506 37.44644,-67.1141 3.70091,-31.1628 -10.67089,-63.622 -33.15871,-77.5047 -16.54547,-10.7108 -35.05784,-15.3644 -53.30787,-19.0649 -20.67672,-3.8307 -41.49716,-6.2845 -62.26337,-9.2081 -54.28953,-6.7373 -108.88362,-9.3746 -163.43066,-8.778 z"
       id="path4040-4-4"
       inkscape:connector-curvature="0"
       sodipodi:nodetypes="zssssz" />
    <path
       style="color:#000000;display:inline;overflow:visible;visibility:visible;fill:#ffffff;fill-opacity:1;fill-rule:nonzero;stroke:none;stroke-width:1.10661px;marker:none;enable-background:accumulate"
       d="m 232.88521,1829.6545 c -15.49911,-4.3258 -30.36527,-25.9083 -39.85487,-45.1151 -2.6023,-5.5279 -4.9768,-11.4623 -5.91137,-17.7034 0.23014,-6.7406 4.6456,-11.9989 9.68489,-14.2208 7.08756,-3.8231 15.87763,-4.2925 21.36573,-11.5454 3.88883,-5.3975 2.44347,-12.8787 1.69304,-19.2745 -2.17932,-16.2588 -6.20379,-32.2732 -6.21379,-48.8483 -1.02235,-18.6687 -0.97071,-38.3918 6.06435,-55.4786 2.87848,-6.7043 6.67303,-13.2274 12.33892,-16.8574 14.17763,-10.1059 33.45012,-10.5499 47.30692,0.9314 8.26682,8.3259 10.21944,25.1454 2.569,34.7308 -3.97524,5.1331 -10.21215,6.1902 -15.7493,5.1661 -10.4586,0.3997 -20.04905,8.0914 -25.18673,18.8336 -4.36159,8.7814 -6.37218,19.1354 -6.13892,29.3576 -2.73879,13.9759 2.82926,27.469 5.69121,40.7504 1.23215,6.0908 2.19987,12.6668 0.87478,18.791 -3.62099,8.1775 -11.75152,10.5256 -18.8271,11.5577 -7.27261,1.2901 -15.83507,1.7981 -20.79951,9.2364 -4.02698,4.5998 -0.25135,11.0835 0.90045,16.2897 5.52666,16.1978 15.18264,30.1517 26.62182,40.8647 1.15331,0.9227 2.35952,1.7296 3.57048,2.5341 z"
       id="path4496-8"
       inkscape:connector-curvature="0"
       sodipodi:nodetypes="ccccccccccccccccccccc" />
    <path
       style="fill:#ffffff;stroke:none;stroke-width:1.22964716"
       d="m 1988.1187,3158.3653 c -78.8852,0.1771 -158.9027,2.283 -235.0258,15.9065 -36.3082,6.7425 -72.1338,17.6326 -96.4551,35.7889 -25.3119,19.6738 -34.962,45.4846 -32.1108,70.0665 3.0524,23.7159 16.9192,47.5609 43.8734,65.2182 21.1718,13.7498 49.5143,22.5334 78.6596,28.4081 66.3586,13.5939 137.3418,13.4853 206.5827,13.3171 67.216,-0.4948 134.4982,0.8746 201.6576,-1.3552 37.7471,-1.4523 71.9433,-1.596 108.5321,-7.693 32.615,-5.5051 78.3312,-11.157 99.7312,-27.5514 15.2556,-11.2822 15.1649,-30.7729 20.0795,-44.9629 7.262,-20.1693 7.1421,-41.2181 1.1607,-61.4983 -6.0966,-18.2116 -21.5782,-35.685 -46.2515,-47.0762 -31.7162,-15.3591 -71.2332,-23.1818 -110.4134,-28.3437 -55.3541,-7.0137 -112.0766,-8.362 -168.4193,-9.7132 -23.8605,-0.4042 -47.7319,-0.5323 -71.6009,-0.5114 z"
       id="path3280-10"
       inkscape:connector-curvature="0"
       sodipodi:nodetypes="cssscccccccccccc" />
    <path
       style="color:#000000;display:inline;overflow:visible;visibility:visible;fill:#ffffff;fill-opacity:1;fill-rule:nonzero;stroke:none;stroke-width:0.999999px;marker:none;enable-background:accumulate"
       d="m 2277.3144,3069.2866 c 21.1533,40.5816 26.0863,56.0003 -12.7047,94.096 -38.791,38.0948 -21.8429,50.5398 -21.8429,50.5398 l 38.5724,-9.167 c 0,0 76.0812,-86.3431 -4.0248,-135.4688 z"
       id="path3072-56"
       inkscape:connector-curvature="0" />
    <path
       style="display:inline;fill:#ffffff;stroke:none;stroke-width:0.9577114"
       d="m 842.83652,1516.2039 c -36.05179,0.7982 -72.59837,5.5135 -105.56621,18.3407 -25.93285,10.5022 -46.34213,30.7903 -53.0037,54.5122 -5.36384,18.5017 -4.72022,37.7154 -4.18814,56.6107 0.82019,17.014 4.43936,34.4994 15.21273,49.1879 13.72528,18.9536 37.03136,32.0877 62.18368,37.9479 34.64303,9.0362 71.23425,10.212 107.23395,10.393 42.42486,0.016 85.24761,0.3747 127.06007,-6.5505 23.862,-4.8043 46.8796,-15.1552 62.1734,-31.6407 13.2091,-14.7896 18.7228,-33.3242 20.9117,-51.4635 2.5803,-24.6146 -2.0547,-49.5861 -11.9407,-72.7799 -9.9655,-20.5929 -30.474,-36.9841 -54.6721,-45.5418 -21.50281,-7.953 -44.76281,-11.6899 -67.85328,-14.6624 -32.29579,-3.8325 -64.98434,-4.4414 -97.5514,-4.3536 z"
       id="path3280-8-1"
       inkscape:connector-curvature="0"
       sodipodi:nodetypes="csssc" />
    <path
       style="display:inline;fill:#ffffff;stroke:none;stroke-width:0.87079"
       d="M 1371.418 1555.3086 C 1313.566 1556.0872 1255.4752 1553.2283 1197.8614 1559.883 C 1170.5155 1563.6947 1142.9262 1572.5444 1121.5928 1590.665 C 1102.3716 1607.2655 1091.7522 1632.8693 1092.5786 1658.1573 C 1092.6995 1692.6275 1106.5316 1727.6538 1132.653 1750.6456 C 1149.8528 1765.3452 1171.3217 1773.7696 1192.6765 1780.426 C 1228.2325 1790.9177 1265.3867 1793.6499 1302.0635 1797.6745 C 1336.71 1801.0081 1371.6496 1801.3317 1406.3304 1798.2881 C 1433.9584 1796.0149 1461.6018 1792.6914 1488.6016 1786.2754 C 1514.6426 1779.2239 1540.1494 1766.5647 1557.7224 1745.5773 C 1584.115 1714.2957 1590.5095 1667.4039 1572.693 1630.4324 C 1562.0653 1607.4087 1542.2998 1588.891 1518.7424 1579.5557 C 1492.1357 1567.7561 1463.3509 1561.8337 1434.626 1558.022 C 1413.647 1555.6706 1392.5108 1555.2185 1371.418 1555.3086 z "
       id="path3280-8-1-0"
       inkscape:connector-curvature="0"
       sodipodi:nodetypes="csssc" />
    <path
       style="display:inline;fill:#ffffff;stroke:none;stroke-width:0.90183848"
       d="m 2035.7742,1626.543 c -77.325,1.5679 -154.6299,4.1516 -231.8873,7.5147 -44.8929,2.4455 -90.3206,5.9409 -133.4297,18.5803 -39.7899,13.8094 -66.1894,52.7312 -66.1676,91.8458 -2.9498,39.7924 2.9196,80.6029 19.7974,117.3873 14.2891,25.7086 42.3223,42.9766 72.2724,49.0016 41.3403,10.3784 84.3138,12.6686 126.7959,15.9233 110.1075,6.4903 220.5197,3.9767 330.717,1.2311 62.0324,-2.4544 125.527,-8.449 182.7516,-32.4619 33.7511,-17.1582 51.4213,-53.162 54.3819,-87.7345 3.5259,-40.36 -3.1524,-83.1223 -27.5633,-117.3951 -14.0547,-20.3865 -35.9787,-35.2899 -60.4317,-43.1156 -30.5828,-10.5613 -63.5461,-10.5423 -95.5662,-13.7471 -57.0648,-4.5948 -114.3659,-8.0352 -171.6704,-7.0299 z"
       id="path3280-8-1-0-6"
       inkscape:connector-curvature="0"
       sodipodi:nodetypes="csssc" />
    <path
       style="color:#000000;display:inline;overflow:visible;visibility:visible;fill:#ffffff;fill-opacity:1;fill-rule:nonzero;stroke:none;stroke-width:0.999999px;marker:none;enable-background:accumulate"
       d="m 1778.817,1868.4621 c -12.833,-0.6526 -23.8662,8.7491 -27.831,19.5381 -19.6036,19.4059 -1.839,-8.6641 -6.4214,4.8364 -13.5019,11.0957 -15.4266,35.2523 -15.8537,65.4931 -5.2817,5.1994 -14.9376,-8.1861 -19.6475,-2.164 -4.937,10.3078 -6.0593,21.8252 -6.4897,33.0281 -0.3179,32.1806 14.1211,63.8185 37.0812,87.8622 7.5298,8.5773 15.2692,16.9924 22.966,25.4398 -17.5595,-23.2829 -32.5888,-49.3497 -36.2923,-77.8541 -1.1276,-8.6692 1.6106,-30.4788 3.0954,-39.0712 10.4198,2.2428 18.5432,14.1601 29.054,13.5885 -3.9254,-39.033 12.0854,-78.9568 32.5429,-100.807 3.2112,-8.5188 -4.1806,-18.0085 -1.2971,-26.6329 -3.0138,-2.4158 -7.0942,-3.0258 -10.9068,-3.257 z"
       id="path4456-8"
       inkscape:connector-curvature="0"
       inkscape:transform-center-x="-13.453102"
       inkscape:transform-center-y="80.02882"
       sodipodi:nodetypes="cccccccccccccc" />
    <path
       style="color:#000000;display:inline;overflow:visible;visibility:visible;fill:#ffffff;fill-opacity:1;fill-rule:nonzero;stroke:none;stroke-width:1px;marker:none;enable-background:accumulate"
       d="m 820.0369,1693.3353 c -3.48578,39.7252 -1.62886,86.2092 5.54134,93.7569 -12.06557,-4.746 -23.61413,-7.3843 -32.58824,-9.1289 -2.74679,19.0391 9.33544,52.9316 19.75971,79.3624 -34.85384,-28.0115 -46.11754,-83.8349 -45.91311,-113.8427 11.20297,7.5747 21.79689,11.4361 28.26889,11.3872 1.30177,-15.339 -8.85591,-66.1714 -9.7642,-66.4676 z"
       id="path5066-6"
       inkscape:connector-curvature="0"
       sodipodi:nodetypes="cccccccc" />
    <path
       style="display:inline;fill:#ffffff;stroke:none;stroke-width:1"
       d="m 1204.2177,1950.0192 c -44.4885,-30.4335 -65.5015,-120.9246 -25.0786,-163.4599 23.8495,-25.0955 36.2779,-40.3926 36.2779,-40.3926 l -33.7128,-17.199 c -98.5183,93.7979 -30.177,190.842 22.5135,221.0515 z"
       id="path3063-1-0"
       inkscape:connector-curvature="0"
       sodipodi:nodetypes="csccc" />
  </g>
  <g
     inkscape:groupmode="layer"
     id="layer1"
     inkscape:label="txt">
    <text
       xml:space="preserve"
       style="font-style:normal;font-variant:normal;font-weight:normal;font-stretch:normal;font-size:48.29570007px;line-height:125%;font-family:Lavi;-inkscape-font-specification:Lavi;text-align:center;letter-spacing:0px;word-spacing:0px;text-anchor:middle;fill:#000000;fill-opacity:1;stroke:none;stroke-width:0.99999899"
       x="384.86877"
       y="1547.4731"
       id="text4246-70-2-2-2-7-4"><tspan
         sodipodi:role="line"
         style="font-size:48.29570007px;stroke-width:0.99999899"
         x="384.86877"
         y="1547.4731"
         id="tspan1004">Untuk apa kamu</tspan><tspan
         sodipodi:role="line"
         style="font-size:48.29570007px;stroke-width:0.99999899"
         x="384.86877"
         y="1607.8428"
         id="tspan56">menggangguku,</tspan><tspan
         sodipodi:role="line"
         style="font-size:48.29570007px;stroke-width:0.99999899"
         x="384.86877"
         y="1668.2124"
         id="tspan58">manusia?</tspan></text>
    <text
       xml:space="preserve"
       style="font-style:normal;font-variant:normal;font-weight:normal;font-stretch:normal;font-size:49.0522995px;line-height:125%;font-family:Lavi;-inkscape-font-specification:Lavi;text-align:center;letter-spacing:0px;word-spacing:0px;text-anchor:middle;fill:#000000;fill-opacity:1;stroke:none;stroke-width:1"
       x="880.40576"
       y="1582.8677"
       id="text4246-70-2-2-2-7-4-3"><tspan
         sodipodi:role="line"
         style="font-style:normal;font-variant:normal;font-weight:bold;font-stretch:normal;font-size:49.0522995px;font-family:Lavi;-inkscape-font-specification:'Lavi Bold';stroke-width:1"
         x="880.40576"
         y="1582.8677"
         id="tspan989">Salam,</tspan><tspan
         sodipodi:role="line"
         style="font-style:normal;font-variant:normal;font-weight:bold;font-stretch:normal;font-size:49.0522995px;font-family:Lavi;-inkscape-font-specification:'Lavi Bold';stroke-width:1"
         x="880.40576"
         y="1644.1831"
         id="tspan1123">Phoenix yang</tspan><tspan
         sodipodi:role="line"
         style="font-style:normal;font-variant:normal;font-weight:bold;font-stretch:normal;font-size:49.0522995px;font-family:Lavi;-inkscape-font-specification:'Lavi Bold';stroke-width:1"
         x="880.40576"
         y="1705.4984"
         id="tspan62">agung!</tspan></text>
    <text
       xml:space="preserve"
       style="font-style:normal;font-variant:normal;font-weight:normal;font-stretch:normal;font-size:45.33330154px;line-height:125%;font-family:Lavi;-inkscape-font-specification:Lavi;text-align:center;letter-spacing:0px;word-spacing:0px;text-anchor:middle;fill:#000000;fill-opacity:1;stroke:none"
       x="1334.6749"
       y="1638.9146"
       id="text4246-70-2-2-2-7-4-3-5"><tspan
         sodipodi:role="line"
         style="font-size:45.33330154px"
         x="1334.6749"
         y="1638.9146"
         id="tspan1187">Nama saya Pepper,</tspan><tspan
         sodipodi:role="line"
         style="font-size:45.33330154px"
         x="1334.6749"
         y="1695.5812"
         id="tspan1193"> dan saya penyihir</tspan><tspan
         sodipodi:role="line"
         style="font-size:45.33330154px"
         x="1334.6749"
         y="1752.2478"
         id="tspan66">Chaosah.</tspan></text>
    <text
       xml:space="preserve"
       style="font-style:normal;font-variant:normal;font-weight:normal;font-stretch:normal;font-size:45.33330154px;line-height:125%;font-family:Lavi;-inkscape-font-specification:Lavi;text-align:center;letter-spacing:0px;word-spacing:0px;text-anchor:middle;fill:#000000;fill-opacity:1;stroke:none"
       x="1988.7637"
       y="1709.2914"
       id="text4246-70-2-2-2-7-4-3-5-6"><tspan
         sodipodi:role="line"
         style="font-size:45.33330154px"
         x="1988.7637"
         y="1709.2914"
         id="tspan1209">Saya belakangan baru saja</tspan><tspan
         sodipodi:role="line"
         style="font-size:45.33330154px"
         x="1988.7637"
         y="1765.958"
         id="tspan1211">menerima Rea Naga dosis besar,</tspan><tspan
         sodipodi:role="line"
         style="font-size:45.33330154px"
         x="1988.7637"
         y="1822.6246"
         id="tspan1229">dan sejak itu, ini muncul dan</tspan><tspan
         sodipodi:role="line"
         style="font-size:45.33330154px"
         x="1988.7637"
         y="1879.2913"
         id="tspan78">terus menyebar...</tspan></text>
    <text
       xml:space="preserve"
       style="font-style:normal;font-variant:normal;font-weight:normal;font-stretch:normal;font-size:45.33330154px;line-height:125%;font-family:Lavi;-inkscape-font-specification:Lavi;text-align:center;letter-spacing:0px;word-spacing:0px;text-anchor:middle;fill:#000000;fill-opacity:1;stroke:none"
       x="2016.8861"
       y="3229.6404"
       id="text4246-70-2-2-2-7-4-3-5-6-2"><tspan
         sodipodi:role="line"
         style="font-size:45.33330154px"
         x="2016.8861"
         y="3229.6404"
         id="tspan1292">Ini meniadakan kekuatan</tspan><tspan
         sodipodi:role="line"
         style="font-size:45.33330154px"
         x="2016.8861"
         y="3286.3071"
         id="tspan1294">saya dan kemungkinan</tspan><tspan
         sodipodi:role="line"
         style="font-size:45.33330154px"
         x="2016.8861"
         y="3342.9736"
         id="tspan86">membunuh saya ke depannya.</tspan></text>
  </g>
</svg>
