<?xml version="1.0" encoding="UTF-8" standalone="no"?>
<!-- Created with Inkscape (http://www.inkscape.org/) -->

<svg
   xmlns:dc="http://purl.org/dc/elements/1.1/"
   xmlns:cc="http://creativecommons.org/ns#"
   xmlns:rdf="http://www.w3.org/1999/02/22-rdf-syntax-ns#"
   xmlns:svg="http://www.w3.org/2000/svg"
   xmlns="http://www.w3.org/2000/svg"
   xmlns:xlink="http://www.w3.org/1999/xlink"
   xmlns:sodipodi="http://sodipodi.sourceforge.net/DTD/sodipodi-0.dtd"
   xmlns:inkscape="http://www.inkscape.org/namespaces/inkscape"
   id="svg2"
   version="1.1"
   inkscape:version="0.92.3 (2405546, 2018-03-11)"
   width="2481"
   height="3503"
   sodipodi:docname="E23P05.svg">
  <metadata
     id="metadata8">
    <rdf:RDF>
      <cc:Work
         rdf:about="">
        <dc:format>image/svg+xml</dc:format>
        <dc:type
           rdf:resource="http://purl.org/dc/dcmitype/StillImage" />
        <dc:title />
      </cc:Work>
    </rdf:RDF>
  </metadata>
  <defs
     id="defs6" />
  <sodipodi:namedview
     pagecolor="#ffffff"
     bordercolor="#666666"
     borderopacity="1"
     objecttolerance="10"
     gridtolerance="10"
     guidetolerance="10"
     inkscape:pageopacity="0"
     inkscape:pageshadow="2"
     inkscape:window-width="1856"
     inkscape:window-height="1151"
     id="namedview4"
     showgrid="false"
     inkscape:zoom="0.526013"
     inkscape:cx="1045.3385"
     inkscape:cy="2206.682"
     inkscape:window-x="64"
     inkscape:window-y="0"
     inkscape:window-maximized="1"
     inkscape:current-layer="layer1"
     inkscape:document-rotation="0"
     inkscape:snap-global="false" />
  <g
     inkscape:groupmode="layer"
     id="layer2"
     inkscape:label="artwork"
     sodipodi:insensitive="true">
    <image
       sodipodi:absref="/home/fici/Desktop/P&amp;C/all/sl/../gfx_Pepper-and-Carrot_by-David-Revoy_E23P05.png"
       xlink:href="../gfx_Pepper-and-Carrot_by-David-Revoy_E23P05.png"
       y="0"
       x="0"
       id="image10"
       height="3503"
       width="2481" />
  </g>
  <g
     inkscape:groupmode="layer"
     id="layer3"
     inkscape:label="speechbubbles"
     style="display:inline">
    <path
       style="color:#000000;display:inline;overflow:visible;visibility:visible;fill:#ffffff;fill-opacity:1;fill-rule:nonzero;stroke:none;stroke-width:0.84104002px;marker:none;enable-background:accumulate"
       d="M 218.4908,345.25744 C 112.29176,337.08087 79.921133,304.60359 80.096178,247.14292 80.259434,193.55194 72.360097,92.435102 100.66699,83.82983 128.80745,75.275153 206.97374,72.158472 309.38126,72.593325 402.55515,72.988969 575.57767,50.775583 633.53156,153.68066 661.80517,203.88437 653.7227,291.88644 532.88318,330.60915 415.57314,368.20086 218.4908,345.25744 218.4908,345.25744 Z"
       id="path3970"
       inkscape:connector-curvature="0"
       sodipodi:nodetypes="csssssc" />
    <path
       style="fill:#ffffff;fill-rule:evenodd;stroke:none;stroke-width:1px;stroke-linecap:butt;stroke-linejoin:miter;stroke-opacity:1"
       d="m 617.68228,456.28871 c -121.38083,49.38881 -256.31247,-95.32463 -258.83312,-145.4528 -2.52067,-50.12817 37.41406,-63.26325 37.41406,-63.26325 l 23.64456,25.22238 c 0,0 -14.71233,-10.50946 -12.29662,35.09981 2.41571,45.60928 92.15905,171.93056 210.07112,148.39386 z"
       id="path4367"
       inkscape:connector-curvature="0"
       sodipodi:nodetypes="csccsc" />
    <path
       style="fill:#ffffff;stroke:none;stroke-width:1"
       d="m 1195.5596,1197.6515 c -1.493,-53.5831 55.755,-69.8942 95.9768,-76.7349 40.2222,-6.8406 173.4601,1.1985 164.4739,66.5799 -8.9861,65.3816 -100.6614,72.1725 -150.6711,68.408 -50.0097,-3.7645 -102.3682,-7.3775 -109.7796,-58.253 z"
       id="path3938"
       inkscape:connector-curvature="0"
       sodipodi:nodetypes="csssc" />
    <path
       style="fill:#ffffff;fill-rule:evenodd;stroke:none;stroke-width:1px;stroke-linecap:butt;stroke-linejoin:miter;stroke-opacity:1"
       d="m 1319.9169,1430.5563 c -79.6639,-37.1698 -55.9039,-129.7638 14.1457,-180.8499 70.0496,-51.086 29.4921,-47.0022 29.4921,-47.0022 0,0 -17.1327,-11.2383 -67.0329,47.9216 -49.9003,59.16 -82.7104,161.2474 23.3951,179.9305 z"
       id="path4375"
       inkscape:connector-curvature="0"
       sodipodi:nodetypes="cscsc" />
    <path
       style="fill:#ffffff;fill-opacity:1;stroke:none;stroke-width:0.95505762"
       d="m 1738.4686,1182.2046 c 5.6731,-66.9092 47.4664,-102.3298 61.9898,-106.8355 40.5819,-12.5901 469.9253,-25.0401 511.0949,22.0754 25.1795,28.8159 75.224,153.9896 -24.4819,234.0417 -54.4518,43.7181 -421.9374,27.2086 -466.7313,-2.761 -46.7186,-31.2573 -91.1023,-69.9427 -81.8715,-146.5206 z"
       id="path3659"
       inkscape:connector-curvature="0"
       sodipodi:nodetypes="cssssc" />
    <path
       style="fill:#ffffff;fill-rule:evenodd;stroke:none;stroke-width:1px;stroke-linecap:butt;stroke-linejoin:miter;stroke-opacity:1"
       d="m 1702.8004,1449.6984 c 24.2675,-5.1738 2.3375,-12.1848 -4.0584,-24.266 -6.3959,-12.0811 -8.0227,-26.9013 9.033,-30.4546 17.0557,-3.5532 50.4566,10.6599 50.4566,10.6599 0,0 -21.3197,-32.6902 -9.2386,-41.9287 12.0812,-9.2385 54.7206,6.3959 54.7206,6.3959 0,0 -16.3452,-45.482 19.8983,-63.2484 36.2435,-17.7664 81.7255,6.3959 55.4312,15.6344 -26.2943,9.2386 -84.5681,7.1066 -44.7713,77.4615 -62.5378,-29.8475 -60.4058,-23.4516 -64.6697,-19.1877 -4.264,4.264 9.2385,41.9287 14.2131,53.2992 -17.0558,-10.6598 -66.8017,-36.9541 -74.6189,-22.741 -7.8172,14.2132 12.0812,25.5837 11.3705,32.6902 -0.7107,7.1066 -17.7664,5.6853 -17.7664,5.6853 z"
       id="path4394"
       inkscape:connector-curvature="0"
       sodipodi:nodetypes="csscscsscscssc" />
    <path
       style="fill:#ffffff;fill-rule:evenodd;stroke:none;stroke-width:0.95065194px;stroke-linecap:butt;stroke-linejoin:miter;stroke-opacity:1"
       d="m 1854.8484,1656.4383 c 23.6477,-31.1144 233.6305,-52.6703 346.2203,-21.0573 46.2073,18.1919 105.6355,73.7196 61.7523,118.6237 -58.7406,27.4879 -129.9536,16.9214 -193.6673,29.5032 -73.5729,5.4391 -139.6604,9.166 -210.2054,-14.8264 -49.7999,-27.481 -32.1609,-81.2154 -4.0999,-112.2432 z"
       id="path4405"
       inkscape:connector-curvature="0"
       sodipodi:nodetypes="cccccc" />
    <path
       style="fill:#ffffff;fill-rule:evenodd;stroke:none;stroke-width:1px;stroke-linecap:butt;stroke-linejoin:miter;stroke-opacity:1"
       d="m 1750.9267,1594.1797 c 19.7367,-19.7367 46.0523,-32.8945 56.3906,-21.6163 10.3382,11.2781 2.8195,39.4733 2.8195,39.4733 0,0 42.2929,-21.6163 90.2249,34.7742 47.932,56.3906 17.857,52.6312 17.857,52.6312 0,0 -10.3383,-3.7594 -34.7742,-32.8945 -24.4359,-29.1351 -45.1124,-46.9921 -72.3679,-35.714 -9.3984,3.7594 -19.7367,-1.8797 -16.9171,-9.3984 12.2179,-30.075 15.9773,-64.8492 -43.2328,-27.2555 z"
       id="path4419"
       inkscape:connector-curvature="0" />
    <path
       style="fill:#ffffff;fill-rule:evenodd;stroke:none;stroke-width:0.88862693px;stroke-linecap:butt;stroke-linejoin:miter;stroke-opacity:1"
       d="m 2229.2539,1761.7319 c 51.3916,9.7431 67.9414,38.7694 86.2334,73.0732 12.9703,24.324 18.2675,67.4399 -5.1697,105.162 -21.198,34.1181 -68.0291,32.3879 -100.3942,38.3439 -48.8065,8.9816 -120.7343,3.5394 -159.2334,-2.2311 -36.0536,-5.4039 -73.1676,-10.7174 -87.1043,-39.9467 -13.9367,-29.2292 -9.5816,-83.7905 -4.3552,-99.3795 5.2262,-15.5889 22.6472,-61.3814 36.5837,-65.2787 13.9367,-3.8972 226.4714,-9.7431 226.4714,-9.7431 z"
       id="path4423"
       inkscape:connector-curvature="0"
       sodipodi:nodetypes="cssssssscc" />
    <path
       style="color:#000000;display:inline;overflow:visible;visibility:visible;fill:#ffffff;fill-opacity:1;fill-rule:nonzero;stroke:none;stroke-width:0.96470225px;marker:none;enable-background:accumulate"
       d="m 288.84112,2251.5789 c -5.89769,-33.0758 9.82945,-120.9334 130.73247,-113.698 120.90292,7.2352 140.56202,48.58 143.51082,60.9834 2.9489,12.4034 28.5056,82.6895 -65.85766,101.2947 -94.36337,18.6052 -178.89707,-1.0337 -208.38563,-48.5801 z"
       id="path3525"
       inkscape:connector-curvature="0" />
    <path
       style="color:#000000;display:inline;overflow:visible;visibility:visible;fill:#ffffff;fill-opacity:1;fill-rule:nonzero;stroke:none;stroke-width:0.82961708px;marker:none;enable-background:accumulate"
       d="m 145.18695,2499.0023 c -3.5907,-83.1521 -36.68819,-207.3452 176.59738,-210.7955 174.93203,-2.8298 381.87794,-29.6992 381.42098,185.2161 -0.31443,147.8812 -160.6927,147.3842 -245.48879,150.2012 -181.07542,6.0154 -309.73793,-40.11 -312.52957,-124.6218 z"
       id="path3525-0"
       inkscape:connector-curvature="0"
       sodipodi:nodetypes="csssc" />
    <path
       style="fill:#ffffff;fill-rule:evenodd;stroke:none;stroke-width:1px;stroke-linecap:butt;stroke-linejoin:miter;stroke-opacity:1"
       d="m 742.60914,2350.2751 c 102.97849,-126.0799 251.45982,-276.6361 847.08866,1.322 C 1049.11,2056.78 875.57765,2160.7347 719.24197,2320.9166 c -175.12871,179.4373 23.36717,29.3585 23.36717,29.3585 z"
       id="path4446"
       inkscape:connector-curvature="0"
       sodipodi:nodetypes="ccsc" />
  </g>
  <g
     inkscape:groupmode="layer"
     id="layer1"
     inkscape:label="txt">
    <text
       xml:space="preserve"
       style="font-style:normal;font-variant:normal;font-weight:normal;font-stretch:normal;line-height:0%;font-family:Lavi;-inkscape-font-specification:Lavi;text-align:center;letter-spacing:0px;word-spacing:0px;text-anchor:middle;fill:#000000;fill-opacity:1;stroke:none"
       x="359.43857"
       y="135.09555"
       id="text4246"><tspan
         sodipodi:role="line"
         style="font-size:45px;line-height:1.25"
         x="359.43857"
         y="135.09555"
         id="tspan4205">Potrebujem le</tspan><tspan
         sodipodi:role="line"
         style="font-size:45px;line-height:1.25"
         x="359.43857"
         y="191.34555"
         id="tspan57">droben podpis na dnu tega</tspan><tspan
         sodipodi:role="line"
         style="font-size:45px;line-height:1.25"
         x="359.43857"
         y="247.59555"
         id="tspan59">dokumenta in vrata slave</tspan><tspan
         sodipodi:role="line"
         style="font-size:45px;line-height:1.25"
         x="359.43857"
         y="303.84555"
         id="tspan68">se vam bodo odprla!</tspan></text>
    <text
       xml:space="preserve"
       style="font-style:normal;font-variant:normal;font-weight:normal;font-stretch:normal;line-height:0%;font-family:Lavi;-inkscape-font-specification:Lavi;text-align:center;letter-spacing:0px;word-spacing:0px;text-anchor:middle;fill:#000000;fill-opacity:1;stroke:none"
       x="1326.9276"
       y="1168.6069"
       id="text4246-3"><tspan
         sodipodi:role="line"
         style="font-size:45px;line-height:1.25"
         x="1326.9276"
         y="1168.6069"
         id="tspan92">Samo</tspan><tspan
         sodipodi:role="line"
         style="font-size:45px;line-height:1.25"
         x="1326.9276"
         y="1224.8569"
         id="tspan96">trenutek.</tspan></text>
    <text
       xml:space="preserve"
       style="font-style:normal;font-variant:normal;font-weight:normal;font-stretch:normal;line-height:0%;font-family:Lavi;-inkscape-font-specification:Lavi;text-align:center;letter-spacing:0px;word-spacing:0px;text-anchor:middle;fill:#000000;fill-opacity:1;stroke:none"
       x="2049.8047"
       y="1688.8641"
       id="text4246-3-6"><tspan
         sodipodi:role="line"
         style="font-size:45px;line-height:1.25"
         x="2049.8047"
         y="1688.8641"
         id="tspan4225">Kaj stoji za to</tspan><tspan
         sodipodi:role="line"
         style="font-size:45px;line-height:1.25"
         x="2049.8047"
         y="1745.1141"
         id="tspan4263"><tspan
   style="font-style:italic;font-variant:normal;font-weight:normal;font-stretch:normal;font-family:Lavi;-inkscape-font-specification:'Lavi Italic'"
   id="tspan4265">Deus ex machino</tspan> ?!</tspan></text>
    <text
       xml:space="preserve"
       style="font-style:normal;font-variant:normal;font-weight:normal;font-stretch:normal;line-height:0%;font-family:Lavi;-inkscape-font-specification:Lavi;text-align:center;letter-spacing:0px;word-spacing:0px;text-anchor:middle;fill:#000000;fill-opacity:1;stroke:none"
       x="2041.0228"
       y="1135.3965"
       id="text4246-3-6-1"><tspan
         sodipodi:role="line"
         style="font-size:45px;line-height:1.25"
         x="2041.0228"
         y="1135.3965"
         id="tspan124">Točno v tem trenutku, ko</tspan><tspan
         sodipodi:role="line"
         style="font-size:45px;line-height:1.25"
         x="2041.0228"
         y="1191.6465"
         id="tspan118">sem psihično na dnu, padeš</tspan><tspan
         sodipodi:role="line"
         style="font-size:45px;line-height:1.25"
         x="2041.0228"
         y="1247.8965"
         id="tspan126">z neba s čarobno rešitvijo</tspan><tspan
         sodipodi:role="line"
         style="font-size:45px;line-height:1.25"
         x="2041.0228"
         y="1304.1465"
         id="tspan140">za vse moje težave?!</tspan></text>
    <text
       xml:space="preserve"
       style="font-style:normal;font-variant:normal;font-weight:normal;font-stretch:normal;line-height:0%;font-family:Lavi;-inkscape-font-specification:Lavi;text-align:center;letter-spacing:0px;word-spacing:0px;text-anchor:middle;fill:#000000;fill-opacity:1;stroke:none"
       x="2136.7385"
       y="1831.4176"
       id="text4246-3-6-3"><tspan
         sodipodi:role="line"
         style="font-size:45px;line-height:1.25"
         x="2136.7385"
         y="1831.4176"
         id="tspan108">Vse skupaj mi</tspan><tspan
         sodipodi:role="line"
         style="font-size:45px;line-height:1.25"
         x="2136.7385"
         y="1887.6676"
         id="tspan151">izgleda sumljivo;</tspan><tspan
         sodipodi:role="line"
         style="font-size:45px;line-height:1.25"
         x="2136.7385"
         y="1943.9176"
         id="tspan142"><tspan
   style="font-style:italic;font-weight:bold"
   id="tspan114">zelo</tspan> sumljivo!</tspan></text>
    <text
       xml:space="preserve"
       style="font-style:normal;font-variant:normal;font-weight:normal;font-stretch:normal;line-height:0%;font-family:Lavi;-inkscape-font-specification:Lavi;text-align:center;letter-spacing:0px;word-spacing:0px;text-anchor:middle;fill:#000000;fill-opacity:1;stroke:none"
       x="428.22928"
       y="2194.6899"
       id="text4246-3-6-3-2"><tspan
         sodipodi:role="line"
         style="font-size:45px;line-height:1.25"
         x="428.22928"
         y="2194.6899"
         id="tspan4295-8">Pridi</tspan><tspan
         sodipodi:role="line"
         style="font-size:45px;line-height:1.25"
         x="428.22928"
         y="2250.9399"
         id="tspan4326">Korenček.</tspan></text>
    <text
       xml:space="preserve"
       style="font-style:normal;font-variant:normal;font-weight:normal;font-stretch:normal;line-height:0%;font-family:Lavi;-inkscape-font-specification:Lavi;text-align:center;letter-spacing:0px;word-spacing:0px;text-anchor:middle;fill:#000000;fill-opacity:1;stroke:none"
       x="420.0448"
       y="2385.1279"
       id="text4246-3-6-3-2-7"><tspan
         sodipodi:role="line"
         style="font-size:45px;line-height:1.25"
         x="420.0448"
         y="2385.1279"
         id="tspan866">Tak trik bi prej verjetno</tspan><tspan
         sodipodi:role="line"
         style="font-size:45px;line-height:1.25"
         x="420.0448"
         y="2441.3779"
         id="tspan167">vžgal, vendar sedaj nisva</tspan><tspan
         sodipodi:role="line"
         style="font-size:45px;line-height:1.25"
         x="420.0448"
         y="2497.6279"
         id="tspan175">več tako naivna da bi</tspan><tspan
         sodipodi:role="line"
         style="font-size:45px;line-height:1.25"
         x="420.0448"
         y="2553.8779"
         id="tspan179">nasedla takšni zvijači!</tspan></text>
  </g>
</svg>
