<?xml version="1.0" encoding="UTF-8" standalone="no"?>
<svg
   xmlns:dc="http://purl.org/dc/elements/1.1/"
   xmlns:cc="http://creativecommons.org/ns#"
   xmlns:rdf="http://www.w3.org/1999/02/22-rdf-syntax-ns#"
   xmlns:svg="http://www.w3.org/2000/svg"
   xmlns="http://www.w3.org/2000/svg"
   xmlns:xlink="http://www.w3.org/1999/xlink"
   xmlns:sodipodi="http://sodipodi.sourceforge.net/DTD/sodipodi-0.dtd"
   xmlns:inkscape="http://www.inkscape.org/namespaces/inkscape"
   id="svg2"
   version="1.1"
   inkscape:version="1.0.2-2 (e86c870879, 2021-01-15)"
   width="2481"
   height="3503"
   sodipodi:docname="E32P03.svg">
  <metadata
     id="metadata8">
    <rdf:RDF>
      <cc:Work
         rdf:about="">
        <dc:format>image/svg+xml</dc:format>
        <dc:type
           rdf:resource="http://purl.org/dc/dcmitype/StillImage" />
        <dc:title />
      </cc:Work>
    </rdf:RDF>
  </metadata>
  <defs
     id="defs6">
    <filter
       inkscape:collect="always"
       style="color-interpolation-filters:sRGB"
       id="filter4213-8-8"
       x="-0.0010298714"
       width="1.0020597"
       y="-0.0014578935"
       height="1.0029159">
      <feGaussianBlur
         inkscape:collect="always"
         stdDeviation="0.24308766"
         id="feGaussianBlur4215-7-9" />
    </filter>
    <filter
       inkscape:collect="always"
       style="color-interpolation-filters:sRGB"
       id="filter1266-5-1"
       x="-0.013221323"
       width="1.0264426"
       y="-0.024911748"
       height="1.0498235">
      <feGaussianBlur
         inkscape:collect="always"
         stdDeviation="0.78825367"
         id="feGaussianBlur1268-9-2" />
    </filter>
    <filter
       inkscape:collect="always"
       style="color-interpolation-filters:sRGB"
       id="filter1395"
       x="-0.01195875"
       width="1.0239176"
       y="-0.014728761"
       height="1.0294574">
      <feGaussianBlur
         inkscape:collect="always"
         stdDeviation="0.26634151"
         id="feGaussianBlur1397" />
    </filter>
    <filter
       inkscape:collect="always"
       style="color-interpolation-filters:sRGB"
       id="filter1266"
       x="-0.013221323"
       width="1.0264426"
       y="-0.024911748"
       height="1.0498235">
      <feGaussianBlur
         inkscape:collect="always"
         stdDeviation="0.78825367"
         id="feGaussianBlur1268" />
    </filter>
    <filter
       inkscape:collect="always"
       style="color-interpolation-filters:sRGB"
       id="filter1639"
       x="-0.022949615"
       width="1.0458992"
       y="-0.048711937"
       height="1.0974239">
      <feGaussianBlur
         inkscape:collect="always"
         stdDeviation="0.45636794"
         id="feGaussianBlur1641" />
    </filter>
    <filter
       inkscape:collect="always"
       style="color-interpolation-filters:sRGB"
       id="filter1266-5"
       x="-0.013221323"
       width="1.0264426"
       y="-0.024911748"
       height="1.0498235">
      <feGaussianBlur
         inkscape:collect="always"
         stdDeviation="0.78825367"
         id="feGaussianBlur1268-9" />
    </filter>
    <filter
       inkscape:collect="always"
       style="color-interpolation-filters:sRGB"
       id="filter4213-0"
       x="-0.0010298714"
       width="1.0020597"
       y="-0.0014578935"
       height="1.0029159">
      <feGaussianBlur
         inkscape:collect="always"
         stdDeviation="0.24308766"
         id="feGaussianBlur4215-2" />
    </filter>
    <filter
       inkscape:collect="always"
       style="color-interpolation-filters:sRGB"
       id="filter4213-1"
       x="-0.0010298714"
       width="1.0020597"
       y="-0.0014578935"
       height="1.0029159">
      <feGaussianBlur
         inkscape:collect="always"
         stdDeviation="0.24308766"
         id="feGaussianBlur4215-9" />
    </filter>
    <filter
       inkscape:collect="always"
       style="color-interpolation-filters:sRGB"
       id="filter4213"
       x="-0.0010298714"
       width="1.0020597"
       y="-0.0014578935"
       height="1.0029159">
      <feGaussianBlur
         inkscape:collect="always"
         stdDeviation="0.24308766"
         id="feGaussianBlur4215" />
    </filter>
    <filter
       style="color-interpolation-filters:sRGB"
       id="filter5561-1"
       inkscape:label="deevad outline effect">
      <feFlood
         id="feFlood5563-9"
         flood-opacity="1"
         flood-color="rgb(0,0,0)"
         result="flood" />
      <feComposite
         id="feComposite5565-0"
         in2="SourceGraphic"
         in="flood"
         operator="in"
         result="composite1" />
      <feMorphology
         id="feMorphology5567-7"
         operator="dilate"
         radius="1.8999999999999999 6.0999999999999996"
         result="result3" />
      <feComposite
         id="feComposite5569-2"
         in2="result3"
         in="SourceGraphic"
         operator="over"
         result="composite2" />
    </filter>
  </defs>
  <sodipodi:namedview
     pagecolor="#ffffff"
     bordercolor="#666666"
     borderopacity="1"
     objecttolerance="10"
     gridtolerance="10"
     guidetolerance="10"
     inkscape:pageopacity="0"
     inkscape:pageshadow="2"
     inkscape:window-width="1366"
     inkscape:window-height="745"
     id="namedview4"
     showgrid="false"
     inkscape:zoom="0.4058178"
     inkscape:cx="1390.5139"
     inkscape:cy="2811.6717"
     inkscape:window-x="-8"
     inkscape:window-y="-8"
     inkscape:window-maximized="1"
     inkscape:current-layer="layer3"
     inkscape:snap-global="false"
     inkscape:document-rotation="0" />
  <g
     inkscape:groupmode="layer"
     id="layer2"
     inkscape:label="artwork"
     sodipodi:insensitive="true">
    <image
       sodipodi:absref="C:\Users\quentinlipeck\Downloads\webcomics-master-ec7d62e6553c2c63bb1cf2e799ee31f9cb9ce5e2\webcomics-master-ec7d62e6553c2c63bb1cf2e799ee31f9cb9ce5e2\ep32_The-Battlefield\lang\gfx_Pepper-and-Carrot_by-David-Revoy_E32P03.png"
       xlink:href="../gfx_Pepper-and-Carrot_by-David-Revoy_E32P03.png"
       y="0"
       x="0"
       id="image10"
       height="3503"
       width="2481" />
  </g>
  <g
     inkscape:groupmode="layer"
     id="layer3"
     inkscape:label="speechbubbles">
    <path
       style="fill:#ffffff;stroke:none;stroke-width:1"
       d="m 422.42593,211.2925 c -5.49879,51.69419 -83.25672,59.68933 -119.1525,61.21736 -35.89571,1.52748 -131.36479,8.19477 -163.70896,-35.04616 -32.34408,-43.24035 -18.13783,-63.07567 2.89681,-84.14687 17.93758,-17.96915 60.10881,-26.66186 97.02364,-30.91794 45.83711,-5.28392 121.93718,6.9987 153.71833,29.11345 16.94853,11.79308 34.72161,8.08598 29.22268,59.78016 z"
       id="path3100-98"
       inkscape:connector-curvature="0"
       sodipodi:nodetypes="zsssssz" />
    <path
       style="color:#000000;display:inline;overflow:visible;visibility:visible;fill:#ffffff;fill-opacity:1;fill-rule:nonzero;stroke:none;stroke-width:1px;marker:none;enable-background:accumulate"
       d="m 445.73177,226.91731 c 2.5936,-29.9854 2.96591,-58.9339 37.27157,-76.53429 34.30559,-17.59964 94.74283,-22.47289 170.65608,-18.10118 40.66319,2.34151 91.88831,5.4981 124.31403,17.66882 32.42571,12.17072 46.0521,33.35555 42.72459,77.27343 -3.3275,43.91789 -21.28423,63.10561 -58.74161,74.38604 -37.4573,11.28118 -94.41538,14.65509 -108.1308,15.90855 -13.71542,1.25347 -56.25457,0.17295 -98.45961,-4.89881 -42.20497,-5.07176 -71.07301,-8.61861 -83.4519,-23.3331 -19.40593,-18.63429 -27.36247,-40.54474 -26.18235,-62.36946 z"
       id="path4546-6-2-0"
       inkscape:connector-curvature="0"
       sodipodi:nodetypes="cssssssscc" />
    <path
       style="color:#000000;display:inline;overflow:visible;visibility:visible;fill:#ffffff;fill-opacity:1;fill-rule:nonzero;stroke:none;stroke-width:1.05661px;marker:none;enable-background:accumulate"
       d="m 990.50977,134.47461 c -35.5769,0.53823 -71.52917,5.82894 -104.51593,19.62298 -11.12591,5.27951 -18.64774,15.9051 -23.29618,26.99543 -8.64822,19.58471 -17.74528,39.48517 -20.21659,60.98254 -3.16387,23.96917 -1.36122,49.13444 8.62885,71.38846 8.32352,18.29257 24.39628,32.21755 42.53483,40.34836 21.15367,9.74475 43.95303,15.02125 66.41669,20.77345 28.64278,6.73326 58.33986,9.02682 87.67486,6.75011 22.6261,-2.07624 45.0464,-7.39349 65.9064,-16.47084 11.1678,-4.96773 22.1977,-10.90531 30.765,-19.79447 8.9067,-8.90201 15.2542,-20.14332 18.9414,-32.14487 4.9342,-15.70522 6.1272,-32.29209 6.3901,-48.66233 -0.042,-19.10583 -2.6825,-38.56345 -10.5703,-56.11051 -8.7873,-18.83635 -23.868,-34.23574 -41.3703,-45.19986 -25.5776,-16.48399 -55.7207,-24.7521 -85.8622,-27.17663 -13.7732,-1.18578 -27.6099,-1.37631 -41.42663,-1.30182 z"
       id="path4040-41"
       inkscape:connector-curvature="0"
       sodipodi:nodetypes="zssssz" />
    <path
       style="opacity:1;fill:#ffffff;fill-rule:evenodd;stroke:none;stroke-width:1px;stroke-linecap:butt;stroke-linejoin:miter;stroke-opacity:1"
       d="m 1027.5093,510.74622 c 79.9896,-25.34188 116.4009,-40.38771 130.7924,-88.3665 12.0423,-40.14692 -33.9999,-116.14332 -96.0942,-157.07156 -74.30428,-48.97611 -720.91559,-69.58576 -737.53456,-86.65613 -24.24194,-24.90039 -28.29447,37.40472 -7.48472,36.66367 110.11684,-3.92132 657.67116,25.43523 724.93768,68.50333 62.3575,39.92512 107.1789,103.00167 91.9981,146.96092 -14.5457,42.11997 -106.6147,79.96627 -106.6147,79.96627 z"
       id="path4324-2"
       inkscape:connector-curvature="0"
       sodipodi:nodetypes="cssssssc" />
    <path
       style="color:#000000;display:inline;overflow:visible;visibility:visible;fill:#ffffff;fill-opacity:1;fill-rule:nonzero;stroke:none;stroke-width:1px;marker:none;enable-background:accumulate"
       d="m 1454.5762,160.75586 c 5.1041,58.0424 -54.6597,45.56473 -81.7685,27.27436 -2.5338,-1.6925 -4.992,-3.49395 -7.4698,-5.26655 8.3571,32.63909 8.7318,63.94917 -31.5176,57.06055 19.4295,29.50108 -25.094,34.82714 -35.7402,35.84961 55.5645,10.44428 18.8575,27.33762 -10.5935,34.65625 29.9889,5.47045 74.4949,-1.33603 36.6111,37.39648 55.8802,-15.87086 78.1075,0.39261 50.4218,49.15625 52.2001,-36.63239 82.7104,-61.70826 88.8301,4.9375 31.8416,-53.579 65.5874,-66.95947 108.1666,2.65777 3.5209,-66.17428 57.9738,-33.5212 76.5507,-6.88267 -5.1776,-47.05832 54.7651,-39.35867 70.0889,-27.18325 -7.1056,-46.93794 40.9813,-20.43662 60.6801,-12.24614 -31.1212,-31.80398 -12.1843,-56.49275 15.0547,-53.41602 -56.2208,-27.61301 -57.696,-45.70415 -7.8965,-57.75977 -28.9602,-6.35909 -66.4601,-19.18971 -49.8379,-55.71679 -41.3032,17.91152 -55.8226,8.59899 -36.8652,-31.42383 -19.1944,22.94734 -68.0396,61.05751 -59.2544,3.58044 -42.5758,37.59194 -77.5392,43.77553 -108.4409,2.38831 -21.6651,31.9191 -33.915,51.04462 -77.321,-6.27184 z"
       id="path3549-3-7-1"
       inkscape:connector-curvature="0"
       sodipodi:nodetypes="ccccccccccccccccccccc" />
    <path
       style="color:#000000;display:inline;overflow:visible;visibility:visible;fill:#ffffff;fill-opacity:1;fill-rule:nonzero;stroke:none;stroke-width:1px;marker:none;enable-background:accumulate"
       d="m 1898.5376,423.83603 c -31.5172,-40.32544 -51.0315,-61.90879 -76.4783,-108.99711 l 3.258,50.97171 c -16.0686,-10.44733 -25.4093,-31.97446 -37.0346,-49.73896 l -2.127,38.51455 c -36.3006,-43.2467 -51.7192,-53.55742 -83.7945,-82.67547 l -29.5303,38.66317 c 49.3632,6.12619 92.5351,44.77214 122.6506,81.95014 l 4.6002,-30.96826 c 11.8245,10.93146 23.3216,22.49541 33.3564,36.88708 l 3.0413,-39.51242 z"
       id="path4032-8"
       inkscape:connector-curvature="0"
       sodipodi:nodetypes="cccccccccccc" />
    <path
       style="fill:#ffffff;fill-opacity:1;stroke:none;stroke-width:1.95671"
       d="m 418.65766,1219.3743 c -58.0511,1.5041 -116.51983,2.2264 -173.74952,14.633 -23.67461,5.4633 -45.90615,21.8972 -57.76688,46.15 -8.77262,18.9528 -9.62812,41.4051 -6.05473,62.1015 2.09546,15.0931 6.6574,30.8381 17.18691,41.0752 11.0899,10.7672 26.02687,14.1812 40.20607,15.1555 78.84344,7.9595 158.11307,9.3449 237.20742,6.926 34.02886,-1.5434 68.73474,-6.2496 100.01718,-22.4785 16.9099,-8.6659 33.44486,-20.6071 43.60104,-38.7197 13.68119,-24.428 15.89193,-57.4592 3.34625,-83.0462 -6.73004,-13.9525 -18.81232,-24.4666 -32.55371,-27.7646 -16.52338,-5.1091 -33.65554,-6.7121 -50.56722,-9.3389 -40.13452,-4.857 -80.56378,-4.7564 -120.87281,-4.6933 z"
       id="path3659-8-8"
       inkscape:connector-curvature="0"
       sodipodi:nodetypes="cssssc" />
    <path
       style="color:#000000;display:inline;overflow:visible;visibility:visible;fill:#ffffff;fill-opacity:1;fill-rule:nonzero;stroke:none;stroke-width:1.03477px;marker:none;enable-background:accumulate"
       d="m 701.74548,1262.3053 c 44.71535,-49.1309 292.67153,-41.6168 369.79602,-28.9623 84.1673,13.8097 110.0813,33.3771 113.8448,76.2637 1.1627,13.2467 -5.6454,73.317 -47.0467,85.1428 -41.4011,11.8249 -159.95897,17.7378 -201.36019,17.7378 -41.40111,0 -173.56277,-7.5264 -207.00615,-24.8336 -31.99176,-16.5549 -72.94324,-76.2182 -28.22778,-125.3484 z"
       id="path3330-0"
       inkscape:connector-curvature="0"
       sodipodi:nodetypes="zsssssz" />
    <path
       style="color:#000000;display:inline;overflow:visible;visibility:visible;fill:#ffffff;fill-opacity:1;fill-rule:nonzero;stroke:none;stroke-width:1px;marker:none;enable-background:accumulate"
       d="m 1127.7031,1285.3086 c -35.1479,0.5355 -69.5967,8.4334 -103.6154,16.5941 -49.13375,10.4082 -99.53906,15.0535 -149.74449,13.2789 -37.85187,-1.9717 -74.72689,-11.479 -112.2104,-16.3867 -27.13306,-3.8424 -54.49932,-6.065 -81.90506,-6.3675 -21.60966,-0.6613 -43.62362,-1.0004 -64.71542,4.4039 -6.69912,2.7732 -13.10146,9.0159 -12.70954,16.7567 1.37729,8.4316 12.41102,12.8953 19.47608,8.3506 25.84394,-7.867 53.23744,-6.7309 79.86691,-4.9925 53.48698,3.8282 105.5369,18.2757 158.94706,22.7198 36.07251,2.8003 72.35937,0.6801 108.18044,-4.0276 41.29882,-4.6938 81.71632,-14.6991 122.59862,-21.8806 50.1342,-7.4612 100.8913,-2.8218 151.3058,-2.4804 34.6691,-0.6202 68.8713,6.0171 102.8559,12.0288 13.0784,2.2637 25.7908,6.1725 38.6093,9.5091 20.3224,3.8121 41.3187,4.4766 61.0231,11.2177 2.0745,0.5694 5.0344,1.5554 6.5522,1.8758 -25.9906,-12.8186 -53.5314,-22.3555 -81.6848,-29.1316 -17.1605,-6.3995 -34.7595,-11.9827 -52.9519,-14.4761 -14.7021,-4.286 -29.0606,-11.6573 -44.7623,-10.8353 -48.4768,0.9882 -96.6562,-6.5623 -145.1161,-6.1571 z"
       id="path5050-5"
       inkscape:connector-curvature="0"
       sodipodi:nodetypes="csccscccccccccccc" />
  </g>
  <g
     inkscape:groupmode="layer"
     id="layer1"
     inkscape:label="txt">
    <text
       xml:space="preserve"
       style="font-style:normal;font-variant:normal;font-weight:normal;font-stretch:normal;line-height:0%;font-family:Lavi;-inkscape-font-specification:Lavi;text-align:center;letter-spacing:0px;word-spacing:0px;text-anchor:middle;fill:#000000;fill-opacity:1;stroke:none"
       x="272.01614"
       y="210.52769"
       id="text4246-10"><tspan
         sodipodi:role="line"
         style="font-size:45px;line-height:1.25"
         x="272.01614"
         y="210.52769"
         id="tspan4262">ni li seme?</tspan></text>
    <text
       xml:space="preserve"
       style="font-style:normal;font-variant:normal;font-weight:normal;font-stretch:normal;line-height:0%;font-family:Lavi;-inkscape-font-specification:Lavi;text-align:center;letter-spacing:0px;word-spacing:0px;text-anchor:middle;fill:#000000;fill-opacity:1;stroke:none"
       x="635.88397"
       y="204.53128"
       id="text4246-10-3"><tspan
         sodipodi:role="line"
         style="font-size:45px;line-height:1.25"
         x="635.88397"
         y="204.53128"
         id="tspan114">mi jan sona pi </tspan><tspan
         sodipodi:role="line"
         style="font-size:45px;line-height:1.25"
         x="635.88397"
         y="260.78128"
         id="tspan118">wawa Pakalaa.</tspan></text>
    <text
       xml:space="preserve"
       style="font-style:normal;font-variant:normal;font-weight:normal;font-stretch:normal;line-height:0%;font-family:Lavi;-inkscape-font-specification:Lavi;text-align:center;letter-spacing:0px;word-spacing:0px;text-anchor:middle;fill:#000000;fill-opacity:1;stroke:none"
       x="1004.3275"
       y="216.5408"
       id="text4246-10-3-7"><tspan
         sodipodi:role="line"
         style="font-size:45px;line-height:1.25"
         x="1004.3275"
         y="216.5408"
         id="tspan871">o lukin:</tspan><tspan
         sodipodi:role="line"
         style="font-size:45px;line-height:1.25"
         x="1004.3275"
         y="272.7908"
         id="tspan106">mi jo e </tspan><tspan
         sodipodi:role="line"
         style="font-size:45px;line-height:1.25"
         x="1004.3275"
         y="329.0408"
         id="tspan110">lipu la...</tspan></text>
    <text
       xml:space="preserve"
       style="font-style:normal;font-variant:normal;font-weight:normal;font-stretch:normal;line-height:0%;font-family:Lavi;-inkscape-font-specification:Lavi;text-align:center;letter-spacing:0px;word-spacing:0px;text-anchor:middle;display:inline;opacity:0.6;fill:#000000;fill-opacity:1;stroke:none;stroke-width:0.61894;filter:url(#filter4213)"
       x="-447.29675"
       y="2872.5061"
       id="text4246-85"
       transform="matrix(1.3713655,0.09826905,-0.30492304,1.288908,2476.116,-3046.511)"><tspan
         sodipodi:role="line"
         style="font-style:normal;font-variant:normal;font-weight:normal;font-stretch:normal;font-size:68.8156px;line-height:1.27;font-family:Fondamento;-inkscape-font-specification:Fondamento;stroke:#000000;stroke-width:0.709879;stroke-opacity:1"
         x="-447.29675"
         y="2872.5061"
         id="tspan4172">lipu</tspan></text>
    <text
       xml:space="preserve"
       style="font-style:normal;font-variant:normal;font-weight:normal;font-stretch:normal;line-height:0%;font-family:Lavi;-inkscape-font-specification:Lavi;text-align:center;letter-spacing:0px;word-spacing:0px;text-anchor:middle;display:inline;opacity:0.6;fill:#000000;fill-opacity:1;stroke:none;stroke-width:0.886809;filter:url(#filter4213-1)"
       x="-447.29675"
       y="2872.5061"
       id="text4246-85-4"
       transform="matrix(0.94520232,0.10579933,-0.24743814,0.89868187,2109.391,-1849.3894)"><tspan
         sodipodi:role="line"
         style="font-style:normal;font-variant:normal;font-weight:normal;font-stretch:normal;font-size:68.8156px;line-height:1.27;font-family:Fondamento;-inkscape-font-specification:Fondamento;stroke:#000000;stroke-width:1.0171;stroke-opacity:1"
         x="-447.29675"
         y="2872.5061"
         id="tspan4172-78">pi kulupu</tspan></text>
    <text
       xml:space="preserve"
       style="font-style:normal;font-variant:normal;font-weight:normal;font-stretch:normal;line-height:0%;font-family:Lavi;-inkscape-font-specification:Lavi;text-align:center;letter-spacing:0px;word-spacing:0px;text-anchor:middle;display:inline;opacity:0.6;fill:#000000;fill-opacity:1;stroke:none;stroke-width:0.763319;filter:url(#filter4213-0)"
       x="-447.29675"
       y="2872.5061"
       id="text4246-85-3"
       transform="matrix(1.1080677,0.12588713,-0.24232455,1.0390525,2145.0286,-2169.488)"><tspan
         sodipodi:role="line"
         style="font-style:normal;font-variant:normal;font-weight:normal;font-stretch:normal;font-size:68.8156px;line-height:1.27;font-family:Fondamento;-inkscape-font-specification:Fondamento;stroke:#000000;stroke-width:0.875471;stroke-opacity:1"
         x="-447.29675"
         y="2872.5061"
         id="tspan4172-7">Pakalaa</tspan></text>
    <text
       xml:space="preserve"
       style="font-style:normal;font-variant:normal;font-weight:normal;font-stretch:normal;line-height:0%;font-family:Lavi;-inkscape-font-specification:Lavi;text-align:center;letter-spacing:0px;word-spacing:0px;text-anchor:middle;display:inline;opacity:0.699;fill:#202020;fill-opacity:1;stroke:#000000;stroke-width:0.341967;stroke-miterlimit:4;stroke-dasharray:none;stroke-opacity:1;filter:url(#filter1266)"
       x="903.31201"
       y="2924.6372"
       id="text4246-8-3-7"
       transform="matrix(0.98507156,-0.49862606,0.34034107,1.288094,-1030.3969,-2382.8062)"><tspan
         sodipodi:role="line"
         style="font-style:normal;font-variant:normal;font-weight:normal;font-stretch:normal;font-size:51.0087px;line-height:1.25;font-family:Cursivah;-inkscape-font-specification:Cursivah;fill:#202020;fill-opacity:1;stroke:#000000;stroke-width:0.341967;stroke-miterlimit:4;stroke-dasharray:none;stroke-opacity:1"
         x="903.31201"
         y="2924.6372"
         id="tspan4150-8-6-5">  jKajen</tspan></text>
    <text
       xml:space="preserve"
       style="font-style:normal;font-variant:normal;font-weight:normal;font-stretch:normal;line-height:0%;font-family:Lavi;-inkscape-font-specification:Lavi;text-align:center;letter-spacing:0px;word-spacing:0px;text-anchor:middle;display:inline;opacity:0.699;fill:#202020;fill-opacity:1;stroke:#000000;stroke-width:0.330534;stroke-miterlimit:4;stroke-dasharray:none;stroke-opacity:1;filter:url(#filter1266-5)"
       x="903.31201"
       y="2924.6372"
       id="text4246-8-3-7-2"
       transform="matrix(1.2249224,-0.16351137,-0.05268865,1.2640987,72.67569,-2662.2628)"><tspan
         sodipodi:role="line"
         style="font-size:38.3128px;line-height:1.25;fill:#202020;fill-opacity:1;stroke:#000000;stroke-width:0.330534;stroke-miterlimit:4;stroke-dasharray:none;stroke-opacity:1"
         x="903.31201"
         y="2924.6372"
         id="tspan4150-8-6-5-2">jKumin</tspan></text>
    <text
       xml:space="preserve"
       style="font-style:normal;font-variant:normal;font-weight:normal;font-stretch:normal;line-height:0%;font-family:Lavi;-inkscape-font-specification:Lavi;text-align:center;letter-spacing:-0.0334897px;word-spacing:0px;text-anchor:middle;display:inline;opacity:0.699;fill:#202020;fill-opacity:1;stroke:#000000;stroke-width:0.314035;stroke-miterlimit:4;stroke-dasharray:none;stroke-opacity:1;filter:url(#filter1266-5-1)"
       x="903.31201"
       y="2924.6372"
       id="text4246-8-3-7-2-9"
       transform="matrix(1.4560413,-0.02137803,-0.63767126,1.180929,1526.7936,-2434.7947)"><tspan
         sodipodi:role="line"
         style="font-style:normal;font-variant:normal;font-weight:normal;font-stretch:normal;font-size:38.3128px;line-height:1.25;font-family:Fondamento;-inkscape-font-specification:Fondamento;letter-spacing:-0.0334897px;fill:#202020;fill-opacity:1;stroke:#000000;stroke-width:0.314035;stroke-miterlimit:4;stroke-dasharray:none;stroke-opacity:1"
         x="903.29529"
         y="2924.6372"
         id="tspan4150-8-6-5-2-3"><tspan
   style="font-size:53.5835px;letter-spacing:-6.69793px;stroke-width:0.314035"
   id="tspan1399"><tspan
   style="font-size:37.772px"
   id="tspan91">j</tspan>T</tspan><tspan
   style="letter-spacing:-0.669793px;stroke-width:0.314035"
   id="tspan1407">u</tspan>me</tspan></text>
    <text
       xml:space="preserve"
       style="font-style:normal;font-variant:normal;font-weight:normal;font-stretch:normal;line-height:0%;font-family:Lavi;-inkscape-font-specification:Lavi;text-align:center;letter-spacing:0px;word-spacing:0px;text-anchor:middle;display:inline;opacity:0.6;fill:#000000;fill-opacity:1;stroke:none;stroke-width:0.738759;filter:url(#filter4213-8-8)"
       x="-447.29675"
       y="2872.5061"
       id="text4246-85-9-7"
       transform="matrix(1.1265079,-0.01406056,-0.02918254,1.1204037,1496.6499,-2132.9222)"><tspan
         sodipodi:role="line"
         style="font-style:normal;font-variant:normal;font-weight:normal;font-stretch:normal;font-size:49.1939px;line-height:1.27;font-family:Fondamento;-inkscape-font-specification:Fondamento;stroke:#000000;stroke-width:0.847303;stroke-opacity:1"
         x="-447.29675"
         y="2872.5061"
         id="tspan1120-6">~ jan Pepa li ~</tspan></text>
    <text
       xml:space="preserve"
       style="font-style:normal;font-variant:normal;font-weight:normal;font-stretch:normal;font-size:14.7792px;line-height:0%;font-family:Lavi;-inkscape-font-specification:Lavi;text-align:center;letter-spacing:0px;word-spacing:0px;text-anchor:middle;fill:#000000;fill-opacity:1;stroke:#000000;stroke-width:1.3;stroke-miterlimit:4;stroke-dasharray:none;stroke-opacity:1"
       x="1619.0638"
       y="303.90353"
       id="text4246-7-6-4-0"
       transform="matrix(0.99650308,0,-0.23158448,1.0035092,0,0)"><tspan
         sodipodi:role="line"
         style="font-style:normal;font-variant:normal;font-weight:bold;font-stretch:normal;font-size:74.8582px;line-height:1.25;font-family:Lavi;-inkscape-font-specification:'Lavi Bold';stroke:#000000;stroke-width:1.3;stroke-miterlimit:4;stroke-dasharray:none;stroke-opacity:1"
         x="1619.0638"
         y="303.90353"
         id="tspan4212-7">O PINI!</tspan></text>
    <path
       style="opacity:0.699;fill:none;fill-rule:evenodd;stroke:#202020;stroke-width:1.05166;stroke-linecap:butt;stroke-linejoin:miter;stroke-miterlimit:4;stroke-dasharray:none;stroke-opacity:1;filter:url(#filter1639)"
       d="m 1547.1934,2802.853 c 3.8646,-3.5133 9.3102,-3.689 12.2965,-3.5133 2.9863,0.1757 7.0265,-4.7429 9.8371,-5.6212 2.8106,-0.8783 12.8234,0.1756 13.8774,-0.8783 1.054,-1.054 11.2425,-2.108 11.5938,-3.8646 0.3513,-1.7567 -0.086,-5.8644 -0.086,-5.8644"
       id="path1409"
       inkscape:connector-curvature="0"
       transform="matrix(2.332865,0.27867164,-0.32316546,2.0116733,-1731.1758,-5165.5624)"
       sodipodi:nodetypes="cssccc" />
    <path
       style="opacity:0.699;vector-effect:none;fill:none;fill-opacity:1;fill-rule:evenodd;stroke:#202020;stroke-width:0.324644;stroke-linecap:butt;stroke-linejoin:miter;stroke-miterlimit:4;stroke-dasharray:none;stroke-dashoffset:0;stroke-opacity:1;filter:url(#filter1395)"
       d="m 1077.1201,752.52314 c 0.8783,-6.4995 5.6852,-7.2186 2.699,3.8482 -2.9863,11.0668 -52.5234,35.3083 -52.5234,35.3083"
       id="path910"
       inkscape:connector-curvature="0"
       sodipodi:nodetypes="ccc"
       transform="matrix(2.3551423,0,0,2.0308834,-1611.2802,-642.97344)" />
    <text
       xml:space="preserve"
       style="font-style:normal;font-variant:normal;font-weight:normal;font-stretch:normal;line-height:0%;font-family:Lavi;-inkscape-font-specification:Lavi;text-align:center;letter-spacing:0px;word-spacing:0px;text-anchor:middle;fill:#000000;fill-opacity:1;stroke:none"
       x="408.79132"
       y="1296.3143"
       id="text4246-5-5"><tspan
         sodipodi:role="line"
         style="font-style:normal;font-variant:normal;font-weight:normal;font-stretch:normal;font-size:45px;line-height:1.25;font-family:Lavi;-inkscape-font-specification:Lavi;text-align:center;text-anchor:middle"
         x="408.79132"
         y="1296.3143"
         id="tspan1096">mi wile ala e jan lili </tspan><tspan
         sodipodi:role="line"
         style="font-style:normal;font-variant:normal;font-weight:normal;font-stretch:normal;font-size:45px;line-height:1.25;font-family:Lavi;-inkscape-font-specification:Lavi;text-align:center;text-anchor:middle"
         x="408.79132"
         y="1352.5643"
         id="tspan126">lon kulupu utala.</tspan></text>
    <text
       xml:space="preserve"
       style="font-style:normal;font-variant:normal;font-weight:normal;font-stretch:normal;line-height:0%;font-family:Lavi;-inkscape-font-specification:Lavi;text-align:center;letter-spacing:0px;word-spacing:0px;text-anchor:middle;fill:#000000;fill-opacity:1;stroke:none"
       x="939.17175"
       y="1300.0614"
       id="text4246-5-5-3"><tspan
         sodipodi:role="line"
         style="font-style:normal;font-variant:normal;font-weight:normal;font-stretch:normal;font-size:45px;line-height:1.25;font-family:Lavi;-inkscape-font-specification:Lavi;text-align:center;text-anchor:middle"
         x="939.17175"
         y="1300.0614"
         id="tspan1127">o tawa tomo sina. </tspan><tspan
         sodipodi:role="line"
         style="font-style:normal;font-variant:normal;font-weight:normal;font-stretch:normal;font-size:45px;line-height:1.25;font-family:Lavi;-inkscape-font-specification:Lavi;text-align:center;text-anchor:middle"
         x="939.17175"
         y="1356.3114"
         id="tspan122">o musi e ijo musi sina.</tspan></text>
    <text
       xml:space="preserve"
       style="color:#000000;font-style:normal;font-variant:normal;font-weight:normal;font-stretch:normal;line-height:0%;font-family:Arial;-inkscape-font-specification:Arial;letter-spacing:0.0273496px;word-spacing:0px;clip-rule:nonzero;display:inline;overflow:visible;visibility:visible;opacity:1;isolation:auto;mix-blend-mode:normal;color-interpolation:sRGB;color-interpolation-filters:linearRGB;solid-color:#000000;solid-opacity:1;fill:#ffffff;fill-opacity:1;fill-rule:nonzero;stroke:#ffffff;stroke-width:0.968549;stroke-linecap:butt;stroke-linejoin:miter;stroke-miterlimit:4;stroke-dasharray:none;stroke-dashoffset:0;stroke-opacity:1;marker:none;filter:url(#filter5561-1);color-rendering:auto;image-rendering:auto;shape-rendering:auto;text-rendering:auto;enable-background:accumulate"
       id="text4251-1-3"
       inkscape:transform-center-x="-270.60518"
       inkscape:transform-center-y="60.453122"
       y="1742.2045"
       x="1705.2566"
       transform="matrix(0.91879135,-0.67832788,0.07526662,1.411228,-949.41897,401.37966)"><tspan
         sodipodi:role="line"
         id="tspan4253-5-1"
         x="1705.2566"
         y="1742.2045"
         style="font-style:normal;font-variant:normal;font-weight:normal;font-stretch:normal;font-size:45.5771px;line-height:1.25;font-family:Lavi;-inkscape-font-specification:Lavi;letter-spacing:6.3599px;stroke-width:0.968549">Weka!</tspan></text>
    <flowRoot
       xml:space="preserve"
       id="flowRoot971"
       style="font-style:normal;font-variant:normal;font-weight:normal;font-stretch:normal;font-size:0.666667px;line-height:0%;font-family:Lavi;-inkscape-font-specification:Lavi;text-align:center;letter-spacing:22.66px;word-spacing:-79.64px;writing-mode:lr-tb;text-anchor:middle;fill:#000000;fill-opacity:1;stroke:none;stroke-width:1px;stroke-linecap:butt;stroke-linejoin:miter;stroke-opacity:1"><flowRegion
         id="flowRegion973"><rect
           id="rect975"
           width="33.872047"
           height="9.9623671"
           x="1695.5948"
           y="340.94467" /></flowRegion><flowPara
         id="flowPara977" /></flowRoot>
    <text
       xml:space="preserve"
       style="font-style:normal;font-variant:normal;font-weight:normal;font-stretch:normal;font-size:10.1754px;line-height:0%;font-family:Lavi;-inkscape-font-specification:Lavi;text-align:center;letter-spacing:0px;word-spacing:0px;text-anchor:middle;fill:#000000;fill-opacity:1;stroke:#000000;stroke-width:3.72;stroke-miterlimit:4;stroke-dasharray:none;stroke-opacity:1"
       x="2098.6653"
       y="2255.6174"
       id="text4246-6-5-6-0-2-1"
       transform="matrix(0.88228376,0,-0.23605329,1.1334222,0,0)"><tspan
         sodipodi:role="line"
         style="font-style:normal;font-variant:normal;font-weight:bold;font-stretch:normal;font-size:35.8717px;line-height:1.25;font-family:Lavi;-inkscape-font-specification:'Lavi Bold';fill:#000000;fill-opacity:1;stroke:none;stroke-width:3.72;stroke-miterlimit:4;stroke-dasharray:none;stroke-opacity:1"
         x="2098.6653"
         y="2255.6174"
         id="tspan4252-7-3-1-2-9-2">A A A A A!</tspan></text>
    <text
       xml:space="preserve"
       style="font-style:normal;font-variant:normal;font-weight:normal;font-stretch:normal;font-size:10.1754px;line-height:0%;font-family:Lavi;-inkscape-font-specification:Lavi;text-align:center;letter-spacing:0px;word-spacing:0px;text-anchor:middle;fill:#000000;fill-opacity:1;stroke:#000000;stroke-width:3.72;stroke-miterlimit:4;stroke-dasharray:none;stroke-opacity:1"
       x="2367.9607"
       y="2228.4077"
       id="text4246-6-5-6-0-2-1-9"
       transform="matrix(0.88228376,0,-0.23605329,1.1334222,0,0)"><tspan
         sodipodi:role="line"
         style="font-style:normal;font-variant:normal;font-weight:bold;font-stretch:normal;font-size:35.8717px;line-height:1.25;font-family:Lavi;-inkscape-font-specification:'Lavi Bold';fill:#000000;fill-opacity:1;stroke:none;stroke-width:3.72;stroke-miterlimit:4;stroke-dasharray:none;stroke-opacity:1"
         x="2367.9607"
         y="2228.4077"
         id="tspan4252-7-3-1-2-9-2-3">A A A A A A!</tspan></text>
    <text
       xml:space="preserve"
       style="font-style:normal;font-variant:normal;font-weight:normal;font-stretch:normal;font-size:10.1754px;line-height:0%;font-family:Lavi;-inkscape-font-specification:Lavi;text-align:center;letter-spacing:0px;word-spacing:0px;text-anchor:middle;fill:#000000;fill-opacity:1;stroke:#000000;stroke-width:3.72;stroke-miterlimit:4;stroke-dasharray:none;stroke-opacity:1"
       x="2640.1641"
       y="2240.2549"
       id="text4246-6-5-6-0-2-1-9-6"
       transform="matrix(0.88228376,0,-0.23605329,1.1334222,0,0)"><tspan
         sodipodi:role="line"
         style="font-style:normal;font-variant:normal;font-weight:bold;font-stretch:normal;font-size:35.8717px;line-height:1.25;font-family:Lavi;-inkscape-font-specification:'Lavi Bold';fill:#000000;fill-opacity:1;stroke:none;stroke-width:3.72;stroke-miterlimit:4;stroke-dasharray:none;stroke-opacity:1"
         x="2640.1641"
         y="2240.2549"
         id="tspan4252-7-3-1-2-9-2-3-0">A A A A A!</tspan></text>
    <text
       xml:space="preserve"
       style="font-style:normal;font-variant:normal;font-weight:normal;font-stretch:normal;font-size:10.1754px;line-height:0%;font-family:Lavi;-inkscape-font-specification:Lavi;text-align:center;letter-spacing:0px;word-spacing:0px;text-anchor:middle;fill:#000000;fill-opacity:1;stroke:#000000;stroke-width:3.72;stroke-miterlimit:4;stroke-dasharray:none;stroke-opacity:1"
       x="3150.7107"
       y="2239.4143"
       id="text4246-6-5-6-0-2-1-9-6-6"
       transform="matrix(0.88228376,0,-0.23605329,1.1334222,0,0)"><tspan
         sodipodi:role="line"
         style="font-style:normal;font-variant:normal;font-weight:bold;font-stretch:normal;font-size:35.8717px;line-height:1.25;font-family:Lavi;-inkscape-font-specification:'Lavi Bold';fill:#000000;fill-opacity:1;stroke:none;stroke-width:3.72;stroke-miterlimit:4;stroke-dasharray:none;stroke-opacity:1"
         x="3150.7107"
         y="2239.4143"
         id="tspan4252-7-3-1-2-9-2-3-0-2">A A A A A!</tspan></text>
  </g>
</svg>
