<?xml version="1.0" encoding="UTF-8" standalone="no"?>
<svg
   id="svg2"
   version="1.1"
   inkscape:version="1.1.1 (3bf5ae0d25, 2021-09-20, custom)"
   width="2481"
   height="3503"
   sodipodi:docname="E35P11.svg"
   xmlns:inkscape="http://www.inkscape.org/namespaces/inkscape"
   xmlns:sodipodi="http://sodipodi.sourceforge.net/DTD/sodipodi-0.dtd"
   xmlns:xlink="http://www.w3.org/1999/xlink"
   xmlns="http://www.w3.org/2000/svg"
   xmlns:svg="http://www.w3.org/2000/svg"
   xmlns:rdf="http://www.w3.org/1999/02/22-rdf-syntax-ns#"
   xmlns:cc="http://creativecommons.org/ns#"
   xmlns:dc="http://purl.org/dc/elements/1.1/">
  <metadata
     id="metadata8">
    <rdf:RDF>
      <cc:Work
         rdf:about="">
        <dc:format>image/svg+xml</dc:format>
        <dc:type
           rdf:resource="http://purl.org/dc/dcmitype/StillImage" />
      </cc:Work>
    </rdf:RDF>
  </metadata>
  <defs
     id="defs6">
    <filter
       style="color-interpolation-filters:sRGB"
       id="filter4375-4-1-1-1-9-3-2-3-8-7-6-4-9"
       inkscape:label="deevad outline effect"
       x="-0.0020173484"
       y="-0.0088842342"
       width="1.0040347"
       height="1.0177685">
      <feFlood
         id="feFlood4377-7-9-0-8-1-6-9-6-7-5-32-7-4"
         flood-opacity="1"
         flood-color="rgb(95,141,211)"
         result="flood" />
      <feComposite
         id="feComposite4379-3-8-8-2-77-7-1-0-9-9-0-6-8"
         in2="SourceGraphic"
         in="flood"
         operator="in"
         result="composite1" />
      <feMorphology
         id="feMorphology4393-1-0-49-8-9-5-2-6-2-2-6-5-1"
         operator="dilate"
         radius="4"
         result="result3" />
      <feComposite
         id="feComposite4385-9-5-7-0-8-3-7-2-0-2-1-6-2"
         in2="result3"
         in="SourceGraphic"
         operator="over"
         result="composite2" />
    </filter>
  </defs>
  <sodipodi:namedview
     pagecolor="#ffffff"
     bordercolor="#666666"
     borderopacity="1"
     objecttolerance="10"
     gridtolerance="10"
     guidetolerance="10"
     inkscape:pageopacity="0"
     inkscape:pageshadow="2"
     inkscape:window-width="1888"
     inkscape:window-height="1146"
     id="namedview4"
     showgrid="false"
     inkscape:zoom="0.46261215"
     inkscape:cx="1276.4472"
     inkscape:cy="2402.6606"
     inkscape:window-x="32"
     inkscape:window-y="0"
     inkscape:window-maximized="1"
     inkscape:current-layer="layer3"
     inkscape:document-rotation="0"
     inkscape:snap-global="false"
     inkscape:pagecheckerboard="0" />
  <g
     inkscape:groupmode="layer"
     id="layer2"
     inkscape:label="artwork"
     sodipodi:insensitive="true">
    <image
       xlink:href="../gfx_Pepper-and-Carrot_by-David-Revoy_E35P11.png"
       width="2481"
       height="3503"
       id="image10"
       x="0"
       y="0" />
  </g>
  <g
     inkscape:groupmode="layer"
     id="layer3"
     inkscape:label="speechbubbles">
    <path
       style="color:#000000;display:inline;overflow:visible;visibility:visible;fill:#ffffff;fill-opacity:1;fill-rule:nonzero;stroke:none;stroke-width:0.974446px;marker:none;enable-background:accumulate"
       d="m 725.06398,1513.2474 c 32.76137,-18.1605 316.39232,-25.921 391.51912,5.4976 62.7067,26.225 38.2408,89.331 -17.5274,103.2549 -55.7677,13.9238 -241.2864,9.9656 -322.59505,2.3523 -77.4171,-7.2483 -90.41673,-26.4357 -94.22482,-64.7952 -1.55422,-15.6567 10.06658,-28.1493 42.82815,-46.3096 z"
       id="path4040-4-9-2"
       inkscape:connector-curvature="0"
       sodipodi:nodetypes="zssssz" />
    <path
       style="color:#000000;display:inline;overflow:visible;visibility:visible;fill:#ffffff;fill-opacity:1;fill-rule:nonzero;stroke:none;stroke-width:1.36564px;marker:none;enable-background:accumulate"
       d="m 653.94282,277.6645 c 39.55506,50.00027 29.43589,107.05433 -24.63205,152.88257 95.31844,-62.21839 94.8725,-157.13362 75.76137,-177.03287 -18.71227,-19.4839 -51.12932,24.1503 -51.12932,24.1503 z"
       id="path5010-4"
       inkscape:connector-curvature="0"
       sodipodi:nodetypes="ccsc" />
    <path
       style="display:inline;fill:#ffffff;stroke:none;stroke-width:0.486992"
       d="m 1205.0258,87.212577 c -28.1412,0.261925 -56.7816,4.701197 -82.7014,18.527783 -14.1839,8.12809 -25.9246,23.74724 -29.0099,42.58679 -2.9715,18.55122 -1.8819,37.9588 2.6134,56.01852 5.3717,16.9465 17.328,29.81464 30.7385,37.44751 19.7404,12.01426 41.9344,16.43233 63.796,18.36709 29.6429,2.93754 59.4726,5.80834 89.2009,2.95404 22.7542,-2.27955 45.5593,-9.45818 64.9997,-24.23407 11.1279,-8.61615 21.5375,-19.6183 27.5216,-34.07059 5.0489,-11.77155 6.2252,-25.53015 4.5966,-38.51573 -1.9887,-15.5641 -8.7423,-30.10916 -18.6796,-40.35189 -11.8969,-12.76637 -27.1309,-19.6576 -42.1843,-25.08514 -20.4815,-7.164053 -41.7633,-10.319996 -62.9834,-12.18426 -15.9458,-1.265656 -31.9325,-1.501265 -47.9081,-1.460053 z"
       id="path3280-8-1"
       inkscape:connector-curvature="0"
       sodipodi:nodetypes="csssc" />
    <path
       style="color:#000000;display:inline;overflow:visible;visibility:visible;fill:#ffffff;fill-opacity:1;fill-rule:nonzero;stroke:none;stroke-width:0.726852px;marker:none;enable-background:accumulate"
       d="m 1947.3134,78.627306 c -34.4066,0.338429 -69.7726,5.469725 -98.1272,18.492615 -23.6336,10.962869 -43.424,26.328239 -51.396,44.580839 -4.4318,10.85779 -5.8975,22.28162 -3.8905,33.44204 3.4156,17.57756 17.1445,33.92999 36.0659,46.63524 15.7752,10.57632 36.0148,18.42005 58.1459,22.04551 53.721,10.27914 109.7068,14.93453 165.591,16.52475 53.1154,1.26629 107.0095,-1.25038 158.0815,-11.18495 33.5024,-7.37351 65.122,-20.32125 85.2905,-39.35817 16.4379,-16.1411 21.2299,-35.98034 20.2429,-54.95437 -0.6477,-17.85811 -8.2748,-36.39953 -27.0939,-49.98565 -17.8173,-12.596079 -44.0462,-19.048799 -70.021,-20.518569 -64.1479,-6.334836 -129.229,-4.229757 -193.8637,-5.315814 -26.3405,-0.225384 -52.6819,-0.505586 -79.0254,-0.403471 z"
       id="path4546-6-7"
       inkscape:connector-curvature="0"
       sodipodi:nodetypes="cscssssc" />
    <path
       style="color:#000000;display:inline;overflow:visible;visibility:visible;fill:#ffffff;fill-opacity:1;fill-rule:nonzero;stroke:none;stroke-width:0.971209px;marker:none;enable-background:accumulate"
       d="m 604.93797,1394.0971 c 34.04102,-23.0685 328.75091,-36.0917 406.81183,2.2707 65.1562,32.0208 39.7345,111.1322 -18.21176,129.179 -57.94603,18.0464 -250.71121,15.2802 -335.19584,6.7251 -80.44102,-8.1447 -93.94845,-31.9586 -97.90528,-79.8278 -1.61492,-19.5382 10.45978,-35.2788 44.50105,-58.347 z"
       id="path4040-4-9"
       inkscape:connector-curvature="0"
       sodipodi:nodetypes="zssssz" />
    <path
       style="fill:#ffffff;fill-rule:evenodd;stroke:none;stroke-width:0.978272px;stroke-linecap:butt;stroke-linejoin:miter;stroke-opacity:1"
       d="m 1082.0369,1580.1768 c -38.5881,0.584 -77.1411,2.1002 -115.66186,3.8657 -23.97707,1.3354 -48.2531,2.8957 -71.2309,8.5708 -29.59877,8.0679 -53.16685,26.507 -65.33503,48.2101 -5.60296,10.1214 -9.5266,20.7463 -12.43977,31.4798 -2.65909,10.8215 -2.28346,22.3264 3.44328,32.5784 6.6035,12.5796 17.70321,23.4593 29.55844,33.4653 22.40904,18.0442 52.7047,30.7966 85.32418,34.145 28.14451,3.5018 56.58605,5.3884 84.99286,7.1932 47.3363,2.3846 94.8295,2.8784 142.2469,1.8696 39.8847,-0.9309 79.7641,-2.9757 119.3203,-7.0081 21.0244,-2.5448 42.4667,-6.5731 60.1139,-15.9716 17.15,-9.356 28.7749,-23.8651 33.2088,-39.3957 4.4681,-11.8305 8.2762,-24.4376 4.5857,-36.6947 -4.5981,-14.6794 -14.8196,-27.8245 -24.3996,-40.8984 -9.9786,-12.7793 -22.9404,-24.8216 -40.486,-31.9683 -21.2349,-9.1573 -45.2648,-13.3887 -68.5788,-18.4018 -36.8684,-7.2645 -75.0698,-9.5346 -113.0452,-10.2341 -17.1979,-0.4865 -34.4046,-0.9187 -51.6172,-0.8052 z"
       id="path1079"
       inkscape:connector-curvature="0" />
    <path
       style="color:#000000;display:inline;overflow:visible;visibility:visible;fill:#ffffff;fill-opacity:1;fill-rule:nonzero;stroke:none;stroke-width:0.939237px;marker:none;enable-background:accumulate"
       d="m 1404.5566,1780.6566 c -45.9909,-29.4273 -78.0349,-27.5278 -104.8526,-18.0354 -25.7868,9.1275 -19.8278,10.3608 -19.8278,10.3608 l 10.5667,-48.0852 c -3.1179,-4.3789 71.5596,-1.8389 114.1137,55.7598 z"
       id="path3072-12"
       inkscape:connector-curvature="0"
       sodipodi:nodetypes="csccc" />
    <path
       style="display:inline;fill:#ffffff;stroke:none;stroke-width:0.764789"
       d="m 1366.6814,228.3019 c -49.4383,0.48079 -99.4764,4.43722 -145.5754,15.66744 -37.7909,10.52625 -68.4195,31.00069 -79.0123,55.46844 -6.8903,16.91155 -6.2351,34.46929 -5.8509,51.75268 1.7431,19.65194 18.3037,37.97782 41.1425,51.68441 13.4964,8.2658 30.1167,14.43486 47.6896,19.03288 39.6072,10.69383 83.0706,15.45598 126.2802,16.24024 32.4721,0.44497 64.9457,-0.25441 97.4087,-0.64105 40.3003,-0.79678 80.8835,-2.05571 120.3044,-7.52204 21.912,-3.18237 44.0382,-7.8157 61.4496,-16.74061 22.8616,-11.72323 37.6127,-28.35893 45.1729,-45.69619 7.7541,-18.21129 5.857,-37.49818 -1.7327,-55.60653 -6.5435,-17.30896 -18.9897,-34.38219 -40.5348,-46.81884 -22.288,-13.02762 -51.357,-20.97179 -81.0359,-25.77992 -45.6755,-7.73153 -93.3075,-9.71243 -140.5073,-10.77477 -15.0618,-0.2672 -30.1314,-0.28816 -45.1986,-0.26614 z"
       id="path3280-8-1-3"
       inkscape:connector-curvature="0"
       sodipodi:nodetypes="csssc" />
    <path
       style="display:inline;fill:#ffffff;stroke:none;stroke-width:0.855097"
       d="m 2002.646,209.85655 c -52.9538,0.42914 -106.8467,7.70262 -155.6206,30.35667 -26.69,13.31741 -48.7827,38.9085 -54.5883,69.776 -5.5916,30.39509 -3.5414,62.19329 4.9177,91.78308 10.108,27.76586 32.6064,48.84954 57.841,61.35556 37.1458,19.68466 78.9087,26.92341 120.0462,30.09342 55.7795,4.81297 111.9104,9.51661 167.8506,4.84001 42.8171,-3.73491 85.7299,-15.49668 122.3112,-39.70611 20.9395,-14.11705 40.5274,-32.14344 51.7878,-55.82268 9.5005,-19.287 11.7141,-41.82966 8.6495,-63.10579 -3.7421,-25.50085 -16.4504,-49.3321 -35.1497,-66.11422 -22.3866,-20.91695 -51.0527,-32.20781 -79.379,-41.10055 -38.5404,-11.73788 -78.5867,-16.90871 -118.5169,-19.9632 -30.0054,-2.07371 -60.0879,-2.45974 -90.1495,-2.39219 z"
       id="path3280-8-1-1"
       inkscape:connector-curvature="0"
       sodipodi:nodetypes="csssc" />
    <path
       style="display:inline;fill:#ffffff;stroke:none;stroke-width:0.74058"
       d="m 2006.5598,463.72939 c -45.4878,0.16372 -91.4868,5.6015 -133.6313,19.57687 -11.481,3.75518 -22.5254,8.46112 -32.1182,14.76207 -23.823,15.17275 -40.628,37.55153 -44.1428,61.74315 -4.3931,23.68095 1.2609,49.25935 19.7381,68.6153 19.4666,20.52849 48.3419,34.33062 78.7634,42.36748 32.8459,9.35595 67.8886,12.21236 102.5462,13.47622 52.4194,3.39889 105.1816,2.6503 157.5439,-1.00564 24.4869,-1.70174 49.227,-4.11071 72.3324,-11.10837 24.3954,-7.294 46.2719,-19.84101 62.7338,-35.84839 13.9725,-13.68617 23.8922,-30.3652 25.6719,-48.0529 3.6442,-30.85786 -13.1072,-63.27228 -44.8518,-81.80331 -27.311,-16.52341 -60.6749,-24.98526 -93.7024,-31.22858 -55.9315,-10.28812 -113.7082,-11.64995 -170.8832,-11.4939 z"
       id="path3280-8-1-1-8"
       inkscape:connector-curvature="0"
       sodipodi:nodetypes="csssc" />
    <path
       style="fill:#ffffff;fill-rule:evenodd;stroke:none;stroke-width:1px;stroke-linecap:butt;stroke-linejoin:miter;stroke-opacity:1"
       d="m 1899.0538,615.56336 c -35.1448,34.55495 -40.918,43.76621 -48.2945,59.20991 -7.3765,15.44359 -1.4166,45.82505 15.3336,59.77726 16.7502,13.95231 20.6476,39.75145 6.4656,51.09426 -14.1819,11.34295 -70.6572,56.04997 -12.3413,98.68519 -52.1304,-50.93005 4.6214,-80.3316 15.046,-87.77901 10.4245,-7.44749 30.9525,-25.50425 13.4446,-59.50485 -17.5082,-34.00062 -21.7713,-50.818 31.7495,-83.72489 53.5207,-32.90685 -21.4035,-37.75787 -21.4035,-37.75787 z"
       id="path1081"
       inkscape:connector-curvature="0"
       sodipodi:nodetypes="ccccccssc" />
    <path
       style="color:#000000;display:inline;overflow:visible;visibility:visible;fill:#ffffff;fill-opacity:1;fill-rule:nonzero;stroke:none;stroke-width:1.4638px;marker:none;enable-background:accumulate"
       d="m 1417.6422,390.2768 c 38.5518,83.9689 2.5856,139.06018 -54.1917,168.09629 98.918,-30.2652 116.1188,-134.92733 86.7076,-167.77583 -23.1309,-25.83416 -32.5159,-0.32046 -32.5159,-0.32046 z"
       id="path5010-4-3"
       inkscape:connector-curvature="0"
       sodipodi:nodetypes="ccsc" />
    <path
       style="color:#000000;display:inline;overflow:visible;visibility:visible;fill:#ffffff;fill-opacity:1;fill-rule:nonzero;stroke:none;stroke-width:0.681685px;marker:none;enable-background:accumulate"
       d="m 1717.546,2315.4656 c 0.1479,-62.4252 -2.0998,-47.9921 165.7076,-46.7958 72.8372,0.5191 159.2694,6.2765 152.3472,93.0019 -5.4716,68.5519 -138.7053,65.1822 -163.4702,67.1216 -24.6082,1.9272 -125.0063,-9.8525 -146.8341,-36.8547 -13.6639,-16.9028 -8.5504,-59.9054 -7.7505,-76.473 z"
       id="path4546-6-59"
       inkscape:connector-curvature="0"
       sodipodi:nodetypes="cssssc" />
    <path
       style="fill:#ffffff;stroke:none;stroke-width:1.17319"
       d="m 720.93646,74.332223 c -50.55152,2.152996 -100.03953,10.749539 -149.93195,16.671412 -31.45318,4.352679 -62.81602,12.065885 -88.87367,26.455935 -16.49827,9.20848 -29.33925,22.2969 -35.29672,37.19499 -9.54535,21.00217 -9.93681,43.83346 -5.11563,65.57201 3.84814,16.03251 12.27848,31.94628 27.54972,43.72886 15.19086,11.93616 34.15817,20.97238 54.65516,26.72944 17.69799,5.47324 36.26553,9.24781 55.14052,11.50852 42.14937,5.48647 85.03779,6.89489 127.74302,6.59052 43.67122,-0.54246 87.28472,-4.30048 129.93481,-11.45035 21.26672,-3.33441 42.71551,-8.10926 60.62503,-17.73018 19.75792,-10.47757 35.44362,-25.33888 44.53157,-42.24912 3.97062,-7.48815 5.91123,-15.51443 6.27639,-23.56109 0.74213,-10.34132 0.81776,-20.70246 1.10115,-31.05432 0.10717,-31.25675 -3.44038,-62.57189 -11.72081,-93.214227 -3.09725,-2.408947 -7.93984,-1.311004 -11.78697,-2.267111 C 857.91557,79.924203 789.57167,74.13846 720.93646,74.332223 Z"
       id="path3100-2"
       inkscape:connector-curvature="0"
       sodipodi:nodetypes="cccccccccccccc" />
    <path
       style="display:inline;fill:#ffffff;fill-rule:evenodd;stroke:none;stroke-width:1.14884px;stroke-linecap:butt;stroke-linejoin:miter;stroke-opacity:1"
       d="m 1831.9304,2373.5493 c 29.6781,34.3855 -48.3918,61.0872 -32.7914,98.1006 6.1219,14.5249 50.1858,21.814 59.4409,88.3499 -23.107,-54.5774 -70.7535,-56.808 -83.5614,-79.4341 -24.3256,-42.971 15.5983,-74.4437 22.7675,-83.4264 9.5884,-12.0136 34.1444,-23.59 34.1444,-23.59 z"
       id="path4186-80"
       inkscape:connector-curvature="0"
       sodipodi:nodetypes="cscssc" />
    <path
       style="color:#000000;display:inline;overflow:visible;visibility:visible;fill:#ffffff;fill-opacity:1;fill-rule:nonzero;stroke:none;stroke-width:0.405132px;marker:none;enable-background:accumulate"
       d="m 261.5257,2081.6958 c 12.07024,-11.3769 116.56829,-18.2549 144.24709,0.4423 23.10307,15.6063 14.08903,54.4716 -6.45751,63.4236 -20.54649,8.9521 -88.89704,7.913 -118.85355,3.8542 -28.52273,-3.8641 -33.31217,-15.5284 -34.71518,-39.0133 -0.57265,-9.5856 3.7088,-17.33 15.77915,-28.7068 z"
       id="path4040-4-9-3"
       inkscape:connector-curvature="0"
       sodipodi:nodetypes="zssssz" />
    <path
       style="color:#000000;display:inline;overflow:visible;visibility:visible;fill:#ffffff;fill-opacity:1;fill-rule:nonzero;stroke:none;stroke-width:0.816531px;marker:none;enable-background:accumulate"
       d="m 354.58902,2078.2586 c 35.58146,-4.2267 52.48817,-58.2989 28.13393,-95.1145 44.43236,49.6051 29.57055,64.2564 4.74971,120.5184 -6.58837,14.934 -32.88364,-25.4039 -32.88364,-25.4039 z"
       id="path5010-4-5"
       inkscape:connector-curvature="0"
       sodipodi:nodetypes="ccsc" />
  </g>
  <g
     inkscape:groupmode="layer"
     id="layer1"
     inkscape:label="txt">
    <text
       xml:space="preserve"
       style="font-style:normal;font-variant:normal;font-weight:normal;font-stretch:normal;font-size:45px;line-height:1.25;font-family:Lavi;-inkscape-font-specification:Lavi;text-align:center;letter-spacing:0px;word-spacing:0px;text-anchor:middle;fill:#000000;fill-opacity:1;stroke:none"
       x="690.19958"
       y="159.99991"
       id="text4246-3-2-2"><tspan
         style="font-size:45px"
         sodipodi:role="line"
         x="690.19958"
         y="159.99991"
         id="tspan11587">Hvala da si pustila</tspan><tspan
         style="font-size:45px"
         sodipodi:role="line"
         x="690.19958"
         y="216.24991"
         id="tspan12827">Korenčku da mi prinese</tspan><tspan
         style="font-size:45px"
         sodipodi:role="line"
         x="690.19958"
         y="272.49994"
         id="tspan15889">sveža oblačila.</tspan></text>
    <text
       xml:space="preserve"
       style="font-style:normal;font-variant:normal;font-weight:normal;font-stretch:normal;font-size:45px;line-height:1.25;font-family:Lavi;-inkscape-font-specification:Lavi;text-align:center;letter-spacing:0px;word-spacing:0px;text-anchor:middle;fill:#000000;fill-opacity:1;stroke:none"
       x="1237.9513"
       y="156.61177"
       id="text4246-3-2-2-3-3-3"><tspan
         style="font-size:45px"
         sodipodi:role="line"
         x="1237.9513"
         y="156.61177"
         id="tspan8444">Bilo mi je</tspan><tspan
         style="font-size:45px"
         sodipodi:role="line"
         x="1237.9513"
         y="212.86177"
         id="tspan640">v veselje.</tspan></text>
    <text
       xml:space="preserve"
       style="font-style:normal;font-variant:normal;font-weight:normal;font-stretch:normal;font-size:45px;line-height:1.25;font-family:Lavi;-inkscape-font-specification:Lavi;text-align:center;letter-spacing:0px;word-spacing:0px;text-anchor:middle;fill:#000000;fill-opacity:1;stroke:none"
       x="1403.865"
       y="288.4176"
       id="text4246-3-2-2-3-3"><tspan
         style="font-size:45px"
         sodipodi:role="line"
         x="1403.865"
         y="288.4176"
         id="tspan15549">Olajšala si nama</tspan><tspan
         style="font-size:45px"
         sodipodi:role="line"
         x="1403.865"
         y="344.6676"
         id="tspan18518">nalogo, to je še najmanj</tspan><tspan
         style="font-size:45px"
         sodipodi:role="line"
         x="1403.865"
         y="400.9176"
         id="tspan20888">kar lahko storim.</tspan></text>
    <text
       xml:space="preserve"
       style="font-style:normal;font-variant:normal;font-weight:normal;font-stretch:normal;font-size:45px;line-height:1.25;font-family:Lavi;-inkscape-font-specification:Lavi;text-align:center;letter-spacing:0px;word-spacing:0px;text-anchor:middle;fill:#000000;fill-opacity:1;stroke:none"
       x="2057.5281"
       y="146.5919"
       id="text4246-3-2-2-3-3-67"><tspan
         style="font-size:45px"
         sodipodi:role="line"
         x="2057.5281"
         y="146.5919"
         id="tspan898">Vendar vedi da je</tspan><tspan
         style="font-size:45px"
         sodipodi:role="line"
         x="2057.5281"
         y="202.8419"
         id="tspan23207">Wasabi zares besna.</tspan></text>
    <text
       xml:space="preserve"
       style="font-style:normal;font-variant:normal;font-weight:normal;font-stretch:normal;font-size:45px;line-height:1.25;font-family:Lavi;-inkscape-font-specification:Lavi;text-align:center;letter-spacing:0px;word-spacing:0px;text-anchor:middle;fill:#000000;fill-opacity:1;stroke:none"
       x="2056.0288"
       y="285.15063"
       id="text4246-3-2-2-3-3-67-2"><tspan
         style="font-size:45px"
         sodipodi:role="line"
         x="2056.0288"
         y="285.15063"
         id="tspan43552">Zahteva perfekcijo</tspan><tspan
         style="font-size:45px"
         sodipodi:role="line"
         x="2056.0288"
         y="341.40063"
         id="tspan39340">in s tvojim prihodom,</tspan><tspan
         style="font-size:45px"
         sodipodi:role="line"
         x="2056.0288"
         y="397.65063"
         id="tspan38858">oblačilom in umazanijo</tspan><tspan
         style="font-size:45px"
         sodipodi:role="line"
         x="2056.0288"
         y="453.90063"
         id="tspan40171">si ravno to zmotila.</tspan></text>
    <text
       xml:space="preserve"
       style="font-style:normal;font-variant:normal;font-weight:normal;font-stretch:normal;font-size:45px;line-height:1.25;font-family:Lavi;-inkscape-font-specification:Lavi;text-align:center;letter-spacing:0px;word-spacing:0px;text-anchor:middle;fill:#000000;fill-opacity:1;stroke:none"
       x="2057.0869"
       y="531.17853"
       id="text4246-3-2-2-3-3-67-2-3"><tspan
         style="font-size:45px"
         sodipodi:role="line"
         x="2057.0869"
         y="531.17853"
         id="tspan67256">Poleg tega si jo še</tspan><tspan
         style="font-size:45px"
         sodipodi:role="line"
         x="2057.0869"
         y="587.42853"
         id="tspan60166">napadla, tega ne bo</tspan><tspan
         style="font-size:45px"
         sodipodi:role="line"
         x="2057.0869"
         y="643.67853"
         id="tspan63944">kar tako oprostila.</tspan></text>
    <text
       xml:space="preserve"
       style="font-style:normal;font-variant:normal;font-weight:normal;font-stretch:normal;font-size:45px;line-height:1.25;font-family:Lavi;-inkscape-font-specification:Lavi;text-align:center;letter-spacing:0px;word-spacing:0px;text-anchor:middle;fill:#000000;fill-opacity:1;stroke:none"
       x="335.87784"
       y="2124.6445"
       id="text4246-3-2-2-3-3-6-67"><tspan
         style="font-size:45px"
         sodipodi:role="line"
         x="335.87784"
         y="2124.6445"
         id="tspan1191-3">Vem.</tspan></text>
    <text
       xml:space="preserve"
       style="font-style:normal;font-variant:normal;font-weight:normal;font-stretch:normal;font-size:45px;line-height:1.25;font-family:Lavi;-inkscape-font-specification:Lavi;text-align:center;letter-spacing:0px;word-spacing:0px;text-anchor:middle;fill:#000000;fill-opacity:1;stroke:none"
       x="804.12201"
       y="1440.0366"
       id="text4246-3-2-2-3-3-6"><tspan
         style="font-size:45px"
         sodipodi:role="line"
         x="804.12201"
         y="1440.0366"
         id="tspan77158">Karkoli že, moram</tspan><tspan
         style="font-size:45px"
         sodipodi:role="line"
         x="804.12201"
         y="1496.2866"
         id="tspan87260">odspati nekaj kitic.</tspan></text>
    <text
       xml:space="preserve"
       style="font-style:normal;font-variant:normal;font-weight:normal;font-stretch:normal;font-size:45px;line-height:1.25;font-family:Lavi;-inkscape-font-specification:Lavi;text-align:center;letter-spacing:0px;word-spacing:0px;text-anchor:middle;fill:#000000;fill-opacity:1;stroke:none"
       x="922.68964"
       y="1579.0775"
       id="text4246-3-2-2-3-3-6-6"><tspan
         style="font-size:45px"
         sodipodi:role="line"
         x="922.68964"
         y="1579.0775"
         id="tspan85840">Ko se zbudim gremo.</tspan></text>
    <text
       xml:space="preserve"
       style="font-style:normal;font-variant:normal;font-weight:normal;font-stretch:normal;font-size:45px;line-height:1.25;font-family:Lavi;-inkscape-font-specification:Lavi;text-align:center;letter-spacing:0px;word-spacing:0px;text-anchor:middle;fill:#000000;fill-opacity:1;stroke:none"
       x="1099.4968"
       y="1673.0222"
       id="text4246-3-2-2-3-3-6-2"><tspan
         style="font-size:45px"
         sodipodi:role="line"
         x="1099.4968"
         y="1673.0222"
         id="tspan97537">Delaj med tem kar želiš,</tspan><tspan
         style="font-size:45px"
         sodipodi:role="line"
         x="1099.4968"
         y="1729.2722"
         id="tspan99047">le ne pojdi predaleč...</tspan></text>
    <text
       xml:space="preserve"
       style="font-style:normal;font-variant:normal;font-weight:normal;font-stretch:normal;line-height:0%;font-family:Lavi;-inkscape-font-specification:Lavi;letter-spacing:0px;word-spacing:0px;display:inline;fill:#ffffff;fill-opacity:1;stroke:#5f8dd3;stroke-width:0.992362;stroke-miterlimit:4;stroke-dasharray:none;stroke-opacity:1;filter:url(#filter4375-4-1-1-1-9-3-2-3-8-7-6-4-9)"
       x="787.65729"
       y="1584.5073"
       id="text4580-5-0-6-2-8-5-9-9"
       transform="matrix(0.71138619,-0.38856964,0.42362052,1.0933045,-1095.3818,1936.127)"><tspan
         sodipodi:role="line"
         id="tspan4582-6-9-1-3-9-5-3-3"
         x="787.65729"
         y="1584.5073"
         style="font-size:70px;line-height:1.25;fill:#ffffff;stroke:#5f8dd3">Pljusk</tspan></text>
    <text
       xml:space="preserve"
       style="font-style:normal;font-variant:normal;font-weight:normal;font-stretch:normal;font-size:45px;line-height:1.25;font-family:Lavi;-inkscape-font-specification:Lavi;text-align:center;letter-spacing:0px;word-spacing:0px;text-anchor:middle;fill:#000000;fill-opacity:1;stroke:none"
       x="1873.4498"
       y="2334.0083"
       id="text4246-3-2-2-3-3-6-2-9"><tspan
         style="font-size:45px"
         sodipodi:role="line"
         x="1873.4498"
         y="2334.0083"
         id="tspan111256">Kako zanimiva</tspan><tspan
         style="font-size:45px"
         sodipodi:role="line"
         x="1873.4498"
         y="2390.2583"
         id="tspan109190">čarovnica.</tspan></text>
  </g>
</svg>
