<?xml version="1.0" encoding="UTF-8" standalone="no"?>
<!-- Created with Inkscape (http://www.inkscape.org/) -->

<svg
   xmlns:dc="http://purl.org/dc/elements/1.1/"
   xmlns:cc="http://creativecommons.org/ns#"
   xmlns:rdf="http://www.w3.org/1999/02/22-rdf-syntax-ns#"
   xmlns:svg="http://www.w3.org/2000/svg"
   xmlns="http://www.w3.org/2000/svg"
   xmlns:xlink="http://www.w3.org/1999/xlink"
   xmlns:sodipodi="http://sodipodi.sourceforge.net/DTD/sodipodi-0.dtd"
   xmlns:inkscape="http://www.inkscape.org/namespaces/inkscape"
   id="svg2"
   version="1.1"
   inkscape:version="0.92.3 (2405546, 2018-03-11)"
   width="2481"
   height="3503"
   sodipodi:docname="E26P03.svg">
  <metadata
     id="metadata8">
    <rdf:RDF>
      <cc:Work
         rdf:about="">
        <dc:format>image/svg+xml</dc:format>
        <dc:type
           rdf:resource="http://purl.org/dc/dcmitype/StillImage" />
        <dc:title />
      </cc:Work>
    </rdf:RDF>
  </metadata>
  <defs
     id="defs6" />
  <sodipodi:namedview
     pagecolor="#ffffff"
     bordercolor="#666666"
     borderopacity="1"
     objecttolerance="10"
     gridtolerance="10"
     guidetolerance="10"
     inkscape:pageopacity="0"
     inkscape:pageshadow="2"
     inkscape:window-width="1920"
     inkscape:window-height="1015"
     id="namedview4"
     showgrid="false"
     inkscape:zoom="0.53588673"
     inkscape:cx="1362.669"
     inkscape:cy="909.62552"
     inkscape:window-x="0"
     inkscape:window-y="0"
     inkscape:window-maximized="1"
     inkscape:current-layer="layer1" />
  <g
     inkscape:groupmode="layer"
     id="layer2"
     inkscape:label="artwork"
     sodipodi:insensitive="true">
    <image
       sodipodi:absref="/home/rafael/Documents/Pepper&amp;Carrot/ep26/lang/ca/../gfx_Pepper-and-Carrot_by-David-Revoy_E26P03.png"
       xlink:href="../gfx_Pepper-and-Carrot_by-David-Revoy_E26P03.png"
       width="2481"
       height="3503"
       id="image10"
       x="0"
       y="0" />
  </g>
  <g
     inkscape:groupmode="layer"
     id="layer3"
     inkscape:label="speechbubbles"
     style="opacity:1">
    <path
       style="color:#000000;display:inline;overflow:visible;visibility:visible;fill:#ffffff;fill-opacity:1;fill-rule:nonzero;stroke:none;stroke-width:0.93505704px;marker:none;enable-background:accumulate"
       d="m 248.56789,634.62289 c 21.97144,-25.33639 293.00882,-43.38014 355.62147,13.92239 43.63475,39.93411 26.80183,116.51577 -10.5988,136.45158 -37.40056,19.93588 -217.96806,25.55046 -269.28846,15.39797 -46.15009,-9.1297 -94.59134,-28.78042 -97.14523,-81.08215 -1.04234,-21.3464 -0.56048,-59.35334 21.41102,-84.68979 z"
       id="path4040"
       inkscape:connector-curvature="0"
       sodipodi:nodetypes="zssssz" />
    <path
       style="fill:#ffffff;stroke:none;stroke-width:0.99999994"
       d="m 628.34471,847.51507 c -38.61917,12.80883 -55.09288,-0.0828 -66.95346,-14.05699 -11.86058,-13.97408 -28.36174,-20.89656 -39.29055,-22.32443 -10.92881,-1.42786 -28.67404,2.49427 -37.73175,7.41599 -9.05781,4.92182 -23.30007,-9.35873 -32.51481,-17.85685 -12.1752,-11.22835 -10.17368,-21.3089 -10.17368,-21.3089 0,0 -63.56569,-10.64656 -52.32882,1.21103 11.23688,11.85757 53.851,43.51663 59.4257,47.15218 5.57479,3.63555 23.61454,12.58563 34.54483,10.2648 10.93033,-2.32073 19.07986,-12.5098 32.07626,-12.9737 13.38845,-0.4779 22.37583,3.75223 33.30162,12.67727 10.92577,8.92503 37.52895,25.44728 54.48293,19.70573 16.95397,-5.74156 25.16173,-9.90613 25.16173,-9.90613 z"
       id="path3023"
       inkscape:connector-curvature="0"
       sodipodi:nodetypes="csssscssssssc" />
    <path
       style="color:#000000;display:inline;overflow:visible;visibility:visible;fill:#ffffff;fill-opacity:1;fill-rule:nonzero;stroke:none;stroke-width:1px;marker:none;enable-background:accumulate"
       d="m 226.46068,1787.6783 c -2.80766,-15.1687 21.86801,-97.9258 126.07167,-95.2517 104.20368,2.6741 128.78094,59.3042 129.41493,79.7552 0.63399,20.451 -22.5103,53.9038 -37.40482,60.1108 -14.89442,6.2069 -53.86373,21.3377 -79.60184,19.1093 -25.73795,-2.2286 -60.185,8.7123 -99.86964,-15.1947 -31.54165,-19.0016 -36.61779,-44.5743 -38.6103,-48.5289 z"
       id="path3365"
       inkscape:connector-curvature="0"
       sodipodi:nodetypes="cssccsc" />
    <path
       style="color:#000000;display:inline;overflow:visible;visibility:visible;fill:#ffffff;fill-opacity:1;fill-rule:nonzero;stroke:none;stroke-width:1.03940463px;marker:none;enable-background:accumulate"
       d="m 1093.8036,2240.7955 c -5.4084,-21.6229 -18.967,-146.49 186.898,-145.3868 180.5306,0.9676 210.6623,101.2058 212.4972,130.508 1.835,29.3024 -11.2401,59.5919 -42.6483,77.939 -33.7345,17.7174 -93.9832,29.2834 -138.6335,27.3082 -44.6501,-1.9754 -104.241,3.104 -150.6939,-12.192 -31.9535,-10.5215 -61.2767,-47.8932 -67.4195,-78.1764 z"
       id="path3365-5"
       inkscape:connector-curvature="0"
       sodipodi:nodetypes="cssccsc" />
    <path
       style="color:#000000;display:inline;overflow:visible;visibility:visible;fill:#ffffff;fill-opacity:1;fill-rule:nonzero;stroke:none;stroke-width:1px;marker:none;enable-background:accumulate"
       d="m 377.75121,1797.7955 c 0.14136,37.7496 7.44343,98.937 94.82871,86.7057 -14.99489,10.61 -114.59779,34.3786 -127.13109,-74.0559 -3.63685,-31.4647 8.70865,-21.0527 15.81183,-23.0996 7.10319,-2.047 16.49055,10.4498 16.49055,10.4498 z"
       id="path4064"
       inkscape:connector-curvature="0"
       sodipodi:nodetypes="ccszc" />
    <path
       style="color:#000000;display:inline;overflow:visible;visibility:visible;fill:#ffffff;fill-opacity:1;fill-rule:nonzero;stroke:none;stroke-width:1px;marker:none;enable-background:accumulate"
       d="m 1237.4731,2165.1562 c 16.4769,-33.9641 36.832,-92.1267 -47.0265,-119.5779 18.1333,-2.9332 118.0386,19.5304 81.6003,122.4254 -10.5733,29.8573 -17.0809,15.0765 -24.3604,13.7904 -7.2795,-1.2859 -10.2134,-16.6379 -10.2134,-16.6379 z"
       id="path4064-3"
       inkscape:connector-curvature="0"
       sodipodi:nodetypes="ccszc" />
    <path
       style="fill:#ffffff;stroke:none;stroke-width:1.03761959"
       d="m 51.483138,2694.5432 c -33.101053,-196.2754 70.551192,-174.0783 337.039212,-175.3217 339.58459,-1.5846 333.44434,43.0618 338.90651,126.9449 12.56042,192.8919 -75.10931,234.1842 -426.41827,222.3378 C -7.2731931,2858.1087 18.976555,2803.5949 51.483138,2694.5432 Z"
       id="path3280-8"
       inkscape:connector-curvature="0"
       sodipodi:nodetypes="csssc" />
    <path
       style="color:#000000;display:inline;overflow:visible;visibility:visible;fill:#ffffff;fill-opacity:1;fill-rule:nonzero;stroke:none;stroke-width:1.09098148px;marker:none;enable-background:accumulate"
       d="m 541.6664,2826.0288 c 14.75467,36.3891 56.10784,84.8029 132.56738,64.1383 -52.93998,24.1174 -112.04254,21.8254 -162.9129,-49.9788 -68.01242,-96.0004 -45.71056,-118.3536 -45.71056,-118.3536 z"
       id="path4064-6"
       inkscape:connector-curvature="0"
       sodipodi:nodetypes="ccscc" />
    <path
       style="color:#000000;display:inline;overflow:visible;visibility:visible;fill:#ffffff;fill-opacity:1;fill-rule:nonzero;stroke:none;stroke-width:1.17600489px;marker:none;enable-background:accumulate"
       d="m 1827.9369,2977.4957 c -2.8562,-20.0141 41.3379,-108.9936 215.5757,-95.6508 174.2377,13.3427 199.0194,61.0418 200.756,105.28 -3.0106,45.5883 -37.9437,78.8495 -63.6509,85.5208 -25.7072,6.6714 -64.3479,15.9314 -135.677,17.3455 -82.4056,0.064 -130.9837,-2.7397 -183.1643,-39.0775 -49.7738,-32.2308 -30.9832,-68.0809 -33.8395,-73.418 z"
       id="path3365-7"
       inkscape:connector-curvature="0"
       sodipodi:nodetypes="cscsccc" />
    <path
       style="color:#000000;display:inline;overflow:visible;visibility:visible;fill:#ffffff;fill-opacity:1;fill-rule:nonzero;stroke:none;stroke-width:1px;marker:none;enable-background:accumulate"
       d="m 1963.5548,2926.8144 c -22.0372,-41.7339 -131.901,-116.3258 -202.9973,-80.3598 84.8906,-21.0574 174.3494,70.9697 177.3562,85.6217 3.0068,14.6521 25.6411,-5.2619 25.6411,-5.2619 z"
       id="path3978"
       inkscape:connector-curvature="0"
       sodipodi:nodetypes="cccc" />
    <path
       style="color:#000000;display:inline;overflow:visible;visibility:visible;fill:#ffffff;fill-opacity:1;fill-rule:nonzero;stroke:none;stroke-width:0.58296984px;marker:none;enable-background:accumulate"
       d="m 244.00754,538.15066 c 15.11182,-14.31867 181.53977,-24.51596 224.60435,7.86814 30.0117,22.56846 28.429,63.39355 2.7051,74.66012 -25.72387,11.26661 -149.91701,14.43965 -185.21484,8.70205 -31.74173,-5.15958 -65.05931,-16.26504 -66.81585,-45.82297 -0.71691,-12.06376 9.60938,-31.08864 24.72124,-45.40734 z"
       id="path4040-3"
       inkscape:connector-curvature="0"
       sodipodi:nodetypes="zssssz" />
  </g>
  <g
     inkscape:groupmode="layer"
     id="layer1"
     inkscape:label="txt">
    <text
       xml:space="preserve"
       style="font-style:normal;font-variant:normal;font-weight:normal;font-stretch:normal;font-size:10.5905962px;line-height:0%;font-family:Lavi;-inkscape-font-specification:Lavi;text-align:center;letter-spacing:0px;word-spacing:0px;text-anchor:middle;fill:#000000;fill-opacity:1;stroke:none;stroke-width:0.8825497"
       x="423.8205"
       y="638.85248"
       id="text4246-5"><tspan
         sodipodi:role="line"
         style="font-size:39.71473694px;line-height:1.25;stroke-width:0.8825497"
         x="423.8205"
         y="641.86945"
         id="tspan491" /><tspan
         sodipodi:role="line"
         style="font-size:39.71473694px;line-height:1.25;stroke-width:0.8825497"
         x="423.8205"
         y="674.98792"
         id="tspan53">Ja sé que els</tspan><tspan
         sodipodi:role="line"
         style="font-size:39.71473694px;line-height:1.25;stroke-width:0.8825497"
         x="423.8205"
         y="724.63135"
         id="tspan5635">gats odien</tspan><tspan
         sodipodi:role="line"
         style="font-size:39.71473694px;line-height:1.25;stroke-width:0.8825497"
         x="423.8205"
         y="774.27478"
         id="tspan67">mullar-se.</tspan></text>
    <text
       xml:space="preserve"
       style="font-style:normal;font-variant:normal;font-weight:normal;font-stretch:normal;line-height:0%;font-family:Lavi;-inkscape-font-specification:Lavi;text-align:center;letter-spacing:0px;word-spacing:0px;text-anchor:middle;fill:#000000;fill-opacity:1;stroke:none"
       x="355.44214"
       y="1765.9678"
       id="text4246-1"><tspan
         sodipodi:role="line"
         style="font-style:normal;font-variant:normal;font-weight:bold;font-stretch:normal;font-size:45px;line-height:1.25;font-family:Lavi;-inkscape-font-specification:'Lavi Bold'"
         x="355.44214"
         y="1765.9678"
         id="tspan887">No t'hi</tspan><tspan
         sodipodi:role="line"
         style="font-style:normal;font-variant:normal;font-weight:bold;font-stretch:normal;font-size:45px;line-height:1.25;font-family:Lavi;-inkscape-font-specification:'Lavi Bold'"
         x="355.44214"
         y="1822.2178"
         id="tspan71">amoïnis!</tspan></text>
    <text
       xml:space="preserve"
       style="font-style:normal;font-variant:normal;font-weight:normal;font-stretch:normal;font-size:13.49506664px;line-height:0%;font-family:Lavi;-inkscape-font-specification:Lavi;text-align:center;letter-spacing:0px;word-spacing:0px;text-anchor:middle;fill:#000000;fill-opacity:1;stroke:none;stroke-width:0.99999994"
       x="1288.4023"
       y="2164.0278"
       id="text4246-1-3"
       transform="scale(0.99789912,1.0021053)"><tspan
         sodipodi:role="line"
         style="font-style:normal;font-variant:normal;font-weight:bold;font-stretch:normal;font-size:50.60649872px;line-height:1.25;font-family:Lavi;-inkscape-font-specification:'Lavi Bold';stroke-width:0.99999994"
         x="1288.4023"
         y="2164.0278"
         id="tspan914">Els llibres</tspan><tspan
         sodipodi:role="line"
         style="font-style:normal;font-variant:normal;font-weight:bold;font-stretch:normal;font-size:50.60649872px;line-height:1.25;font-family:Lavi;-inkscape-font-specification:'Lavi Bold';stroke-width:0.99999994"
         x="1288.4023"
         y="2227.2859"
         id="tspan82">també són útils</tspan><tspan
         sodipodi:role="line"
         style="font-style:normal;font-variant:normal;font-weight:bold;font-stretch:normal;font-size:50.60649872px;line-height:1.25;font-family:Lavi;-inkscape-font-specification:'Lavi Bold';stroke-width:0.99999994"
         x="1288.4023"
         y="2290.5442"
         id="tspan94">per això!</tspan></text>
    <text
       xml:space="preserve"
       style="font-style:normal;font-variant:normal;font-weight:normal;font-stretch:normal;font-size:11.40636063px;line-height:0%;font-family:Lavi;-inkscape-font-specification:Lavi;text-align:center;letter-spacing:0px;word-spacing:0px;text-anchor:middle;fill:#000000;fill-opacity:1;stroke:none;stroke-width:0.95053005"
       x="123.25092"
       y="2610.8384"
       id="text4246-5-5"><tspan
         sodipodi:role="line"
         style="font-size:42.7738533px;line-height:1.25;text-align:start;text-anchor:start;stroke-width:0.95053005"
         x="123.25092"
         y="2610.8384"
         id="tspan110">I en menys de deu minuts </tspan><tspan
         sodipodi:role="line"
         style="font-size:42.7738533px;line-height:1.25;text-align:start;text-anchor:start;stroke-width:0.95053005"
         x="123.25092"
         y="2664.3057"
         id="tspan114">d'entrar dins la torre, sóc</tspan><tspan
         sodipodi:role="line"
         style="font-size:42.7738533px;line-height:1.25;text-align:start;text-anchor:start;stroke-width:0.95053005"
         x="123.25092"
         y="2717.7729"
         id="tspan116">a la sala del tresor per</tspan><tspan
         sodipodi:role="line"
         style="font-size:42.7738533px;line-height:1.25;text-align:start;text-anchor:start;stroke-width:0.95053005"
         x="123.25092"
         y="2771.2402"
         id="tspan118">collir les fulles màgiques</tspan><tspan
         sodipodi:role="line"
         style="font-size:42.7738533px;line-height:1.25;text-align:start;text-anchor:start;stroke-width:0.95053005"
         x="123.25092"
         y="2824.7078"
         id="tspan130">del famós Arbre d'Aigua.</tspan></text>
    <text
       xml:space="preserve"
       style="font-style:normal;font-variant:normal;font-weight:normal;font-stretch:normal;font-size:13.49506664px;line-height:0%;font-family:Lavi;-inkscape-font-specification:Lavi;text-align:center;letter-spacing:0px;word-spacing:0px;text-anchor:middle;fill:#000000;fill-opacity:1;stroke:none;stroke-width:0.99999994"
       x="2037.9746"
       y="2955.3962"
       id="text4246-1-3-2"
       transform="scale(0.99789912,1.0021053)"><tspan
         sodipodi:role="line"
         style="font-style:normal;font-variant:normal;font-weight:bold;font-stretch:normal;font-size:50.60649872px;line-height:1.25;font-family:Lavi;-inkscape-font-specification:'Lavi Bold';stroke-width:0.99999994"
         x="2037.9746"
         y="2955.3962"
         id="tspan914-2">Els llibres</tspan><tspan
         sodipodi:role="line"
         style="font-style:normal;font-variant:normal;font-weight:bold;font-stretch:normal;font-size:50.60649872px;line-height:1.25;font-family:Lavi;-inkscape-font-specification:'Lavi Bold';stroke-width:0.99999994"
         x="2037.9746"
         y="3018.6543"
         id="tspan152">són màgics!</tspan></text>
    <text
       xml:space="preserve"
       style="font-style:normal;font-variant:normal;font-weight:normal;font-stretch:normal;font-size:10.5905962px;line-height:0%;font-family:Lavi;-inkscape-font-specification:Lavi;text-align:center;letter-spacing:0px;word-spacing:0px;text-anchor:middle;fill:#000000;fill-opacity:1;stroke:none;stroke-width:0.8825497"
       x="352.64365"
       y="591.20569"
       id="text4246-5-6"><tspan
         sodipodi:role="line"
         style="font-size:39.71473694px;line-height:1.25;stroke-width:0.8825497"
         x="352.64365"
         y="591.20569"
         id="tspan439-5">Oh, Carrot…</tspan></text>
  </g>
</svg>
