<?xml version="1.0" encoding="UTF-8" standalone="no"?>
<svg
   xmlns:dc="http://purl.org/dc/elements/1.1/"
   xmlns:cc="http://creativecommons.org/ns#"
   xmlns:rdf="http://www.w3.org/1999/02/22-rdf-syntax-ns#"
   xmlns:svg="http://www.w3.org/2000/svg"
   xmlns="http://www.w3.org/2000/svg"
   xmlns:xlink="http://www.w3.org/1999/xlink"
   xmlns:sodipodi="http://sodipodi.sourceforge.net/DTD/sodipodi-0.dtd"
   xmlns:inkscape="http://www.inkscape.org/namespaces/inkscape"
   sodipodi:docname="E08P05.svg"
   height="3503"
   width="2481"
   inkscape:version="1.0 (4035a4f, 2020-05-01)"
   version="1.1"
   id="svg2">
  <sodipodi:namedview
     inkscape:document-rotation="0"
     inkscape:window-maximized="0"
     inkscape:window-y="23"
     inkscape:window-x="0"
     inkscape:current-layer="layer3"
     inkscape:cy="3181.4014"
     inkscape:cx="1229.7765"
     inkscape:zoom="0.45992041"
     showgrid="false"
     id="namedview70"
     inkscape:window-height="790"
     inkscape:window-width="1372"
     inkscape:pageshadow="2"
     inkscape:pageopacity="0"
     bordercolor="#666666"
     pagecolor="#ffffff" />
  <metadata
     id="metadata8">
    <rdf:RDF>
      <cc:Work
         rdf:about="">
        <dc:format>image/svg+xml</dc:format>
        <dc:type
           rdf:resource="http://purl.org/dc/dcmitype/StillImage" />
        <dc:title />
      </cc:Work>
    </rdf:RDF>
  </metadata>
  <defs
     id="defs6">
    <filter
       inkscape:label="deevad outline effect"
       id="filter4375-4-1-1-15-1-3"
       color-interpolation-filters="sRGB">
      <feFlood
         result="flood"
         flood-color="rgb(250,62,62)"
         flood-opacity="0.90476190476190477"
         id="feFlood4377-7-9-0-4-4-4" />
      <feComposite
         result="composite1"
         operator="in"
         in="flood"
         in2="SourceGraphic"
         id="feComposite4379-3-8-8-6-0-7" />
      <feMorphology
         result="result3"
         radius="0.59999999999999998"
         operator="dilate"
         id="feMorphology4393-1-0-49-8-2-7" />
      <feComposite
         result="composite2"
         operator="over"
         in="SourceGraphic"
         in2="result3"
         id="feComposite4385-9-5-7-2-1-2" />
    </filter>
    <filter
       inkscape:label="deevad outline effect"
       id="filter4005"
       color-interpolation-filters="sRGB">
      <feFlood
         result="flood"
         flood-color="rgb(0,0,0)"
         flood-opacity="1"
         id="feFlood4007" />
      <feComposite
         result="composite1"
         operator="in"
         in="flood"
         in2="SourceGraphic"
         id="feComposite4009" />
      <feMorphology
         result="result3"
         radius="0.59999999999999998"
         operator="dilate"
         id="feMorphology4011" />
      <feComposite
         result="composite2"
         operator="over"
         in="SourceGraphic"
         in2="result3"
         id="feComposite4013" />
    </filter>
    <filter
       inkscape:label="deevad outline effect"
       id="filter4015"
       color-interpolation-filters="sRGB">
      <feFlood
         result="flood"
         flood-color="rgb(0,0,0)"
         flood-opacity="1"
         id="feFlood4017" />
      <feComposite
         result="composite1"
         operator="in"
         in="flood"
         in2="SourceGraphic"
         id="feComposite4019" />
      <feMorphology
         result="result3"
         radius="0.59999999999999998"
         operator="dilate"
         id="feMorphology4021" />
      <feComposite
         result="composite2"
         operator="over"
         in="SourceGraphic"
         in2="result3"
         id="feComposite4023" />
    </filter>
    <filter
       inkscape:label="deevad outline effect"
       id="filter4025"
       color-interpolation-filters="sRGB">
      <feFlood
         result="flood"
         flood-color="rgb(0,0,0)"
         flood-opacity="1"
         id="feFlood4027" />
      <feComposite
         result="composite1"
         operator="in"
         in="flood"
         in2="SourceGraphic"
         id="feComposite4029" />
      <feMorphology
         result="result3"
         radius="0.59999999999999998"
         operator="dilate"
         id="feMorphology4031" />
      <feComposite
         result="composite2"
         operator="over"
         in="SourceGraphic"
         in2="result3"
         id="feComposite4033" />
    </filter>
    <filter
       inkscape:label="deevad outline effect"
       id="filter4035"
       color-interpolation-filters="sRGB">
      <feFlood
         result="flood"
         flood-color="rgb(0,0,0)"
         flood-opacity="1"
         id="feFlood4037" />
      <feComposite
         result="composite1"
         operator="in"
         in="flood"
         in2="SourceGraphic"
         id="feComposite4039" />
      <feMorphology
         result="result3"
         radius="0.59999999999999998"
         operator="dilate"
         id="feMorphology4041" />
      <feComposite
         result="composite2"
         operator="over"
         in="SourceGraphic"
         in2="result3"
         id="feComposite4043" />
    </filter>
    <filter
       inkscape:label="deevad outline effect"
       id="filter4045"
       color-interpolation-filters="sRGB">
      <feFlood
         result="flood"
         flood-color="rgb(0,0,0)"
         flood-opacity="1"
         id="feFlood4047" />
      <feComposite
         result="composite1"
         operator="in"
         in="flood"
         in2="SourceGraphic"
         id="feComposite4049" />
      <feMorphology
         result="result3"
         radius="0.59999999999999998"
         operator="dilate"
         id="feMorphology4051" />
      <feComposite
         result="composite2"
         operator="over"
         in="SourceGraphic"
         in2="result3"
         id="feComposite4053" />
    </filter>
    <filter
       inkscape:label="deevad outline effect"
       id="filter4055"
       color-interpolation-filters="sRGB">
      <feFlood
         result="flood"
         flood-color="rgb(0,0,0)"
         flood-opacity="1"
         id="feFlood4057" />
      <feComposite
         result="composite1"
         operator="in"
         in="flood"
         in2="SourceGraphic"
         id="feComposite4059" />
      <feMorphology
         result="result3"
         radius="0.59999999999999998"
         operator="dilate"
         id="feMorphology4061" />
      <feComposite
         result="composite2"
         operator="over"
         in="SourceGraphic"
         in2="result3"
         id="feComposite4063" />
    </filter>
    <filter
       inkscape:label="deevad outline effect"
       id="filter4065"
       color-interpolation-filters="sRGB">
      <feFlood
         result="flood"
         flood-color="rgb(0,0,0)"
         flood-opacity="1"
         id="feFlood4067" />
      <feComposite
         result="composite1"
         operator="in"
         in="flood"
         in2="SourceGraphic"
         id="feComposite4069" />
      <feMorphology
         result="result3"
         radius="0.59999999999999998"
         operator="dilate"
         id="feMorphology4071" />
      <feComposite
         result="composite2"
         operator="over"
         in="SourceGraphic"
         in2="result3"
         id="feComposite4073" />
    </filter>
    <filter
       color-interpolation-filters="sRGB"
       inkscape:menu-tooltip="Basic diffuse bevel to use for building textures"
       inkscape:menu="ABCs"
       inkscape:label="Diffuse light"
       id="filter3066">
      <feGaussianBlur
         result="result0"
         in="SourceGraphic"
         stdDeviation="6"
         id="feGaussianBlur3068" />
      <feDiffuseLighting
         result="result5"
         surfaceScale="10"
         diffuseConstant="1"
         id="feDiffuseLighting3070">
        <feDistantLight
           azimuth="235"
           elevation="25"
           id="feDistantLight3072" />
      </feDiffuseLighting>
      <feComposite
         k3="0.6"
         k2="0"
         operator="arithmetic"
         result="result4"
         in="result5"
         k1="1"
         in2="SourceGraphic"
         id="feComposite3074" />
    </filter>
  </defs>
  <sodipodi:namedview
     inkscape:guide-bbox="true"
     showguides="true"
     inkscape:current-layer="layer3"
     inkscape:window-maximized="1"
     inkscape:window-y="26"
     inkscape:window-x="0"
     inkscape:cy="2947.1492"
     inkscape:cx="1249.5246"
     inkscape:zoom="0.60835002"
     showgrid="false"
     id="namedview4"
     inkscape:window-height="1025"
     inkscape:window-width="1920"
     inkscape:pageshadow="2"
     inkscape:pageopacity="0"
     guidetolerance="10"
     gridtolerance="10"
     objecttolerance="10"
     borderopacity="1"
     bordercolor="#666666"
     pagecolor="#ffffff">
    <sodipodi:guide
       inkscape:locked="false"
       id="guide3078"
       position="102.17391,3299.9999"
       orientation="1,0" />
    <sodipodi:guide
       inkscape:locked="false"
       id="guide3080"
       position="708.69563,3399.9999"
       orientation="0,1" />
  </sodipodi:namedview>
  <g
     sodipodi:insensitive="true"
     inkscape:label="artwork"
     id="layer2"
     inkscape:groupmode="layer">
    <image
       sodipodi:absref="/Users/julienj-mauduit/Downloads/lang-5/gfx_Pepper-and-Carrot_by-David-Revoy_E08P05.png"
       xlink:href="../gfx_Pepper-and-Carrot_by-David-Revoy_E08P05.png"
       y="0"
       x="0"
       id="image10"
       height="3503"
       width="2481" />
  </g>
  <g
     inkscape:label="speechbubbles"
     id="layer3"
     inkscape:groupmode="layer">
    <path
       sodipodi:nodetypes="cccccccccccccccccsccccccccccccccccccccccccccccccccccccccccccccccccccccccccccccccccccc"
       inkscape:connector-curvature="0"
       id="path4024"
       d="M 116.08688,80.891866 97.719329,78.104652 102.04112,104.1186 C 72.978355,105.53016 57.836044,97.365522 37.215035,92.969788 l 32.412977,33.446302 -5.402141,9.29071 c 5.262383,5.4323 13.202836,9.13737 15.126077,16.72323 -14.681458,4.72727 -25.237123,4.72413 -37.378689,6.53928 11.424396,6.28242 20.935799,13.55167 27.654753,22.26173 l -38.895597,14.86497 35.651918,13.00488 c -26.816265,21.38505 -60.5208566,34.87222 -91.834574,51.10079 l 111.28482,-7.43264 -17.2869,16.72321 c 11.12283,8.70397 10.13988,4.39562 15.126076,6.50354 2.428195,6.26384 -38.256576,32.30813 -34.57396,29.73012 4.321808,-0.92912 41.056591,-4.64544 41.056591,-4.64544 0,0 -32.413146,26.01393 -28.091339,26.01393 4.321648,0 39.976073,-6.5035 39.976073,-6.5035 l -11.884734,25.08482 -23.232665,10.23589 -31.929914,28.28981 c 12.087376,-1.83491 17.805851,1.39205 13.50848,12.2375 -29.082662,38.61779 10.598108,72.26633 17.731735,85.41373 68.661268,-72.20016 68.924528,-78.10167 93.155758,-94.04293 22.83854,16.13948 23.6961,15.08867 39.89059,40.55283 11.69126,-16.49397 25.19142,-23.10273 43.2174,-32.51732 5.62611,9.73352 5.66379,11.98887 7.56313,22.29761 5.87801,-7.76427 8.48466,-14.51492 32.41296,-27.87202 0.84026,12.1955 0.73971,11.76026 0,28.80115 24.50926,-20.63069 24.1776,-20.55339 42.13708,-33.44645 4.72211,53.03873 8.23494,72.98437 9.41553,120.49885 20.71277,-31.98621 33.35861,-56.79937 64.05402,-103.77563 6.15982,16.06736 6.75731,19.7282 4.22277,39.24222 9.50104,-15.8574 10.13497,-20.45771 20.62741,-36.45501 7.04031,8.80206 6.64341,18.98675 3.24131,29.73012 6.63005,-13.8517 11.53109,-27.97128 30.25216,-39.94981 19.05331,9.40769 19.76995,23.07651 22.68919,36.2335 -0.92363,-16.81419 5.75664,-28.32732 21.60869,-33.4463 36.00657,26.51415 83.05041,28.25783 100.64078,63.05257 -6.82275,-36.6035 -39.14381,-41.48236 -26.09072,-74.20138 12.24492,-2.94585 24.48984,2.94625 36.73478,11.14881 l -0.88032,-37.33301 45.37837,15.84833 -26.13068,-25.89777 c 18.85544,-2.76184 46.91096,5.19296 71.30891,9.29072 l -12.96527,-25.08482 c 11.00011,0.9376 29.74699,10.7722 47.53918,19.51042 -21.86236,-23.9956 -40.25282,-39.85043 -38.89573,-62.24744 l 49.70007,4.6453 c -19.47586,-16.69993 -43.945,-29.10598 -57.57072,-50.8362 l 43.52509,-2.12053 -41.05658,-27.87203 32.41298,-15.79409 -25.93033,-3.71633 43.21739,-33.44629 -57.26315,-2.7872 69.14789,-60.389344 -74.42674,-4.825465 0.95705,-25.833639 -44.29775,31.588218 44.29775,-109.6297516 C 644.28401,29.986163 616.70709,61.388897 568.17671,89.647175 l -15.60124,-11.009145 -17.27948,5.701364 4.32164,-31.31943 -63.74561,38.091593 6.48261,-17.65219 -19.44786,16.723218 4.32165,-23.226734 -33.49347,27.87203 3.08373,-24.284835 -16.04898,15.923215 -4.94193,-15.258686 -18.82761,9.684291 C 391.33507,40.63235 401.06925,0.37282291 407.80442,-39.886694 385.69962,6.2009844 357.62734,47.890352 320.28914,82.750087 L 308.40436,65.104135 293.58585,81.42105 278.6173,60.329582 256.08079,85.533096 C 238.259,66.332368 227.87932,54.568364 220.88906,35.367647 c 3.4474,17.995083 5.95389,30.083575 0.92531,49.900718 -65.78938,-30.340577 -63.81982,-33.046232 -88.44059,-49.900718 -6.74653,21.663581 -13.46959,28.876599 -17.2869,45.524219 z"
       style="color:#000000;fill:#ffffff;fill-opacity:1;fill-rule:nonzero;stroke:none;stroke-width:1px;marker:none;visibility:visible;display:inline;overflow:visible;enable-background:accumulate" />
    <path
       sodipodi:nodetypes="ccccccscccscccccscscsccccscccccccsscscccccccccccccccccccccccccsccccc"
       inkscape:connector-curvature="0"
       id="path5888"
       d="m 1563.8903,1593.3395 c 29.8131,5.9388 41.4193,12.2058 36.2616,16.6381 12.1988,1.5245 18.6581,55.703 7.6399,66.1717 -0.721,1.0816 -5.9155,4.4678 -3.6236,4.8845 2.2917,0.4165 15.8778,-1.7907 18.2248,0.1949 2.3469,1.9856 -19.3401,32.86 -16.2719,33.7641 3.0682,0.9041 72.0901,-22.2322 82.1073,-17.9861 10.0175,4.2459 5.1354,16.5229 8.1851,16.9042 3.0496,0.381 30.9794,-4.069 34.7871,-3.7234 3.8072,0.3458 14.0219,11.903 14.9868,16.0619 3.2345,-3.0015 20.9802,-7.7917 24.0301,-7.4104 3.0497,0.3811 5.5133,10.8318 5.8012,13.8723 2.8375,-3.0592 20.0754,-11.9401 22.3674,-11.5237 2.2917,0.4167 12.8476,20.8251 15.3915,27.5678 3.4223,-4.5688 27.0284,-30.0765 29.2837,-30.706 2.2553,-0.6294 17.9225,34.7833 20.9725,35.1647 3.0496,0.3811 17.3236,-25.432 19.6155,-25.0154 2.292,0.4166 17.2056,14.3868 20.2736,15.2908 3.0682,0.904 21.5952,-33.4893 24.6263,-33.6312 3.0315,-0.1419 29.2943,12.7732 31.6598,15.2817 2.3654,2.5086 4.0687,-13.8107 7.1003,-13.9525 3.0312,-0.1418 38.2224,7.6408 38.9619,7.0824 0.7394,-0.5584 -5.6725,-10.2115 -3.399,-10.3179 38.67,4.0124 86.7196,9.8792 122.7648,15.7332 -15.2906,-12.4494 -35.6101,-41.2896 -31.9315,-44.6048 3.6791,-3.3153 17.4488,-0.2927 18.1515,-1.8971 0.7026,-1.6044 -8.6304,-7.9778 -6.4307,-10.1763 2.2003,-2.1982 29.8538,-14.4932 29.8538,-14.4932 0,0 -11.6982,-8.8821 -8.7224,-10.5929 2.9764,-1.7109 31.85,-14.0951 48.0052,-16.3903 -6.3481,-2.0523 -23.2681,-14.1029 -20.3658,-17.9057 2.9028,-3.8028 4.4136,-4.9052 10.3339,-8.3414 -2.919,-1.4028 -15.359,-5.0436 -14.6929,-7.6941 0.666,-2.6505 7.7844,-16.08 9.9845,-18.2783 2.1999,-2.1983 -15.9514,-0.3013 -16.025,-2.3933 -0.074,-2.0919 -4.0957,-19.7273 58.6124,-54.761 -84.4754,20.4595 -114.1101,9.0744 -139.2654,6.0608 -25.156,-3.0137 -10.8173,-16.205 -4.8372,-29.5443 -14.3302,8.1911 -32.252,12.405 -35.4344,6.8967 -3.9178,-3.4836 -4.0541,-2.097 -8.704,-10.0698 -14.8579,11.8443 -19.9468,15.6012 -23.754,15.2557 -3.8078,-0.3457 -33.2393,-6.8043 -45.5581,-21.9655 -14.6122,11.6479 -25.4536,10.0967 -29.9824,10.8323 -4.5286,0.7359 -7.3953,-3.5328 -12.5296,-10.9383 -3.7527,1.2231 -27.6721,11.7719 -31.4981,10.9031 -3.8259,-0.8686 -3.5557,1.1377 -9.999,-3.7226 -2.9944,1.1876 -16.4884,6.01 -16.4884,6.01 0,0 -8.5512,2.6565 -14.5091,-2.4643 -12.2615,12.7819 -31.1927,17.3381 -38.7637,20.1489 -7.1663,-3.0778 -37.7732,-38.0455 -35.6101,-41.2898 2.1632,-3.2444 -32.5767,45.0043 -37.8262,46.8215 -5.2497,1.8172 -15.7707,2.5627 -22.7901,-0.5051 -1.4608,1.6399 -5.7133,10.2205 -10.2421,10.9563 -4.5284,0.7357 -15.0645,3.3241 -15.0645,3.3241 l 1.6259,3.0672 c 0,0 -32.1231,-6.8785 -36.0227,-9.8392 -3.8996,-2.9606 2.7516,13.4914 5.1721,17.569 -13.7878,-3.5457 -54.2657,-10.557 -57.3888,-13.0302 -3.1234,-2.4731 5.6355,9.1658 10.3113,12.6139 -6.1177,-1.2853 -11.441,-1.56 -11.441,-1.56 l 17.8713,11.7361 -5.2679,1.2944 c 0,0 11.5697,5.2209 11.6616,7.836 0.092,2.615 -29.3532,7.1358 -29.3532,7.1358 0,0 12.291,4.1395 9.3515,6.8963 -2.9395,2.7569 -10.4626,4.6804 -10.4626,4.6804 l -1.2766,6.87 z"
       style="fill:#ffffff;fill-opacity:1;stroke:none;stroke-width:0.927353" />
    <path
       sodipodi:nodetypes="cccccccccccc"
       inkscape:connector-curvature="0"
       id="path4032"
       d="M 807.29732,561.67147 C 755.58328,503.03368 695.30114,453.73285 653.54208,384.24679 l 0.24868,68.89257 C 628.1843,408.40611 637.96807,430.98231 619.38102,393.70889 l -18.01992,60.2902 C 581.49182,352.89275 565.95564,295.60802 556.10793,226.03045 L 444.14786,381.17687 c 55.50166,40.78524 116.41598,69.85083 165.82926,123.81844 l 16.73046,-38.36491 c 19.40004,15.60182 29.06638,22.96298 45.53232,43.9994 l 8.49089,-51.08249 z"
       style="color:#000000;fill:#ffffff;fill-opacity:1;fill-rule:nonzero;stroke:none;stroke-width:1px;marker:none;visibility:visible;display:inline;overflow:visible;enable-background:accumulate" />
    <flowRoot
       transform="translate(-29.715816,-94.27479)"
       style="font-style:normal;font-variant:normal;font-weight:normal;font-stretch:normal;line-height:0.01%;font-family:Lavi;-inkscape-font-specification:Lavi;text-align:center;letter-spacing:0px;word-spacing:0px;text-anchor:middle;fill:#000000;fill-opacity:1;stroke:none"
       id="flowRoot2987-4-9-3"
       xml:space="preserve"><flowRegion
         id="flowRegion2989-5-4-5"><rect
           style="font-style:normal;font-variant:normal;font-weight:normal;font-stretch:normal;font-family:Lavi;-inkscape-font-specification:Lavi;text-align:center;text-anchor:middle"
           y="265.53046"
           x="120.55251"
           height="310.73996"
           width="602.40173"
           id="rect2991-7-9-6" /></flowRegion><flowPara
         id="flowPara3030-8"
         style="font-size:48px;line-height:1.25;text-align:center;text-anchor:middle">Coument o peuvent</flowPara><flowPara
         id="flowPara3009"
         style="font-size:48px;line-height:1.25;text-align:center;text-anchor:middle">me faire cha ?!!</flowPara><flowPara
         id="flowPara3011"
         style="font-size:48px;line-height:1.25;text-align:center;text-anchor:middle">à             </flowPara></flowRoot>
    <flowRoot
       transform="matrix(1.2147869,0,0,1.2147869,-139.78768,-40.854418)"
       style="font-style:normal;font-variant:normal;font-weight:normal;font-stretch:normal;line-height:0.01%;font-family:Lavi;-inkscape-font-specification:Lavi;text-align:center;letter-spacing:0px;word-spacing:0px;text-anchor:middle;fill:#000000;fill-opacity:1;stroke:none"
       id="flowRoot2987-4-9-3-0"
       xml:space="preserve"><flowRegion
         id="flowRegion2989-5-4-5-1"><rect
           style="font-style:normal;font-variant:normal;font-weight:normal;font-stretch:normal;font-family:Lavi;-inkscape-font-specification:Lavi;text-align:center;text-anchor:middle"
           y="265.53046"
           x="120.55251"
           height="310.73996"
           width="602.40173"
           id="rect2991-7-9-6-4" /></flowRegion><flowPara
         id="flowPara3030-8-7"
         style="font-style:italic;font-weight:bold;font-size:48px;line-height:1.25;-inkscape-font-specification:'Lavi Bold Italic';text-align:center;letter-spacing:1.5px;text-anchor:middle;stroke:#000000;stroke-width:3.15776;stroke-miterlimit:4;stroke-dasharray:none;stroke-opacity:1"> mei</flowPara></flowRoot>
    <flowRoot
       style="font-style:normal;font-variant:normal;font-weight:normal;font-stretch:normal;line-height:0.01%;font-family:Arial;-inkscape-font-specification:Arial;letter-spacing:0px;word-spacing:0px;fill:#000000;fill-opacity:1;stroke:none"
       id="flowRoot3805"
       xml:space="preserve"><flowRegion
         id="flowRegion3807"><rect
           y="587.78271"
           x="1565.2173"
           height="402.17389"
           width="371.73911"
           id="rect3809" /></flowRegion><flowPara
         style="font-size:12px;line-height:1.25"
         id="flowPara3811"> </flowPara></flowRoot>
    <flowRoot
       transform="matrix(0.75657286,-0.2150653,0.23488287,0.7872367,1451.7447,33.809233)"
       style="font-style:normal;font-variant:normal;font-weight:normal;font-stretch:normal;line-height:0.01%;font-family:Lavi;-inkscape-font-specification:Lavi;text-align:center;letter-spacing:0px;word-spacing:0px;text-anchor:middle;opacity:0.753488;fill:#c5a18a;fill-opacity:1;stroke:none;filter:url(#filter3066)"
       id="flowRoot2987-4-9-3-8"
       xml:space="preserve"><flowRegion
         id="flowRegion2989-5-4-5-4"><rect
           style="font-style:normal;font-variant:normal;font-weight:normal;font-stretch:normal;font-family:Lavi;-inkscape-font-specification:Lavi;text-align:center;text-anchor:middle;fill:#c5a18a;fill-opacity:1"
           y="265.53046"
           x="120.55251"
           height="310.73996"
           width="602.40173"
           id="rect2991-7-9-6-3" /></flowRegion><flowPara
         id="flowPara3030-8-2"
         style="font-style:normal;font-variant:normal;font-weight:normal;font-stretch:normal;font-size:48px;line-height:1.25;font-family:Fondamento;-inkscape-font-specification:Fondamento;text-align:center;text-anchor:middle;fill:#c5a18a;fill-opacity:1">Incantations</flowPara><flowPara
         id="flowPara3826"
         style="font-style:normal;font-variant:normal;font-weight:normal;font-stretch:normal;font-size:48px;line-height:1.25;font-family:Fondamento;-inkscape-font-specification:Fondamento;text-align:center;text-anchor:middle;fill:#c5a18a;fill-opacity:1">des Démons</flowPara><flowPara
         id="flowPara3828"
         style="font-style:normal;font-variant:normal;font-weight:normal;font-stretch:normal;font-size:48px;line-height:1.25;font-family:Fondamento;-inkscape-font-specification:Fondamento;text-align:center;text-anchor:middle;fill:#c5a18a;fill-opacity:1">CHAOSAH</flowPara><flowPara
         id="flowPara3830"
         style="font-style:normal;font-variant:normal;font-weight:normal;font-stretch:normal;font-size:48px;line-height:1.25;font-family:Fondamento;-inkscape-font-specification:Fondamento;text-align:center;text-anchor:middle;fill:#c5a18a;fill-opacity:1">Vol .1</flowPara></flowRoot>
    <flowRoot
       transform="translate(1437.4887,1288.2943)"
       style="font-style:normal;font-variant:normal;font-weight:normal;font-stretch:normal;line-height:0.01%;font-family:Lavi;-inkscape-font-specification:Lavi;text-align:center;letter-spacing:0px;word-spacing:0px;text-anchor:middle;fill:#000000;fill-opacity:1;stroke:none"
       id="flowRoot2987-4-9-3-7"
       xml:space="preserve"><flowRegion
         id="flowRegion2989-5-4-5-6"><rect
           style="font-style:normal;font-variant:normal;font-weight:normal;font-stretch:normal;font-family:Lavi;-inkscape-font-specification:Lavi;text-align:center;text-anchor:middle"
           y="265.53046"
           x="120.55251"
           height="310.73996"
           width="602.40173"
           id="rect2991-7-9-6-7" /></flowRegion><flowPara
         id="flowPara3891"
         style="font-size:48px;line-height:1.25;text-align:center;text-anchor:middle">... piqu'ej peux pin </flowPara><flowPara
         id="flowPara113"
         style="font-size:48px;line-height:1.25;text-align:center;text-anchor:middle">leus faire fiète !</flowPara></flowRoot>
    <path
       sodipodi:nodetypes="ccccccccsc"
       inkscape:connector-curvature="0"
       id="path5901"
       d="m 1889.0397,1689.3949 c -18.4523,28.3798 -51.1226,88.4968 -53.6964,103.6923 24.9455,9.8716 63.3606,38.7994 61.4454,43.4826 -1.9154,4.6832 -64.3114,57.1793 -62.1183,64.6368 2.1932,7.4574 17.4097,29.1871 26.1857,34.615 -23.9099,-18.6352 -40.7903,-34.5159 -40.9424,-46.0736 -0.5159,-7.819 48.671,-48.3166 52.2072,-50.9091 -18.4319,-14.9363 -59.2654,-41.5126 -63.9461,-49.6536 1.5251,-11.9193 7.4437,-57.7273 34.6061,-108.1162 27.1625,-50.3889 46.2588,8.3258 46.2588,8.3258 z"
       style="color:#000000;fill:#ffffff;fill-opacity:1;fill-rule:nonzero;stroke:none;stroke-width:1px;marker:none;visibility:visible;display:inline;overflow:visible;enable-background:accumulate" />
    <flowRoot
       transform="matrix(9.057412,-1.0588983,-10.959715,18.523791,1919.0103,-15724.869)"
       style="color:#000000;font-style:normal;font-variant:normal;font-weight:normal;font-stretch:normal;line-height:0.01%;font-family:Arial;-inkscape-font-specification:Arial;letter-spacing:0.00204969px;word-spacing:0px;display:inline;overflow:visible;visibility:visible;fill:#ffffff;fill-opacity:1;fill-rule:nonzero;stroke:#ffffff;stroke-width:0.0836072;stroke-linecap:butt;stroke-linejoin:miter;stroke-miterlimit:4;stroke-dasharray:none;stroke-dashoffset:0;stroke-opacity:1;marker:none;filter:url(#filter4375-4-1-1-15-1-3);enable-background:accumulate"
       id="flowRoot4133-6-9-4-8-5"
       xml:space="preserve"><flowRegion
         style="stroke-width:0.866467"
         id="flowRegion4135-2-9-3-5-2"><rect
           style="color:#000000;letter-spacing:0.00204969px;display:inline;overflow:visible;visibility:visible;fill:#ffffff;fill-opacity:1;fill-rule:nonzero;stroke:#ffffff;stroke-width:0.0836072;stroke-linecap:butt;stroke-linejoin:miter;stroke-miterlimit:4;stroke-dasharray:none;stroke-dashoffset:0;stroke-opacity:1;marker:none;enable-background:accumulate"
           y="1078.5308"
           x="1125.3193"
           height="30.687002"
           width="92.489304"
           id="rect4137-1-7-1-2-1" /></flowRegion><flowPara
         style="color:#000000;font-style:normal;font-variant:normal;font-weight:normal;font-stretch:normal;font-size:12px;line-height:125%;font-family:Lavi;-inkscape-font-specification:Lavi;letter-spacing:0.00204969px;word-spacing:0.00204969px;display:inline;overflow:visible;visibility:visible;fill:#ffffff;fill-opacity:1;fill-rule:nonzero;stroke:#ffffff;stroke-width:0.0836072;stroke-linecap:butt;stroke-linejoin:miter;stroke-miterlimit:4;stroke-dasharray:none;stroke-dashoffset:0;stroke-opacity:1;marker:none;enable-background:accumulate"
         id="flowPara4139-2-8-6-8-6"><flowSpan
   style="color:#000000;font-size:7.13246px;display:inline;overflow:visible;visibility:visible;fill:#ffffff;fill-opacity:1;fill-rule:nonzero;stroke:#ffffff;stroke-width:0.0836072;stroke-linecap:butt;stroke-linejoin:miter;stroke-miterlimit:4;stroke-dasharray:none;stroke-dashoffset:0;stroke-opacity:1;marker:none;enable-background:accumulate"
   id="flowSpan4821">D</flowSpan><flowSpan
   style="color:#000000;font-size:8.55646px;display:inline;overflow:visible;visibility:visible;fill:#ffffff;fill-opacity:1;fill-rule:nonzero;stroke:#ffffff;stroke-width:0.0836072;stroke-linecap:butt;stroke-linejoin:miter;stroke-miterlimit:4;stroke-dasharray:none;stroke-dashoffset:0;stroke-opacity:1;marker:none;enable-background:accumulate"
   id="flowSpan4823">Z</flowSpan><flowSpan
   id="flowSpan4271-5"
   style="color:#000000;font-size:9.90925px;display:inline;overflow:visible;visibility:visible;fill:#ffffff;fill-opacity:1;fill-rule:nonzero;stroke:#ffffff;stroke-width:0.0836072;stroke-linecap:butt;stroke-linejoin:miter;stroke-miterlimit:4;stroke-dasharray:none;stroke-dashoffset:0;stroke-opacity:1;marker:none;enable-background:accumulate">Z</flowSpan>ZO<flowSpan
   style="color:#000000;font-size:17.8541px;display:inline;overflow:visible;visibility:visible;fill:#ffffff;fill-opacity:1;fill-rule:nonzero;stroke:#ffffff;stroke-width:0.0836072;stroke-linecap:butt;stroke-linejoin:miter;stroke-miterlimit:4;stroke-dasharray:none;stroke-dashoffset:0;stroke-opacity:1;marker:none;enable-background:accumulate"
   id="flowSpan4277-2">O<flowSpan
   id="flowSpan4005"
   style="font-size:20.7021px">O</flowSpan></flowSpan></flowPara></flowRoot>
    <flowRoot
       xml:space="preserve"
       id="flowRoot107"
       style="font-style:normal;font-variant:normal;font-weight:normal;font-stretch:normal;line-height:0.01%;font-family:Lavi;-inkscape-font-specification:Lavi;text-align:center;letter-spacing:0px;word-spacing:0px;text-anchor:middle;fill:#000000;fill-opacity:1;stroke:none"
       transform="translate(-29.715816,25.72521)"><flowRegion
         id="flowRegion99"><rect
           id="rect97"
           width="602.40173"
           height="310.73996"
           x="120.55251"
           y="265.53046"
           style="font-style:normal;font-variant:normal;font-weight:normal;font-stretch:normal;font-family:Lavi;-inkscape-font-specification:Lavi;text-align:center;text-anchor:middle" /></flowRegion><flowPara
         style="font-size:48px;line-height:1.25;text-align:center;text-anchor:middle"
         id="flowPara101" /><flowPara
         style="font-size:48px;line-height:1.25;text-align:center;text-anchor:middle"
         id="flowPara103" /><flowPara
         style="font-size:48px;line-height:1.25;text-align:center;text-anchor:middle"
         id="flowPara105">           !!!</flowPara></flowRoot>
  </g>
  <g
     inkscape:label="txt"
     id="layer1"
     inkscape:groupmode="layer" />
</svg>
