<?xml version="1.0" encoding="UTF-8" standalone="no"?>
<!-- Created with Inkscape (http://www.inkscape.org/) -->

<svg
   id="svg2"
   version="1.1"
   inkscape:version="1.2.1 (9c6d41e410, 2022-07-14)"
   width="2481"
   height="3503"
   sodipodi:docname="E37P02.svg"
   xmlns:inkscape="http://www.inkscape.org/namespaces/inkscape"
   xmlns:sodipodi="http://sodipodi.sourceforge.net/DTD/sodipodi-0.dtd"
   xmlns:xlink="http://www.w3.org/1999/xlink"
   xmlns="http://www.w3.org/2000/svg"
   xmlns:svg="http://www.w3.org/2000/svg"
   xmlns:rdf="http://www.w3.org/1999/02/22-rdf-syntax-ns#"
   xmlns:cc="http://creativecommons.org/ns#"
   xmlns:dc="http://purl.org/dc/elements/1.1/">
  <metadata
     id="metadata8">
    <rdf:RDF>
      <cc:Work
         rdf:about="">
        <dc:format>image/svg+xml</dc:format>
        <dc:type
           rdf:resource="http://purl.org/dc/dcmitype/StillImage" />
        <dc:title />
      </cc:Work>
    </rdf:RDF>
  </metadata>
  <defs
     id="defs6">
    <filter
       inkscape:collect="always"
       style="color-interpolation-filters:sRGB"
       id="filter4410"
       x="-0.017077732"
       width="1.0341555"
       y="-0.064502225"
       height="1.1290045">
      <feGaussianBlur
         inkscape:collect="always"
         stdDeviation="0.3391804"
         id="feGaussianBlur4412" />
    </filter>
    <filter
       inkscape:collect="always"
       style="color-interpolation-filters:sRGB"
       id="filter4410-3"
       x="-0.016720648"
       width="1.0334413"
       y="-0.082743964"
       height="1.1654879">
      <feGaussianBlur
         inkscape:collect="always"
         stdDeviation="0.3391804"
         id="feGaussianBlur4412-6" />
    </filter>
    <filter
       inkscape:collect="always"
       style="color-interpolation-filters:sRGB"
       id="filter4410-3-3"
       x="-0.022037198"
       width="1.0440744"
       y="-0.073160156"
       height="1.1463203">
      <feGaussianBlur
         inkscape:collect="always"
         stdDeviation="0.3391804"
         id="feGaussianBlur4412-6-5" />
    </filter>
    <filter
       inkscape:collect="always"
       style="color-interpolation-filters:sRGB"
       id="filter4410-3-36"
       x="-0.011476952"
       width="1.0229539"
       y="-0.07762581"
       height="1.1552516">
      <feGaussianBlur
         inkscape:collect="always"
         stdDeviation="0.3391804"
         id="feGaussianBlur4412-6-7" />
    </filter>
    <filter
       inkscape:collect="always"
       style="color-interpolation-filters:sRGB"
       id="filter4410-3-36-5"
       x="-0.01325398"
       width="1.026508"
       y="-0.11326619"
       height="1.2265324">
      <feGaussianBlur
         inkscape:collect="always"
         stdDeviation="0.3391804"
         id="feGaussianBlur4412-6-7-6" />
    </filter>
    <filter
       inkscape:collect="always"
       style="color-interpolation-filters:sRGB"
       id="filter4410-3-36-5-1"
       x="-0.013514606"
       width="1.0270292"
       y="-0.090987371"
       height="1.1819747">
      <feGaussianBlur
         inkscape:collect="always"
         stdDeviation="0.3391804"
         id="feGaussianBlur4412-6-7-6-2" />
    </filter>
    <filter
       inkscape:collect="always"
       style="color-interpolation-filters:sRGB"
       id="filter4410-3-36-5-1-3"
       x="-0.011788116"
       width="1.0235762"
       y="-0.1169896"
       height="1.2339792">
      <feGaussianBlur
         inkscape:collect="always"
         stdDeviation="0.3391804"
         id="feGaussianBlur4412-6-7-6-2-6" />
    </filter>
  </defs>
  <sodipodi:namedview
     pagecolor="#ffffff"
     bordercolor="#666666"
     borderopacity="1"
     objecttolerance="10"
     gridtolerance="10"
     guidetolerance="10"
     inkscape:pageopacity="0"
     inkscape:pageshadow="2"
     inkscape:window-width="1920"
     inkscape:window-height="1056"
     id="namedview4"
     showgrid="false"
     inkscape:zoom="0.46000002"
     inkscape:cx="673.91302"
     inkscape:cy="2242.3912"
     inkscape:window-x="1920"
     inkscape:window-y="0"
     inkscape:window-maximized="1"
     inkscape:current-layer="layer1"
     inkscape:pagecheckerboard="0"
     inkscape:showpageshadow="0"
     inkscape:deskcolor="#d1d1d1" />
  <g
     inkscape:groupmode="layer"
     id="layer2"
     inkscape:label="artwork"
     sodipodi:insensitive="true">
    <image
       xlink:href="../gfx_Pepper-and-Carrot_by-David-Revoy_E37P02.png"
       y="0"
       x="0"
       id="image10"
       height="3503"
       width="2481" />
  </g>
  <g
     inkscape:groupmode="layer"
     id="layer3"
     inkscape:label="speechbubbles" />
  <g
     inkscape:groupmode="layer"
     id="layer1"
     inkscape:label="txt">
    <text
       xml:space="preserve"
       style="font-style:normal;font-variant:normal;font-weight:normal;font-stretch:normal;line-height:0%;font-family:Fondamento;-inkscape-font-specification:'Fondamento, Normal';text-align:center;letter-spacing:3px;word-spacing:0px;writing-mode:lr-tb;text-anchor:middle;display:inline;opacity:0.8;fill:#674833;fill-opacity:1;stroke:#613f2b;stroke-width:2.89567;stroke-miterlimit:4;stroke-dasharray:none;stroke-opacity:1;filter:url(#filter4410-3-36)"
       x="1026.8136"
       y="2758.2344"
       id="text4246-3-6-7-5"
       transform="matrix(0.94497083,0.14682389,-0.02302104,1.4120935,184.27555,-1402.0162)"><tspan
         sodipodi:role="line"
         id="tspan3439-5-3"
         style="font-style:normal;font-variant:normal;font-weight:normal;font-stretch:normal;font-size:39.7038px;line-height:1.27;font-family:Fondamento;-inkscape-font-specification:Fondamento;fill:#674833;fill-opacity:1;stroke:#613f2b;stroke-width:2.89567;stroke-miterlimit:4;stroke-dasharray:none;stroke-opacity:1"
         x="1028.3136"
         y="2758.2344">HWILYS</tspan></text>
    <text
       xml:space="preserve"
       style="font-style:normal;font-variant:normal;font-weight:normal;font-stretch:normal;line-height:0%;font-family:Fondamento;-inkscape-font-specification:'Fondamento, Normal';text-align:center;letter-spacing:3px;word-spacing:0px;writing-mode:lr-tb;text-anchor:middle;display:inline;opacity:0.8;fill:#624737;fill-opacity:1;stroke:#613f2b;stroke-width:3.4914;stroke-miterlimit:4;stroke-dasharray:none;stroke-opacity:1;filter:url(#filter4410)"
       x="1026.8136"
       y="2758.2344"
       id="text4246-3-6"
       transform="matrix(0.79864736,0.07927837,-0.03786939,1.1484261,103.96483,-544.64594)"><tspan
         sodipodi:role="line"
         id="tspan3439"
         style="font-style:normal;font-variant:normal;font-weight:normal;font-stretch:normal;font-size:39.7038px;line-height:1.27;font-family:Fondamento;-inkscape-font-specification:Fondamento;fill:#624737;fill-opacity:1;stroke:#613f2b;stroke-width:3.4914;stroke-miterlimit:4;stroke-dasharray:none;stroke-opacity:1"
         x="1028.3136"
         y="2758.2344">Torreya</tspan></text>
    <text
       xml:space="preserve"
       style="font-style:normal;font-variant:normal;font-weight:normal;font-stretch:normal;line-height:0;font-family:Fondamento;-inkscape-font-specification:'Fondamento, Normal';text-align:center;letter-spacing:3px;word-spacing:0px;writing-mode:lr-tb;text-anchor:middle;display:inline;opacity:0.8;fill:#624737;fill-opacity:1;stroke:#613f2b;stroke-width:4.90678;stroke-miterlimit:4;stroke-dasharray:none;stroke-opacity:1;filter:url(#filter4410-3-36-5)"
       x="1026.8136"
       y="2758.2344"
       id="text4246-3-6-7-5-2"
       transform="matrix(0.57086506,0.02677693,-0.01390721,0.81546114,273.98717,722.12396)"><tspan
         sodipodi:role="line"
         id="tspan3439-5-3-9"
         style="font-style:normal;font-variant:normal;font-weight:normal;font-stretch:normal;font-size:39.7038px;line-height:1.27;font-family:Fondamento;-inkscape-font-specification:Fondamento;fill:#624737;fill-opacity:1;stroke:#613f2b;stroke-width:4.90678;stroke-miterlimit:4;stroke-dasharray:none;stroke-opacity:1"
         x="1028.3136"
         y="2758.2344"><tspan
   style="font-size:52.9132px;line-height:1.27;stroke-width:4.90678"
   id="tspan44155">1</tspan>00 000Ko</tspan></text>
    <text
       xml:space="preserve"
       style="font-style:normal;font-variant:normal;font-weight:normal;font-stretch:normal;line-height:0%;font-family:Fondamento;-inkscape-font-specification:'Fondamento, Normal';text-align:center;letter-spacing:3px;word-spacing:0px;writing-mode:lr-tb;text-anchor:middle;display:inline;opacity:0.8;fill:#624737;fill-opacity:1;stroke:#613f2b;stroke-width:3.97675;stroke-miterlimit:4;stroke-dasharray:none;stroke-opacity:1;filter:url(#filter4410-3)"
       x="1026.8136"
       y="2758.2344"
       id="text4246-3-6-7"
       transform="matrix(0.69191147,0.06523261,-0.0168561,1.0235222,410.31115,-155.18702)"><tspan
         sodipodi:role="line"
         id="tspan3439-5"
         style="font-style:normal;font-variant:normal;font-weight:normal;font-stretch:normal;font-size:39.7038px;line-height:1.27;font-family:Fondamento;-inkscape-font-specification:Fondamento;fill:#624737;fill-opacity:1;stroke:#613f2b;stroke-width:3.97675;stroke-miterlimit:4;stroke-dasharray:none;stroke-opacity:1"
         x="1028.3136"
         y="2758.2344">Shichimi</tspan></text>
    <text
       xml:space="preserve"
       style="font-style:normal;font-variant:normal;font-weight:normal;font-stretch:normal;line-height:0;font-family:Fondamento;-inkscape-font-specification:'Fondamento, Normal';text-align:center;letter-spacing:3px;word-spacing:0px;writing-mode:lr-tb;text-anchor:middle;display:inline;opacity:0.8;fill:#624737;fill-opacity:1;stroke:#613f2b;stroke-width:4.88792;stroke-miterlimit:4;stroke-dasharray:none;stroke-opacity:1;filter:url(#filter4410-3-36-5-1)"
       x="1026.8136"
       y="2758.2344"
       id="text4246-3-6-7-5-2-7"
       transform="matrix(0.59366631,0.01743274,-0.01446269,0.79041057,507.52029,807.17422)"><tspan
         sodipodi:role="line"
         id="tspan3439-5-3-9-0"
         style="font-style:normal;font-variant:normal;font-weight:normal;font-stretch:normal;font-size:39.7038px;line-height:1.27;font-family:Fondamento;-inkscape-font-specification:Fondamento;fill:#624737;fill-opacity:1;stroke:#613f2b;stroke-width:4.88792;stroke-miterlimit:4;stroke-dasharray:none;stroke-opacity:1"
         x="1028.3136"
         y="2758.2344">250 000Ko</tspan></text>
    <text
       xml:space="preserve"
       style="font-style:normal;font-variant:normal;font-weight:normal;font-stretch:normal;line-height:0%;font-family:Fondamento;-inkscape-font-specification:'Fondamento, Normal';text-align:center;letter-spacing:3px;word-spacing:0px;writing-mode:lr-tb;text-anchor:middle;display:inline;opacity:0.8;fill:#624737;fill-opacity:1;stroke:#613f2b;stroke-width:4.17857;stroke-miterlimit:4;stroke-dasharray:none;stroke-opacity:1;filter:url(#filter4410-3-3)"
       x="1026.8136"
       y="2758.2344"
       id="text4246-3-6-7-6"
       transform="matrix(0.6598721,0.08172047,-0.01607557,0.97156783,687.63337,-14.189848)"
       inkscape:transform-center-x="171.10045"
       inkscape:transform-center-y="-5.4203086"><tspan
         sodipodi:role="line"
         id="tspan3439-5-2"
         style="font-style:normal;font-variant:normal;font-weight:normal;font-stretch:normal;font-size:39.7038px;line-height:1.27;font-family:Fondamento;-inkscape-font-specification:Fondamento;fill:#624737;fill-opacity:1;stroke:#613f2b;stroke-width:4.17857;stroke-miterlimit:4;stroke-dasharray:none;stroke-opacity:1"
         x="1028.3136"
         y="2758.2344">Pepper</tspan></text>
    <text
       xml:space="preserve"
       style="font-style:normal;font-variant:normal;font-weight:normal;font-stretch:normal;line-height:0;font-family:Fondamento;-inkscape-font-specification:'Fondamento, Normal';text-align:center;letter-spacing:3px;word-spacing:0px;writing-mode:lr-tb;text-anchor:middle;display:inline;opacity:0.8;fill:#624737;fill-opacity:1;stroke:#613f2b;stroke-width:5.1216;stroke-miterlimit:4;stroke-dasharray:none;stroke-opacity:1;filter:url(#filter4410-3-36-5-1-3)"
       x="1026.8136"
       y="2758.2344"
       id="text4246-3-6-7-5-2-7-0"
       transform="matrix(0.519516,0.01814457,-0.01265627,0.82268552,822.41546,718.95715)"><tspan
         sodipodi:role="line"
         id="tspan3439-5-3-9-0-6"
         style="font-style:normal;font-variant:normal;font-weight:normal;font-stretch:normal;font-size:39.7038px;line-height:1.27;font-family:Fondamento;-inkscape-font-specification:Fondamento;fill:#624737;fill-opacity:1;stroke:#613f2b;stroke-width:5.1216;stroke-miterlimit:4;stroke-dasharray:none;stroke-opacity:1"
         x="1028.3136"
         y="2758.2344">1 000 000Ko</tspan></text>
  </g>
</svg>
