<?xml version="1.0" encoding="UTF-8" standalone="no"?>
<svg
   xmlns:dc="http://purl.org/dc/elements/1.1/"
   xmlns:cc="http://creativecommons.org/ns#"
   xmlns:rdf="http://www.w3.org/1999/02/22-rdf-syntax-ns#"
   xmlns:svg="http://www.w3.org/2000/svg"
   xmlns="http://www.w3.org/2000/svg"
   xmlns:xlink="http://www.w3.org/1999/xlink"
   xmlns:sodipodi="http://sodipodi.sourceforge.net/DTD/sodipodi-0.dtd"
   xmlns:inkscape="http://www.inkscape.org/namespaces/inkscape"
   id="svg2"
   version="1.1"
   inkscape:version="0.92.5 (2060ec1f9f, 2020-04-08)"
   width="2481"
   height="3503"
   sodipodi:docname="E34P04.svg">
  <metadata
     id="metadata8">
    <rdf:RDF>
      <cc:Work
         rdf:about="">
        <dc:format>image/svg+xml</dc:format>
        <dc:type
           rdf:resource="http://purl.org/dc/dcmitype/StillImage" />
        <dc:title />
      </cc:Work>
    </rdf:RDF>
  </metadata>
  <defs
     id="defs6">
    <filter
       style="color-interpolation-filters:sRGB"
       id="filter4375-4-1-1-1-9-5-8-8-5-5-3-8"
       inkscape:label="soundFX1">
      <feFlood
         id="feFlood4377-7-9-0-8-1-7-3-1-2-7-6-7"
         flood-opacity="1"
         flood-color="rgb(255,255,255)"
         result="flood" />
      <feComposite
         id="feComposite4379-3-8-8-2-77-4-1-0-6-4-7-9"
         in2="SourceGraphic"
         in="flood"
         operator="in"
         result="composite1"
         baseFrequency="0.053999999999999999 0.053999999999999999" />
      <feMorphology
         id="feMorphology4393-1-0-49-8-9-3-0-1-9-9-5-2"
         operator="dilate"
         radius="2.9756367599225957"
         result="result3" />
      <feComposite
         id="feComposite4385-9-5-7-0-8-8-7-5-4-9-3-0"
         in2="result3"
         in="SourceGraphic"
         operator="over"
         result="fbSourceGraphic" />
      <feColorMatrix
         result="fbSourceGraphicAlpha"
         in="fbSourceGraphic"
         values="0 0 0 -1 0 0 0 0 -1 0 0 0 0 -1 0 0 0 0 1 0"
         id="feColorMatrix4544-9-4-4-5-2" />
      <feTurbulence
         id="feTurbulence4546-3-6-5-6-3"
         type="fractalNoise"
         numOctaves="5"
         seed="174"
         baseFrequency="0.053999999999999999 0.054054054054054057"
         result="turbulence" />
      <feDisplacementMap
         id="feDisplacementMap4548-8-0-9-2-7"
         in2="turbulence"
         in="fbSourceGraphic"
         scale="6.6"
         yChannelSelector="G"
         xChannelSelector="R"
         result="fbSourceGraphic" />
      <feColorMatrix
         result="fbSourceGraphicAlpha"
         in="fbSourceGraphic"
         values="0 0 0 -1 0 0 0 0 -1 0 0 0 0 -1 0 0 0 0 1 0"
         id="feColorMatrix4670-7-7-3-9-5" />
      <feFlood
         id="feFlood4672-4-4-5-1-9"
         flood-opacity="1"
         flood-color="rgb(255,255,255)"
         result="flood"
         in="fbSourceGraphic" />
      <feComposite
         id="feComposite4674-8-3-7-2-22"
         in2="fbSourceGraphic"
         in="flood"
         operator="in"
         result="composite1" />
      <feGaussianBlur
         id="feGaussianBlur4676-3-7-08-7-8"
         in="composite1"
         stdDeviation="0"
         result="blur" />
      <feOffset
         id="feOffset4678-6-9-1-0-9"
         dx="-6.3258232761971414"
         dy="6"
         result="offset" />
      <feComposite
         id="feComposite4680-4-0-9-9-7"
         in2="offset"
         in="fbSourceGraphic"
         operator="over"
         result="composite2" />
    </filter>
  </defs>
  <sodipodi:namedview
     pagecolor="#ffffff"
     bordercolor="#666666"
     borderopacity="1"
     objecttolerance="10"
     gridtolerance="10"
     guidetolerance="10"
     inkscape:pageopacity="0"
     inkscape:pageshadow="2"
     inkscape:window-width="1366"
     inkscape:window-height="704"
     id="namedview4"
     showgrid="false"
     inkscape:zoom="0.40227146"
     inkscape:cx="1160.0586"
     inkscape:cy="634.75899"
     inkscape:window-x="0"
     inkscape:window-y="27"
     inkscape:window-maximized="1"
     inkscape:current-layer="layer3"
     inkscape:document-rotation="0"
     borderlayer="true"
     inkscape:snap-global="false" />
  <g
     inkscape:groupmode="layer"
     id="layer2"
     inkscape:label="artwork"
     sodipodi:insensitive="true">
    <image
       sodipodi:absref="/home/juanjo/Comics/lang-ep-34-final/es/../gfx_Pepper-and-Carrot_by-David-Revoy_E34P04.png"
       xlink:href="../gfx_Pepper-and-Carrot_by-David-Revoy_E34P04.png"
       y="0"
       x="0"
       id="image10"
       height="3503"
       width="2481" />
  </g>
  <g
     inkscape:groupmode="layer"
     id="layer3"
     inkscape:label="speechbubbles"
     style="display:inline">
    <path
       style="color:#000000;display:inline;overflow:visible;visibility:visible;fill:#ffffff;fill-opacity:1;fill-rule:nonzero;stroke:none;stroke-width:0.68138134px;marker:none;enable-background:accumulate"
       d="m 948.70416,206.10026 c -29.60023,0.14086 -59.79612,3.30862 -86.59853,12.77045 -19.99401,7.25145 -34.91594,20.95126 -40.8816,36.41697 -5.8917,13.45706 -6.46372,28.6202 1.74337,41.65215 8.35339,12.50077 25.0423,21.32332 43.17225,25.39914 37.82118,9.94423 78.31267,13.5425 118.40779,13.78548 31.89166,-0.3606 64.27346,-6.16231 90.91036,-19.11045 13.0471,-6.55778 23.2154,-16.28555 27.1518,-27.46222 7.0431,-18.00415 1.5953,-38.17866 -13.6834,-53.23873 -9.9401,-9.56984 -24.3108,-16.65077 -40.2616,-19.93897 -17.2654,-4.05009 -35.2641,-6.11433 -53.16011,-8.1185 -15.50862,-1.48095 -31.15502,-2.21834 -46.80033,-2.15532 z"
       id="path4040-4-5-3-5"
       inkscape:connector-curvature="0"
       sodipodi:nodetypes="zssssz" />
    <path
       style="color:#000000;display:inline;overflow:visible;visibility:visible;fill:#ffffff;fill-opacity:1;fill-rule:nonzero;stroke:none;stroke-width:1.20239592px;marker:none;enable-background:accumulate"
       d="m 986.11714,313.87109 c -55.54418,2.71078 -112.10709,9.88553 -162.99665,32.42772 -36.71649,19.49714 -66.40574,54.44043 -71.18597,95.02457 -2.05067,37.11837 23.27831,72.60568 58.02286,88.21415 36.23851,18.00406 77.53095,22.03675 117.31517,27.89504 66.39971,8.23009 135.08575,8.85746 199.98375,-8.62984 35.4061,-11.10576 68.4222,-33.25552 86.041,-65.13982 12.0629,-24.21628 10.3211,-53.7291 -3.4395,-76.97532 -20.4123,-40.40432 -62.1504,-69.77373 -108.2606,-78.006 -33.4692,-7.57183 -67.6003,-12.94939 -101.97633,-14.65983 -4.49947,-0.14792 -9.00198,-0.17267 -13.50373,-0.15067 z"
       id="path4040-4-5-3"
       inkscape:connector-curvature="0"
       sodipodi:nodetypes="zssssz" />
    <path
       style="color:#000000;display:inline;overflow:visible;visibility:visible;fill:#ffffff;fill-opacity:1;fill-rule:nonzero;stroke:none;stroke-width:1px;marker:none;enable-background:accumulate"
       d="m 907.21667,619.60054 c 72.99905,-2.53565 65.7638,-63.19299 71.48587,-78.47444 l 37.78086,7.15422 c 0,0 -26.16471,95.6219 -109.26673,71.32022 z"
       id="path3072-5-5"
       inkscape:connector-curvature="0"
       sodipodi:nodetypes="cccc" />
    <path
       style="display:inline;fill:#ffffff;fill-rule:evenodd;stroke:none;stroke-width:1.408px;stroke-linecap:butt;stroke-linejoin:miter;stroke-opacity:1"
       d="m 1729.4941,1533.8343 c -263.4619,-188.6648 -719.6026,-198.4778 -988.12534,-169.638 l -8.73311,23.8296 c 289.95695,-44.5653 772.14605,6.8513 996.85845,145.8084 z"
       id="path1094"
       inkscape:connector-curvature="0"
       sodipodi:nodetypes="cccc" />
    <path
       style="color:#000000;display:inline;overflow:visible;visibility:visible;fill:#ffffff;fill-opacity:1;fill-rule:nonzero;stroke:none;stroke-width:1.45344782px;marker:none;enable-background:accumulate"
       d="m 1210.5163,1288.6649 c -43.6005,-0.3759 -87.727,4.7468 -127.9503,19.2467 -25.5409,9.2773 -48.9717,23.8388 -64.8312,43.5995 -18.88443,23.3522 -24.08084,55.1212 -11.4978,82.0261 12.2903,26.2744 36.3091,47.803 64.6018,61.8366 23.5236,11.4624 50.4191,16.3159 76.9743,18.1864 34.8113,2.7218 69.8113,1.9323 104.4965,-0.7717 18.2531,-1.4267 36.4866,-3.1205 54.6017,-5.4411 28.0148,-4.1961 55.448,-13.7538 76.5807,-30.3034 19.6542,-15.0135 35.6581,-34.3303 42.37,-56.518 5.6676,-20.1759 -0.4818,-42.6417 -16.1138,-58.7226 -24.058,-27.4963 -58.1218,-48.2202 -95.7604,-59.2856 -33.2646,-9.9296 -68.5605,-13.5736 -103.4715,-13.8529 z"
       id="path3365-3"
       inkscape:connector-curvature="0"
       sodipodi:nodetypes="cssccc" />
    <path
       style="fill:#ffffff;fill-rule:evenodd;stroke:none;stroke-width:1.07311773px;stroke-linecap:butt;stroke-linejoin:miter;stroke-opacity:1"
       d="m 463.84538,1253.5812 c -28.49438,0.3483 -56.94892,2.403 -85.32,5.0926 -27.98351,3.3936 -56.32948,9.9944 -80.74367,25.3616 -21.27501,13.6009 -39.41221,34.2751 -46.75078,59.6783 -6.22994,22.582 -2.43849,47.4169 8.30115,67.8171 13.66034,28.7207 34.90414,54.0863 62.24698,68.9395 20.79774,11.362 44.1447,16.0155 67.15034,19.4003 24.35191,3.3024 48.91177,4.4762 73.4328,5.3636 68.35823,1.54 136.67698,-4.548 204.38316,-14.058 22.78837,-3.9588 46.10534,-10.7567 64.3156,-26.3881 21.09636,-18.1299 34.50214,-44.2282 42.96808,-71.0662 4.84535,-15.2818 6.36569,-32.5113 0.35228,-47.6936 -9.53241,-27.6908 -31.27601,-49.4324 -56.4567,-61.5109 -20.60501,-10.1328 -42.63147,-16.8107 -64.92171,-21.352 -24.54315,-4.676 -49.55543,-5.2899 -74.4313,-5.4465 -32.17352,-0.7929 -64.3088,-2.7014 -96.46084,-4.0621 -6.02096,-0.1133 -12.04376,-0.1335 -18.06539,-0.076 z"
       id="path1079"
       inkscape:connector-curvature="0" />
    <path
       id="path5050-5"
       style="color:#000000;display:inline;overflow:visible;visibility:visible;fill:#ffffff;fill-opacity:1;fill-rule:nonzero;stroke:none;stroke-width:1.10542px;marker:none;enable-background:accumulate"
       d="m 1055.3066,2327.9473 c -6.7695,3.1849 -13.5391,6.3698 -20.3086,9.5547 -5.4515,8.7234 -8.4665,18.631 -12.08,28.1855 0.2877,8.9888 4.778,17.1081 7.4112,25.5492 4.8043,13.3509 10.142,27.6669 6.8338,42.0256 -3.4158,16.5674 -11.898,31.5008 -16.4345,47.7397 -0.956,12.8214 5.6959,25.4955 16.2957,32.604 7.6345,5.5383 17.8577,10.6572 22.2668,17.4448 4.4091,6.7876 3.9198,12.9565 3.0275,20.0069 -0.8923,7.0504 -6.8233,13.4216 -10.106,20.1773 -2.5543,5.2297 -6.5724,10.2065 -4.8898,16.3644 0.5485,8.6419 3.5528,16.9498 8.2569,24.18 1.9155,5.167 7.5375,11.5732 1.5157,15.9953 -3.2977,3.3341 -6.6403,6.6236 -10.0035,9.8933 6.6199,-4.2691 13.2848,-8.7213 18.4668,-14.7364 2.2175,-7.1316 -0.2102,-14.5787 -3.3587,-21.0008 -3.3881,-9.4513 -0.8017,-19.8562 4.2602,-28.1901 5.6073,-9.9289 13.8919,-19.3951 13.8982,-31.4245 0.5595,-12.2965 -5.2038,-24.6049 -15.0512,-32.0084 -6.3523,-5.6552 -13.9693,-10.3956 -18.4457,-17.7889 -5.2096,-11.3685 -1.3783,-24.1347 3.0069,-35.0894 5.3982,-14.2627 13.5704,-28.4586 12.1858,-44.2358 -1.3898,-17.7099 -13.4465,-33.5966 -10.8255,-51.7808 1.5634,-10.2967 5.5548,-20.0386 7.2382,-30.3113 -0.044,-1.6098 -1.4268,-3.3809 -3.1602,-3.1543 z"
       sodipodi:nodetypes="ccccccczzcccccccccccccccc" />
    <path
       id="path1086-2"
       style="display:inline;fill:#ffffff;fill-rule:evenodd;stroke:none;stroke-width:1.72192px;stroke-linecap:butt;stroke-linejoin:miter;stroke-opacity:1"
       d="m 969.49288,2362.244 c -22.05887,2.072 -43.10903,11.2864 -65.53602,10.1905 -16.18698,-0.046 -33.37431,-3.2616 -48.52731,4.1788 -11.78466,5.7666 -24.17795,12.7516 -30.91546,24.4734 -7.39475,14.5227 -9.92206,33.1117 -0.76509,47.4824 12.40948,19.6335 35.12294,32.5447 58.45033,32.4581 19.80037,0.1222 39.61778,2.0994 58.81628,7.0853 15.31402,3.5903 31.44686,5.4007 46.8387,1.128 14.92249,-3.5641 30.30029,-7.7909 45.72809,-4.9333 19.4406,2.8709 38.8582,8.7921 58.6981,5.9357 24.4445,-2.8639 48.3035,-12.2598 73.2355,-9.4962 14.712,1.1364 30.902,2.2363 43.5759,-6.8501 20.7512,-13.656 28.7839,-43.783 17.4388,-65.8698 -8.7079,-13.4201 -24.4854,-19.8261 -39.1024,-24.6114 -22.1315,-6.8718 -46.0305,-1.9296 -68.0695,-9.3646 -13.7036,-4.261 -27.8503,-8.1533 -42.3539,-6.9259 -25.8828,1.1429 -52.2063,6.2281 -77.78622,-0.3296 -9.7978,-2.1008 -19.64553,-4.5119 -29.72582,-4.5513 z" />
    <path
       id="path1086"
       style="display:inline;fill:#ffffff;fill-rule:evenodd;stroke:none;stroke-width:1.04175px;stroke-linecap:butt;stroke-linejoin:miter;stroke-opacity:1"
       d="m 942.6518,2287.7817 c 9.43573,-13.0131 25.21825,-20.4085 40.80829,-25.1206 16.10462,-4.8304 33.04111,-6.7484 49.90881,-6.9132 15.5956,-0.3452 31.7246,-1.505 46.7529,3.2629 7.2666,2.5751 13.9645,6.3476 20.7594,9.8373 9.0753,5.0191 18.5489,11.2049 22.1795,20.9226 2.3677,6.2472 0.5836,12.8861 0.6073,19.3176 -0.4302,9.8612 -0.9882,20.7155 -8.2029,28.5913 -6.9875,8.1476 -18.1176,11.2975 -28.3657,14.2544 -16.9301,4.4306 -34.3038,7.4298 -51.7965,9.0531 -11.2633,1.0974 -22.7799,2.1776 -33.9458,-0.2271 -13.39055,-2.6873 -25.42264,-9.3127 -36.57381,-16.513 -8.9826,-6.1764 -17.89253,-13.394 -22.31552,-23.2141 -2.65092,-7.1043 -2.13153,-14.833 -1.56512,-22.2214 0.3801,-3.7008 0.93438,-7.3899 1.74915,-11.0298 z" />
    <path
       style="color:#000000;display:inline;overflow:visible;visibility:visible;fill:#ffffff;fill-opacity:1;fill-rule:nonzero;stroke:none;stroke-width:1.00142px;marker:none;enable-background:accumulate"
       d="m 1538.6111,2866.3551 c -29.2718,23.6335 -49.9774,61.4772 -38.0228,102.9845 11.9549,41.5072 -6.8025,41.4052 -6.8025,41.4052 l -37.425,-15.5296 c 0,0 -6.4717,-90.5725 82.2503,-128.8601 z"
       id="path3072-6"
       inkscape:connector-curvature="0"
       sodipodi:nodetypes="csccc" />
    <path
       style="display:inline;fill:#ffffff;stroke:none;stroke-width:0.70288849"
       d="m 1459.4997,3066.7709 c -38.9324,0.7936 -78.1399,10.0354 -111.1712,29.302 -25.927,15.7024 -45.702,40.5802 -51.7737,68.7352 -3.6003,18.4398 0.1625,37.1749 4.2677,55.2608 5.3295,23.0282 19.2601,44.3546 39.2445,59.1757 13.6867,10.1923 29.7464,17.4444 46.3738,22.6346 20.9461,6.4441 43.0819,8.9938 65.102,9.3882 36.3603,1.3597 72.7652,0.6204 109.1251,-0.334 30.9738,-1.3497 62.3714,-5.0528 91.1613,-16.1616 29.807,-11.6713 55.6784,-32.8178 69.5324,-59.9127 12.7076,-24.9421 14.6794,-54.7673 3.3922,-80.4585 -9.9196,-21.5313 -28.8146,-38.5964 -50.0318,-51.0184 -20.6354,-12.0712 -44.2213,-19.2828 -68.1749,-23.361 -26.4308,-4.8137 -53.2307,-7.6027 -79.9692,-10.5164 -22.282,-2.042 -44.6867,-2.9459 -67.0782,-2.7339 z"
       id="path3280-5"
       inkscape:connector-curvature="0"
       sodipodi:nodetypes="csssc" />
    <path
       style="fill:#ffffff;stroke:none;stroke-width:0.421573"
       d="M 1475.3789 2970.7129 C 1448.2838 2971.168 1420.9445 2973.0294 1394.7109 2980.2441 C 1381.5191 2984.0693 1368.8627 2990.0345 1357.8715 2998.3136 C 1353.2482 3001.9293 1348.7337 3005.8117 1345.1241 3010.4651 C 1334.8862 3024.3558 1332.5185 3044.044 1340.3611 3059.5901 C 1345.3445 3068.892 1354.3221 3075.2023 1363.5181 3079.9002 C 1380.7922 3089.2279 1400.8431 3092.4784 1420.305 3091.3198 C 1453.2634 3090.6708 1486.2325 3091.9846 1519.1871 3090.9617 C 1531.9028 3090.6042 1544.6266 3090.7528 1557.3433 3090.5548 C 1571.833 3090.0128 1586.7144 3087.6222 1599.4065 3080.2207 C 1610.1782 3074.0131 1619.4307 3064.2394 1622.916 3052.0938 C 1627.228 3037.5496 1623.3016 3020.8722 1612.8244 3009.8727 C 1601.3601 2996.5908 1585.214 2988.0734 1568.4036 2983.6629 C 1549.6526 2978.3383 1530.4293 2974.8027 1511.1156 2972.2744 C 1499.2531 2970.9693 1487.3062 2970.6199 1475.3789 2970.7129 z "
       id="path3280-8-0"
       inkscape:connector-curvature="0"
       sodipodi:nodetypes="csssc" />
  </g>
  <g
     inkscape:groupmode="layer"
     id="layer1"
     inkscape:label="txt">
    <text
       xml:space="preserve"
       style="font-style:normal;font-variant:normal;font-weight:normal;font-stretch:normal;font-size:45px;line-height:1.25;font-family:Lavi;-inkscape-font-specification:Lavi;text-align:center;letter-spacing:0px;word-spacing:0px;text-anchor:middle;fill:#000000;fill-opacity:1;stroke:none"
       x="966.13892"
       y="281.05795"
       id="text4246-3-2-2-6-3-7-9-3"><tspan
         style="font-size:45px"
         sodipodi:role="line"
         x="966.13892"
         y="281.05795"
         id="tspan68">Sí, alteza.</tspan></text>
    <text
       xml:space="preserve"
       style="font-style:normal;font-variant:normal;font-weight:normal;font-stretch:normal;font-size:45px;line-height:1.25;font-family:Lavi;-inkscape-font-specification:Lavi;text-align:center;letter-spacing:0px;word-spacing:0px;text-anchor:middle;fill:#000000;fill-opacity:1;stroke:none"
       x="981.35199"
       y="398.5528"
       id="text4246-3-2-2-6-3-7-9-3-3"><tspan
         style="font-size:45px"
         sodipodi:role="line"
         x="988.38324"
         y="398.5528"
         id="tspan896">Su nombre es </tspan><tspan
         style="font-size:45px"
         sodipodi:role="line"
         x="988.38324"
         y="454.8028"
         id="tspan75">Pepper, de la escuela </tspan><tspan
         style="font-size:45px"
         sodipodi:role="line"
         x="981.35199"
         y="511.0528"
         id="tspan81">de Chaosah.</tspan></text>
    <text
       xml:space="preserve"
       style="font-style:normal;font-variant:normal;font-weight:normal;font-stretch:normal;font-size:45px;line-height:1.25;font-family:Lavi;-inkscape-font-specification:Lavi;text-align:center;letter-spacing:0px;word-spacing:0px;text-anchor:middle;fill:#000000;fill-opacity:1;stroke:none"
       x="510.85095"
       y="1315.892"
       id="text4246-3-2-2-6-3-7-9-3-3-3"><tspan
         style="font-size:45px"
         sodipodi:role="line"
         x="517.8822"
         y="1315.892"
         id="tspan909">Su presencia aquí </tspan><tspan
         style="font-size:45px"
         sodipodi:role="line"
         x="510.85095"
         y="1372.142"
         id="tspan88">contamina la naturaleza</tspan><tspan
         style="font-size:45px"
         sodipodi:role="line"
         x="517.8822"
         y="1428.392"
         id="tspan90">sagrada de nuestra </tspan><tspan
         style="font-size:45px"
         sodipodi:role="line"
         x="510.85095"
         y="1484.642"
         id="tspan76">escuela.</tspan></text>
    <text
       xml:space="preserve"
       style="font-style:normal;font-variant:normal;font-weight:normal;font-stretch:normal;font-size:45px;line-height:1.25;font-family:Lavi;-inkscape-font-specification:Lavi;text-align:center;letter-spacing:0px;word-spacing:0px;text-anchor:middle;fill:#000000;fill-opacity:1;stroke:none"
       x="1215.9652"
       y="1386.095"
       id="text4246-3-2-2-6-3-7-9-3-3-3-9"><tspan
         style="font-size:45px"
         sodipodi:role="line"
         x="1215.9652"
         y="1386.095"
         id="tspan101">Aléjala de mi vista</tspan><tspan
         id="tspan70"
         style="font-size:45px"
         sodipodi:role="line"
         x="1215.9652"
         y="1442.345">inmediatamente.</tspan></text>
    <text
       xml:space="preserve"
       style="font-style:normal;font-variant:normal;font-weight:normal;font-stretch:normal;font-size:45px;line-height:1.25;font-family:Lavi;-inkscape-font-specification:Lavi;text-align:center;letter-spacing:0px;word-spacing:0px;text-anchor:middle;fill:#000000;fill-opacity:1;stroke:none"
       x="1041.905"
       y="2320.762"
       id="text4246-3-2-2-6-3-7-9-3-3-3-9-0-0"><tspan
         style="font-size:45px"
         sodipodi:role="line"
         x="1041.905"
         y="2320.762"
         id="tspan1031-6-6">Pero...</tspan></text>
    <text
       xml:space="preserve"
       style="font-style:normal;font-variant:normal;font-weight:normal;font-stretch:normal;font-size:45px;line-height:1.25;font-family:Lavi;-inkscape-font-specification:Lavi;text-align:center;letter-spacing:0px;word-spacing:0px;text-anchor:middle;fill:#000000;fill-opacity:1;stroke:none"
       x="1028.5508"
       y="2444.2068"
       id="text4246-3-2-2-6-3-7-9-3-3-3-9-0"><tspan
         style="font-size:45px"
         sodipodi:role="line"
         x="1028.5508"
         y="2444.2068"
         id="tspan1031-6">Maestra Wasabi...</tspan></text>
    <text
       xml:space="preserve"
       style="font-style:normal;font-variant:normal;font-weight:normal;font-stretch:normal;font-size:45px;line-height:1.25;font-family:Lavi;-inkscape-font-specification:Lavi;text-align:center;letter-spacing:0px;word-spacing:0px;text-anchor:middle;fill:#000000;fill-opacity:1;stroke:none"
       x="1478.4738"
       y="3045.5544"
       id="text4246-3-2-2-6-3-7-9-3-3-3-9-0-6"><tspan
         style="font-size:45px"
         sodipodi:role="line"
         x="1478.4738"
         y="3045.5544"
         id="tspan1199">¿Pero <tspan
   style="font-style:italic;font-variant:normal;font-weight:normal;font-stretch:normal;font-family:Lavi;-inkscape-font-specification:'Lavi Italic'"
   id="tspan92">qué</tspan>?</tspan></text>
    <text
       xml:space="preserve"
       style="font-style:normal;font-variant:normal;font-weight:normal;font-stretch:normal;font-size:45px;line-height:1.25;font-family:Lavi;-inkscape-font-specification:Lavi;text-align:center;letter-spacing:0px;word-spacing:0px;text-anchor:middle;fill:#000000;fill-opacity:1;stroke:none"
       x="1512.7719"
       y="3151.7263"
       id="text4246-3-2-2-6-3-7-9-3-3-3-9-0-6-8"><tspan
         style="font-size:45px"
         sodipodi:role="line"
         x="1512.7719"
         y="3151.7263"
         id="tspan108">¿Prefieres ser tú</tspan><tspan
         id="tspan69"
         style="font-size:45px"
         sodipodi:role="line"
         x="1519.8031"
         y="3207.9763">la expulsada de </tspan><tspan
         style="font-size:45px"
         sodipodi:role="line"
         x="1512.7719"
         y="3264.2263"
         id="tspan110">nuestra escuela?</tspan></text>
    <text
       xml:space="preserve"
       style="font-style:normal;font-variant:normal;font-weight:normal;font-stretch:normal;font-size:105.81700134px;line-height:1.25;font-family:Lavi;-inkscape-font-specification:Lavi;letter-spacing:0px;word-spacing:0px;fill:#000000;fill-opacity:1;stroke:#030303;stroke-width:0.71620798;stroke-miterlimit:4;stroke-dasharray:none;stroke-opacity:1;filter:url(#filter4375-4-1-1-1-9-5-8-8-5-5-3-8)"
       x="787.65729"
       y="1584.5073"
       id="text4580-6-0-0-0-9-3-36"
       transform="matrix(0.78722097,-0.19942868,-0.30990333,0.91892591,1976.5561,1997.3356)"><tspan
         style="font-size:195.16999817px;fill:#000000;fill-opacity:1;stroke:#030303;stroke-width:0.71620798;stroke-miterlimit:4;stroke-dasharray:none;stroke-opacity:1"
         sodipodi:role="line"
         id="tspan876-6-1"
         x="787.65729"
         y="1584.5073"><tspan
   style="font-size:152.54972839px"
   id="tspan82">¡</tspan><tspan
   style="font-size:173.85986328px"
   id="tspan80">¡</tspan>¡!<tspan
   style="font-size:173.82099915px;fill:#000000;stroke:#030303;stroke-opacity:1"
   id="tspan1317">!</tspan><tspan
   id="tspan1322"
   style="font-size:152.47200012px;fill:#000000;stroke:#030303;stroke-opacity:1">!</tspan></tspan></text>
  </g>
</svg>
