<?xml version="1.0" encoding="UTF-8" standalone="no"?>
<!-- Created with Inkscape (http://www.inkscape.org/) -->

<svg
   xmlns:dc="http://purl.org/dc/elements/1.1/"
   xmlns:cc="http://creativecommons.org/ns#"
   xmlns:rdf="http://www.w3.org/1999/02/22-rdf-syntax-ns#"
   xmlns:svg="http://www.w3.org/2000/svg"
   xmlns="http://www.w3.org/2000/svg"
   xmlns:xlink="http://www.w3.org/1999/xlink"
   xmlns:sodipodi="http://sodipodi.sourceforge.net/DTD/sodipodi-0.dtd"
   xmlns:inkscape="http://www.inkscape.org/namespaces/inkscape"
   id="svg2"
   version="1.1"
   inkscape:version="0.92.4 (5da689c313, 2019-01-14)"
   width="2481"
   height="3503"
   sodipodi:docname="E22P08.svg">
  <sodipodi:namedview
     pagecolor="#ffffff"
     bordercolor="#666666"
     inkscape:pageopacity="0"
     inkscape:pageshadow="2"
     inkscape:window-width="1600"
     inkscape:window-height="900"
     id="namedview70"
     showgrid="false"
     inkscape:zoom="0.4"
     inkscape:cx="1013.1731"
     inkscape:cy="2588.6204"
     inkscape:current-layer="layer1"
     inkscape:window-x="0"
     inkscape:window-y="26"
     inkscape:window-maximized="0" />
  <metadata
     id="metadata8">
    <rdf:RDF>
      <cc:Work
         rdf:about="">
        <dc:format>image/svg+xml</dc:format>
        <dc:type
           rdf:resource="http://purl.org/dc/dcmitype/StillImage" />
        <dc:title />
      </cc:Work>
    </rdf:RDF>
  </metadata>
  <defs
     id="defs6">
    <linearGradient
       inkscape:collect="always"
       id="linearGradient4763">
      <stop
         id="stop4767"
         offset="0"
         style="stop-color:#ff6a05;stop-opacity:1" />
      <stop
         id="stop4765"
         offset="1"
         style="stop-color:#d40000;stop-opacity:1;" />
    </linearGradient>
    <linearGradient
       id="linearGradient4361"
       inkscape:collect="always">
      <stop
         id="stop4363"
         offset="0"
         style="stop-color:#e47107;stop-opacity:1" />
      <stop
         id="stop4365"
         offset="1"
         style="stop-color:#ffbf0b;stop-opacity:1" />
    </linearGradient>
    <filter
       style="color-interpolation-filters:sRGB"
       id="filter4375-4-1-1-1-9-6-9-2-1"
       inkscape:label="deevad outline effect">
      <feFlood
         id="feFlood4377-7-9-0-8-1-0-2-2-06"
         flood-opacity="1"
         flood-color="rgb(0,0,0)"
         result="flood" />
      <feComposite
         id="feComposite4379-3-8-8-2-77-6-0-8-3"
         in2="SourceGraphic"
         in="flood"
         operator="in"
         result="composite1" />
      <feMorphology
         id="feMorphology4393-1-0-49-8-9-2-2-9-2"
         operator="dilate"
         radius="4"
         result="result3" />
      <feComposite
         id="feComposite4385-9-5-7-0-8-6-3-7-0"
         in2="result3"
         in="SourceGraphic"
         operator="over"
         result="composite2" />
    </filter>
    <linearGradient
       inkscape:collect="always"
       xlink:href="#linearGradient4361"
       id="linearGradient4294"
       x1="754.64325"
       y1="1552.0063"
       x2="1186.035"
       y2="1552.0063"
       gradientUnits="userSpaceOnUse" />
    <linearGradient
       inkscape:collect="always"
       id="linearGradient4288">
      <stop
         style="stop-color:#07b5e4;stop-opacity:1;"
         offset="0"
         id="stop4290" />
      <stop
         style="stop-color:#d0f5ff;stop-opacity:1"
         offset="1"
         id="stop4292" />
    </linearGradient>
    <filter
       style="color-interpolation-filters:sRGB"
       id="filter4375-4-1-1-1-9-5-8-8-5"
       inkscape:label="soundFX-fire">
      <feFlood
         id="feFlood4377-7-9-0-8-1-7-3-1-2"
         flood-opacity="1"
         flood-color="rgb(171,34,14)"
         result="flood" />
      <feComposite
         id="feComposite4379-3-8-8-2-77-4-1-0-6"
         in2="SourceGraphic"
         in="flood"
         operator="in"
         result="composite1"
         baseFrequency="0.053999999999999999 0.053999999999999999" />
      <feMorphology
         id="feMorphology4393-1-0-49-8-9-3-0-1-9"
         operator="dilate"
         radius="6.2000000000000002"
         result="result3" />
      <feComposite
         id="feComposite4385-9-5-7-0-8-8-7-5-4"
         in2="result3"
         in="SourceGraphic"
         operator="over"
         result="fbSourceGraphic" />
      <feColorMatrix
         result="fbSourceGraphicAlpha"
         in="fbSourceGraphic"
         values="0 0 0 -1 0 0 0 0 -1 0 0 0 0 -1 0 0 0 0 1 0"
         id="feColorMatrix4544-9-4" />
      <feTurbulence
         id="feTurbulence4546-3-6"
         type="fractalNoise"
         numOctaves="5"
         seed="174"
         baseFrequency="0.053999999999999999 0.054054054054054057"
         result="turbulence" />
      <feDisplacementMap
         id="feDisplacementMap4548-8-0"
         in2="turbulence"
         in="fbSourceGraphic"
         scale="6.6"
         yChannelSelector="G"
         xChannelSelector="R"
         result="fbSourceGraphic" />
      <feColorMatrix
         result="fbSourceGraphicAlpha"
         in="fbSourceGraphic"
         values="0 0 0 -1 0 0 0 0 -1 0 0 0 0 -1 0 0 0 0 1 0"
         id="feColorMatrix4670-7-7" />
      <feFlood
         id="feFlood4672-4-4"
         flood-opacity="1"
         flood-color="rgb(103,29,0)"
         result="flood"
         in="fbSourceGraphic" />
      <feComposite
         id="feComposite4674-8-3"
         in2="fbSourceGraphic"
         in="flood"
         operator="in"
         result="composite1" />
      <feGaussianBlur
         id="feGaussianBlur4676-3-7"
         in="composite1"
         stdDeviation="0"
         result="blur" />
      <feOffset
         id="feOffset4678-6-9"
         dx="6"
         dy="6"
         result="offset" />
      <feComposite
         id="feComposite4680-4-0"
         in2="offset"
         in="fbSourceGraphic"
         operator="over"
         result="composite2" />
    </filter>
    <linearGradient
       inkscape:collect="always"
       xlink:href="#linearGradient4288"
       id="linearGradient4273"
       x1="754.64325"
       y1="1552.0063"
       x2="1186.035"
       y2="1552.0063"
       gradientUnits="userSpaceOnUse" />
    <linearGradient
       inkscape:collect="always"
       xlink:href="#linearGradient4288"
       id="linearGradient4281"
       x1="754.64325"
       y1="1552.0063"
       x2="1186.035"
       y2="1552.0063"
       gradientUnits="userSpaceOnUse" />
    <linearGradient
       inkscape:collect="always"
       xlink:href="#linearGradient4288"
       id="linearGradient4289"
       x1="754.64325"
       y1="1552.0063"
       x2="1186.035"
       y2="1552.0063"
       gradientUnits="userSpaceOnUse" />
    <linearGradient
       inkscape:collect="always"
       xlink:href="#linearGradient4361"
       id="linearGradient4294-8"
       x1="754.64325"
       y1="1552.0063"
       x2="1186.035"
       y2="1552.0063"
       gradientUnits="userSpaceOnUse" />
    <filter
       style="color-interpolation-filters:sRGB"
       id="filter4375-4-1-1-1-9-5-8-8-5-2"
       inkscape:label="soundFX-fire">
      <feFlood
         id="feFlood4377-7-9-0-8-1-7-3-1-2-0"
         flood-opacity="1"
         flood-color="rgb(171,34,14)"
         result="flood" />
      <feComposite
         id="feComposite4379-3-8-8-2-77-4-1-0-6-2"
         in2="SourceGraphic"
         in="flood"
         operator="in"
         result="composite1"
         baseFrequency="0.053999999999999999 0.053999999999999999" />
      <feMorphology
         id="feMorphology4393-1-0-49-8-9-3-0-1-9-3"
         operator="dilate"
         radius="6.2000000000000002"
         result="result3" />
      <feComposite
         id="feComposite4385-9-5-7-0-8-8-7-5-4-7"
         in2="result3"
         in="SourceGraphic"
         operator="over"
         result="fbSourceGraphic" />
      <feColorMatrix
         result="fbSourceGraphicAlpha"
         in="fbSourceGraphic"
         values="0 0 0 -1 0 0 0 0 -1 0 0 0 0 -1 0 0 0 0 1 0"
         id="feColorMatrix4544-9-4-5" />
      <feTurbulence
         id="feTurbulence4546-3-6-9"
         type="fractalNoise"
         numOctaves="5"
         seed="174"
         baseFrequency="0.053999999999999999 0.054054054054054057"
         result="turbulence" />
      <feDisplacementMap
         id="feDisplacementMap4548-8-0-2"
         in2="turbulence"
         in="fbSourceGraphic"
         scale="6.6"
         yChannelSelector="G"
         xChannelSelector="R"
         result="fbSourceGraphic" />
      <feColorMatrix
         result="fbSourceGraphicAlpha"
         in="fbSourceGraphic"
         values="0 0 0 -1 0 0 0 0 -1 0 0 0 0 -1 0 0 0 0 1 0"
         id="feColorMatrix4670-7-7-2" />
      <feFlood
         id="feFlood4672-4-4-8"
         flood-opacity="1"
         flood-color="rgb(103,29,0)"
         result="flood"
         in="fbSourceGraphic" />
      <feComposite
         id="feComposite4674-8-3-9"
         in2="fbSourceGraphic"
         in="flood"
         operator="in"
         result="composite1" />
      <feGaussianBlur
         id="feGaussianBlur4676-3-7-7"
         in="composite1"
         stdDeviation="0"
         result="blur" />
      <feOffset
         id="feOffset4678-6-9-3"
         dx="6"
         dy="6"
         result="offset" />
      <feComposite
         id="feComposite4680-4-0-6"
         in2="offset"
         in="fbSourceGraphic"
         operator="over"
         result="composite2" />
    </filter>
    <linearGradient
       inkscape:collect="always"
       xlink:href="#linearGradient4361"
       id="linearGradient4393"
       x1="754.64325"
       y1="1552.0063"
       x2="1186.035"
       y2="1552.0063"
       gradientUnits="userSpaceOnUse" />
    <linearGradient
       inkscape:collect="always"
       xlink:href="#linearGradient4361"
       id="linearGradient4401"
       x1="754.64325"
       y1="1552.0063"
       x2="1186.035"
       y2="1552.0063"
       gradientUnits="userSpaceOnUse" />
    <linearGradient
       inkscape:collect="always"
       xlink:href="#linearGradient4361"
       id="linearGradient4409"
       x1="754.64325"
       y1="1552.0063"
       x2="1186.035"
       y2="1552.0063"
       gradientUnits="userSpaceOnUse" />
    <filter
       style="color-interpolation-filters:sRGB"
       id="filter4375-4-1-1-1-9-5-8-8-5-2-7"
       inkscape:label="soundFX-fire">
      <feFlood
         id="feFlood4377-7-9-0-8-1-7-3-1-2-0-8"
         flood-opacity="1"
         flood-color="rgb(171,34,14)"
         result="flood" />
      <feComposite
         id="feComposite4379-3-8-8-2-77-4-1-0-6-2-4"
         in2="SourceGraphic"
         in="flood"
         operator="in"
         result="composite1"
         baseFrequency="0.053999999999999999 0.053999999999999999" />
      <feMorphology
         id="feMorphology4393-1-0-49-8-9-3-0-1-9-3-5"
         operator="dilate"
         radius="6.2000000000000002"
         result="result3" />
      <feComposite
         id="feComposite4385-9-5-7-0-8-8-7-5-4-7-0"
         in2="result3"
         in="SourceGraphic"
         operator="over"
         result="fbSourceGraphic" />
      <feColorMatrix
         result="fbSourceGraphicAlpha"
         in="fbSourceGraphic"
         values="0 0 0 -1 0 0 0 0 -1 0 0 0 0 -1 0 0 0 0 1 0"
         id="feColorMatrix4544-9-4-5-3" />
      <feTurbulence
         id="feTurbulence4546-3-6-9-6"
         type="fractalNoise"
         numOctaves="5"
         seed="174"
         baseFrequency="0.053999999999999999 0.054054054054054057"
         result="turbulence" />
      <feDisplacementMap
         id="feDisplacementMap4548-8-0-2-1"
         in2="turbulence"
         in="fbSourceGraphic"
         scale="6.6"
         yChannelSelector="G"
         xChannelSelector="R"
         result="fbSourceGraphic" />
      <feColorMatrix
         result="fbSourceGraphicAlpha"
         in="fbSourceGraphic"
         values="0 0 0 -1 0 0 0 0 -1 0 0 0 0 -1 0 0 0 0 1 0"
         id="feColorMatrix4670-7-7-2-0" />
      <feFlood
         id="feFlood4672-4-4-8-6"
         flood-opacity="1"
         flood-color="rgb(103,29,0)"
         result="flood"
         in="fbSourceGraphic" />
      <feComposite
         id="feComposite4674-8-3-9-3"
         in2="fbSourceGraphic"
         in="flood"
         operator="in"
         result="composite1" />
      <feGaussianBlur
         id="feGaussianBlur4676-3-7-7-2"
         in="composite1"
         stdDeviation="0"
         result="blur" />
      <feOffset
         id="feOffset4678-6-9-3-0"
         dx="6"
         dy="6"
         result="offset" />
      <feComposite
         id="feComposite4680-4-0-6-6"
         in2="offset"
         in="fbSourceGraphic"
         operator="over"
         result="composite2" />
    </filter>
    <linearGradient
       inkscape:collect="always"
       xlink:href="#linearGradient4361"
       id="linearGradient4507"
       x1="754.64325"
       y1="1552.0063"
       x2="1186.035"
       y2="1552.0063"
       gradientUnits="userSpaceOnUse" />
    <linearGradient
       inkscape:collect="always"
       xlink:href="#linearGradient4361"
       id="linearGradient4515"
       x1="754.64325"
       y1="1552.0063"
       x2="1186.035"
       y2="1552.0063"
       gradientUnits="userSpaceOnUse" />
    <linearGradient
       inkscape:collect="always"
       xlink:href="#linearGradient4361"
       id="linearGradient4523"
       x1="754.64325"
       y1="1552.0063"
       x2="1186.035"
       y2="1552.0063"
       gradientUnits="userSpaceOnUse" />
    <filter
       style="color-interpolation-filters:sRGB"
       id="filter4375-4-1-1-1-9-6-9-2-1-7"
       inkscape:label="deevad outline effect">
      <feFlood
         id="feFlood4377-7-9-0-8-1-0-2-2-06-6"
         flood-opacity="1"
         flood-color="rgb(0,0,0)"
         result="flood" />
      <feComposite
         id="feComposite4379-3-8-8-2-77-6-0-8-3-5"
         in2="SourceGraphic"
         in="flood"
         operator="in"
         result="composite1" />
      <feMorphology
         id="feMorphology4393-1-0-49-8-9-2-2-9-2-6"
         operator="dilate"
         radius="4"
         result="result3" />
      <feComposite
         id="feComposite4385-9-5-7-0-8-6-3-7-0-9"
         in2="result3"
         in="SourceGraphic"
         operator="over"
         result="composite2" />
    </filter>
    <filter
       inkscape:label="Magmah-FX"
       inkscape:menu="Distort"
       inkscape:menu-tooltip="Horizontal rippling of edges"
       style="color-interpolation-filters:sRGB"
       id="filter4265-7"
       y="-0.1">
      <feTurbulence
         numOctaves="1"
         baseFrequency="0.002 0.107"
         id="feTurbulence4267-7" />
      <feColorMatrix
         values="5 0 0 0 0 0 0 0 0 0 0 0 0 0 0 0 0 0 4 0 "
         result="result91"
         id="feColorMatrix4269-1" />
      <feDisplacementMap
         yChannelSelector="A"
         xChannelSelector="R"
         scale="14.3"
         in="SourceGraphic"
         in2="result91"
         id="feDisplacementMap4271-2" />
    </filter>
    <filter
       style="color-interpolation-filters:sRGB;"
       inkscape:label="Magmah-spell-glow"
       id="filter4751">
      <feFlood
         flood-opacity="1"
         flood-color="rgb(255,255,255)"
         result="flood"
         id="feFlood4753" />
      <feComposite
         in="flood"
         in2="SourceGraphic"
         operator="in"
         result="composite1"
         id="feComposite4755" />
      <feGaussianBlur
         in="composite1"
         stdDeviation="5.4"
         result="blur"
         id="feGaussianBlur4757" />
      <feOffset
         dx="0"
         dy="0"
         result="offset"
         id="feOffset4759" />
      <feComposite
         in="SourceGraphic"
         in2="offset"
         operator="over"
         result="composite2"
         id="feComposite4761" />
    </filter>
    <radialGradient
       inkscape:collect="always"
       xlink:href="#linearGradient4763"
       id="radialGradient4769"
       cx="438.56332"
       cy="238.34987"
       fx="438.56332"
       fy="238.34987"
       r="324.33624"
       gradientTransform="matrix(1,0,0,0.36474659,0,151.41257)"
       gradientUnits="userSpaceOnUse" />
    <filter
       style="color-interpolation-filters:sRGB"
       id="filter4375-4-1-1-1-9-6-9-2-1-4"
       inkscape:label="deevad outline effect">
      <feFlood
         id="feFlood4377-7-9-0-8-1-0-2-2-06-5"
         flood-opacity="1"
         flood-color="rgb(0,0,0)"
         result="flood" />
      <feComposite
         id="feComposite4379-3-8-8-2-77-6-0-8-3-2"
         in2="SourceGraphic"
         in="flood"
         operator="in"
         result="composite1" />
      <feMorphology
         id="feMorphology4393-1-0-49-8-9-2-2-9-2-5"
         operator="dilate"
         radius="4"
         result="result3" />
      <feComposite
         id="feComposite4385-9-5-7-0-8-6-3-7-0-4"
         in2="result3"
         in="SourceGraphic"
         operator="over"
         result="composite2" />
    </filter>
    <filter
       style="color-interpolation-filters:sRGB"
       id="filter4375-4-1-1-1-9-6-9-2-1-7-4"
       inkscape:label="deevad outline effect">
      <feFlood
         id="feFlood4377-7-9-0-8-1-0-2-2-06-6-3"
         flood-opacity="1"
         flood-color="rgb(0,0,0)"
         result="flood" />
      <feComposite
         id="feComposite4379-3-8-8-2-77-6-0-8-3-5-0"
         in2="SourceGraphic"
         in="flood"
         operator="in"
         result="composite1" />
      <feMorphology
         id="feMorphology4393-1-0-49-8-9-2-2-9-2-6-7"
         operator="dilate"
         radius="6"
         result="result3" />
      <feComposite
         id="feComposite4385-9-5-7-0-8-6-3-7-0-9-8"
         in2="result3"
         in="SourceGraphic"
         operator="over"
         result="composite2" />
    </filter>
    <filter
       style="color-interpolation-filters:sRGB"
       id="filter4375-4-1-1-1-9-5-8-8-5-4"
       inkscape:label="soundFX-fire">
      <feFlood
         id="feFlood4377-7-9-0-8-1-7-3-1-2-9"
         flood-opacity="1"
         flood-color="rgb(171,34,14)"
         result="flood" />
      <feComposite
         id="feComposite4379-3-8-8-2-77-4-1-0-6-20"
         in2="SourceGraphic"
         in="flood"
         operator="in"
         result="composite1"
         baseFrequency="0.053999999999999999 0.053999999999999999" />
      <feMorphology
         id="feMorphology4393-1-0-49-8-9-3-0-1-9-6"
         operator="dilate"
         radius="6.2000000000000002"
         result="result3" />
      <feComposite
         id="feComposite4385-9-5-7-0-8-8-7-5-4-8"
         in2="result3"
         in="SourceGraphic"
         operator="over"
         result="fbSourceGraphic" />
      <feColorMatrix
         result="fbSourceGraphicAlpha"
         in="fbSourceGraphic"
         values="0 0 0 -1 0 0 0 0 -1 0 0 0 0 -1 0 0 0 0 1 0"
         id="feColorMatrix4544-9-4-9" />
      <feTurbulence
         id="feTurbulence4546-3-6-2"
         type="fractalNoise"
         numOctaves="5"
         seed="174"
         baseFrequency="0.053999999999999999 0.054054054054054057"
         result="turbulence" />
      <feDisplacementMap
         id="feDisplacementMap4548-8-0-6"
         in2="turbulence"
         in="fbSourceGraphic"
         scale="6.6"
         yChannelSelector="G"
         xChannelSelector="R"
         result="fbSourceGraphic" />
      <feColorMatrix
         result="fbSourceGraphicAlpha"
         in="fbSourceGraphic"
         values="0 0 0 -1 0 0 0 0 -1 0 0 0 0 -1 0 0 0 0 1 0"
         id="feColorMatrix4670-7-7-6" />
      <feFlood
         id="feFlood4672-4-4-4"
         flood-opacity="1"
         flood-color="rgb(103,29,0)"
         result="flood"
         in="fbSourceGraphic" />
      <feComposite
         id="feComposite4674-8-3-95"
         in2="fbSourceGraphic"
         in="flood"
         operator="in"
         result="composite1" />
      <feGaussianBlur
         id="feGaussianBlur4676-3-7-0"
         in="composite1"
         stdDeviation="0"
         result="blur" />
      <feOffset
         id="feOffset4678-6-9-4"
         dx="6"
         dy="6"
         result="offset" />
      <feComposite
         id="feComposite4680-4-0-8"
         in2="offset"
         in="fbSourceGraphic"
         operator="over"
         result="composite2" />
    </filter>
    <linearGradient
       inkscape:collect="always"
       xlink:href="#linearGradient4361"
       id="linearGradient4869"
       x1="754.64325"
       y1="1552.0063"
       x2="1186.035"
       y2="1552.0063"
       gradientUnits="userSpaceOnUse" />
    <linearGradient
       inkscape:collect="always"
       xlink:href="#linearGradient4361"
       id="linearGradient4877"
       x1="754.64325"
       y1="1552.0063"
       x2="1186.035"
       y2="1552.0063"
       gradientUnits="userSpaceOnUse" />
    <linearGradient
       inkscape:collect="always"
       xlink:href="#linearGradient4361"
       id="linearGradient4885"
       x1="754.64325"
       y1="1552.0063"
       x2="1186.035"
       y2="1552.0063"
       gradientUnits="userSpaceOnUse" />
    <filter
       style="color-interpolation-filters:sRGB"
       id="filter4375-4-1-1-1-9-5-8-8-5-4-6"
       inkscape:label="soundFX-fire">
      <feFlood
         id="feFlood4377-7-9-0-8-1-7-3-1-2-9-1"
         flood-opacity="1"
         flood-color="rgb(171,34,14)"
         result="flood" />
      <feComposite
         id="feComposite4379-3-8-8-2-77-4-1-0-6-20-0"
         in2="SourceGraphic"
         in="flood"
         operator="in"
         result="composite1"
         baseFrequency="0.053999999999999999 0.053999999999999999" />
      <feMorphology
         id="feMorphology4393-1-0-49-8-9-3-0-1-9-6-6"
         operator="dilate"
         radius="6.2000000000000002"
         result="result3" />
      <feComposite
         id="feComposite4385-9-5-7-0-8-8-7-5-4-8-1"
         in2="result3"
         in="SourceGraphic"
         operator="over"
         result="fbSourceGraphic" />
      <feColorMatrix
         result="fbSourceGraphicAlpha"
         in="fbSourceGraphic"
         values="0 0 0 -1 0 0 0 0 -1 0 0 0 0 -1 0 0 0 0 1 0"
         id="feColorMatrix4544-9-4-9-5" />
      <feTurbulence
         id="feTurbulence4546-3-6-2-9"
         type="fractalNoise"
         numOctaves="5"
         seed="174"
         baseFrequency="0.053999999999999999 0.054054054054054057"
         result="turbulence" />
      <feDisplacementMap
         id="feDisplacementMap4548-8-0-6-4"
         in2="turbulence"
         in="fbSourceGraphic"
         scale="6.6"
         yChannelSelector="G"
         xChannelSelector="R"
         result="fbSourceGraphic" />
      <feColorMatrix
         result="fbSourceGraphicAlpha"
         in="fbSourceGraphic"
         values="0 0 0 -1 0 0 0 0 -1 0 0 0 0 -1 0 0 0 0 1 0"
         id="feColorMatrix4670-7-7-6-9" />
      <feFlood
         id="feFlood4672-4-4-4-0"
         flood-opacity="1"
         flood-color="rgb(103,29,0)"
         result="flood"
         in="fbSourceGraphic" />
      <feComposite
         id="feComposite4674-8-3-95-9"
         in2="fbSourceGraphic"
         in="flood"
         operator="in"
         result="composite1" />
      <feGaussianBlur
         id="feGaussianBlur4676-3-7-0-1"
         in="composite1"
         stdDeviation="0"
         result="blur" />
      <feOffset
         id="feOffset4678-6-9-4-7"
         dx="6"
         dy="6"
         result="offset" />
      <feComposite
         id="feComposite4680-4-0-8-7"
         in2="offset"
         in="fbSourceGraphic"
         operator="over"
         result="composite2" />
    </filter>
    <linearGradient
       inkscape:collect="always"
       xlink:href="#linearGradient4361"
       id="linearGradient4982"
       x1="754.64325"
       y1="1552.0063"
       x2="1186.035"
       y2="1552.0063"
       gradientUnits="userSpaceOnUse" />
    <linearGradient
       inkscape:collect="always"
       xlink:href="#linearGradient4361"
       id="linearGradient4990"
       x1="754.64325"
       y1="1552.0063"
       x2="1186.035"
       y2="1552.0063"
       gradientUnits="userSpaceOnUse" />
    <linearGradient
       inkscape:collect="always"
       xlink:href="#linearGradient4361"
       id="linearGradient4998"
       x1="754.64325"
       y1="1552.0063"
       x2="1186.035"
       y2="1552.0063"
       gradientUnits="userSpaceOnUse" />
    <filter
       style="color-interpolation-filters:sRGB"
       id="filter4375-4-1-1-1-9-5-8-8-5-4-6-5"
       inkscape:label="soundFX-fire">
      <feFlood
         id="feFlood4377-7-9-0-8-1-7-3-1-2-9-1-6"
         flood-opacity="1"
         flood-color="rgb(171,34,14)"
         result="flood" />
      <feComposite
         id="feComposite4379-3-8-8-2-77-4-1-0-6-20-0-3"
         in2="SourceGraphic"
         in="flood"
         operator="in"
         result="composite1"
         baseFrequency="0.053999999999999999 0.053999999999999999" />
      <feMorphology
         id="feMorphology4393-1-0-49-8-9-3-0-1-9-6-6-9"
         operator="dilate"
         radius="6.2000000000000002"
         result="result3" />
      <feComposite
         id="feComposite4385-9-5-7-0-8-8-7-5-4-8-1-4"
         in2="result3"
         in="SourceGraphic"
         operator="over"
         result="fbSourceGraphic" />
      <feColorMatrix
         result="fbSourceGraphicAlpha"
         in="fbSourceGraphic"
         values="0 0 0 -1 0 0 0 0 -1 0 0 0 0 -1 0 0 0 0 1 0"
         id="feColorMatrix4544-9-4-9-5-8" />
      <feTurbulence
         id="feTurbulence4546-3-6-2-9-1"
         type="fractalNoise"
         numOctaves="5"
         seed="174"
         baseFrequency="0.053999999999999999 0.054054054054054057"
         result="turbulence" />
      <feDisplacementMap
         id="feDisplacementMap4548-8-0-6-4-2"
         in2="turbulence"
         in="fbSourceGraphic"
         scale="6.6"
         yChannelSelector="G"
         xChannelSelector="R"
         result="fbSourceGraphic" />
      <feColorMatrix
         result="fbSourceGraphicAlpha"
         in="fbSourceGraphic"
         values="0 0 0 -1 0 0 0 0 -1 0 0 0 0 -1 0 0 0 0 1 0"
         id="feColorMatrix4670-7-7-6-9-9" />
      <feFlood
         id="feFlood4672-4-4-4-0-3"
         flood-opacity="1"
         flood-color="rgb(103,29,0)"
         result="flood"
         in="fbSourceGraphic" />
      <feComposite
         id="feComposite4674-8-3-95-9-9"
         in2="fbSourceGraphic"
         in="flood"
         operator="in"
         result="composite1" />
      <feGaussianBlur
         id="feGaussianBlur4676-3-7-0-1-0"
         in="composite1"
         stdDeviation="0"
         result="blur" />
      <feOffset
         id="feOffset4678-6-9-4-7-8"
         dx="6"
         dy="6"
         result="offset" />
      <feComposite
         id="feComposite4680-4-0-8-7-8"
         in2="offset"
         in="fbSourceGraphic"
         operator="over"
         result="composite2" />
    </filter>
    <linearGradient
       inkscape:collect="always"
       xlink:href="#linearGradient4361"
       id="linearGradient5130"
       x1="754.64325"
       y1="1552.0063"
       x2="1186.035"
       y2="1552.0063"
       gradientUnits="userSpaceOnUse" />
    <linearGradient
       inkscape:collect="always"
       xlink:href="#linearGradient4361"
       id="linearGradient5138"
       x1="754.64325"
       y1="1552.0063"
       x2="1186.035"
       y2="1552.0063"
       gradientUnits="userSpaceOnUse" />
    <linearGradient
       inkscape:collect="always"
       xlink:href="#linearGradient4361"
       id="linearGradient5146"
       x1="754.64325"
       y1="1552.0063"
       x2="1186.035"
       y2="1552.0063"
       gradientUnits="userSpaceOnUse" />
  </defs>
  <sodipodi:namedview
     pagecolor="#ffffff"
     bordercolor="#666666"
     borderopacity="1"
     objecttolerance="10"
     gridtolerance="10"
     guidetolerance="10"
     inkscape:pageopacity="0"
     inkscape:pageshadow="2"
     inkscape:window-width="1920"
     inkscape:window-height="1025"
     id="namedview4"
     showgrid="false"
     inkscape:zoom="0.28284273"
     inkscape:cx="815.88565"
     inkscape:cy="994.26235"
     inkscape:window-x="0"
     inkscape:window-y="26"
     inkscape:window-maximized="1"
     inkscape:current-layer="layer1" />
  <g
     inkscape:groupmode="layer"
     id="layer2"
     inkscape:label="artwork"
     sodipodi:insensitive="true">
    <image
       sodipodi:absref="D:\Pepper&amp;Carrot\ep22_The-Voting-System_lang-pack\lang\ro\../gfx_Pepper-and-Carrot_by-David-Revoy_E22P08.png"
       xlink:href="../gfx_Pepper-and-Carrot_by-David-Revoy_E22P08.png"
       width="2481"
       height="3503"
       id="image10"
       x="0"
       y="0" />
  </g>
  <g
     inkscape:groupmode="layer"
     id="layer3"
     inkscape:label="speechbubbles"
     style="display:inline">
    <path
       style="color:#000000;display:inline;overflow:visible;visibility:visible;fill:#ffffff;fill-opacity:1;fill-rule:nonzero;stroke:none;stroke-width:0.96303403px;marker:none;enable-background:accumulate"
       d="m 691.16674,119.07961 c -14.39939,-0.47472 -28.53428,2.99759 -41.55368,7.9487 -9.48322,0.0656 -17.09021,-6.16156 -26.54201,-6.3122 -16.09017,-1.30978 -32.43744,3.15162 -45.21274,11.39196 -1.59597,1.09758 -3.41013,2.06001 -5.55956,1.8247 -5.71408,-0.17179 -10.84898,-3.12321 -16.65396,-2.73126 -7.34294,-0.17079 -14.57106,1.68132 -21.0576,4.49077 -14.76188,-2.46562 -29.34435,-7.33844 -44.6351,-6.15913 -10.12559,0.69719 -19.91673,3.17779 -29.52674,5.83507 -11.81245,-3.82943 -23.58866,-9.03796 -36.5612,-8.90744 -9.99227,0.40737 -19.79846,2.70552 -28.84987,6.25621 -9.99156,-10.41611 -30.12297,-12.17903 -42.43412,-3.72082 -7.5054,0.81445 -13.64487,-3.75871 -20.64524,-5.09856 -17.49087,-4.06686 -35.77935,-2.31905 -53.65695,-2.1404 -17.7467,0.39374 -35.45909,3.26097 -51.94407,8.86801 -10.38482,2.47597 -21.84838,3.09554 -30.81562,8.65267 -10.19029,7.56353 -15.24557,18.64526 -18.77692,29.4224 -3.10035,9.84588 -6.74889,19.98586 -14.70454,27.88758 -8.17176,10.54614 -8.28056,24.42927 -2.78755,35.88321 2.09751,4.97611 5.17522,9.61596 8.64678,13.99421 -0.82522,6.79283 -7.72382,12.20039 -6.96205,19.2505 -0.25874,16.2968 3.01007,32.7843 10.8029,47.74634 5.16786,8.3378 30.00574,13.91116 38.23894,12.2624 1.88463,7.64802 10.23081,14.6231 21.30499,20.407 14.13592,6.36046 38.17368,0.58586 54.2088,-0.78712 5.7811,7.91772 18.25913,6.74407 30.92762,9.67212 10.10628,1.6516 20.73865,4.01259 30.91727,1.41568 5.79879,-1.70672 12.52514,-3.05063 18.30184,-0.55792 8.89411,2.81689 18.44759,6.0001 28.08919,4.21064 7.45189,-1.57916 15.02244,-4.81261 22.86398,-3.16282 11.8157,2.88339 23.89213,6.83483 36.41272,5.4567 14.90765,-1.30257 29.91608,-4.89045 44.94425,-2.53293 10.39891,1.54537 21.3699,3.51988 31.71378,0.66996 6.43112,-2.71936 14.40164,-1.86991 20.2913,1.4488 9.49753,3.66311 19.84728,7.3041 30.50755,5.95277 8.55141,-1.66985 16.34952,-6.50624 25.44783,-5.78463 10.38241,0.29666 21.54917,0.34966 30.71411,-4.38908 6.6912,-3.59659 14.97203,-5.47761 22.82771,-3.97048 16.93791,0.88381 33.45399,-5.26414 46.23338,-14.34225 5.6119,-3.62801 9.88432,-8.54803 15.52413,-12.11739 8.20019,-3.21054 18.02608,-1.67573 25.85494,-5.79134 13.16881,-5.2298 25.01507,-14.24377 29.57701,-26.1952 1.74407,-5.34157 7.88975,-8.18057 12.8421,-11.21169 5.35916,-2.9418 9.05452,-7.63889 10.84927,-12.77133 4.04912,-9.72607 5.93851,-20.24654 4.38433,-30.51368 -1.77679,-6.56467 -7.64156,-12.26225 -6.96154,-19.2814 0.51317,-13.31928 4.96338,-26.65119 2.06737,-39.97179 -3.32074,-14.00521 -15.57975,-25.62955 -30.36723,-32.05943 -7.21629,-3.30096 -15.33562,-4.56459 -23.13125,-6.48951 -8.57226,-2.19279 -14.22193,-8.43488 -20.47007,-13.43371 -9.12563,-7.4892 -22.14963,-10.79512 -34.68448,-10.51489 z"
       id="path4043-4"
       inkscape:connector-curvature="0"
       sodipodi:nodetypes="ccccccccccccccccccccccccccccccccccccccccccccccccccc" />
    <path
       style="color:#000000;display:inline;overflow:visible;visibility:visible;fill:#ffffff;fill-opacity:1;fill-rule:nonzero;stroke:none;stroke-width:1px;marker:none;enable-background:accumulate"
       d="m 670.6536,421.05684 c -1.2969,-8.327 6.9164,-12.4905 6.9164,-12.4905 0,0 -8.2133,-6.4345 1.2968,-12.8691 9.51,-6.4345 18.1554,1.5141 18.1554,1.5141 0,0 12.1037,-12.4906 23.3427,1.8925 11.2392,14.383 0,22.3315 0,22.3315 0,0 6.4842,15.1401 -10.8068,18.5466 -17.2909,3.4065 -22.0459,1.1355 -26.3687,-7.9485 -12.1036,-3.0281 -12.5358,-10.9766 -12.5358,-10.9766 z"
       id="path5098"
       inkscape:connector-curvature="0" />
    <path
       style="color:#000000;display:inline;overflow:visible;visibility:visible;fill:#ffffff;fill-opacity:1;fill-rule:nonzero;stroke:none;stroke-width:1px;marker:none;enable-background:accumulate"
       d="m 681.5046,479.09718 c -4.24238,-4.2985 -1.51511,-8.82321 2.12118,-9.72816 3.63636,-0.90494 11.21209,-0.22628 13.33335,4.29843 6.06056,-2.0361 9.99993,2.03617 10.30293,3.84606 0.30308,1.80988 -0.303,5.42966 -0.303,5.42966 0,0 4.84846,11.08553 -3.03035,14.25286 -7.87867,3.16734 -15.45447,-2.26239 -15.45447,-7.69204 -5.75755,2.26239 -11.5151,-0.45244 -10.90901,-3.61978 0.60608,-3.16726 3.93937,-6.78703 3.93937,-6.78703 z"
       id="path5106"
       inkscape:connector-curvature="0" />
    <path
       style="color:#000000;display:inline;overflow:visible;visibility:visible;fill:#ffffff;fill-opacity:1;fill-rule:nonzero;stroke:none;stroke-width:1px;marker:none;enable-background:accumulate"
       d="m 1939.3294,164.7192 c -6.2283,17.21405 -41.3569,18.65751 -54.2887,15.15846 26.0675,19.25708 25.1587,31.22181 -10.2336,33.07955 59.3536,34.70629 10.8506,29.45441 1.2838,38.25494 46.6035,11.96054 31.1567,30.08821 1.2432,38.42125 53.5662,0.50897 40.5986,12.72552 20.3185,30.30476 23.7169,-11.50907 60.3026,-19.78538 61.6007,10.30549 34.3639,-26.28645 52.094,-25.77514 64.5206,3.95041 10.3801,-25.63219 45.7249,-30.56553 59.24,-2.92178 11.6424,-37.41178 53.1838,-32.14411 77.9119,-14.01296 -13.8812,-12.7968 -4.4155,-33.86624 42.9105,-29.60589 -3.8093,-11.72922 2.1812,-26.53422 26.0803,-24.57977 -27.5288,-7.08529 -32.6022,-14.3936 18.5125,-22.25847 -38.8953,-0.76075 -75.1655,-2.31938 -29.5328,-29.14088 -14.3162,-0.64901 -48.283,21.73159 -32.4464,-43.76572 -41.9291,19.31354 -85.9884,29.18578 -83.8207,-11.38174 -15.5881,21.94283 -42.6253,32.80104 -54.3879,5.39268 -9.71,25.60336 -39.203,14.88263 -54.5241,-2.593 -10.1234,17.34268 -25.267,29.05516 -54.3878,5.39267 z"
       id="path3549-3-7"
       inkscape:connector-curvature="0"
       sodipodi:nodetypes="ccccccccccccccccccc" />
    <path
       style="color:#000000;display:inline;overflow:visible;visibility:visible;fill:#ffffff;fill-opacity:1;fill-rule:nonzero;stroke:none;stroke-width:1px;marker:none;enable-background:accumulate"
       d="m 1718.5156,401.26753 c 48.9328,-23.69711 222.4427,-95.53733 227.3073,-135.37619 6.8766,-56.31559 0.2535,-31.22768 0.2535,-31.22768 l 28.5516,47.34069 c 4.6298,0.0649 -137.3086,93.19891 -256.1124,119.26318 z"
       id="path3072-1"
       inkscape:connector-curvature="0"
       sodipodi:nodetypes="csccc" />
    <path
       style="color:#000000;display:inline;overflow:visible;visibility:visible;fill:url(#radialGradient4769);fill-opacity:1;fill-rule:nonzero;stroke:none;stroke-width:1px;marker:none;filter:url(#filter4265-7);enable-background:accumulate"
       d="m 168.28312,242.56886 c 0,-59.7361 29.8086,-90.5375 118.2404,-96.1379 88.4319,-5.6002 342.7586,-13.9748 381.5097,5.6261 38.751,19.601 38.7901,48.5099 40.7774,87.7117 1.9872,39.2018 -86.4447,99.8714 -174.8765,97.0713 -88.4319,-2.8002 -252.71431,7.13546 -300.40791,-6.86524 -47.6936,-14.0007 -64.80526,-54.51924 -65.24309,-87.40596 z"
       id="path3986-3"
       inkscape:connector-curvature="0"
       sodipodi:nodetypes="csssssc"
       transform="matrix(0.05524901,-0.33523845,2.4104978,0.00712234,-1.7720839,1611.7007)" />
    <path
       style="color:#000000;display:inline;overflow:visible;visibility:visible;fill:#ffffff;fill-opacity:1;fill-rule:nonzero;stroke:none;stroke-width:1px;marker:none;enable-background:accumulate"
       d="m 1081.3751,2501.7988 c 3.2527,-11.3215 20.627,-46.387 25.7118,-9.2908 37.4381,-49.6727 83.6395,-32.1693 93.8806,-24.9317 -4.7258,-14.704 4.8022,-41.1365 32.0153,-34.6371 -5.1706,-14.2063 2.6362,-24.8732 22.022,-32.3819 -27.4731,-6.645 -33.2796,-15.2908 15.0553,-28.9371 -37.6389,2.0456 -72.8702,2.9007 -32.2408,-33.7574 -13.9008,0.2967 -43.8343,30.571 -36.8893,-51.6076 -21.0909,27.809 -44.9596,44.1275 -82.345,-7.6374 -7.5628,22.2148 -20.6761,37.8516 -51.7969,10.8375 -3.8196,21.7569 -37.5549,26.2154 -50.4824,22.8831 27.6128,21.8028 28.2717,36.6578 -5.6527,41.6714 61.708,38.3446 14.2263,35.6004 6.113,47.2134 46.5049,11.2067 28.2717,31.1822 22.1502,50.136 51.7672,-3.4832 37.8708,27.2285 42.4589,50.4396 z"
       id="path3549-3"
       inkscape:connector-curvature="0"
       sodipodi:nodetypes="ccccccccccccccc" />
    <path
       style="color:#000000;display:inline;overflow:visible;visibility:visible;fill:#ffffff;fill-opacity:1;fill-rule:nonzero;stroke:none;stroke-width:1px;marker:none;enable-background:accumulate"
       d="m 1131.712,2455.8179 c 6.2225,27.4825 16.5932,59.1133 19.7045,66.3728 6.2224,-7.2595 12.9634,-12.4449 18.1488,-16.5932 4.6668,14.0005 22.8156,80.3733 20.7414,97.485 6.741,-42.0015 -3.6297,-93.3367 -12.9634,-115.6338 -7.778,4.1483 -11.9263,7.778 -16.0746,9.8522 -5.1854,-10.8893 -14.5191,-49.7796 -14.5191,-49.7796 z"
       id="path5066"
       inkscape:connector-curvature="0" />
    <path
       style="fill:#ffffff;fill-rule:evenodd;stroke:none;stroke-width:1px;stroke-linecap:butt;stroke-linejoin:miter;stroke-opacity:1"
       d="m 1890.1009,3231.1388 c 33.5947,-0.018 37,8.1066 8.9261,24.723 31.438,-6.8279 26.6822,0.4187 13.4842,10.9483 49.5525,17.4568 46.6264,44.1263 42.4659,71.0124 36.8056,-28.1799 45.0647,-9.757 59.5754,-1.5401 0.2213,-29.5712 10.2267,-15.1915 22.9625,11.4519 -2.1009,-37.123 3.3382,-42.6009 15.6537,-19.2218 1.5642,-24.7917 10.0464,-37.8661 26.4801,-37.4723 20.1121,-31.5183 39.1906,-9.3648 58.6033,-4.5589 -0.8203,-24.8184 11.1585,-30.9793 27.2178,-31.1919 3.723,-12.3347 4.5105,-28.1923 28.5176,-16.1847 -1.6072,-20.0706 11.3524,-11.2003 19.8358,-11.2236 -12.2881,-6.2386 2.5493,-16.2719 48.5876,-30.6699 -18.8114,2.3309 -19.6856,-5.4089 0.6106,-25.0346 -28.7434,2.0511 -31.9693,-9.3271 -21.7898,-27.76 -35.0466,-4.829 -10.9646,-35.6247 -1.6365,-59.9413 -27.284,21.9038 -51.2106,32.4799 -64.8129,8.2194 -38.9589,41.3457 -35.7049,26.8768 -34.3754,14.9525 -20.445,37.8088 -25.5543,15.036 -35.2303,10.3031 -67.6985,65.8704 -74.5447,33.0168 -95.6266,23.2587 4.6577,39.0912 -15.7914,32.5378 -36.3443,25.7958 9.88,30.3318 -2.6348,25.9231 -14.6814,22.2406 2.7701,13.7692 -5.5992,21.9836 -28.9865,22.7079 18.084,4.0467 9.5058,10.0985 -39.4369,19.1855 z"
       id="path4289"
       inkscape:connector-curvature="0"
       sodipodi:nodetypes="cccccccccccccccccccccccc" />
    <path
       style="color:#000000;display:inline;overflow:visible;visibility:visible;fill:#ffffff;fill-opacity:1;fill-rule:nonzero;stroke:none;stroke-width:1px;marker:none;enable-background:accumulate"
       d="m 1887.3215,3381.0916 c 58.1864,-24.0464 81.2101,-45.1344 101.8154,-66.0111 9.6953,-9.8229 -19.046,-21.1368 -19.046,-21.1368 l -15.7859,22.4288 c 0,0 -19.7655,38.2932 -66.9835,64.7191 z"
       id="path4000"
       inkscape:connector-curvature="0"
       sodipodi:nodetypes="csccc"
       inkscape:transform-center-x="-312.46852"
       inkscape:transform-center-y="-2.166888" />
    <path
       style="fill:#d40000;fill-rule:evenodd;stroke:none;stroke-width:1px;stroke-linecap:butt;stroke-linejoin:miter;stroke-opacity:1"
       d="m 770.60065,1465.6323 c 4.61452,-4.8105 4.76031,-11.8487 5.17178,-18.0965 0.47655,-5.0179 2.33565,-10.5129 7.00775,-13.0915 4.48022,-3.18 9.91917,-5.2075 15.47201,-4.7025 2.90071,0.167 5.75898,0.7993 8.51783,1.6942 -1.969,-1.3535 -4.69984,-1.4407 -6.96121,-2.3306 -3.15319,-0.8753 -6.36837,-1.583 -9.40125,-2.8379 -0.50846,-2.4994 4.08235,-1.1969 5.90476,-1.4458 2.85531,0.1407 5.73597,0.4174 8.58083,-0.01 0.11895,-2.4585 1.81847,-5.3324 2.67408,-8.1496 3.01357,-8.9058 2.23767,-20.8749 8.63715,-26.8517 4.6652,-5.6225 13.91267,-8.9802 22.7853,-8.9528 7.67623,-0.3542 13.2568,-0.9119 19.04744,3.0528 8.41783,3.0903 4.00382,0.9894 9.66529,3.2722 3.27217,1.1436 11.50731,6.5162 14.22696,8.7368 -6.5847,-8.9636 -17.50852,-12.8466 -25.72027,-19.966 -2.04064,-1.4582 -6.47368,-3.18 -12.24755,-4.3885 -8.92568,-1.2722 -11.0277,-1.0183 -19.9542,-2.2803 -4.72078,1.2496 -9.44151,2.4994 -14.16227,3.7491 -7.16881,3.998 -11.8246,10.4516 -18.19072,15.0536 -5.28563,3.5806 -10.74021,7.2155 -14.68438,12.3156 -1.31995,3.1331 2.02042,5.6525 4.23483,7.2561 3.3693,1.8325 3.68207,5.5782 4.62164,8.5401 0.0307,2.0308 -1.88454,4.8978 0.5639,6.2205 -3.90116,0.6671 -5.45607,-5.6619 -9.4936,-3.7896 -2.8453,1.3062 -4.58766,4.1245 -7.25269,5.7019 -3.27007,2.7713 -7.04981,5.1 -9.341,8.8418 -2.81767,3.8288 -5.6354,7.6575 -8.45311,11.4863 6.26889,6.9734 12.37461,14.096 18.7507,20.9713 z"
       id="path4345"
       inkscape:connector-curvature="0"
       sodipodi:nodetypes="cccccccccccccccccccccccccccccc" />
  </g>
  <g
     inkscape:groupmode="layer"
     id="layer1"
     inkscape:label="txt">
    <text
       xml:space="preserve"
       style="font-style:normal;font-variant:normal;font-weight:normal;font-stretch:normal;line-height:0%;font-family:Lavi;-inkscape-font-specification:'Lavi, Normal';text-align:center;letter-spacing:0px;word-spacing:0px;writing-mode:lr-tb;text-anchor:middle;display:inline;fill:#000000;fill-opacity:1;stroke:none"
       x="482.09351"
       y="190.13478"
       id="text4246-2-3-1-3-9-9-36"><tspan
         sodipodi:role="line"
         x="482.09351"
         y="190.13478"
         id="tspan4837"
         style="font-size:45px;line-height:1.25">Grrr! Nu este posibil să</tspan><tspan
         sodipodi:role="line"
         x="489.12476"
         y="246.38478"
         style="font-size:45px;line-height:1.25"
         id="tspan223">fiu mai prejos decât Spirulina! </tspan><tspan
         sodipodi:role="line"
         x="482.09351"
         y="302.63477"
         id="tspan4841"
         style="font-size:45px;line-height:1.25">E timpul să dau tot ce pot!</tspan></text>
    <text
       xml:space="preserve"
       style="font-style:normal;font-variant:normal;font-weight:normal;font-stretch:normal;line-height:0%;font-family:Lavi;-inkscape-font-specification:Lavi;text-align:center;letter-spacing:0px;word-spacing:0px;text-anchor:middle;display:inline;fill:#000000;fill-opacity:1;stroke:none"
       x="2045.141"
       y="232.42725"
       id="text4246-2-3-1-3-9-9"><tspan
         sodipodi:role="line"
         style="font-size:45px;line-height:1.25"
         x="2045.141"
         y="232.42725"
         id="tspan4341">Dă-te înapoi,</tspan><tspan
         sodipodi:role="line"
         style="font-size:45px;line-height:1.25"
         x="2045.141"
         y="288.67725"
         id="tspan4161">Truffel!</tspan></text>
    <text
       xml:space="preserve"
       style="font-style:normal;font-variant:normal;font-weight:normal;font-stretch:normal;line-height:0%;font-family:Lavi;-inkscape-font-specification:Lavi;letter-spacing:0px;word-spacing:0px;fill:url(#linearGradient4294-8);fill-opacity:1;stroke:none;stroke-width:0.76397806;stroke-miterlimit:4;stroke-dasharray:none;stroke-opacity:0;filter:url(#filter4375-4-1-1-1-9-5-8-8-5-2)"
       x="787.65729"
       y="1584.5073"
       id="text4580-6-0-0-0-1"
       transform="matrix(0.44026207,-0.29244135,-0.02017909,0.64277664,888.07455,-395.35125)"
       inkscape:transform-center-x="-295.89005"
       inkscape:transform-center-y="124.68109"><tspan
         sodipodi:role="line"
         id="tspan4582-1-1-0-2-2"
         x="787.65729"
         y="1584.5073"
         style="font-size:70px;line-height:1.25;fill:url(#linearGradient4294-8);fill-opacity:1;stroke:none;stroke-width:0.76397806;stroke-miterlimit:4;stroke-dasharray:none;stroke-opacity:0"><tspan
           style="font-size:93.14950562px;fill:url(#linearGradient4294-8);fill-opacity:1;stroke:none;stroke-width:0.76397806;stroke-miterlimit:4;stroke-dasharray:none;stroke-opacity:0"
           id="tspan4315-8-9-2-9">Fr<tspan
   style="font-size:69.38005829px;fill:url(#linearGradient4294-8);fill-opacity:1"
   id="tspan4241-3">rrshh</tspan>!</tspan></tspan></text>
    <text
       xml:space="preserve"
       style="font-style:normal;font-variant:normal;font-weight:normal;font-stretch:normal;line-height:0%;font-family:Lavi;-inkscape-font-specification:Lavi;letter-spacing:0px;word-spacing:0px;fill:url(#linearGradient4294);fill-opacity:1;stroke:none;stroke-width:0.76397806;stroke-miterlimit:4;stroke-dasharray:none;stroke-opacity:0;filter:url(#filter4375-4-1-1-1-9-5-8-8-5)"
       x="787.65729"
       y="1584.5073"
       id="text4580-6-0-0-0"
       transform="matrix(0.44026207,-0.29244135,-0.02017909,0.64277664,1394.0422,-113.78959)"><tspan
         sodipodi:role="line"
         id="tspan4582-1-1-0-2"
         x="787.65729"
         y="1584.5073"
         style="font-size:70px;line-height:1.25;fill:url(#linearGradient4294);fill-opacity:1;stroke:none;stroke-width:0.76397806;stroke-miterlimit:4;stroke-dasharray:none;stroke-opacity:0"><tspan
           style="font-size:93.14950562px;fill:url(#linearGradient4294);fill-opacity:1;stroke:none;stroke-width:0.76397806;stroke-miterlimit:4;stroke-dasharray:none;stroke-opacity:0"
           id="tspan4315-8-9-2">Fr<tspan
   style="font-size:69.38005829px;fill:url(#linearGradient4294);fill-opacity:1"
   id="tspan4241">rrshh</tspan>!</tspan></tspan></text>
    <text
       xml:space="preserve"
       style="font-style:normal;font-variant:normal;font-weight:normal;font-stretch:normal;line-height:0%;font-family:Lavi;-inkscape-font-specification:Lavi;letter-spacing:0px;word-spacing:0px;display:inline;fill:#ffffff;fill-opacity:1;stroke:#ffffff;stroke-width:6.33107901;stroke-miterlimit:4;stroke-dasharray:none;stroke-opacity:1;filter:url(#filter4375-4-1-1-1-9-6-9-2-1-4)"
       x="787.65729"
       y="1584.5073"
       id="text4580-1-7-3-6-7"
       transform="matrix(0.33739004,-0.05008716,-0.20691278,0.42188934,1303.5349,348.33512)"><tspan
         sodipodi:role="line"
         id="tspan4582-8-5-6-1-4"
         x="787.65729"
         y="1584.5073"
         style="font-size:70px;line-height:1.25;letter-spacing:10.62820244px;fill:#ffffff;fill-opacity:1;stroke:#ffffff;stroke-width:6.33107901;stroke-miterlimit:4;stroke-dasharray:none;stroke-opacity:1">Crșș!</tspan></text>
    <text
       xml:space="preserve"
       style="font-style:normal;font-variant:normal;font-weight:normal;font-stretch:normal;line-height:0%;font-family:Lavi;-inkscape-font-specification:Lavi;letter-spacing:0px;word-spacing:0px;display:inline;fill:#ffffff;fill-opacity:1;stroke:#ffffff;stroke-width:4.67640924;stroke-miterlimit:4;stroke-dasharray:none;stroke-opacity:1;filter:url(#filter4375-4-1-1-1-9-6-9-2-1)"
       x="787.65729"
       y="1584.5073"
       id="text4580-1-7-3-6"
       transform="matrix(0.41463955,-0.21651977,-0.07654858,0.57373717,2001.5427,63.146459)"><tspan
         sodipodi:role="line"
         id="tspan4582-8-5-6-1"
         x="787.65729"
         y="1584.5073"
         style="font-size:70px;line-height:1.25;letter-spacing:10.62820244px;fill:#ffffff;fill-opacity:1;stroke:#ffffff;stroke-width:4.67640924;stroke-miterlimit:4;stroke-dasharray:none;stroke-opacity:1">Miau!</tspan></text>
    <text
       transform="matrix(1.3677321,0,0,1.5597356,-237.98045,-783.62771)"
       id="text3586"
       y="1442.5577"
       x="604.64612"
       style="font-style:normal;font-variant:normal;font-weight:normal;font-stretch:normal;line-height:0%;font-family:Lavi;-inkscape-font-specification:Lavi;text-align:center;letter-spacing:0px;word-spacing:0px;text-anchor:middle;opacity:1;fill:#ffffff;fill-opacity:1;stroke:none;filter:url(#filter4751)"
       xml:space="preserve"><tspan
         id="tspan3590"
         style="font-style:normal;font-variant:normal;font-weight:normal;font-stretch:normal;font-size:50.4467392px;line-height:1.25;font-family:'Drukaatie burti';-inkscape-font-specification:'Drukaatie burti'"
         y="1442.5577"
         x="604.64612"
         sodipodi:role="line">SPIRALIS</tspan></text>
    <text
       xml:space="preserve"
       style="font-style:normal;font-variant:normal;font-weight:normal;font-stretch:normal;line-height:0%;font-family:Lavi;-inkscape-font-specification:Lavi;text-align:center;letter-spacing:0px;word-spacing:0px;text-anchor:middle;opacity:1;fill:#ffffff;fill-opacity:1;stroke:none;filter:url(#filter4751)"
       x="604.64612"
       y="1442.5577"
       id="text4180-1"
       transform="matrix(0.99830099,0,0,1.0017019,-1.6437905,0)"><tspan
         sodipodi:role="line"
         id="tspan4182-2"
         x="610.95197"
         y="1442.5577"
         style="font-style:normal;font-variant:normal;font-weight:normal;font-stretch:normal;font-size:50.4467392px;line-height:1.25;font-family:'Drukaatie burti';-inkscape-font-specification:'Drukaatie burti'"> </tspan><tspan
         sodipodi:role="line"
         x="604.64612"
         y="1514.0958"
         style="font-style:normal;font-variant:normal;font-weight:normal;font-stretch:normal;font-size:50.4467392px;line-height:1.25;font-family:'Drukaatie burti';-inkscape-font-specification:'Drukaatie burti'"
         id="tspan4663">FLAMA<tspan
   style="font-size:60px"
   id="tspan4665">aaaa</tspan>aaah!</tspan></text>
    <text
       xml:space="preserve"
       style="font-style:normal;font-variant:normal;font-weight:normal;font-stretch:normal;line-height:0%;font-family:Lavi;-inkscape-font-specification:Lavi;letter-spacing:0px;word-spacing:0px;fill:url(#linearGradient4393);fill-opacity:1;stroke:none;filter:url(#filter4375-4-1-1-1-9-5-8-8-5-2-7)"
       x="787.65729"
       y="1584.5073"
       id="text4580-6-0-0-0-1-1"
       transform="matrix(0.96260424,-0.65489848,-0.03536691,1.3793666,-525.48092,310.2796)"
       inkscape:transform-center-x="-651.41186"
       inkscape:transform-center-y="248.5494"><tspan
         sodipodi:role="line"
         id="tspan4582-1-1-0-2-2-5"
         x="787.65729"
         y="1584.5073"
         style="font-size:70px;line-height:1.25;fill:url(#linearGradient4393);fill-opacity:1;stroke:none"><tspan
           style="font-size:93.14950562px;fill:url(#linearGradient4393);fill-opacity:1;stroke:none"
           id="tspan4315-8-9-2-9-5">Fuu<tspan
   style="font-size:69.38005829px;fill:url(#linearGradient4393);fill-opacity:1"
   id="tspan4241-3-4">uooo<tspan
   style="font-size:55.15313339px;fill:url(#linearGradient4393)"
   id="tspan4773">oșș</tspan></tspan>!</tspan></tspan></text>
    <text
       xml:space="preserve"
       style="font-style:normal;font-variant:normal;font-weight:normal;font-stretch:normal;line-height:0%;font-family:Lavi;-inkscape-font-specification:Lavi;letter-spacing:0px;word-spacing:0px;display:inline;fill:#ffffff;fill-opacity:1;stroke:#ffffff;stroke-width:2.78456187;stroke-miterlimit:4;stroke-dasharray:none;stroke-opacity:1;filter:url(#filter4375-4-1-1-1-9-6-9-2-1-7)"
       x="787.65729"
       y="1584.5073"
       id="text4580-1-7-3-6-3"
       transform="matrix(0.35846032,-0.60815828,0.29464439,1.2414789,790.20845,414.72153)"><tspan
         sodipodi:role="line"
         id="tspan4582-8-5-6-1-7"
         x="787.65729"
         y="1584.5073"
         style="font-size:70px;line-height:1.25;letter-spacing:10.62820244px;fill:#ffffff;fill-opacity:1;stroke:#ffffff;stroke-width:2.78456187;stroke-miterlimit:4;stroke-dasharray:none;stroke-opacity:1">Viiiuuum!</tspan></text>
    <text
       xml:space="preserve"
       style="font-style:normal;font-variant:normal;font-weight:normal;font-stretch:normal;line-height:0%;font-family:Lavi;-inkscape-font-specification:Lavi;letter-spacing:0px;word-spacing:0px;fill:url(#linearGradient4401);fill-opacity:1;stroke:none;filter:url(#filter4375-4-1-1-1-9-5-8-8-5-4)"
       x="787.65729"
       y="1584.5073"
       id="text4580-6-0-0-0-7"
       transform="matrix(0.79953711,-0.5103772,-0.0366462,1.1217926,132.99641,1216.9386)"><tspan
         sodipodi:role="line"
         id="tspan4582-1-1-0-2-1"
         x="787.65729"
         y="1584.5073"
         style="font-size:70px;line-height:1.25;fill:url(#linearGradient4401);fill-opacity:1;stroke:none"><tspan
           style="font-size:93.14950562px;fill:url(#linearGradient4401);fill-opacity:1;stroke:none"
           id="tspan4315-8-9-2-7">Fș<tspan
   style="font-size:69.38005829px;fill:url(#linearGradient4401);fill-opacity:1"
   id="tspan4241-2">șșș</tspan>!</tspan></tspan></text>
    <text
       xml:space="preserve"
       style="font-style:normal;font-variant:normal;font-weight:normal;font-stretch:normal;line-height:0%;font-family:Lavi;-inkscape-font-specification:Lavi;letter-spacing:0px;word-spacing:0px;display:inline;fill:#ffffff;fill-opacity:1;stroke:#ffffff;stroke-width:3.33236313;stroke-miterlimit:4;stroke-dasharray:none;stroke-opacity:1;filter:url(#filter4375-4-1-1-1-9-6-9-2-1-7-4)"
       x="787.65729"
       y="1584.5073"
       id="text4580-1-7-3-6-3-6"
       transform="matrix(0.72752989,-0.6519553,0.08417536,0.9655441,-134.90783,2132.2771)"><tspan
         sodipodi:role="line"
         id="tspan4582-8-5-6-1-7-8"
         x="787.65729"
         y="1584.5073"
         style="font-size:70px;line-height:1.25;letter-spacing:10.62820244px;fill:#ffffff;fill-opacity:1;stroke:#ffffff;stroke-width:3.33236313;stroke-miterlimit:4;stroke-dasharray:none;stroke-opacity:1">Paf!</tspan></text>
    <text
       xml:space="preserve"
       style="font-style:normal;font-variant:normal;font-weight:normal;font-stretch:normal;line-height:0%;font-family:Lavi;-inkscape-font-specification:Lavi;text-align:center;letter-spacing:0px;word-spacing:0px;text-anchor:middle;display:inline;fill:#000000;fill-opacity:1;stroke:none"
       x="1723.3469"
       y="2172.8474"
       id="text4246-2-3-1-3-9-9-7"
       transform="matrix(0.89365156,0,-0.19329856,1.1190044,0,0)"><tspan
         sodipodi:role="line"
         style="font-size:104.29582214px;line-height:1.25"
         x="1723.3469"
         y="2172.8474"
         id="tspan4161-6">?!!</tspan></text>
    <text
       xml:space="preserve"
       style="font-style:normal;font-variant:normal;font-weight:normal;font-stretch:normal;line-height:0%;font-family:Lavi;-inkscape-font-specification:Lavi;letter-spacing:0px;word-spacing:0px;fill:url(#linearGradient4409);fill-opacity:1;stroke:none;filter:url(#filter4375-4-1-1-1-9-5-8-8-5-4-6)"
       x="787.65729"
       y="1584.5073"
       id="text4580-6-0-0-0-7-1"
       transform="matrix(0.93910536,-0.7621869,0.18588011,1.2291386,186.99961,1958.4197)"><tspan
         sodipodi:role="line"
         id="tspan4582-1-1-0-2-1-1"
         x="787.65729"
         y="1584.5073"
         style="font-size:70px;line-height:1.25;fill:url(#linearGradient4409);fill-opacity:1;stroke:none"><tspan
           style="font-size:93.14950562px;fill:url(#linearGradient4409);fill-opacity:1;stroke:none"
           id="tspan4315-8-9-2-7-5">Fș<tspan
   style="font-size:69.38005829px;fill:url(#linearGradient4409);fill-opacity:1"
   id="tspan4241-2-9">șș</tspan>!</tspan></tspan></text>
    <text
       xml:space="preserve"
       style="font-style:normal;font-variant:normal;font-weight:normal;font-stretch:normal;line-height:0%;font-family:Lavi;-inkscape-font-specification:Lavi;letter-spacing:0px;word-spacing:0px;fill:url(#linearGradient4507);fill-opacity:1;stroke:none;filter:url(#filter4375-4-1-1-1-9-5-8-8-5-4-6-5)"
       x="787.65729"
       y="1584.5073"
       id="text4580-6-0-0-0-7-1-5"
       transform="matrix(0.78023356,-0.73773231,0.12940894,0.99375194,1311.919,1729.8661)"><tspan
         sodipodi:role="line"
         id="tspan4582-1-1-0-2-1-1-0"
         x="787.65729"
         y="1584.5073"
         style="font-size:70px;line-height:1.25;fill:url(#linearGradient4507);fill-opacity:1;stroke:none"><tspan
           style="font-size:93.14950562px;fill:url(#linearGradient4507);fill-opacity:1;stroke:none"
           id="tspan4315-8-9-2-7-5-9">Fș<tspan
   style="font-size:69.38005829px;fill:url(#linearGradient4507);fill-opacity:1"
   id="tspan4241-2-9-6">șș</tspan>!</tspan></tspan></text>
    <text
       xml:space="preserve"
       style="font-style:normal;font-variant:normal;font-weight:normal;font-stretch:normal;font-size:10.43091583px;line-height:0%;font-family:Lavi;-inkscape-font-specification:Lavi;text-align:center;letter-spacing:0px;word-spacing:0px;text-anchor:middle;display:inline;fill:#000000;fill-opacity:1;stroke:none;stroke-width:0.86924297"
       x="1392.9568"
       y="4451.5898"
       id="text4246-2-3-1-3-9-9-3"
       transform="matrix(1.0202845,-0.54955327,0.15019414,0.89922007,0,0)"><tspan
         sodipodi:role="line"
         style="font-size:60.98950195px;line-height:1.25;stroke-width:0.86924297"
         x="1392.9568"
         y="4451.5898"
         id="tspan4161-5">Aiiiiiee!<tspan
   style="font-size:83.31282806px;stroke-width:0.86924297"
   id="tspan5246">!</tspan></tspan></text>
  </g>
</svg>
