<?xml version="1.0" encoding="UTF-8" standalone="no"?>
<svg
   xmlns:dc="http://purl.org/dc/elements/1.1/"
   xmlns:cc="http://creativecommons.org/ns#"
   xmlns:rdf="http://www.w3.org/1999/02/22-rdf-syntax-ns#"
   xmlns:svg="http://www.w3.org/2000/svg"
   xmlns="http://www.w3.org/2000/svg"
   xmlns:xlink="http://www.w3.org/1999/xlink"
   xmlns:sodipodi="http://sodipodi.sourceforge.net/DTD/sodipodi-0.dtd"
   xmlns:inkscape="http://www.inkscape.org/namespaces/inkscape"
   id="svg2"
   version="1.1"
   inkscape:version="1.0 (4035a4fb49, 2020-05-01)"
   width="2481"
   height="3503"
   sodipodi:docname="E33P07.svg">
  <metadata
     id="metadata8">
    <rdf:RDF>
      <cc:Work
         rdf:about="">
        <dc:format>image/svg+xml</dc:format>
        <dc:type
           rdf:resource="http://purl.org/dc/dcmitype/StillImage" />
        <dc:title />
      </cc:Work>
    </rdf:RDF>
  </metadata>
  <defs
     id="defs6">
    <filter
       x="-0.14"
       width="1.22"
       height="1.38"
       inkscape:label="magic-numbers_orange"
       id="filter4375-4-1-1-1-9-5-8-8-3-3-3-6-1-6"
       style="color-interpolation-filters:sRGB">
      <feFlood
         radius="5.0999999999999996"
         result="flood"
         flood-color="rgb(216,88,33)"
         flood-opacity="1"
         id="feFlood4377-7-9-0-8-1-7-3-1-6-61-6-2-0-2" />
      <feComposite
         baseFrequency="0.053999999999999999 0.053999999999999999"
         result="composite1"
         operator="in"
         in="flood"
         in2="SourceGraphic"
         id="feComposite4379-3-8-8-2-77-4-1-0-7-2-7-6-6-6" />
      <feMorphology
         result="result3"
         radius="0.96959439099754563"
         operator="dilate"
         id="feMorphology4393-1-0-49-8-9-3-0-1-5-9-5-1-3-1" />
      <feComposite
         numOctaves="4"
         result="fbSourceGraphic"
         operator="over"
         in="SourceGraphic"
         in2="result3"
         id="feComposite4385-9-5-7-0-8-8-7-5-3-3-3-8-2-8" />
      <feColorMatrix
         id="feColorMatrix4544-9-5-1-5-7-0-7"
         values="0 0 0 -1 0 0 0 0 -1 0 0 0 0 -1 0 0 0 0 1 0"
         in="fbSourceGraphic"
         result="fbSourceGraphicAlpha" />
      <feTurbulence
         result="turbulence"
         baseFrequency="0.062 0.054054054054054057"
         seed="172"
         numOctaves="4.4123222748815163"
         type="fractalNoise"
         id="feTurbulence4546-3-6-9-6-9-6-9" />
      <feDisplacementMap
         result="fbSourceGraphic"
         xChannelSelector="R"
         yChannelSelector="G"
         scale="11.642079"
         in="fbSourceGraphic"
         in2="turbulence"
         id="feDisplacementMap4548-8-2-4-2-2-1-20" />
      <feColorMatrix
         scale="10.800000000000001"
         id="feColorMatrix4670-7-9-7-9-0-5-2"
         values="0 0 0 -1 0 0 0 0 -1 0 0 0 0 -1 0 0 0 0 1 0"
         in="fbSourceGraphic"
         result="fbSourceGraphicAlpha" />
      <feComposite
         result="composite1"
         operator="in"
         in="flood"
         in2="fbSourceGraphic"
         id="feComposite4674-8-2-4-1-2-5-3" />
      <feGaussianBlur
         result="blur"
         stdDeviation="0.01"
         in="composite1"
         id="feGaussianBlur4676-3-7-50-2-3-4-7" />
      <feOffset
         result="offset"
         dy="5.2374444725016502"
         dx="-0.42771311737301687"
         id="feOffset4678-6-0-3-7-7-7-5" />
      <feComposite
         result="composite2"
         operator="over"
         in="fbSourceGraphic"
         in2="offset"
         id="feComposite4680-4-9-6-0-5-6-9" />
      <feGaussianBlur
         stdDeviation="0.01"
         id="feGaussianBlur58-9-9-5-2" />
      <feOffset
         dx="0"
         dy="0"
         id="feOffset60-3-2-6-2" />
    </filter>
    <filter
       style="color-interpolation-filters:sRGB"
       id="filter4375-4-1-1-1-9-5-8-8-3-3-7-4-1"
       inkscape:label="magic-numbers_cyan"
       height="1.38"
       width="1.22"
       x="-0.14">
      <feFlood
         id="feFlood4377-7-9-0-8-1-7-3-1-6-61-3-5-4"
         flood-opacity="1"
         flood-color="rgb(15,126,119)"
         result="flood"
         radius="5.0999999999999996" />
      <feComposite
         id="feComposite4379-3-8-8-2-77-4-1-0-7-2-6-2-9"
         in2="SourceGraphic"
         in="flood"
         operator="in"
         result="composite1"
         baseFrequency="0.053999999999999999 0.053999999999999999" />
      <feMorphology
         id="feMorphology4393-1-0-49-8-9-3-0-1-5-9-1-5-2"
         operator="dilate"
         radius="0.96959439099754563"
         result="result3" />
      <feComposite
         id="feComposite4385-9-5-7-0-8-8-7-5-3-3-2-4-0"
         in2="result3"
         in="SourceGraphic"
         operator="over"
         result="fbSourceGraphic"
         numOctaves="4" />
      <feColorMatrix
         result="fbSourceGraphicAlpha"
         in="fbSourceGraphic"
         values="0 0 0 -1 0 0 0 0 -1 0 0 0 0 -1 0 0 0 0 1 0"
         id="feColorMatrix4544-9-5-1-9-7-6" />
      <feTurbulence
         id="feTurbulence4546-3-6-9-3-4-8"
         type="fractalNoise"
         numOctaves="4.4123222748815163"
         seed="172"
         baseFrequency="0.062 0.054054054054054057"
         result="turbulence" />
      <feDisplacementMap
         id="feDisplacementMap4548-8-2-4-1-4-9"
         in2="turbulence"
         in="fbSourceGraphic"
         scale="11.642079"
         yChannelSelector="G"
         xChannelSelector="R"
         result="fbSourceGraphic" />
      <feColorMatrix
         result="fbSourceGraphicAlpha"
         in="fbSourceGraphic"
         values="0 0 0 -1 0 0 0 0 -1 0 0 0 0 -1 0 0 0 0 1 0"
         id="feColorMatrix4670-7-9-7-9-3-2"
         scale="10.800000000000001" />
      <feComposite
         id="feComposite4674-8-2-4-4-0-6"
         in2="fbSourceGraphic"
         in="flood"
         operator="in"
         result="composite1" />
      <feGaussianBlur
         id="feGaussianBlur4676-3-7-50-7-7-6"
         in="composite1"
         stdDeviation="1.5865199271065846"
         result="blur" />
      <feOffset
         id="feOffset4678-6-0-3-8-8-4"
         dx="-0.42771311737301687"
         dy="5.2374444725016502"
         result="offset" />
      <feComposite
         id="feComposite4680-4-9-6-4-6-9"
         in2="offset"
         in="fbSourceGraphic"
         operator="over"
         result="composite2" />
      <feGaussianBlur
         id="feGaussianBlur58-5-8-5"
         stdDeviation="0.01" />
      <feOffset
         id="feOffset60-0-8-0"
         dy="0"
         dx="0" />
    </filter>
  </defs>
  <sodipodi:namedview
     pagecolor="#ffffff"
     bordercolor="#666666"
     borderopacity="1"
     objecttolerance="10"
     gridtolerance="10"
     guidetolerance="10"
     inkscape:pageopacity="0"
     inkscape:pageshadow="2"
     inkscape:window-width="1366"
     inkscape:window-height="715"
     id="namedview4"
     showgrid="false"
     inkscape:zoom="0.45"
     inkscape:cx="1245.3411"
     inkscape:cy="389.30418"
     inkscape:window-x="-8"
     inkscape:window-y="-8"
     inkscape:window-maximized="1"
     inkscape:current-layer="layer1"
     inkscape:document-rotation="0"
     inkscape:snap-global="false" />
  <g
     inkscape:groupmode="layer"
     id="layer2"
     inkscape:label="artwork"
     sodipodi:insensitive="true">
    <image
       sodipodi:absref="D:\Pepper&amp;Carrot translation\ep33_Spell-of-War\lang\gfx_Pepper-and-Carrot_by-David-Revoy_E33P07.png"
       xlink:href="../gfx_Pepper-and-Carrot_by-David-Revoy_E33P07.png"
       y="0"
       x="0"
       id="image10"
       height="3503"
       width="2481" />
  </g>
  <g
     inkscape:groupmode="layer"
     id="layer3"
     inkscape:label="speechbubbles">
    <path
       sodipodi:nodetypes="ccssssssc"
       inkscape:connector-curvature="0"
       id="path3278-1"
       d="m 940.40991,1024.3592 c -34.49771,0.2959 -68.83993,4.6162 -103.30571,5.8383 -27.41868,1.9018 -55.06149,8.2838 -79.71086,23.64 -18.09932,10.8417 -35.22362,26.0109 -46.06526,47.4055 -13.60122,26.6367 -17.24909,61.6204 -7.3435,91.2105 8.63663,26.3654 24.49335,47.8039 41.13105,66.8759 11.50837,13.0821 25.13276,24.2607 40.64203,27.9571 15.00725,4.146 30.19658,7.1168 45.32108,10.4739 62.8459,12.8158 126.76185,15.8962 190.22296,12.1489 27.486,-2.1019 54.823,-6.2205 82.2326,-9.3421 26.287,-3.3191 52.9677,-5.8597 78.1613,-16.2732 11.1391,-4.4851 21.9747,-10.3538 31.653,-18.582 18.2221,-15.0002 33.9073,-35.6679 42.6358,-60.8014 9.049,-26.8778 9.681,-58.4936 0.2975,-85.5411 -9.2209,-25.4217 -25.7683,-45.9563 -44.6798,-60.5482 -20.1122,-15.1708 -43.4619,-22.5407 -66.7274,-24.5072 -41.4493,-6.4549 -83.2249,-8.3641 -124.9291,-8.8677 -26.51077,-0.6155 -53.02369,-0.8382 -79.53569,-1.0872 z"
       style="opacity:1;fill:#ffffff;stroke:none;stroke-width:0.935071" />
    <path
       sodipodi:nodetypes="cccsscc"
       inkscape:connector-curvature="0"
       id="path3970-36-4-2-3"
       d="m 1783.2526,2573.688 c -21.0101,0.9685 -41.976,2.7732 -62.9087,4.7076 -35.0252,3.5374 -70.4192,6.8254 -104.1911,16.6404 -14.8722,4.1675 -28.3574,12.2855 -39.116,22.6385 -10.0875,9.8954 -17.8455,22.3998 -19.3645,36.1434 -3.1719,23.7512 7.9242,48.7426 28.5383,63.1936 23.3233,18.2663 53.3763,26.5219 82.7539,32.0293 35.6532,6.7193 71.9684,9.947 108.2665,11.6345 42.0466,1.1501 84.8939,-1.4149 124.9909,-14.038 21.903,-7.3248 43.1556,-19.6452 54.9987,-38.8148 13.9608,-22.5527 13.5803,-52.4804 -2.3195,-74.12 -14.1307,-20.361 -37.211,-33.8791 -61.3477,-41.9975 -26.7522,-9.0529 -55.0103,-13.4272 -83.1642,-16.696 -9.0147,-0.8619 -18.0722,-1.3585 -27.1366,-1.321 z"
       style="color:#000000;display:inline;overflow:visible;visibility:visible;fill:#ffffff;fill-opacity:1;fill-rule:nonzero;stroke:none;stroke-width:1.02933px;marker:none;enable-background:accumulate" />
    <path
       sodipodi:nodetypes="ccscc"
       inkscape:connector-curvature="0"
       id="path4440-3"
       d="m 1621.2419,2710.0782 c -108.6283,-52.869 -136.7629,50.9509 -219.7865,3.3934 64.8225,28.9401 124.6197,-90.8503 208.5357,-36.2563 33.5739,21.8425 26.7527,-34.846 26.7527,-34.846 z"
       style="color:#000000;display:inline;overflow:visible;visibility:visible;fill:#ffffff;fill-opacity:1;fill-rule:nonzero;stroke:none;stroke-width:1px;marker:none;enable-background:accumulate" />
    <path
       inkscape:connector-curvature="0"
       id="path1355"
       d="m 1814.4771,1704.6495 c 0.4448,-11.7403 5.7803,-33.2638 13.7838,-37.1773 8.0034,-3.9133 30.2352,-3.9133 34.6816,-1.9563 4.4462,1.9563 11.5605,16.3054 13.3391,22.1757 1.7786,5.87 6.6694,26.741 -1.334,35.2202 -8.0034,8.4791 -16.0069,15.0013 -24.4549,14.349 -8.4482,-0.6523 -25.3444,-5.2181 -29.346,-13.0443 -4.0019,-7.8268 -6.6696,-19.567 -6.6696,-19.567 z"
       style="fill:#ffffff;fill-rule:evenodd;stroke:none;stroke-width:1px;stroke-linecap:butt;stroke-linejoin:miter;stroke-opacity:1" />
    <path
       sodipodi:nodetypes="zssssz"
       inkscape:connector-curvature="0"
       id="path4040-4-5-3-6"
       d="m 254.10262,1891.0092 c 9.19752,-13.457 74.80067,-26.3446 93.42179,8.2519 15.5428,28.8772 14.54551,85.4493 0.31053,106.7119 -14.50228,21.6607 -69.76841,14.0102 -91.12895,3.6371 -20.11489,-9.7679 -19.75095,-33.3786 -19.2023,-74.5334 0.22394,-16.7961 7.40147,-30.6115 16.59893,-44.0675 z"
       style="color:#000000;display:inline;overflow:visible;visibility:visible;fill:#ffffff;fill-opacity:1;fill-rule:nonzero;stroke:none;stroke-width:0.704635px;marker:none;enable-background:accumulate" />
    <path
       sodipodi:nodetypes="ccscc"
       inkscape:connector-curvature="0"
       id="path4248"
       d="m 2157.198,1388.3168 c 34.6776,75.0182 -2.1391,152.7694 -20.7926,179.1784 15.7673,-13.367 86.6043,-98.9813 59.3653,-176.0012 -19.1833,-54.242 -28.9658,-19.1371 -28.9658,-19.1371 z"
       style="fill:#ffffff;fill-rule:evenodd;stroke:none;stroke-width:0.999999px;stroke-linecap:butt;stroke-linejoin:miter;stroke-opacity:1" />
    <path
       sodipodi:nodetypes="zssssz"
       inkscape:connector-curvature="0"
       id="path4040-4-5-3"
       d="m 451.95646,1991.7415 c -41.4167,0.268 -83.2738,1.3666 -123.55846,8.0268 -15.62372,2.8155 -28.08946,9.7513 -41.41694,15.3138 -8.66409,3.5711 -17.33691,7.3772 -23.73555,12.625 -5.0436,3.8968 -8.02632,8.6638 -9.88837,13.5298 -4.60065,11.5037 -2.6948,24.4557 7.92898,34.4251 9.84352,9.3306 25.68253,15.5839 42.52592,18.4916 24.93764,4.9379 51.11046,6.239 76.90374,8.2149 54.04687,3.4553 108.74966,4.508 162.77135,0.3063 16.30539,-1.5082 33.09203,-3.6559 47.04662,-9.5488 16.28905,-7.3232 25.95799,-19.5397 28.47848,-31.9705 2.87106,-13.1409 -2.90968,-27.0572 -16.37666,-37.2446 -13.60904,-10.8705 -32.9118,-18.3461 -53.35535,-22.8493 -14.50676,-3.2601 -29.53443,-5.5327 -44.67714,-7.2049 -17.40263,-1.7294 -35.05279,-2.2227 -52.64662,-2.1152 z"
       style="color:#000000;display:inline;overflow:visible;visibility:visible;fill:#ffffff;fill-opacity:1;fill-rule:nonzero;stroke:none;stroke-width:0.779761px;marker:none;enable-background:accumulate" />
    <path
       sodipodi:nodetypes="ccszc"
       inkscape:connector-curvature="0"
       id="path4064-3"
       d="m 319.58861,1908.7404 c 41.26622,-10.6222 105.42769,-33.765 58.36397,-103.5756 17.39224,9.6109 81.79336,86.4471 -32.06947,127.1196 -33.03955,11.8021 -26.40006,-1.4387 -31.37798,-6.8202 -4.97793,-5.3817 5.08348,-16.7238 5.08348,-16.7238 z"
       style="color:#000000;display:inline;overflow:visible;visibility:visible;opacity:1;fill:#ffffff;fill-opacity:1;fill-rule:nonzero;stroke:none;stroke-width:0.999997px;marker:none;enable-background:accumulate" />
    <path
       sodipodi:nodetypes="ccccccsscc"
       inkscape:connector-curvature="0"
       id="path1081"
       d="m 976.72974,1275.9359 c -35.82187,19.2298 -42.44405,25.0497 -51.67218,35.2517 -9.22809,10.2021 -10.71719,34.223 0.007,47.9588 10.72379,13.7357 7.97474,36.1368 -5.93755,41.9385 -13.91228,5.8017 -68.6801,26.3291 -30.10548,69.6789 -31.80797,-48.4001 27.22562,-50.2412 37.26612,-53.8355 20.96554,-7.326 32.38767,-21.6624 25.23114,-50.6365 -7.15657,-28.9741 -13.26827,-47.0437 37.16901,-61.4862 50.4371,-14.4425 -11.9577,-28.8697 -11.9577,-28.8697 z"
       style="fill:#ffffff;fill-rule:evenodd;stroke:none;stroke-width:0.999996px;stroke-linecap:butt;stroke-linejoin:miter;stroke-opacity:1" />
    <path
       sodipodi:nodetypes="ccscscc"
       inkscape:connector-curvature="0"
       id="path3992-0"
       d="m 1944.2637,988.58102 c -49.7481,0.28594 -100.0726,-1.11334 -149.0902,5.71812 -12.5306,1.71141 -24.8634,4.67509 -35.1957,9.84936 -18.1454,8.6332 -32.2522,20.7144 -42.4843,33.8899 -19.6267,26.0108 -22.7401,57.6808 -6.9525,84.9429 14.3832,22.7183 46.0078,39.6471 81.5134,45.3545 56.0637,10.6213 114.8074,11.8056 172.6887,11.6512 39.8965,-0.1383 79.7983,-0.7632 119.6919,-0.1204 46.0613,0.2465 92.0481,-2.0934 137.8439,-5.217 23.2117,-1.4588 46.6553,-2.437 69.3567,-6.2134 16.1823,-2.953 31.4903,-8.7664 42.2022,-17.5626 22.4266,-17.2331 31.8364,-40.5047 32.64,-63.0258 0.6395,-18.2567 -5.5093,-36.9677 -20.6622,-52.3149 -19.6116,-20.2184 -52.9197,-34.2432 -88.6692,-36.89862 -38.1395,-4.00835 -76.7437,-5.21531 -115.1875,-7.2082 -52.5832,-2.36032 -105.3101,-2.72015 -157.9932,-2.83278 -13.234,-0.0139 -26.468,-0.017 -39.702,-0.0123 z"
       style="color:#000000;display:inline;overflow:visible;visibility:visible;opacity:1;vector-effect:none;fill:#ffffff;fill-opacity:1;fill-rule:nonzero;stroke:none;stroke-width:0.930747;stroke-linecap:butt;stroke-linejoin:miter;stroke-miterlimit:4;stroke-dasharray:none;stroke-dashoffset:0;stroke-opacity:1;marker:none;paint-order:stroke fill markers;enable-background:accumulate" />
    <path
       sodipodi:nodetypes="csssc"
       inkscape:connector-curvature="0"
       id="path3280-8-0-3"
       d="m 2101.421,1090.8571 c -91.4309,2.1829 -182.5854,9.1217 -273.7566,15.1528 -13.8941,1.0914 -27.8112,4.7695 -39.0329,12.2145 -15.6362,9.7953 -26.5664,24.6723 -31.815,40.7513 -8.5181,22.7895 -10.542,47.5541 -4.9215,71.0647 5.6927,20.5533 20.5657,38.7433 40.0337,51.1077 23.8472,16.1171 52.9603,25.2899 82.4632,29.642 29.8329,4.731 60.1073,6.8301 90.3301,8.5428 29.5629,0.8804 59.1678,0.9145 88.726,-0.092 19.0671,-0.9437 37.9011,-4.1218 56.3227,-8.436 22.4019,-4.5199 45.2026,-7.7494 68.1925,-8.6275 26.1355,-2.0254 52.6758,-6.6342 75.6475,-18.2104 33.1832,-17.1108 55.2229,-50.169 54.5092,-84.0121 -0.7645,-27.0756 -16.3442,-52.9689 -39.588,-70.5265 -22.64,-17.2262 -51.3957,-27.0574 -80.4951,-32.3113 -28.4411,-5.2222 -57.6299,-6.3977 -86.6158,-6.2599 z"
       style="fill:#ffffff;stroke:none;stroke-width:0.970773" />
    <path
       sodipodi:nodetypes="csssc"
       inkscape:connector-curvature="0"
       id="path3280-8-3"
       d="m 1991.3081,1359.4018 c -1.099,-18.5967 18.6059,-65.1514 114.7257,-61.6496 96.1198,3.5018 126.2038,23.9568 129.0206,57.0125 4.4559,52.2927 -46.1127,66.2669 -118.7245,70.1404 -74.855,3.9927 -126.1835,-31.9025 -125.0218,-65.5033 z"
       style="display:inline;fill:#ffffff;stroke:none;stroke-width:0.999998" />
    <path
       sodipodi:nodetypes="zssssz"
       inkscape:connector-curvature="0"
       id="path4040-4-5-3-6-9"
       d="M 665.01953 2329.8574 C 632.86755 2330.7825 600.24052 2331.3395 569.03125 2339.9941 C 545.47886 2347.025 526.00387 2364.8466 514.70766 2386.4215 C 508.41521 2398.1509 507.47912 2411.7926 507.80261 2424.8498 C 508.34923 2438.3614 508.90865 2452.1411 513.49735 2465.006 C 518.14998 2479.0047 527.65823 2491.3001 540.12487 2499.207 C 551.26377 2506.5226 564.15966 2510.5942 577.15576 2513.1 C 591.43553 2516.3146 605.80573 2519.203 620.35716 2520.8836 C 639.50789 2523.0982 658.77197 2524.4019 678.04593 2524.7863 C 708.31178 2525.1924 739.33007 2522.1736 767.32604 2509.9317 C 785.80761 2501.8301 803.17171 2489.8945 814.91211 2473.2422 C 823.85608 2460.1083 828.25163 2443.8028 826.31055 2427.9648 C 824.6773 2409.654 817.76755 2392.0659 807.93552 2376.6424 C 794.12921 2356.8633 772.10522 2343.4958 748.5584 2338.8927 C 723.52023 2332.8043 697.71635 2330.3738 671.99751 2329.8478 C 669.67159 2329.8162 667.34553 2329.8529 665.01953 2329.8574 z "
       style="color:#000000;display:inline;overflow:visible;visibility:visible;fill:#ffffff;fill-opacity:1;fill-rule:nonzero;stroke:none;stroke-width:0.999999px;marker:none;enable-background:accumulate" />
    <path
       inkscape:transform-center-y="-44.934884"
       inkscape:transform-center-x="2.8585098"
       inkscape:connector-curvature="0"
       id="path4496-9"
       d="m 703.25853,2604.1619 c 5.74791,-18.2394 15.11069,-23.7603 -2.63313,-35.0414 -23.03586,-18.9893 -49.6494,-13.1342 -53.36056,-71.625 3.60381,-16.905 6.37301,-34.8451 22.50989,-40.1615 10.4995,-2.3974 21.75171,4.8293 22.24702,16.1202 0.34778,5.946 -3.23944,11.606 -7.58281,15.6001 -6.82528,8.7682 -8.75807,20.6527 -5.8829,30.4945 7.45665,22.1143 23.5538,29.0237 41.10442,37.1506 9.41557,9.8401 11.78207,17.5562 5.80293,30.6148 -26.3563,44.5568 16.67184,58.2897 35.27406,70.5123 -19.70092,-4.8478 -67.11382,-28.0517 -57.47892,-53.6646 z"
       style="color:#000000;display:inline;overflow:visible;visibility:visible;fill:#ffffff;fill-opacity:1;fill-rule:nonzero;stroke:none;stroke-width:1px;marker:none;enable-background:accumulate"
       sodipodi:nodetypes="ccccccccccc" />
    <path
       sodipodi:nodetypes="cccsscc"
       inkscape:connector-curvature="0"
       id="path3970-36-4"
       d="m 1469.5475,2489.1591 c -71.6171,-1.2197 -101.8629,-15.6013 -119.5259,-37.0789 -17.663,-21.4784 -2.9924,-56.1538 28.0393,-68.4319 31.0318,-12.2784 73.0166,-13.5226 121.6152,-11.8978 87.8146,2.9381 148.6381,12.1942 155.514,45.5004 6.8272,33.069 1.347,50.6135 -63.2036,66.3619 -60.7667,9.0628 -122.439,5.5463 -122.439,5.5463 z"
       style="color:#000000;display:inline;overflow:visible;visibility:visible;fill:#ffffff;fill-opacity:1;fill-rule:nonzero;stroke:none;stroke-width:0.949561px;marker:none;enable-background:accumulate" />
    <path
       style="color:#000000;display:inline;overflow:visible;visibility:visible;fill:#ffffff;fill-opacity:1;fill-rule:nonzero;stroke:none;stroke-width:0.867182px;marker:none;enable-background:accumulate"
       d="m 1638.8263,2469.5314 c -21.6647,0.8363 -43.3335,1.7065 -64.9737,3.1011 -18.0159,1.1405 -35.9911,2.8604 -53.9739,4.4453 -10.3962,0.8464 -20.6482,3.3891 -30.3671,7.299 -9.2601,3.8369 -18.0989,9.1009 -25.3813,16.2298 -10.3634,10.9017 -14.3735,27.8153 -10.2552,42.5039 2.2556,7.5008 6.3652,14.3279 11.3919,20.159 7.7976,8.9536 18.1145,15.1991 29.0388,19.0952 17.7791,6.8242 36.4196,10.6628 54.7951,15.2851 21.3311,4.7719 43.2636,5.7657 65.0198,5.1223 17.4725,-0.3231 34.947,-1.1042 52.3584,-2.677 20.7867,-2.136 41.5723,-5.771 61.3538,-12.9068 13.1679,-4.9064 26.0036,-11.7016 36.0925,-21.9391 7.6343,-8.511 10.7062,-20.4148 10.9035,-31.8202 0.1384,-10.4168 -3.073,-21.0506 -9.8417,-28.8673 -8.6521,-10.3951 -20.804,-16.8506 -33.1635,-21.1821 -18.4413,-6.35 -37.8959,-8.1927 -57.0393,-10.9278 -11.9232,-1.6188 -23.9131,-3.0775 -35.9581,-2.9204 z"
       id="path3970-36-4-2"
       inkscape:connector-curvature="0"
       sodipodi:nodetypes="cccsscc" />
    <path
       inkscape:connector-curvature="0"
       id="path3072-5-5"
       d="m 1869.3292,1763.0277 c -14.8181,-0.6595 -18.7264,-9.2129 -18.2181,-35.4706 0.5083,-26.2571 -6.2661,-24.362 -6.2661,-24.362 l -6.9729,16.6564 c 0,0 1.6221,55.3263 31.4571,43.1762 z"
       style="color:#000000;display:inline;overflow:visible;visibility:visible;fill:#ffffff;fill-opacity:1;fill-rule:nonzero;stroke:none;stroke-width:1px;marker:none;enable-background:accumulate"
       sodipodi:nodetypes="csccc" />
    <path
       sodipodi:nodetypes="cscsc"
       inkscape:connector-curvature="0"
       id="path912"
       d="m 908.19707,140.73428 c -23.27565,0.55056 -46.99555,0.87351 -69.41715,7.88874 -23.4538,7.34338 -44.8221,22.73166 -57.32193,44.11788 -13.00868,23.28208 -9.52548,54.15162 7.28144,74.63258 14.5161,17.54579 35.34829,29.06129 57.2524,34.58214 22.01365,5.74466 44.6452,9.69907 67.45675,9.61655 13.92648,0.043 27.83179,-1.54052 41.43298,-4.50964 17.72195,-3.50772 35.43285,-7.30564 52.68184,-12.72464 16.3677,-5.48131 32.4562,-13.56643 44.1239,-26.59384 11.079,-12.60043 16.2795,-30.23087 13.3196,-46.7977 -1.8137,-12.38081 -7.702,-24.45207 -17.5791,-32.36276 -25.7954,-23.48509 -58.75009,-38.45485 -92.95511,-44.58852 -15.25272,-2.7632 -30.8032,-3.399 -46.27562,-3.26079 z"
       style="fill:#ffffff;fill-rule:evenodd;stroke:none;stroke-width:0.977214px;stroke-linecap:butt;stroke-linejoin:miter;stroke-opacity:1" />
    <path
       d="m 796.38806,253.26629 c 0.0845,2.25192 3.22337,4.74593 5.59632,5.05268 0,0 2.54222,0.45596 4.60197,-0.0294 0.37769,0.0596 6.63382,-1.0982 6.49266,-8.21406 l -1.65193,-8.61638 c 0.8799,-0.15078 3.72125,-1.41287 4.59537,-1.88482 2.3984,-1.29588 3.40148,-3.09481 4.30471,-4.43007 0.99554,-1.99533 1.57431,-3.35461 1.49404,-5.49299 -0.20284,-5.40684 -5.56053,-9.6374 -11.96606,-9.44893 -0.92327,0.027 -1.81711,0.14337 -2.67218,0.34364 l -1.40556,-6.91288 c 4.18255,-4.19405 8.3894,-9.32211 9.69316,-13.94593 1.21966,-6.09324 0.37438,-10.16016 -3.52844,-11.79857 -3.5483,-0.58638 -7.67202,3.59985 -9.96921,9.539 -1.51792,3.17978 0.78995,9.10039 1.81806,11.52923 -6.68582,5.78015 -13.39541,9.98158 -13.74544,19.66914 0.28405,7.56986 7.78449,13.49206 16.75142,13.22833 0.85685,-0.0249 2.27271,-0.0503 3.87625,-0.27383 l 1.08192,8.62187 c 0,0 0.52789,6.31387 -5.14256,7.33829 -2.25047,0.4063 -4.41852,0.8642 -3.83799,-0.41876 1.73468,-0.82673 3.74257,-2.12294 3.66654,-4.15005 -0.0947,-2.52304 -2.4222,-4.50235 -5.1974,-4.42088 -2.7763,0.0816 -4.95043,2.1931 -4.85567,4.71688 z m 8.74333,-38.9876 1.31155,6.45899 c -4.6851,1.37342 -7.98364,5.19713 -7.81852,9.59637 0.1868,4.97811 7.3278,7.09238 7.09231,5.9165 -2.7876,-0.92016 -3.84883,-2.01554 -3.94967,-4.70289 -0.11403,-3.03841 2.25091,-5.66275 5.55369,-6.48738 l 3.11976,15.37696 c -0.56636,0.14694 -1.17858,0.27596 -1.84324,0.38361 -9.67167,0.12035 -14.37777,-4.08648 -14.66181,-11.65558 -0.15887,-4.2402 5.57542,-9.30577 11.19542,-14.88578 z m 6.04423,25.9464 -3.11013,-15.31735 c 0.3857,-0.0614 0.7833,-0.1022 1.18863,-0.11285 4.26961,-0.12605 7.84143,2.69482 7.97671,6.29862 0.0233,2.90225 0.0216,7.22552 -6.05512,9.13233 z m -6.60186,-32.24768 c -1.92855,-4.90906 -0.4462,-7.42733 0.50502,-9.35807 2.24834,-4.55803 4.3132,-6.25199 6.42367,-7.77212 2.8504,0.84884 1.829,7.52972 1.40618,7.54153 -1.1787,3.9583 -5.81842,7.21394 -8.33494,9.58867 z"
       inkscape:connector-curvature="0"
       style="clip-rule:evenodd;display:inline;fill:#000000;fill-rule:evenodd;stroke:none;stroke-width:0.138542"
       id="path11-7" />
    <path
       d="m 867.44282,251.78696 -1.0588,-0.0939 -2.7066,30.53809 c -0.6054,-0.3952 -1.6456,-0.70076 -2.6197,-0.78713 -3.4733,-0.30785 -7.57906,2.18835 -7.84556,5.19554 -0.1838,2.07546 1.71276,3.31074 3.66126,3.48342 4.0237,0.35663 7.9989,-2.10847 8.3891,-6.51344 l 1.8846,-21.26227 c 4.3186,1.36458 7.3192,5.55784 6.8838,10.47105 -0.3003,3.3884 -2.3527,6.79216 -3.4567,8.6581 l 1.1012,0.0975 c 2.3222,-3.08121 4.1586,-6.46151 4.4738,-10.01936 0.3529,-3.98136 -2.2343,-7.54033 -4.6193,-10.01419 -2.3846,-2.47374 -4.4475,-5.68748 -4.0872,-9.75356 z"
       style="font-style:normal;font-variant:normal;font-weight:normal;font-stretch:normal;font-size:45px;line-height:1.2;font-family:Lavi;-inkscape-font-specification:Lavi;text-align:center;letter-spacing:0px;word-spacing:0px;text-anchor:middle;fill:#000000;fill-opacity:1;stroke:#000000;stroke-width:0.5;stroke-miterlimit:4;stroke-dasharray:none;stroke-opacity:1;"
       id="path44-7-5-6" />
    <path
       id="path46-3-5"
       style="font-style:normal;font-variant:normal;font-weight:normal;font-stretch:normal;font-size:45px;line-height:1.2;font-family:Lavi;-inkscape-font-specification:Lavi;text-align:center;letter-spacing:0px;word-spacing:0px;text-anchor:middle;fill:#000000;fill-opacity:1;stroke:#000000;stroke-width:0.5;stroke-miterlimit:4;stroke-dasharray:none;stroke-opacity:1;"
       d="m 944.83322,290.08712 1.43255,-25.29947 -20.61273,2.21295 -1.36752,24.14772 c -0.50308,-0.39137 -1.36039,-0.71262 -2.15949,-0.8255 -2.84902,-0.40241 -6.16135,1.81205 -6.32103,4.63193 -0.11014,1.94614 1.46659,3.16967 3.06469,3.3954 3.30066,0.46622 6.50653,-1.72324 6.74039,-5.85377 l 1.12471,-19.85835 17.79266,-1.89059 -1.01879,17.9916 c -0.50316,-0.39133 -1.36039,-0.71261 -2.15964,-0.82546 -2.84887,-0.40241 -6.16129,1.81204 -6.32089,4.63191 -0.11014,1.94611 1.46643,3.16969 3.06463,3.39544 3.30058,0.46619 6.50642,-1.72325 6.74046,-5.85381 z" />
    <path
       d="m 863.25007,180.81942 1.43255,-25.29947 -20.61273,2.21295 -1.36752,24.14772 c -0.50308,-0.39137 -1.36039,-0.71262 -2.15949,-0.8255 -2.84902,-0.40241 -6.16135,1.81205 -6.32103,4.63193 -0.11014,1.94614 1.46659,3.16967 3.06469,3.3954 3.30066,0.46622 6.50653,-1.72324 6.74039,-5.85377 l 1.12471,-19.85835 17.79266,-1.89059 -1.01879,17.9916 c -0.50316,-0.39133 -1.36039,-0.71261 -2.15964,-0.82546 -2.84887,-0.40241 -6.16129,1.81204 -6.32089,4.63191 -0.11014,1.94611 1.46643,3.16969 3.06463,3.39544 3.30058,0.46619 6.50642,-1.72325 6.74046,-5.85381 z"
       style="font-style:normal;font-variant:normal;font-weight:normal;font-stretch:normal;font-size:45px;line-height:1.2;font-family:Lavi;-inkscape-font-specification:Lavi;text-align:center;letter-spacing:0px;word-spacing:0px;text-anchor:middle;fill:#000000;fill-opacity:1;stroke:#000000;stroke-width:0.5;stroke-miterlimit:4;stroke-dasharray:none;stroke-opacity:1;"
       id="path46-3" />
    <path
       id="path44-7-5"
       style="font-style:normal;font-variant:normal;font-weight:normal;font-stretch:normal;font-size:45px;line-height:1.2;font-family:Lavi;-inkscape-font-specification:Lavi;text-align:center;letter-spacing:0px;word-spacing:0px;text-anchor:middle;fill:#000000;fill-opacity:1;stroke:#000000;stroke-width:0.5;stroke-miterlimit:4;stroke-dasharray:none;stroke-opacity:1;"
       d="m 977.69881,154.87962 -1.0588,-0.0939 -2.7066,30.53809 c -0.6054,-0.3952 -1.6456,-0.70076 -2.6197,-0.78713 -3.4733,-0.30785 -7.5791,2.18835 -7.8456,5.19554 -0.1838,2.07546 1.7128,3.31074 3.6613,3.48342 4.0237,0.35663 7.9989,-2.10847 8.3891,-6.51344 l 1.8846,-21.26227 c 4.3186,1.36458 7.3192,5.55784 6.8838,10.47105 -0.3003,3.3884 -2.3527,6.79216 -3.4567,8.6581 l 1.1012,0.0975 c 2.3222,-3.08121 4.1586,-6.46151 4.4738,-10.01936 0.3529,-3.98136 -2.2343,-7.54033 -4.6193,-10.01419 -2.3846,-2.47374 -4.4475,-5.68748 -4.0872,-9.75356 z" />
    <path
       id="path46"
       style="font-style:normal;font-variant:normal;font-weight:normal;font-stretch:normal;font-size:45px;line-height:1.2;font-family:Lavi;-inkscape-font-specification:Lavi;text-align:center;letter-spacing:0px;word-spacing:0px;text-anchor:middle;fill:#000000;fill-opacity:1;stroke:#000000;stroke-width:0.5;stroke-miterlimit:4;stroke-dasharray:none;stroke-opacity:1;"
       d="m 1043.226,240.93061 6.7692,-26.06469 -21.9412,-1.99287 -6.4611,24.87807 c -0.4426,-0.51273 -1.269,-1.02631 -2.0782,-1.31058 -2.8849,-1.0135 -6.7984,0.60328 -7.5529,3.50845 -0.5207,2.00499 0.8673,3.60883 2.4855,4.17736 3.3423,1.17417 7.1395,-0.43876 8.2447,-4.69422 l 5.3135,-20.45896 18.9353,1.74064 -4.8139,18.53579 c -0.4427,-0.51274 -1.269,-1.0263 -2.0783,-1.31058 -2.8847,-1.01349 -6.7983,0.60328 -7.5527,3.50845 -0.5207,2.00499 0.867,3.60883 2.4854,4.17738 3.3421,1.17415 7.1394,-0.43878 8.2447,-4.69424 z" />
    <path
       id="path44"
       style="font-style:normal;font-variant:normal;font-weight:normal;font-stretch:normal;font-size:45px;line-height:1.2;font-family:Lavi;-inkscape-font-specification:Lavi;text-align:center;letter-spacing:0px;word-spacing:0px;text-anchor:middle;fill:#000000;fill-opacity:1;stroke:#000000;stroke-width:0.5;stroke-miterlimit:4;stroke-dasharray:none;stroke-opacity:1;"
       d="m 913.37793,149.3325 -1.12498,0.006 0.18516,32.44447 c -0.67705,-0.35614 -1.80332,-0.57472 -2.83829,-0.56881 -3.68994,0.0211 -7.76768,3.05937 -7.74944,6.25432 0.0126,2.20497 2.13396,3.31788 4.20394,3.30606 4.27493,-0.0244 8.21791,-3.01694 8.1912,-7.69687 l -0.12891,-22.5892 c 4.68583,1.00828 8.2644,5.12792 8.29419,10.34784 0.0205,3.59994 -1.80286,7.39041 -2.78103,9.46603 l 1.16998,-0.007 c 2.14019,-3.47727 3.73886,-7.22145 3.71728,-11.00139 -0.0241,-4.22992 -3.10412,-7.72241 -5.86268,-10.09171 -2.75858,-2.36929 -5.25176,-5.55012 -5.27642,-9.87005 z" />
    <path
       sodipodi:nodetypes="cscsscsccc"
       inkscape:connector-curvature="0"
       id="path4394-0"
       d="m 1113.2744,299.96481 c 0,0 3.063,-27.90595 -7.6203,-31.63419 -10.683,-3.7287 -32.8407,17.06726 -32.8407,17.06726 0,0 -4.2328,-35.76702 -33.0758,-39.94975 -28.8426,-4.18265 -50.06515,23.26878 -30.3165,23.73344 19.7488,0.46469 56.2297,-14.41714 53.5208,44.24271 30.2691,-35.37 30.9702,-30.37823 35.0639,-28.35596 4.0941,2.02189 7.6203,31.63418 8.1122,40.77952 20.8668,-26.16134 35.3887,-43.19442 63.4331,2.60979 -8.928,-28.53739 -32.8004,-52.752 -56.2767,-28.49282 z"
       style="display:inline;fill:#ffffff;fill-rule:evenodd;stroke:none;stroke-width:0.999994px;stroke-linecap:butt;stroke-linejoin:miter;stroke-opacity:1" />
  </g>
  <g
     inkscape:groupmode="layer"
     id="layer1"
     inkscape:label="txt">
    <text
       inkscape:label="pepperA"
       id="text4246-3-5-0"
       y="243.31454"
       x="920.48785"
       style="font-style:normal;font-variant:normal;font-weight:normal;font-stretch:normal;line-height:0%;font-family:'小赖字体 SC';-inkscape-font-specification:'小赖字体 SC';text-align:center;letter-spacing:0px;word-spacing:0px;text-anchor:middle;fill:#000000;fill-opacity:1;stroke:none"
       xml:space="preserve"><tspan
         id="tspan854"
         y="243.31454"
         x="926.33258"
         style="font-style:normal;font-variant:normal;font-weight:normal;font-stretch:normal;font-size:45px;line-height:1.2;font-family:'小赖字体 SC';-inkscape-font-specification:'小赖字体 SC'"
         sodipodi:role="line">啦啦啦 ! </tspan></text>
    <text
       inkscape:label="pepperB"
       xml:space="preserve"
       style="font-style:normal;font-variant:normal;font-weight:normal;font-stretch:normal;font-size:18.2163px;line-height:0%;font-family:'小赖字体 SC';-inkscape-font-specification:'小赖字体 SC';text-align:center;letter-spacing:0px;word-spacing:0px;text-anchor:middle;fill:#000000;fill-opacity:1;stroke:none;stroke-width:1"
       x="299.1268"
       y="1969.3291"
       id="text4178-1"><tspan
         id="tspan4239-3"
         sodipodi:role="line"
         style="font-style:normal;font-variant:normal;font-weight:normal;font-stretch:normal;font-size:61.7484px;line-height:1.25;font-family:'小赖字体 SC';-inkscape-font-specification:'小赖字体 SC';stroke-width:1"
         x="299.1268"
         y="1969.3291">这</tspan></text>
    <text
       inkscape:label="pepperC"
       xml:space="preserve"
       style="font-style:normal;font-variant:normal;font-weight:normal;font-stretch:normal;font-size:47.4952px;line-height:0%;font-family:'小赖字体 SC';-inkscape-font-specification:'小赖字体 SC';text-align:center;letter-spacing:0px;word-spacing:0px;text-anchor:middle;fill:#000000;fill-opacity:1;stroke:none;stroke-width:1"
       x="447.29425"
       y="2064.4534"
       id="text4178"><tspan
         sodipodi:role="line"
         style="font-style:normal;font-variant:normal;font-weight:normal;font-stretch:normal;font-size:47.4952px;line-height:1.25;font-family:'小赖字体 SC';-inkscape-font-specification:'小赖字体 SC';stroke-width:1"
         x="447.29425"
         y="2064.4534"
         id="tspan109">...是我的杰作！</tspan></text>
    <text
       inkscape:label="pepperD"
       id="text4246-3-2"
       y="1094.7904"
       x="982.17487"
       style="font-style:normal;font-variant:normal;font-weight:normal;font-stretch:normal;line-height:0%;font-family:'小赖字体 SC';-inkscape-font-specification:'小赖字体 SC';text-align:center;letter-spacing:0px;word-spacing:0px;text-anchor:middle;fill:#000000;fill-opacity:1;stroke:none"
       xml:space="preserve"><tspan
         y="1094.7904"
         x="982.17487"
         style="font-style:normal;font-variant:normal;font-weight:normal;font-stretch:normal;font-size:45px;line-height:1.25;font-family:'小赖字体 SC';-inkscape-font-specification:'小赖字体 SC'"
         sodipodi:role="line"
         id="tspan176">这是一个非常复杂的</tspan><tspan
         id="tspan118"
         y="1151.0404"
         x="982.17487"
         style="font-style:normal;font-variant:normal;font-weight:normal;font-stretch:normal;font-size:45px;line-height:1.25;font-family:'小赖字体 SC';-inkscape-font-specification:'小赖字体 SC'"
         sodipodi:role="line">情景加载咒语，它可以</tspan><tspan
         id="tspan124"
         y="1207.2904"
         x="982.17487"
         style="font-style:normal;font-variant:normal;font-weight:normal;font-stretch:normal;font-size:45px;line-height:1.25;font-family:'小赖字体 SC';-inkscape-font-specification:'小赖字体 SC'"
         sodipodi:role="line">显示敌我双方士兵的</tspan><tspan
         id="tspan126"
         y="1263.5404"
         x="982.17487"
         style="font-style:normal;font-variant:normal;font-weight:normal;font-stretch:normal;font-size:45px;line-height:1.25;font-family:'小赖字体 SC';-inkscape-font-specification:'小赖字体 SC'"
         sodipodi:role="line">剩余生命值。</tspan></text>
    <text
       inkscape:label="scoreA"
       xml:space="preserve"
       style="font-style:normal;font-variant:normal;font-weight:normal;font-stretch:normal;line-height:0%;font-family:'小赖字体 SC';-inkscape-font-specification:'小赖字体 SC';letter-spacing:3.03024px;word-spacing:0px;opacity:0.801401;fill:#fff4b7;fill-opacity:1;stroke:#aa7640;stroke-width:0.647169;stroke-miterlimit:4;stroke-dasharray:none;stroke-opacity:1;filter:url(#filter4375-4-1-1-1-9-5-8-8-3-3-3-6-1-6);"
       x="787.65729"
       y="1584.5073"
       id="text4580-6-0-0-3-3-8"
       transform="matrix(2.0001217,0.03992834,-0.03002348,1.9644063,-221.92656,-1785.196)"><tspan
         sodipodi:role="line"
         id="tspan4582-1-1-0-6-9-9"
         x="787.65729"
         y="1584.5073"
         style="font-style:normal;font-variant:normal;font-weight:normal;font-stretch:normal;font-size:64.9472px;line-height:1.25;font-family:'小赖字体 SC';-inkscape-font-specification:'小赖字体 SC';fill:#fff4b7;fill-opacity:1;stroke:#aa7640;stroke-width:0.647169;stroke-miterlimit:4;stroke-dasharray:none;stroke-opacity:1;">33</tspan></text>
    <text
       inkscape:label="pepperE"
       xml:space="preserve"
       style="font-style:normal;font-variant:normal;font-weight:normal;font-stretch:normal;line-height:0%;font-family:'小赖字体 SC';-inkscape-font-specification:'小赖字体 SC';text-align:center;letter-spacing:0px;word-spacing:0px;text-anchor:middle;fill:#000000;fill-opacity:1;stroke:none"
       x="2037.9485"
       y="1068.7416"
       id="text4246-3-2-2"><tspan
         id="tspan134"
         sodipodi:role="line"
         style="font-style:normal;font-variant:normal;font-weight:normal;font-stretch:normal;font-size:45px;line-height:1.25;font-family:'小赖字体 SC';-inkscape-font-specification:'小赖字体 SC'"
         x="2037.9485"
         y="1068.7416">当士兵的剩余生命值为0时，</tspan><tspan
         id="tspan138"
         sodipodi:role="line"
         style="font-style:normal;font-variant:normal;font-weight:normal;font-stretch:normal;font-size:45px;line-height:1.25;font-family:'小赖字体 SC';-inkscape-font-specification:'小赖字体 SC'"
         x="2037.9485"
         y="1124.9916">他就得退出战场直到战争结束。</tspan></text>
    <text
       inkscape:label="pepperF"
       id="text4246-3-2-2-9"
       y="1223.5334"
       x="2029.6188"
       style="font-style:normal;font-variant:normal;font-weight:normal;font-stretch:normal;line-height:0%;font-family:'小赖字体 SC';-inkscape-font-specification:'小赖字体 SC';text-align:center;letter-spacing:0px;word-spacing:0px;text-anchor:middle;fill:#000000;fill-opacity:1;stroke:none"
       xml:space="preserve"><tspan
         y="1223.5334"
         x="2029.6188"
         style="font-style:normal;font-variant:normal;font-weight:normal;font-stretch:normal;font-size:45px;line-height:1.25;font-family:'小赖字体 SC';-inkscape-font-specification:'小赖字体 SC'"
         sodipodi:role="line"
         id="tspan200">首先清除掉所有对手的</tspan><tspan
         id="tspan144"
         y="1279.7834"
         x="2029.6188"
         style="font-style:normal;font-variant:normal;font-weight:normal;font-stretch:normal;font-size:45px;line-height:1.25;font-family:'小赖字体 SC';-inkscape-font-specification:'小赖字体 SC'"
         sodipodi:role="line">一方即为获胜方！</tspan></text>
    <text
       inkscape:label="pepperG"
       xml:space="preserve"
       style="font-style:normal;font-variant:normal;font-weight:normal;font-stretch:normal;line-height:0%;font-family:'小赖字体 SC';-inkscape-font-specification:'小赖字体 SC';text-align:center;letter-spacing:0px;word-spacing:0px;text-anchor:middle;fill:#000000;fill-opacity:1;stroke:none"
       x="2130.1501"
       y="1380.8871"
       id="text4246-3-2-2-9-6"><tspan
         id="tspan371-1"
         sodipodi:role="line"
         style="font-style:normal;font-variant:normal;font-weight:normal;font-stretch:normal;font-size:45px;line-height:1.25;font-family:'小赖字体 SC';-inkscape-font-specification:'小赖字体 SC'"
         x="2130.1501"
         y="1380.8871">简单吧！</tspan></text>
    <text
       inkscape:label="scoreB"
       xml:space="preserve"
       style="font-style:normal;font-variant:normal;font-weight:normal;font-stretch:normal;line-height:0%;font-family:'小赖字体 SC';-inkscape-font-specification:'小赖字体 SC';letter-spacing:2.67495px;word-spacing:0px;fill:#b5ffe1;fill-opacity:1;stroke:#316983;stroke-width:1.28309;stroke-miterlimit:4;stroke-dasharray:none;stroke-opacity:1;filter:url(#filter4375-4-1-1-1-9-5-8-8-3-3-7-4-1);"
       x="787.65729"
       y="1584.5073"
       id="text4580-6-0-0-3-36-4-4"
       transform="matrix(0.95527462,-0.04371269,-0.01433947,1.0473354,1179.3925,26.934268)"><tspan
         sodipodi:role="line"
         id="tspan4582-1-1-0-6-1-3-8"
         x="787.65729"
         y="1584.5073"
         style="font-style:normal;font-variant:normal;font-weight:normal;font-stretch:normal;font-size:69.5991px;line-height:1.25;font-family:'小赖字体 SC';-inkscape-font-specification:'小赖字体 SC';fill:#b5ffe1;fill-opacity:1;stroke:#316983;stroke-width:1.28309;stroke-miterlimit:4;stroke-dasharray:none;stroke-opacity:1;">0</tspan></text>
    <text
       inkscape:label="warrior"
       id="text4246-3-7-7-6-7-2-9-6-1-4"
       y="1747.6428"
       x="1813.559"
       style="font-style:normal;font-variant:normal;font-weight:normal;font-stretch:normal;font-size:11.2438px;line-height:0%;font-family:'小赖字体 SC';-inkscape-font-specification:'小赖字体 SC';text-align:center;letter-spacing:0px;word-spacing:0px;text-anchor:middle;fill:#000000;fill-opacity:1;stroke:none;stroke-width:0.999999;"
       xml:space="preserve"
       transform="scale(1.0185461,0.98179161)"><tspan
         id="tspan1183-0"
         y="1747.6428"
         x="1813.559"
         style="font-style:normal;font-variant:normal;font-weight:normal;font-stretch:normal;font-size:42.1643px;line-height:1.2;font-family:'小赖字体 SC';-inkscape-font-specification:'小赖字体 SC';stroke-width:0.999999;"
         sodipodi:role="line">?</tspan></text>
    <text
       inkscape:label="pepperH"
       id="text4178-1-8"
       y="2412.4695"
       x="669.75519"
       style="font-style:normal;font-variant:normal;font-weight:normal;font-stretch:normal;font-size:53.3333px;line-height:0%;font-family:'小赖字体 SC';-inkscape-font-specification:'小赖字体 SC';text-align:center;letter-spacing:0px;word-spacing:0px;text-anchor:middle;fill:#000000;fill-opacity:1;stroke:none;stroke-width:1"
       xml:space="preserve"><tspan
         y="2412.4695"
         x="669.75519"
         style="font-style:normal;font-variant:normal;font-weight:normal;font-stretch:normal;font-size:53.3333px;line-height:1.25;font-family:'小赖字体 SC';-inkscape-font-specification:'小赖字体 SC';stroke-width:1"
         sodipodi:role="line"
         id="tspan208">是不是个</tspan><tspan
         id="tspan148"
         y="2479.1362"
         x="669.75519"
         style="font-style:normal;font-variant:normal;font-weight:normal;font-stretch:normal;font-size:53.3333px;line-height:1.25;font-family:'小赖字体 SC';-inkscape-font-specification:'小赖字体 SC';stroke-width:1"
         sodipodi:role="line">大魔咒？</tspan></text>
    <text
       inkscape:label="pepperI"
       id="text4246-7-6-1-7-6-3-5-6-4"
       y="2450.6804"
       x="1505.2825"
       style="font-style:normal;font-variant:normal;font-weight:normal;font-stretch:normal;line-height:0%;font-family:'小赖字体 SC';-inkscape-font-specification:'小赖字体 SC';text-align:center;letter-spacing:0px;word-spacing:0px;text-anchor:middle;display:inline;fill:#000000;fill-opacity:1;stroke:none"
       xml:space="preserve"><tspan
         id="tspan990"
         y="2450.6804"
         x="1505.2825"
         style="font-style:normal;font-variant:normal;font-weight:normal;font-stretch:normal;font-size:45px;line-height:1.25;font-family:'小赖字体 SC';-inkscape-font-specification:'小赖字体 SC'"
         sodipodi:role="line">不再有死亡！</tspan></text>
    <text
       inkscape:label="pepperJ"
       xml:space="preserve"
       style="font-style:normal;font-variant:normal;font-weight:normal;font-stretch:normal;line-height:0%;font-family:'小赖字体 SC';-inkscape-font-specification:'小赖字体 SC';text-align:center;letter-spacing:0px;word-spacing:0px;text-anchor:middle;display:inline;fill:#000000;fill-opacity:1;stroke:none"
       x="1625.8357"
       y="2548.791"
       id="text4246-7-6-1-7-6-3-5-6-4-2"><tspan
         sodipodi:role="line"
         style="font-style:normal;font-variant:normal;font-weight:normal;font-stretch:normal;font-size:45px;line-height:1.25;font-family:'小赖字体 SC';-inkscape-font-specification:'小赖字体 SC'"
         x="1625.8357"
         y="2548.791"
         id="tspan212">不再有伤兵！</tspan></text>
    <text
       inkscape:label="pepperK"
       id="text4246-7-6-1-7-6-3-5-6-4-2-7"
       y="2655.981"
       x="1776.1361"
       style="font-style:normal;font-variant:normal;font-weight:normal;font-stretch:normal;line-height:0%;font-family:'小赖字体 SC';-inkscape-font-specification:'小赖字体 SC';text-align:center;letter-spacing:0px;word-spacing:0px;text-anchor:middle;display:inline;fill:#000000;fill-opacity:1;stroke:none"
       xml:space="preserve"><tspan
         y="2655.981"
         x="1776.1361"
         style="font-style:normal;font-variant:normal;font-weight:normal;font-stretch:normal;font-size:45px;line-height:1.25;font-family:'小赖字体 SC';-inkscape-font-specification:'小赖字体 SC'"
         sodipodi:role="line"
         id="tspan225">这是对于战争的</tspan><tspan
         id="tspan156"
         y="2712.231"
         x="1776.1361"
         style="font-style:normal;font-variant:normal;font-weight:normal;font-stretch:normal;font-size:45px;line-height:1.25;font-family:'小赖字体 SC';-inkscape-font-specification:'小赖字体 SC'"
         sodipodi:role="line">一场伟大变革！</tspan></text>
  </g>
</svg>
