<?xml version="1.0" encoding="UTF-8" standalone="no"?>
<!-- Created with Inkscape (http://www.inkscape.org/) -->

<svg
   xmlns:dc="http://purl.org/dc/elements/1.1/"
   xmlns:cc="http://creativecommons.org/ns#"
   xmlns:rdf="http://www.w3.org/1999/02/22-rdf-syntax-ns#"
   xmlns:svg="http://www.w3.org/2000/svg"
   xmlns="http://www.w3.org/2000/svg"
   xmlns:xlink="http://www.w3.org/1999/xlink"
   xmlns:sodipodi="http://sodipodi.sourceforge.net/DTD/sodipodi-0.dtd"
   xmlns:inkscape="http://www.inkscape.org/namespaces/inkscape"
   id="svg2"
   version="1.1"
   inkscape:version="0.92.2 2405546, 2018-03-11"
   width="2481"
   height="3503"
   sodipodi:docname="E16P04.svg">
  <metadata
     id="metadata8">
    <rdf:RDF>
      <cc:Work
         rdf:about="">
        <dc:format>image/svg+xml</dc:format>
        <dc:type
           rdf:resource="http://purl.org/dc/dcmitype/StillImage" />
        <dc:title />
      </cc:Work>
    </rdf:RDF>
  </metadata>
  <defs
     id="defs6" />
  <sodipodi:namedview
     pagecolor="#ffffff"
     bordercolor="#666666"
     borderopacity="1"
     objecttolerance="10"
     gridtolerance="10"
     guidetolerance="10"
     inkscape:pageopacity="0"
     inkscape:pageshadow="2"
     inkscape:window-width="950"
     inkscape:window-height="1006"
     id="namedview4"
     showgrid="false"
     inkscape:zoom="0.34663207"
     inkscape:cx="1773.9455"
     inkscape:cy="2131.5543"
     inkscape:window-x="960"
     inkscape:window-y="41"
     inkscape:window-maximized="0"
     inkscape:current-layer="layer1" />
  <g
     inkscape:groupmode="layer"
     id="layer2"
     inkscape:label="artwork"
     sodipodi:insensitive="true">
    <image
       sodipodi:absref="/home/nightlock/peppercarrot/webcomics/ep16_The-Sage-of-the-Mountain/lang/kr/../gfx_Pepper-and-Carrot_by-David-Revoy_E16P04.png"
       xlink:href="../gfx_Pepper-and-Carrot_by-David-Revoy_E16P04.png"
       width="2481"
       height="3503"
       id="image10"
       x="0"
       y="0" />
  </g>
  <g
     inkscape:groupmode="layer"
     id="layer3"
     inkscape:label="speechbubbles">
    <path
       style="fill:#ffffff;stroke:none;stroke-width:0.90335929"
       d="m 229.6312,265.82928 c 7.41062,-58.82058 33.01077,-115.12036 187.28539,-122.68297 77.13735,-3.7813 225.82654,-5.38247 299.85157,22.09133 74.02506,27.47381 73.38595,84.02261 73.72279,106.29038 0.33685,22.26778 6.52372,77.46676 -69.50949,99.10547 -76.03319,21.63871 -234.28649,9.71717 -296.60268,10.55747 -124.63238,1.6806 -190.70544,-0.2414 -194.74758,-115.36168 z"
       id="path3270"
       inkscape:connector-curvature="0"
       sodipodi:nodetypes="csssssc" />
    <path
       style="color:#000000;display:inline;overflow:visible;visibility:visible;fill:#ffffff;fill-opacity:1;fill-rule:nonzero;stroke:none;stroke-width:0.85848981px;marker:none;enable-background:accumulate"
       d="m 390.62083,373.35194 c 32.07999,-35.69292 309.81171,-57.27084 383.37545,1.38816 61.40265,48.96186 37.44538,170.89433 -17.16253,198.97918 -54.60772,28.08494 -236.26781,24.82512 -315.88532,12.09217 -75.80681,-12.12357 -88.53605,-48.71706 -92.26491,-122.39782 -1.52189,-30.07198 9.85718,-54.36863 41.93731,-90.06169 z"
       id="path4040-4"
       inkscape:connector-curvature="0"
       sodipodi:nodetypes="zssssz" />
    <path
       style="color:#000000;display:inline;overflow:visible;visibility:visible;fill:#ffffff;fill-opacity:1;fill-rule:nonzero;stroke:none;stroke-width:1px;marker:none;enable-background:accumulate"
       d="M 548.56247,346.28345 C 818.67335,851.31918 962.4842,769.73858 1139.7545,716.83443 950.46167,803.3409 775.67489,874.14978 501.74228,369.42576 c -14.05374,-25.89419 46.82019,-23.14231 46.82019,-23.14231 z"
       id="path4008"
       inkscape:connector-curvature="0"
       sodipodi:nodetypes="ccsc" />
    <path
       style="color:#000000;display:inline;overflow:visible;visibility:visible;fill:#ffffff;fill-opacity:1;fill-rule:nonzero;stroke:none;stroke-width:0.77038258px;marker:none;enable-background:accumulate"
       d="m 859.77184,1080.2485 c -3.47968,-22.8318 5.79945,-83.4788 77.13312,-78.4843 71.33354,4.9944 82.93264,33.5341 84.67244,42.096 1.7398,8.562 16.8185,57.0797 -38.85653,69.9226 -55.67505,12.8429 -105.55057,-0.7136 -122.94903,-33.5343 z"
       id="path3525"
       inkscape:connector-curvature="0" />
    <path
       style="color:#000000;display:inline;overflow:visible;visibility:visible;fill:#ffffff;fill-opacity:1;fill-rule:nonzero;stroke:none;stroke-width:0.83180654px;marker:none;enable-background:accumulate"
       d="m 968.92621,1144.088 c -4.88214,-23.6786 8.13688,-86.575 108.22139,-81.3953 100.0842,5.1797 116.3581,34.778 118.7991,43.6575 2.4412,8.8795 23.5972,59.1967 -54.5174,72.516 -78.1145,13.3191 -148.09226,-0.7401 -172.50309,-34.7782 z"
       id="path3525-0"
       inkscape:connector-curvature="0" />
    <path
       style="color:#000000;display:inline;overflow:visible;visibility:visible;fill:#ffffff;fill-opacity:1;fill-rule:nonzero;stroke:none;stroke-width:0.97648668px;marker:none;enable-background:accumulate"
       d="m 926.42022,1263.3453 c 0.59322,-42.556 21.44965,-89.3744 97.08088,-113.1927 75.6315,-23.8184 227.4649,-8.9445 254.6897,-2.7575 34.3869,7.8146 123.7985,34.5714 148.5278,67.166 24.7295,32.5944 32.65,73.4501 22.1937,102.4485 -10.456,28.998 -48.4593,56.9339 -80.7903,65.6562 -32.3309,8.7224 -231.4538,13.4598 -268.115,4.5708 -36.6611,-8.8889 -96.544,-13.7892 -127.14279,-36.2642 -31.02125,-22.785 -47.03739,-45.0711 -46.44399,-87.6271 z"
       id="path3373"
       inkscape:connector-curvature="0"
       sodipodi:nodetypes="zsssssssz" />
    <path
       style="color:#000000;display:inline;overflow:visible;visibility:visible;fill:#ffffff;fill-opacity:1;fill-rule:nonzero;stroke:none;stroke-width:1px;marker:none;enable-background:accumulate"
       d="m 1353.1045,1486.1109 c -17.6743,6.4442 -35.9622,13.4942 -56.6916,8.7928 -5.9074,-1.4988 -12.0586,-3.5824 -17.8157,-7.536 -5.6534,-5.6714 -8.1342,-14.8796 -7.7374,-22.3553 -0.038,-11.0732 3.5645,-21.3765 -0.132,-33.3984 -2.8396,-8.7238 -9.889,-13.0983 -15.6943,-17.3851 -14.8818,-10.591 -30.3953,-18.9029 -44.5591,-32.1972 -16.4134,-13.8335 -33.2388,-29.725 -44.6315,-51.3879 -4.4162,-8.6329 -8.2604,-18.1551 -8.7808,-27.4678 -2.1762,-24.1255 6.2222,-46.2462 22.341,-52.6796 10.8776,-2.6518 26.1352,8.6451 30.8391,24.9803 2.5746,8.6101 0.6371,16.5032 -2.7594,21.9348 -4.4219,12.1322 -2.2192,29.1384 4.6177,43.565 5.515,11.975 19.9292,13.9114 28.768,21.8543 10.6917,14.3128 22.5926,18.8565 35.242,26.2872 5.7643,3.498 17.2268,13.0885 21.8547,19.5004 5.3367,10.6553 3.6397,23.8849 1.2988,32.7032 -2.2102,9.2491 -6.7566,13.924 -2.6636,25.5015 2.0954,8.2407 10.4347,11.3429 15.4067,14.2225 16.3541,6.7626 22.9447,11.3822 37.3062,7.063 1.3135,-0.5605 2.5522,-1.2752 3.7912,-1.9972 z"
       id="path4496"
       inkscape:connector-curvature="0"
       sodipodi:nodetypes="cccccccccccccccccccccc" />
    <path
       style="color:#000000;display:inline;overflow:visible;visibility:visible;fill:#ffffff;fill-opacity:1;fill-rule:nonzero;stroke:none;stroke-width:1px;marker:none;enable-background:accumulate"
       d="m 391.02755,1750.4783 c -7.87244,16.8439 -52.27414,18.2563 -68.61963,14.8325 32.94874,18.8431 31.80005,30.5506 -12.93504,32.3684 75.02151,33.9602 13.71494,28.8212 1.62265,37.4326 58.90577,11.7033 32.55073,26.2686 22.06346,40.7678 67.70636,0.4981 45.54916,23.7401 48.40285,42.2509 5.73985,-8.6861 33.00837,-35.1304 34.64912,-5.6864 44.78382,-28.0911 98.72475,-46.2366 103.00783,2.9231 18.04415,-24.731 36.03415,-35.1833 34.64909,-5.6866 44.70777,-38.364 84.8839,-24.5547 125.29811,-13.7116 10.61459,-11.5793 11.8514,-29.3682 46.19207,-25.1995 -4.81497,-11.4771 6.77989,-19.3663 32.9649,-24.0513 -34.79574,-6.933 -41.20847,-14.0841 23.39941,-21.7799 -49.16281,-0.7444 -95.00748,-2.2695 -37.3288,-28.5144 -18.0954,-0.6352 -61.02864,21.2643 -41.01147,-42.8249 -31.11606,20.5173 -64.31411,31.8413 -105.94744,-11.137 -19.70301,21.4711 -53.87743,32.0959 -68.745,5.2768 -5.3437,11.4334 -27.5015,15.7334 -46.31187,16.2548 -7.274,-4.5416 -14.77629,-10.7102 -22.60525,-18.7922 -12.79584,16.9699 -31.93697,28.4306 -68.74499,5.2769 z"
       id="path3549-3-7"
       inkscape:connector-curvature="0"
       sodipodi:nodetypes="cccccccccccccccccccc" />
    <path
       style="color:#000000;fill:#ffffff;fill-opacity:1;fill-rule:nonzero;stroke:none;stroke-width:1px;marker:none;visibility:visible;display:inline;overflow:visible;enable-background:accumulate"
       d="m 424.86372,1892.888 c 21.70076,-19.988 204.87984,-41.6839 269.26066,-0.4927 64.38085,41.1912 25.33019,90.6206 -11.60969,106.3481 -36.9398,15.7275 -145.64844,32.9529 -195.25329,19.4722 -49.60495,-13.4808 -88.24404,-33.6319 -90.76644,-74.893 -1.02952,-16.8404 6.66794,-30.4465 28.36876,-50.4346 z"
       id="path4040"
       inkscape:connector-curvature="0"
       sodipodi:nodetypes="zssssz" />
    <path
       style="fill:#ffffff;fill-rule:evenodd;stroke:none;stroke-width:1px;stroke-linecap:butt;stroke-linejoin:miter;stroke-opacity:1"
       d="m 1714.2654,2080.7017 c 84.2926,8.4181 101.7865,32.4194 119.9299,8.2333 13.6724,-32.3165 73.9597,-7.8033 80.1837,-16.9339 13.3752,-19.6213 -23.6159,-28.5877 -14.9153,-48.4748 8.7006,-19.887 29.8306,-43.5029 29.8306,-43.5029 l 16.1582,9.9435 c 0,0 -26.2419,26.5691 -24.999,37.7556 1.2429,11.1864 26.242,48.0074 3.869,56.708 -22.3729,8.7006 -76.8117,-7.6784 -88.6225,17.2796 -11.8107,24.9579 -83.1478,-13.4558 -121.4346,-21.0084 z"
       id="path4407"
       inkscape:connector-curvature="0"
       sodipodi:nodetypes="ccssccsszc" />
    <path
       style="color:#000000;display:inline;overflow:visible;visibility:visible;fill:#ffffff;fill-opacity:1;fill-rule:nonzero;stroke:none;stroke-width:1px;marker:none;enable-background:accumulate"
       d="m 666.6939,1912.014 c 38.36403,14.2827 84.86956,27.5154 96.07851,29.8219 -4.37169,-11.6312 -5.81209,-22.2337 -7.1164,-30.5082 20.64043,5.7806 115.57926,37.1569 135.10867,51.9928 -46.72733,-38.0638 -117.47092,-65.994 -151.73555,-73.3007 -0.59494,10.8648 0.83117,17.7165 0.34378,23.4081 -17.19324,-2.942 -71.86892,-22.6256 -71.86892,-22.6256 z"
       id="path5066"
       inkscape:connector-curvature="0"
       inkscape:transform-center-x="-112.42356"
       inkscape:transform-center-y="21.85935" />
    <path
       style="fill:#ffffff;stroke:none"
       d="m 408.82419,2342.1368 c 1.80037,-55.1279 70.15142,-63.2247 116.26321,-60.8217 38.33993,1.9981 185.78044,-11.9117 227.7988,38.4094 17.94243,21.4878 15.03561,77.5661 -9.90358,100.9098 -21.26724,19.9066 -59.92416,20.5191 -107.0349,26.7507 -58.49742,7.7377 -142.35537,-5.8877 -188.30051,-15.8346 -21.62769,-4.6823 -40.62347,-34.2859 -38.82302,-89.4136 z"
       id="path3100"
       inkscape:connector-curvature="0"
       sodipodi:nodetypes="zsssssz" />
    <path
       style="color:#000000;display:inline;overflow:visible;visibility:visible;fill:#ffffff;fill-opacity:1;fill-rule:nonzero;stroke:none;stroke-width:0.89118844px;marker:none;enable-background:accumulate"
       d="m 560.02456,2540.3406 c -2.77939,-119.0514 112.2772,-106.2913 194.18224,-115.5767 44.69999,-5.0676 206.92124,8.198 222.34019,113.818 8.88163,60.8402 -46.18965,112.7882 -68.00795,121.9235 -21.81816,9.1352 -127.24538,20.9828 -161.17909,18.1991 -33.93357,-2.7838 -190.62159,21.601 -187.33539,-138.3639 z"
       id="path4974"
       inkscape:connector-curvature="0"
       sodipodi:nodetypes="cssssc" />
    <path
       style="fill:#ffffff;fill-rule:evenodd;stroke:none;stroke-width:1px;stroke-linecap:butt;stroke-linejoin:miter;stroke-opacity:1"
       d="m 1237.025,3033.6211 c -25.9077,-74.9353 -135.8732,-262.1385 -253.0276,-244.8772 -71.26981,10.5007 -133.59485,24.8303 -156.2354,-60.7422 -5.53435,-9.3115 -79.49392,-55.5178 -68.47418,-45.6614 73.55047,108.3097 57.38616,155.8485 221.82078,126.0514 132.8264,-23.6523 255.9164,225.2294 255.9164,225.2294 z"
       id="path4652"
       inkscape:connector-curvature="0"
       sodipodi:nodetypes="cscccc" />
    <path
       style="fill:#ffffff;stroke:none"
       d="m 690.56515,2688.8923 c 2.2706,-72.9761 88.47785,-83.6944 146.63606,-80.5134 48.35594,2.6451 234.31419,-15.7682 287.30949,50.8448 22.6298,28.4448 18.9636,102.679 -12.4908,133.5804 -26.8231,26.3517 -75.5788,27.1624 -134.99695,35.4116 -73.77942,10.2428 -179.54475,-7.7939 -237.49259,-20.9613 -27.27787,-6.1982 -51.23613,-45.3862 -48.96521,-118.3621 z"
       id="path3100-7"
       inkscape:connector-curvature="0"
       sodipodi:nodetypes="zsssssz" />
    <path
       style="color:#000000;display:inline;overflow:visible;visibility:visible;fill:#ffffff;fill-opacity:1;fill-rule:nonzero;stroke:none;stroke-width:0.8559249px;marker:none;enable-background:accumulate"
       d="m 553.66477,579.84113 c 23.5468,-24.99351 227.4026,-40.10316 281.39857,0.97204 45.06971,34.2849 27.48502,119.66652 -12.59733,139.33257 -40.08221,19.66611 -173.4212,17.38347 -231.86065,8.46738 -55.6424,-8.48937 -64.9857,-34.11348 -67.72269,-85.70747 -1.11707,-21.05751 7.2352,-38.07093 30.7821,-63.06452 z"
       id="path4040-4-3"
       inkscape:connector-curvature="0"
       sodipodi:nodetypes="zssssz" />
  </g>
  <g
     inkscape:groupmode="layer"
     id="layer1"
     inkscape:label="txt">
    <path
       style="color:#000000;display:inline;overflow:visible;visibility:visible;fill:#ffffff;fill-opacity:1;fill-rule:nonzero;stroke:none;stroke-width:1px;marker:none;enable-background:accumulate"
       d="m 1859.9208,2026.0859 c -20.4432,-14.3102 -27.5983,-27.5982 -25.5539,-35.7755 2.0443,-8.1772 20.4431,-50.0857 42.9305,-55.1965 22.4875,-5.1108 80.7504,-11.2437 94.0385,-6.1329 13.2881,5.1107 51.1079,38.842 51.1079,56.2186 0,17.3767 -7.1551,51.1079 -27.5983,61.3294 -20.4431,10.2216 -110.393,16.3546 -134.9247,-20.4431 z"
       id="path3349"
       inkscape:connector-curvature="0" />
    <path
       style="fill:#ffffff;fill-rule:evenodd;stroke:none;stroke-width:0.94920307"
       d="m 1605.7898,3119.4738 c 20.5611,65.5224 28.6987,60.4909 32.3553,30.0122 5.6961,11.0211 6.5697,43.3168 23.6699,4.027 9.9608,28.5744 18.2956,24.9438 25.2978,-5.0742 17.2522,54.1529 28.4993,22.9105 38.2224,10.8477 23.8481,30.3142 90.3287,35.0321 119.8944,-3.9544 6.0109,13.9277 14.5132,33.8757 20.4168,4.9428 8.4476,12.1791 20.0347,-4.7723 33.7354,-41.3384 -2.0243,23.7947 -11.4945,64.3406 7.4848,40.8797 1.9742,17.0096 0.01,39.5072 40.4493,2.9427 -12.1905,48.4386 22.0518,-0.8275 55.2241,-47.842 -21.0344,41.0085 -49.7094,91.4525 -14.3931,75.0138 -20.1392,34.3511 -20.8053,57.2402 37.575,45.3739 -38.2909,21.855 -67.5701,45.0556 -26.7641,78.7237 -25.6715,-0.9324 -32.0587,9.4602 -4.0722,40.039 -39.7977,-20.2556 -43.1081,-10.9393 -33.1746,9.1108 -8.1922,0.3254 -22.4322,-16.6353 -21.0183,11.1477 -22.2408,-17.5396 -52.6185,-55.3389 -49.8222,-10.5391 -22.964,-34.414 -27.0859,-22.0955 -30.0045,-6.7926 -40.8755,-52.0175 -35.8628,-20.9672 -43.9148,-13.5668 -11.7714,-19.2382 -11.6465,-3.4666 -9.6763,17.7351 -11.2197,-22.4795 -21.5166,-31.1547 -29.4485,-4.4474 -7.0485,-12.368 -13.9044,-29.8866 -22.3858,-3.9334 -9.7408,-14.182 -20.1202,-19.8309 -33.2604,11.4096 -5.2246,-18.8971 -13.095,-32.508 -40.2774,-7.54 -4.612,-40.5341 -27.7165,-34.0262 -56.8419,-12.2024 1.1561,-23.8104 -0.9479,-39.4578 -31.506,16.147 6.493,-24.3123 13.865,-49.94 -4.4033,-37.1984 11.8993,-46.5166 -30.693,-5.3246 -55.6462,7.476 28.7063,-39.0106 70.5981,-86.403 37.3378,-86.0215 23.1606,-27.001 25.7167,-40.5096 6.6404,-39.8521 1.6556,-8.3529 25.0109,-23.6559 -1.0666,-23.1263 13.8972,-11.3569 34.1705,-8.0504 29.3728,-62.3997 z"
       id="path4656"
       inkscape:connector-curvature="0"
       sodipodi:nodetypes="ccccccccccccccccccccccccccccccccc" />
    <path
       style="fill:#ffffff;fill-rule:evenodd;stroke:none;stroke-width:1px;stroke-linecap:butt;stroke-linejoin:miter;stroke-opacity:1"
       d="m 1395.9187,3167.1846 119.1853,69.1782 -1.1569,-33.8487 82.9076,45.0833 5.0953,-29.1891 -103.505,-45.5434 0.025,38.633 z"
       id="path4667"
       inkscape:connector-curvature="0"
       inkscape:transform-center-x="75.322047"
       inkscape:transform-center-y="-6.237049" />
    <text
       id="text79"
       y="223.82155"
       x="515.15405"
       style="font-style:normal;font-variant:normal;font-weight:normal;font-stretch:normal;font-size:15.25171089px;line-height:1;font-family:'Nanum Pen Script OTF';-inkscape-font-specification:'Nanum Pen Script OTF';text-align:center;letter-spacing:0px;word-spacing:0px;text-anchor:middle;fill:#000000;fill-opacity:1;stroke:none;stroke-width:1.27097595"
       xml:space="preserve"><tspan
         y="223.82155"
         x="515.15405"
         style="font-style:normal;font-variant:normal;font-weight:normal;font-stretch:normal;font-size:57.19391632px;line-height:1;font-family:'Nanum Pen Script OTF';-inkscape-font-specification:'Nanum Pen Script OTF';stroke-width:1.27097595"
         sodipodi:role="line"
         id="tspan938">이제 더 이상 어리지도 않고</tspan><tspan
         y="281.01547"
         x="515.15405"
         style="font-style:normal;font-variant:normal;font-weight:normal;font-stretch:normal;font-size:57.19391632px;line-height:1;font-family:'Nanum Pen Script OTF';-inkscape-font-specification:'Nanum Pen Script OTF';stroke-width:1.27097595"
         sodipodi:role="line"
         id="tspan953">마침 깨달음을 얻을 때가</tspan><tspan
         y="338.20938"
         x="515.15405"
         style="font-style:normal;font-variant:normal;font-weight:normal;font-stretch:normal;font-size:57.19391632px;line-height:1;font-family:'Nanum Pen Script OTF';-inkscape-font-specification:'Nanum Pen Script OTF';stroke-width:1.27097595"
         sodipodi:role="line"
         id="tspan955">왔다.</tspan></text>
    <text
       id="text85"
       y="427.81958"
       x="572.39606"
       style="font-style:normal;font-variant:normal;font-weight:normal;font-stretch:normal;font-size:15.67569351px;line-height:1;font-family:'Nanum Pen Script OTF';-inkscape-font-specification:'Nanum Pen Script OTF';text-align:center;letter-spacing:0px;word-spacing:0px;text-anchor:middle;fill:#000000;fill-opacity:1;stroke:none;stroke-width:1.30630779"
       xml:space="preserve"><tspan
         id="tspan83"
         y="427.81958"
         x="572.39606"
         style="font-style:normal;font-variant:normal;font-weight:normal;font-stretch:normal;font-size:58.78385544px;line-height:1;font-family:'Nanum Pen Script OTF';-inkscape-font-specification:'Nanum Pen Script OTF';stroke-width:1.30630779"
         sodipodi:role="line">             와</tspan><tspan
         y="486.60342"
         x="572.39606"
         style="font-style:normal;font-variant:normal;font-weight:normal;font-stretch:normal;font-size:58.78385544px;line-height:1;font-family:'Nanum Pen Script OTF';-inkscape-font-specification:'Nanum Pen Script OTF';stroke-width:1.30630779"
         sodipodi:role="line"
         id="tspan926">대담하는 것을</tspan><tspan
         y="545.38727"
         x="572.39606"
         style="font-style:normal;font-variant:normal;font-weight:normal;font-stretch:normal;font-size:58.78385544px;line-height:1;font-family:'Nanum Pen Script OTF';-inkscape-font-specification:'Nanum Pen Script OTF';stroke-width:1.30630779"
         sodipodi:role="line"
         id="tspan930">추천한다.</tspan></text>
    <text
       id="text89"
       y="1082.1569"
       x="944.09338"
       style="font-style:normal;font-variant:normal;font-weight:normal;font-stretch:normal;font-size:15.67603683px;line-height:1;font-family:'Nanum Pen Script OTF';-inkscape-font-specification:'Nanum Pen Script OTF';text-align:center;letter-spacing:0px;word-spacing:0px;text-anchor:middle;fill:#000000;fill-opacity:1;stroke:none;stroke-width:1.3063364"
       xml:space="preserve"><tspan
         id="tspan87"
         y="1082.1569"
         x="944.09338"
         style="font-style:normal;font-variant:normal;font-weight:normal;font-stretch:normal;font-size:58.78513718px;line-height:1;font-family:'Nanum Pen Script OTF';-inkscape-font-specification:'Nanum Pen Script OTF';stroke-width:1.3063364"
         sodipodi:role="line">허허!</tspan></text>
    <text
       id="text93"
       y="1142.4359"
       x="1083.4854"
       style="font-style:normal;font-variant:normal;font-weight:normal;font-stretch:normal;font-size:15.13716888px;line-height:1;font-family:'Nanum Pen Script OTF';-inkscape-font-specification:'Nanum Pen Script OTF';text-align:center;letter-spacing:0px;word-spacing:0px;text-anchor:middle;fill:#000000;fill-opacity:1;stroke:none;stroke-width:1.26143074"
       xml:space="preserve"><tspan
         id="tspan91"
         y="1142.4359"
         x="1083.4854"
         style="font-style:normal;font-variant:normal;font-weight:normal;font-stretch:normal;font-size:56.76438141px;line-height:1;font-family:'Nanum Pen Script OTF';-inkscape-font-specification:'Nanum Pen Script OTF';stroke-width:1.26143074"
         sodipodi:role="line">현자라?</tspan></text>
    <text
       id="text101"
       y="1238.2372"
       x="1186.522"
       style="font-style:normal;font-variant:normal;font-weight:normal;font-stretch:normal;font-size:15.19422817px;line-height:1;font-family:'Nanum Pen Script OTF';-inkscape-font-specification:'Nanum Pen Script OTF';text-align:center;letter-spacing:0px;word-spacing:0px;text-anchor:middle;fill:#000000;fill-opacity:1;stroke:none;stroke-width:1.26618564"
       xml:space="preserve"><tspan
         id="tspan95"
         y="1238.2372"
         x="1186.522"
         style="font-style:normal;font-variant:normal;font-weight:normal;font-stretch:normal;font-size:56.97835541px;line-height:1;font-family:'Nanum Pen Script OTF';-inkscape-font-specification:'Nanum Pen Script OTF';stroke-width:1.26618564"
         sodipodi:role="line">그분의 가르침을 이해하기엔</tspan><tspan
         id="tspan97"
         y="1295.2156"
         x="1186.522"
         style="font-style:normal;font-variant:normal;font-weight:normal;font-stretch:normal;font-size:56.97835541px;line-height:1;font-family:'Nanum Pen Script OTF';-inkscape-font-specification:'Nanum Pen Script OTF';stroke-width:1.26618564"
         sodipodi:role="line">너무 어리다고</tspan><tspan
         id="tspan99"
         y="1352.1938"
         x="1186.522"
         style="font-style:normal;font-variant:normal;font-weight:normal;font-stretch:normal;font-size:56.97835541px;line-height:1;font-family:'Nanum Pen Script OTF';-inkscape-font-specification:'Nanum Pen Script OTF';stroke-width:1.26618564"
         sodipodi:role="line">생각하지 않나?</tspan></text>
    <text
       id="text107"
       y="1827.1158"
       x="534.92828"
       style="font-style:normal;font-variant:normal;font-weight:normal;font-stretch:normal;font-size:14.61472511px;line-height:1;font-family:'Nanum Pen Script OTF';-inkscape-font-specification:'Nanum Pen Script OTF';text-align:center;letter-spacing:0px;word-spacing:0px;text-anchor:middle;fill:#000000;fill-opacity:1;stroke:none;stroke-width:1.21789384"
       xml:space="preserve"><tspan
         id="tspan105"
         y="1827.1158"
         x="534.92828"
         style="font-style:normal;font-variant:normal;font-weight:normal;font-stretch:normal;font-size:54.80522156px;line-height:1;font-family:'Nanum Pen Script OTF';-inkscape-font-specification:'Nanum Pen Script OTF';stroke-width:1.21789384"
         sodipodi:role="line">저희가 뭐가</tspan><tspan
         y="1881.921"
         x="534.92828"
         style="font-style:normal;font-variant:normal;font-weight:normal;font-stretch:normal;font-size:54.80522156px;line-height:1;font-family:'Nanum Pen Script OTF';-inkscape-font-specification:'Nanum Pen Script OTF';stroke-width:1.21789384"
         sodipodi:role="line"
         id="tspan941">어려요!?</tspan></text>
    <text
       transform="scale(0.96046588,1.0411614)"
       id="text111"
       y="1894.5288"
       x="582.70251"
       style="font-style:normal;font-variant:normal;font-weight:normal;font-stretch:normal;font-size:16.43507385px;line-height:1;font-family:'Nanum Pen Script OTF';-inkscape-font-specification:'Nanum Pen Script OTF';text-align:center;letter-spacing:0px;word-spacing:0px;text-anchor:middle;fill:#000000;fill-opacity:1;stroke:none;stroke-width:1.36958957"
       xml:space="preserve"><tspan
         id="tspan109"
         y="1894.5288"
         x="582.70251"
         style="font-style:normal;font-variant:normal;font-weight:normal;font-stretch:normal;font-size:77.76595306px;line-height:1;font-family:'Nanum Pen Script OTF';-inkscape-font-specification:'Nanum Pen Script OTF';stroke-width:1.36958957"
         sodipodi:role="line">같이 가요!</tspan></text>
    <text
       id="text117"
       y="2010.6093"
       x="1926.7051"
       style="font-style:normal;font-variant:normal;font-weight:normal;font-stretch:normal;font-size:16.5801487px;line-height:1;font-family:'Nanum Pen Script OTF';-inkscape-font-specification:'Nanum Pen Script OTF';text-align:center;letter-spacing:0px;word-spacing:0px;text-anchor:middle;fill:#000000;fill-opacity:1;stroke:none;stroke-width:1.38167918"
       xml:space="preserve"><tspan
         id="tspan115"
         y="2010.6093"
         x="1926.7051"
         style="font-style:normal;font-variant:normal;font-weight:normal;font-stretch:normal;font-size:62.17556px;line-height:1;font-family:'Nanum Pen Script OTF';-inkscape-font-specification:'Nanum Pen Script OTF';stroke-width:1.38167918"
         sodipodi:role="line">나도?</tspan></text>
    <text
       id="text123"
       y="2353.4417"
       x="584.12231"
       style="font-style:normal;font-variant:normal;font-weight:normal;font-stretch:normal;font-size:16.09474564px;line-height:1;font-family:'Nanum Pen Script OTF';-inkscape-font-specification:'Nanum Pen Script OTF';text-align:center;letter-spacing:0px;word-spacing:0px;text-anchor:middle;fill:#000000;fill-opacity:1;stroke:none;stroke-width:1.34122884"
       xml:space="preserve"><tspan
         id="tspan121"
         y="2353.4417"
         x="584.12231"
         style="font-style:normal;font-variant:normal;font-weight:normal;font-stretch:normal;font-size:60.35529709px;line-height:1;font-family:'Nanum Pen Script OTF';-inkscape-font-specification:'Nanum Pen Script OTF';stroke-width:1.34122884"
         sodipodi:role="line">그래,</tspan><tspan
         y="2413.7969"
         x="584.12231"
         style="font-style:normal;font-variant:normal;font-weight:normal;font-stretch:normal;font-size:60.35529709px;line-height:1;font-family:'Nanum Pen Script OTF';-inkscape-font-specification:'Nanum Pen Script OTF';stroke-width:1.34122884"
         sodipodi:role="line"
         id="tspan922">다 왔다,</tspan></text>
    <text
       id="text135"
       y="2449.5713"
       x="766.88275"
       style="font-style:normal;font-variant:normal;font-weight:normal;font-stretch:normal;font-size:15.37735653px;line-height:1;font-family:'Nanum Pen Script OTF';-inkscape-font-specification:'Nanum Pen Script OTF';text-align:center;letter-spacing:0px;word-spacing:0px;text-anchor:middle;fill:#000000;fill-opacity:1;stroke:none;stroke-width:1.28144634"
       xml:space="preserve"><tspan
         id="tspan133"
         y="2460.7549"
         x="766.88275"
         style="font-style:normal;font-variant:normal;font-weight:normal;font-stretch:normal;font-size:57.66508484px;line-height:1;font-family:'Nanum Pen Script OTF';-inkscape-font-specification:'Nanum Pen Script OTF';stroke-width:1.28144634"
         sodipodi:role="line" /><tspan
         y="2506.887"
         x="766.88275"
         style="font-style:normal;font-variant:normal;font-weight:normal;font-stretch:normal;font-size:57.66508484px;line-height:1;font-family:'Nanum Pen Script OTF';-inkscape-font-specification:'Nanum Pen Script OTF';stroke-width:1.28144634"
         sodipodi:role="line"
         id="tspan914">너희들이 직접</tspan><tspan
         y="2564.552"
         x="766.88275"
         style="font-style:normal;font-variant:normal;font-weight:normal;font-stretch:normal;font-size:57.66508484px;line-height:1;font-family:'Nanum Pen Script OTF';-inkscape-font-specification:'Nanum Pen Script OTF';stroke-width:1.28144634"
         sodipodi:role="line"
         id="tspan916">현자를 만날 수</tspan><tspan
         y="2622.217"
         x="766.88275"
         style="font-style:normal;font-variant:normal;font-weight:normal;font-stretch:normal;font-size:57.66508484px;line-height:1;font-family:'Nanum Pen Script OTF';-inkscape-font-specification:'Nanum Pen Script OTF';stroke-width:1.28144634"
         sodipodi:role="line"
         id="tspan918">있도록 해 주마.</tspan></text>
    <text
       id="text143"
       y="2709.4504"
       x="916.87469"
       style="font-style:normal;font-variant:normal;font-weight:normal;font-stretch:normal;font-size:15.60978985px;line-height:1;font-family:'Nanum Pen Script OTF';-inkscape-font-specification:'Nanum Pen Script OTF';text-align:center;letter-spacing:0px;word-spacing:0px;text-anchor:middle;fill:#000000;fill-opacity:1;stroke:none;stroke-width:1.30081582"
       xml:space="preserve"><tspan
         id="tspan141"
         y="2709.4504"
         x="916.87469"
         style="font-style:normal;font-variant:normal;font-weight:normal;font-stretch:normal;font-size:58.53670883px;line-height:1;font-family:'Nanum Pen Script OTF';-inkscape-font-specification:'Nanum Pen Script OTF';stroke-width:1.30081582"
         sodipodi:role="line">이 경사 꼭대기로 가면</tspan><tspan
         y="2767.9871"
         x="916.87469"
         style="font-style:normal;font-variant:normal;font-weight:normal;font-stretch:normal;font-size:58.53670883px;line-height:1;font-family:'Nanum Pen Script OTF';-inkscape-font-specification:'Nanum Pen Script OTF';stroke-width:1.30081582"
         sodipodi:role="line"
         id="tspan934">만날 수 있다.</tspan></text>
    <text
       id="text151"
       y="3245.3018"
       x="1781.6261"
       style="font-style:normal;font-variant:normal;font-weight:normal;font-stretch:normal;font-size:14.06631279px;line-height:1;font-family:'Nanum Pen Script OTF';-inkscape-font-specification:'Nanum Pen Script OTF';text-align:center;letter-spacing:0px;word-spacing:0px;text-anchor:middle;fill:#000000;fill-opacity:1;stroke:none;stroke-width:1.17219281"
       xml:space="preserve"><tspan
         id="tspan149"
         y="3245.3018"
         x="1781.6261"
         style="font-style:normal;font-variant:normal;font-weight:normal;font-stretch:normal;font-size:52.7486763px;line-height:1;font-family:'Nanum Pen Script OTF';-inkscape-font-specification:'Nanum Pen Script OTF';stroke-width:1.17219281"
         sodipodi:role="line">           을 받을</tspan><tspan
         y="3298.0505"
         x="1781.6261"
         style="font-style:normal;font-variant:normal;font-weight:normal;font-stretch:normal;font-size:52.7486763px;line-height:1;font-family:'Nanum Pen Script OTF';-inkscape-font-specification:'Nanum Pen Script OTF';stroke-width:1.17219281"
         sodipodi:role="line"
         id="tspan936">준비가 되었나?</tspan></text>
    <text
       transform="matrix(0.89466356,0,-0.16927076,1.1177386,0,0)"
       id="text155"
       y="2907.8853"
       x="2486.7083"
       style="font-style:normal;font-variant:normal;font-weight:normal;font-stretch:normal;font-size:13.33240318px;line-height:1;font-family:'Nanum Pen Script OTF';-inkscape-font-specification:'Nanum Pen Script OTF';text-align:center;letter-spacing:0px;word-spacing:0px;text-anchor:middle;fill:#000000;fill-opacity:1;stroke:#000000;stroke-width:1.7710011;stroke-miterlimit:4;stroke-dasharray:none;stroke-opacity:1"
       xml:space="preserve"><tspan
         id="tspan153"
         y="2907.8853"
         x="2486.7083"
         style="font-style:normal;font-variant:normal;font-weight:normal;font-stretch:normal;font-size:59.03337479px;line-height:1;font-family:'Nanum Pen Script OTF';-inkscape-font-specification:'Nanum Pen Script OTF';stroke:#000000;stroke-width:1.7710011;stroke-miterlimit:4;stroke-dasharray:none;stroke-opacity:1"
         sodipodi:role="line">진정한 교육</tspan></text>
    <text
       transform="matrix(0.92481111,0,-0.17497469,1.0813019,0,0)"
       id="text159"
       y="402.13553"
       x="671.00751"
       style="font-style:normal;font-variant:normal;font-weight:normal;font-stretch:normal;font-size:15.18037415px;line-height:1;font-family:'Nanum Pen Script OTF';-inkscape-font-specification:'Nanum Pen Script OTF';text-align:center;letter-spacing:0px;word-spacing:0px;text-anchor:middle;fill:#000000;fill-opacity:1;stroke:#000000;stroke-width:1.9509418;stroke-miterlimit:4;stroke-dasharray:none;stroke-opacity:1"
       xml:space="preserve"><tspan
         id="tspan157"
         y="402.13553"
         x="671.00751"
         style="font-style:normal;font-variant:normal;font-weight:normal;font-stretch:normal;font-size:65.03140259px;line-height:1;font-family:'Nanum Pen Script OTF';-inkscape-font-specification:'Nanum Pen Script OTF';stroke:#000000;stroke-width:1.9509418;stroke-miterlimit:4;stroke-dasharray:none;stroke-opacity:1"
         sodipodi:role="line">산 속의 현자</tspan></text>
    <text
       id="text165"
       y="642.14532"
       x="698.80103"
       style="font-style:normal;font-variant:normal;font-weight:normal;font-stretch:normal;font-size:15.41166592px;line-height:1;font-family:'Nanum Pen Script OTF';-inkscape-font-specification:'Nanum Pen Script OTF';text-align:center;letter-spacing:0px;word-spacing:0px;text-anchor:middle;fill:#000000;fill-opacity:1;stroke:none;stroke-width:1.28430545"
       xml:space="preserve"><tspan
         id="tspan163"
         y="642.14532"
         x="698.80103"
         style="font-style:normal;font-variant:normal;font-weight:normal;font-stretch:normal;font-size:57.79374695px;line-height:1;font-family:'Nanum Pen Script OTF';-inkscape-font-specification:'Nanum Pen Script OTF';stroke-width:1.28430545"
         sodipodi:role="line">그분의 조언이</tspan><tspan
         y="699.93909"
         x="698.80103"
         style="font-style:normal;font-variant:normal;font-weight:normal;font-stretch:normal;font-size:57.79374695px;line-height:1;font-family:'Nanum Pen Script OTF';-inkscape-font-specification:'Nanum Pen Script OTF';stroke-width:1.28430545"
         sodipodi:role="line"
         id="tspan169">필수적이야...</tspan></text>
  </g>
</svg>
