<?xml version="1.0" encoding="UTF-8" standalone="no"?>
<!-- Created with Inkscape (http://www.inkscape.org/) -->

<svg
   id="svg2"
   version="1.1"
   inkscape:version="1.2 (dc2aedaf03, 2022-05-15)"
   width="2481"
   height="3503"
   sodipodi:docname="E37P05.svg"
   xmlns:inkscape="http://www.inkscape.org/namespaces/inkscape"
   xmlns:sodipodi="http://sodipodi.sourceforge.net/DTD/sodipodi-0.dtd"
   xmlns:xlink="http://www.w3.org/1999/xlink"
   xmlns="http://www.w3.org/2000/svg"
   xmlns:svg="http://www.w3.org/2000/svg"
   xmlns:rdf="http://www.w3.org/1999/02/22-rdf-syntax-ns#"
   xmlns:cc="http://creativecommons.org/ns#"
   xmlns:dc="http://purl.org/dc/elements/1.1/">
  <metadata
     id="metadata8">
    <rdf:RDF>
      <cc:Work
         rdf:about="">
        <dc:format>image/svg+xml</dc:format>
        <dc:type
           rdf:resource="http://purl.org/dc/dcmitype/StillImage" />
        <dc:title />
      </cc:Work>
    </rdf:RDF>
  </metadata>
  <defs
     id="defs6">
    <filter
       inkscape:label="Magmah-FX"
       inkscape:menu="Distort"
       inkscape:menu-tooltip="Horizontal rippling of edges"
       style="color-interpolation-filters:sRGB"
       id="filter4265-7"
       y="0"
       x="0"
       width="1"
       height="1">
      <feTurbulence
         numOctaves="1"
         baseFrequency="0.002 0.107"
         id="feTurbulence4267-7" />
      <feColorMatrix
         values="5 0 0 0 0 0 0 0 0 0 0 0 0 0 0 0 0 0 4 0 "
         result="result91"
         id="feColorMatrix4269-1" />
      <feDisplacementMap
         yChannelSelector="A"
         xChannelSelector="R"
         scale="14.3"
         in="SourceGraphic"
         in2="result91"
         id="feDisplacementMap4271-2" />
    </filter>
    <filter
       style="color-interpolation-filters:sRGB"
       inkscape:label="Magmah-spell-glow"
       id="filter4751"
       x="-0.033441791"
       y="-0.12562146"
       width="1.0668836"
       height="1.2512429">
      <feFlood
         flood-opacity="1"
         flood-color="rgb(255,255,255)"
         result="flood"
         id="feFlood4753" />
      <feComposite
         in="flood"
         in2="SourceGraphic"
         operator="in"
         result="composite1"
         id="feComposite4755" />
      <feGaussianBlur
         in="composite1"
         stdDeviation="5.4"
         result="blur"
         id="feGaussianBlur4757" />
      <feOffset
         dx="0"
         dy="0"
         result="offset"
         id="feOffset4759" />
      <feComposite
         in="SourceGraphic"
         in2="offset"
         operator="over"
         result="composite2"
         id="feComposite4761" />
    </filter>
    <filter
       inkscape:label="Magmah-FX"
       inkscape:menu="Distort"
       inkscape:menu-tooltip="Horizontal rippling of edges"
       style="color-interpolation-filters:sRGB"
       id="filter4265-7-5"
       y="0"
       x="0"
       width="1"
       height="1">
      <feTurbulence
         numOctaves="1"
         baseFrequency="0.002 0.107"
         id="feTurbulence4267-7-3" />
      <feColorMatrix
         values="5 0 0 0 0 0 0 0 0 0 0 0 0 0 0 0 0 0 4 0 "
         result="result91"
         id="feColorMatrix4269-1-5" />
      <feDisplacementMap
         yChannelSelector="A"
         xChannelSelector="R"
         scale="14.3"
         in="SourceGraphic"
         in2="result91"
         id="feDisplacementMap4271-2-6" />
    </filter>
  </defs>
  <sodipodi:namedview
     pagecolor="#ffffff"
     bordercolor="#666666"
     borderopacity="1"
     objecttolerance="10"
     gridtolerance="10"
     guidetolerance="10"
     inkscape:pageopacity="0"
     inkscape:pageshadow="2"
     inkscape:window-width="1920"
     inkscape:window-height="1056"
     id="namedview4"
     showgrid="false"
     inkscape:zoom="1.6182231"
     inkscape:cx="1028.2884"
     inkscape:cy="1132.106"
     inkscape:window-x="1920"
     inkscape:window-y="0"
     inkscape:window-maximized="1"
     inkscape:current-layer="layer1"
     inkscape:pagecheckerboard="0"
     inkscape:showpageshadow="0"
     inkscape:deskcolor="#d1d1d1" />
  <g
     inkscape:groupmode="layer"
     id="layer2"
     inkscape:label="artwork"
     sodipodi:insensitive="true">
    <image
       xlink:href="../gfx_Pepper-and-Carrot_by-David-Revoy_E37P05.png"
       y="0"
       x="0"
       id="image10"
       height="3503"
       width="2481" />
  </g>
  <g
     inkscape:groupmode="layer"
     id="layer3"
     inkscape:label="speechbubbles"
     style="display:inline">
    <path
       style="fill:#ffffff;stroke:none;stroke-width:0.75896"
       d="m 398.28776,328.05131 c -32.50907,0.87745 -64.87308,8.371 -94.36813,22.08176 -19.79361,11.41744 -30.2288,37.57841 -22.27663,59.25867 5.18949,14.84132 17.74323,26.07636 31.87482,32.32604 24.15804,11.55249 51.26524,14.65106 77.7238,15.65341 26.4149,0.9798 53.02587,0.5484 79.16333,-3.70855 17.03013,-3.36159 33.61514,-10.74126 46.32952,-22.73243 11.4226,-10.95627 18.99687,-26.80807 17.45011,-42.85162 -1.14125,-12.02368 -8.2502,-22.76664 -17.6153,-30.09633 -9.83995,-7.70344 -21.48745,-12.65095 -33.07922,-17.07836 -27.20294,-9.84809 -56.42709,-12.8829 -85.2023,-12.85259 z"
       id="path3280-81"
       inkscape:connector-curvature="0"
       sodipodi:nodetypes="csssc" />
    <path
       style="display:inline;fill:#ffffff;stroke:none;stroke-width:0.75896"
       d="M 339.75781 240.44336 C 316.76682 241.59346 293.35873 243.73316 271.79149 252.3479 C 261.04266 256.56779 250.57807 263.17755 244.69984 273.41776 C 236.67359 286.63596 235.41939 304.26229 243.15686 317.89554 C 250.33906 330.05605 263.57624 337.74013 277.2832 340.10938 C 302.49359 345.87739 328.25165 348.6627 353.9245 351.44115 C 382.54722 353.18337 411.89595 348.71169 437.84365 336.18651 C 448.11578 330.86655 457.14717 322.1337 460.67966 310.89345 C 465.82522 296.53591 462.54628 279.11265 451.45945 268.39097 C 444.09492 261.38539 434.68407 257.12625 425.46638 253.14042 C 408.77591 246.38017 390.85196 243.35064 373.01797 241.54703 C 361.9629 240.55842 350.85195 240.33192 339.75781 240.44336 z "
       id="path3280-81-3"
       inkscape:connector-curvature="0"
       sodipodi:nodetypes="csssc" />
    <path
       style="color:#000000;display:inline;overflow:visible;visibility:visible;fill:#ffffff;fill-opacity:1;fill-rule:nonzero;stroke:none;stroke-width:2.02177px;marker:none;enable-background:accumulate"
       d="M 2008.1113 215.74609 C 1932.9047 216.42787 1856.8633 222.42632 1784.6895 244.83203 C 1749.1331 256.20788 1714.3901 274.30682 1690.1582 303.39258 C 1665.8872 334.45314 1653.2817 375.44461 1659.5155 414.69151 C 1666.4465 441.47471 1686.8019 462.77284 1710.0002 476.7628 C 1745.3175 498.91024 1786.8422 508.03599 1827.6503 513.59845 C 1883.3937 520.61968 1939.5303 523.96021 1995.641 526.27998 C 2078.2749 528.21908 2162.6669 524.00512 2241.4147 496.76121 C 2273.7407 485.534 2305.5722 470.66439 2331.2832 447.66797 C 2345.2345 434.9772 2357.6499 418.71409 2359.7728 399.40878 C 2362.151 379.99313 2357.7317 360.4253 2351.526 342.1114 C 2340.6544 311.77683 2318.9814 285.53641 2291.2578 269.10754 C 2248.663 242.86217 2199.198 230.54341 2150.1427 223.38303 C 2103.1289 216.68988 2055.5328 215.48507 2008.1113 215.74609 z "
       id="path5026-3"
       inkscape:connector-curvature="0"
       sodipodi:nodetypes="csssc" />
    <path
       style="color:#000000;display:inline;overflow:visible;visibility:visible;fill:#ffffff;fill-opacity:1;fill-rule:nonzero;stroke:none;stroke-width:0.911216px;marker:none;enable-background:accumulate"
       d="m 1555.1971,903.05023 c -37.6201,1.05666 -75.1415,11.56209 -105.9226,31.08848 -13.8418,8.65559 -25.2583,20.19687 -33.7429,33.22354 -20.272,30.87698 -24.6233,70.27905 -9.2301,103.56885 12.3866,26.8143 38.6395,47.5264 68.8825,57.3917 33.8811,12.153 70.6757,15.5051 106.8668,16.6523 36.2661,0.8807 73.1774,0.358 108.3279,-8.5617 23.4647,-6.4237 45.831,-18.3727 60.1417,-36.5521 17.2156,-20.851 24.7136,-47.0303 25.1748,-72.682 0.2112,-25.2216 -7.7183,-51.11837 -25.5832,-70.96946 -19.1734,-21.79742 -47.4087,-36.16709 -77.1568,-43.08597 -33.9028,-8.23644 -69.2602,-9.46047 -104.1933,-10.07894 -4.5214,-0.0557 -9.0434,-0.0502 -13.5648,0.009 z"
       id="path4040-40"
       inkscape:connector-curvature="0"
       sodipodi:nodetypes="zssssz" />
    <path
       style="color:#000000;display:inline;overflow:visible;visibility:visible;fill:#ffffff;fill-opacity:1;fill-rule:nonzero;stroke:none;stroke-width:0.999998px;marker:none;enable-background:accumulate"
       d="m 496.15677,1011.893 c 34.73321,-33.49717 31.89314,-53.50347 31.44376,-68.11357 -4.7651,-0.9949 -12.85059,-4.2577 -12.85059,-4.2577 0,0 1.90835,-28.8086 -1.17233,-39.94541 -3.08071,-11.13686 -17.53582,-8.20897 -17.53582,-8.20897 0,0 -5.18065,55.93348 -10.00914,67.69208 13.18767,2.2293 19.31591,4.9084 24.41808,3.8748 3.16059,8.1805 -2.4061,36.7502 -14.29396,48.95877 z"
       id="path4456-3"
       inkscape:connector-curvature="0" />
    <path
       style="color:#000000;display:inline;overflow:visible;visibility:visible;fill:#ffffff;fill-opacity:1;fill-rule:nonzero;stroke:none;stroke-width:0.709513px;marker:none;enable-background:accumulate"
       d="m 1087.1874,2348.319 c 4.4548,-64.1778 66.8008,-112.0289 230.3571,-102.4517 87.6094,5.1292 187.0583,7.856 181.5484,101.8551 -5.5103,93.9994 -148.4128,93.7558 -177.8859,96.3992 -29.4733,2.6448 -183.1997,-4.8686 -210.3968,-36.4027 -17.0247,-19.7393 -23.8983,-39.5411 -23.6228,-59.3999 z"
       id="path4546-6-21"
       inkscape:connector-curvature="0"
       sodipodi:nodetypes="cssssc" />
    <path
       style="color:#000000;display:inline;overflow:visible;visibility:visible;fill:#ffffff;fill-opacity:1;fill-rule:nonzero;stroke:none;stroke-width:0.709511px;marker:none;enable-background:accumulate"
       d="m 660.4671,2264.4761 c -27.46404,0.4961 -55.59723,9.3662 -75.91376,28.3762 -22.04112,21.9967 -34.01798,52.6125 -36.71122,83.3297 -4.6171,37.7827 7.66343,77.1602 32.57258,105.8728 15.45155,15.2221 36.2984,22.7478 56.17199,30.2909 32.63866,11.8813 68.52532,14.0614 102.52252,7.2514 24.74397,-4.2043 49.50975,-14.1162 66.96221,-32.7122 14.29698,-15.5566 20.1952,-36.8488 22.13493,-57.4445 2.21372,-25.3342 0.22348,-50.847 -3.21705,-75.9774 -3.06384,-19.3764 -10.19837,-38.8334 -24.21991,-53.0074 -12.61573,-13.153 -29.86999,-20.4807 -47.17333,-25.1968 -19.78672,-5.3553 -40.22618,-7.7846 -60.59007,-9.6925 -10.82519,-0.8151 -21.68313,-1.1937 -32.53889,-1.0902 z"
       id="path4546-6-21-2"
       inkscape:connector-curvature="0"
       sodipodi:nodetypes="cssssc" />
    <path
       style="color:#000000;display:inline;overflow:visible;visibility:visible;fill:#ffffff;fill-opacity:1;fill-rule:nonzero;stroke:none;stroke-width:1.24776px;marker:none;enable-background:accumulate"
       d="m 445.44522,1891.8981 c -30.57448,0.7277 -61.67269,0.6195 -91.35713,11.0376 -17.42307,6.0815 -34.31836,17.6894 -45.06678,36.3492 -12.53542,21.3815 -14.39261,50.4099 -8.1219,75.2545 2.94976,11.5281 7.40583,22.5409 13.35284,32.1029 6.47446,10.1813 15.39446,17.9787 25.46795,21.3958 28.99423,12.6151 59.9204,15.627 90.3889,16.8936 31.88851,0.9788 63.81364,-0.3336 95.61366,-3.3702 26.84713,-3.0333 53.9993,-8.5066 78.71628,-22.5582 14.9509,-8.8382 29.12806,-22.208 36.31293,-41.3466 10.00823,-26.46 7.37921,-60.4348 -8.19972,-82.7095 -12.50557,-17.0882 -30.57781,-25.3656 -48.21146,-30.3955 -29.13261,-8.1579 -59.08242,-9.6075 -88.79202,-11.5319 -16.68705,-0.9092 -33.40006,-1.7235 -50.10355,-1.1217 z"
       id="path4546-6-21-1"
       inkscape:connector-curvature="0"
       sodipodi:nodetypes="cssssc" />
    <path
       style="color:#000000;display:inline;overflow:visible;visibility:visible;fill:#ffffff;fill-opacity:1;fill-rule:nonzero;stroke:none;stroke-width:0.90167px;marker:none;enable-background:accumulate"
       d="m 504.23732,2178.8874 c 3.17414,-87.8627 47.59866,-153.3737 164.14038,-140.262 62.42608,7.0221 133.28819,10.7552 129.36198,139.4453 -3.92628,128.6903 -105.75118,128.3569 -126.75223,131.9758 -21.00112,3.6209 -130.53858,-6.6654 -149.91784,-49.8373 -12.13101,-27.0243 -17.02871,-54.134 -16.83229,-81.3218 z"
       id="path4546-6-21-1-9"
       inkscape:connector-curvature="0"
       sodipodi:nodetypes="cssssc" />
    <path
       style="color:#000000;display:inline;overflow:visible;visibility:visible;fill:#ffffff;fill-opacity:1;fill-rule:nonzero;stroke:none;stroke-width:1.1971px;marker:none;enable-background:accumulate"
       d="m 1332.7033,1899.2603 c -34.2161,0.4979 -69.4536,3.4378 -100.8776,18.6676 -15.5498,7.6255 -29.9364,21.203 -33.5548,39.2961 -2.4964,18.0388 9.1563,35.4891 24.3016,43.3441 15.5893,8.0752 33.18,9.9172 50.0639,13.3122 58.8247,9.6434 118.7994,13.6403 178.1965,7.9027 20.8106,-2.3246 42.3403,-6.2184 60.2121,-18.2135 11.2561,-7.8258 19.195,-20.6513 20.6518,-34.7122 2.2126,-16.1745 -3.6176,-34.3094 -17.4022,-43.2107 -17.6487,-12.4374 -39.3813,-15.3128 -60.0019,-18.3515 -36.1905,-4.7727 -72.6653,-6.8504 -109.1128,-7.9708 -4.1585,-0.075 -8.3174,-0.085 -12.4766,-0.064 z"
       id="path4546-6-21-1-9-4"
       inkscape:connector-curvature="0"
       sodipodi:nodetypes="cssssc" />
    <path
       style="color:#000000;display:inline;overflow:visible;visibility:visible;fill:#ffffff;fill-opacity:1;fill-rule:nonzero;stroke:none;stroke-width:0.961929px;marker:none;enable-background:accumulate"
       d="M 1211.4121 1985.7656 C 1158.3163 1986.6476 1104.3723 1988.6369 1053.2208 2004.2545 C 1034.9291 2011.0718 1021.2484 2026.9867 1014.3203 2044.9199 C 1002.8122 2072.1022 1004.4128 2105.6749 1022.3551 2129.755 C 1032.8967 2143.7465 1049.5626 2151.8957 1066.5817 2154.7224 C 1089.046 2159.6118 1111.8468 2162.9055 1134.6948 2165.3659 C 1175.8399 2169.2553 1217.2044 2167.376 1258.4329 2166.3724 C 1317.4539 2165.9748 1376.6119 2168.8343 1435.4992 2163.5137 C 1457.5014 2161.6912 1479.6126 2159.6956 1501.1774 2154.8357 C 1529.6228 2145.913 1551.8031 2118.661 1552.8856 2088.5872 C 1554.4133 2063.9112 1542.5931 2039.4301 1523.6068 2023.9019 C 1499.2285 2002.5574 1467.0077 1992.7422 1435.3652 1988.8789 C 1393.4359 1984.1941 1351.2812 1989.7731 1309.254 1987.9114 C 1276.64 1987.211 1244.0429 1985.4184 1211.4121 1985.7656 z "
       id="path4546-6-21-1-9-4-7"
       inkscape:connector-curvature="0"
       sodipodi:nodetypes="cssssc" />
    <path
       style="color:#000000;display:inline;overflow:visible;visibility:visible;fill:#ffffff;fill-opacity:1;fill-rule:nonzero;stroke:none;stroke-width:1.14709px;marker:none;enable-background:accumulate"
       d="m 1005.12,3066.8417 c 5.7267,-41.6532 61.8615,-70.7879 205.3078,-59.2238 76.8376,6.1939 164.1463,11.2087 156.65,72.2502 -7.4964,61.0415 -133.0578,56.2289 -159.0305,56.9907 -25.9729,0.7627 -160.8399,-9.1373 -183.8475,-30.561 -14.4023,-13.4105 -19.8828,-26.5311 -19.0798,-39.4561 z"
       id="path4546-6-21-1-9-4-7-8"
       inkscape:connector-curvature="0"
       sodipodi:nodetypes="cssssc" />
    <path
       style="color:#000000;display:inline;overflow:visible;visibility:visible;fill:#ffffff;fill-opacity:1;fill-rule:nonzero;stroke:none;stroke-width:0.624175px;marker:none;enable-background:accumulate"
       d="m 2203.114,3192.8201 c 1.6004,-29.4598 24.0001,-51.4252 82.7628,-47.029 31.4764,2.3544 67.2066,3.6062 65.2269,46.7553 -1.9798,43.1489 -53.3219,43.0372 -63.9111,44.2506 -10.5891,1.2141 -65.82,-2.2349 -75.5915,-16.7102 -6.1167,-9.061 -8.5862,-18.1508 -8.4871,-27.2667 z"
       id="path4546-6-21-1-9-4-7-8-4"
       inkscape:connector-curvature="0"
       sodipodi:nodetypes="cssssc" />
    <path
       style="color:#000000;display:inline;overflow:visible;visibility:visible;fill:#ffffff;fill-opacity:1;fill-rule:nonzero;stroke:none;stroke-width:1px;marker:none;enable-background:accumulate"
       d="m 1284.7327,2502.3184 c -35.7282,-19.4322 -47.354,-28.3515 -44.071,-75.6186 3.2834,-47.2663 -14.2412,-48.0483 -14.2412,-48.0483 l -19.1468,25.8436 c 0,0 -0.01,101.2711 77.459,97.8233 z"
       id="path3072-56-6"
       inkscape:connector-curvature="0" />
    <path
       style="color:#000000;display:inline;overflow:visible;visibility:visible;fill:#ffffff;fill-opacity:1;fill-rule:nonzero;stroke:none;stroke-width:1px;marker:none;enable-background:accumulate"
       d="m 1468.6848,2848.0015 c 26.25,171.1132 -108.5575,232.9592 -156.9646,205.9986 -41.3932,-23.0541 -36.6132,25.372 -36.6132,25.372 0,0 -184.8377,-79.9742 -48.5243,-12.9007 136.3134,67.0735 295.373,-29.4851 242.1021,-218.4699 z"
       id="path3072-56-6-7"
       inkscape:connector-curvature="0"
       sodipodi:nodetypes="csczc" />
    <path
       style="color:#000000;display:inline;overflow:visible;visibility:visible;fill:#ffffff;fill-opacity:1;fill-rule:nonzero;stroke:none;stroke-width:1.32718px;marker:none;enable-background:accumulate"
       d="m 1605.7395,765.40053 c -36.824,0.86526 -73.5849,3.58573 -110.4098,4.48299 -15.9351,0.62196 -32.0407,0.0262 -47.7296,3.51014 -21.2976,4.31918 -42.3506,13.30038 -58.1788,29.02405 -16.9932,17.4464 -25.5378,44.10691 -19.5561,68.40731 6.9361,31.51403 32.7339,57.2258 63.1101,64.15009 31.3574,9.19976 64.009,11.87233 96.3549,14.64772 42.5947,2.71002 85.7515,3.36655 127.8155,-5.1805 25.6267,-5.37305 51.4763,-12.62287 73.8358,-27.1101 18.3377,-12.95287 28.3531,-36.15118 28.2376,-58.81308 1.0385,-21.61 -5.9621,-44.44698 -21.8782,-59.07887 -17.7019,-17.08795 -41.4131,-25.62943 -64.9087,-29.71727 -22.018,-3.81306 -44.4102,-4.52487 -66.6927,-4.32248 z"
       id="path4546-3"
       inkscape:connector-curvature="0"
       sodipodi:nodetypes="cssssc" />
    <path
       style="color:#000000;display:inline;overflow:visible;visibility:visible;fill:#ffffff;fill-opacity:1;fill-rule:nonzero;stroke:none;stroke-width:0.999998px;marker:none;enable-background:accumulate"
       d="m 2177.6835,3278.2468 c 19.412,3.2287 21.8531,2.1451 26.087,-6.1508 4.2336,-8.2965 7.4345,-21.3989 24.2674,-27.0612 16.8328,-5.6629 26.4772,-1.2243 33.0349,1.2943 -1.1679,-11.6566 8.131,-31.9623 0.9277,-37.4845 -7.2032,-5.5223 17.0343,2.8574 17.0343,2.8574 0,0 12.1095,28.3527 3.5098,41.2194 -8.5996,12.8666 -35.9866,3.6351 -48.1953,5.9287 -12.2087,2.2936 -17.7187,20.2054 -26.9698,23.8183 -9.2511,3.6136 -20.9523,-1.0637 -29.696,-4.4216 z"
       id="path4538-7-1"
       inkscape:connector-curvature="0"
       sodipodi:nodetypes="ccscccsscc" />
    <path
       style="fill:#ffffff;fill-rule:evenodd;stroke:none;stroke-width:0.989952px;stroke-linecap:butt;stroke-linejoin:miter;stroke-opacity:1"
       d="m 563.82903,2593.7899 c 63.64415,46.5419 99.6802,37.8628 99.27382,22.0538 -0.73279,-28.5061 -23.68426,-45.5161 -20.14693,-49.7569 56.87331,-68.1838 45.61583,-44.4564 42.02712,-78.3168 -3.58863,-33.8596 -32.82515,9.9982 -43.47048,25.9957 -10.64526,15.9984 -23.23393,28.0821 -24.13067,46.0989 -0.89678,18.0167 30.31994,32.2197 26.20251,52.3883 -4.11738,20.1676 -79.75537,-18.463 -79.75537,-18.463 z"
       id="path4324-2"
       inkscape:connector-curvature="0"
       sodipodi:nodetypes="cssssssc" />
    <path
       style="fill:#ffffff;fill-rule:evenodd;stroke:none;stroke-width:1px;stroke-linecap:butt;stroke-linejoin:miter;stroke-opacity:1"
       d="m 1641.3607,1592.1712 c 22.6649,-9.5896 43.3488,-24.3392 44.2472,-33.5648 0.8985,-9.2259 -11.1673,-38.3407 15.3399,-36.3802 44.753,7.0521 59.1413,-17.435 71.8681,-40.1028 -10.4456,44.0867 -37.326,59.8862 -66.9409,56.1082 -20.4331,0.5043 27.1628,20.802 -14.1238,65.6767 -34.0791,18.4121 -50.3905,-11.7371 -50.3905,-11.7371 z"
       id="path1085"
       inkscape:connector-curvature="0"
       sodipodi:nodetypes="csccccc" />
    <path
       style="display:inline;fill:#ffffff;fill-rule:evenodd;stroke:none;stroke-width:1px;stroke-linecap:butt;stroke-linejoin:miter;stroke-opacity:1"
       d="m 602.38281,413.81836 c -16.46145,0.69234 -32.53906,10.64863 -39.37482,25.82696 -1.5098,2.80001 -5.28273,3.60587 -7.9531,2.02233 -5.98863,-2.1906 -11.2243,-5.98508 -17.1572,-8.31055 -9.42582,-4.50612 -18.97461,-9.76783 -29.57769,-10.58241 -9.00662,0.914 -17.21994,8.38612 -18.31844,17.45517 0.90457,4.28518 5.9133,5.81752 9.78437,5.505 14.04596,1.22391 26.26568,8.99968 37.96354,16.2261 7.48461,4.90408 17.2879,7.91388 25.94154,4.3397 8.81339,-3.63103 14.02032,-12.22106 18.30372,-20.27104 3.62722,-6.5902 7.0618,-13.9609 13.65799,-18.08996 6.18392,-3.01805 13.32935,-0.5356 18.89819,2.69485 6.80555,3.74446 18.82609,7.48219 26.68995,6.1183 5.30212,-0.83429 11.53306,0.83552 40.82961,-10.13109 -31.99063,6.29792 -54.18708,-2.32452 -64.55229,-8.18195 -4.64584,-2.56145 -9.72444,-4.75296 -15.13537,-4.62141 z"
       id="path1090"
       inkscape:connector-curvature="0"
       sodipodi:nodetypes="cscsccsssssscccc" />
    <path
       style="display:inline;fill:#ffffff;fill-rule:evenodd;stroke:none;stroke-width:1px;stroke-linecap:butt;stroke-linejoin:miter;stroke-opacity:1"
       d="M 1625.418 466.90625 C 1612.0296 468.05669 1600.6809 475.89314 1589.1047 481.96002 C 1577.2422 488.16075 1563.5466 492.69448 1550.0693 489.96764 C 1538.0016 487.27935 1527.6215 480.13903 1517.6992 473.09375 C 1521.5283 479.40068 1527.3763 484.07983 1532.5324 489.23897 C 1541.1831 496.94692 1551.4816 504.06972 1563.3955 504.87422 C 1577.2358 505.53934 1590.0515 499.39127 1602.5815 494.37342 C 1612.7509 490.23199 1623.7962 486.15497 1634.9336 488.22656 C 1645.8893 490.69075 1654.3641 499.24587 1659.7272 508.75128 C 1672.7036 527.45365 1695.8256 537.6909 1718.3123 537.14832 C 1737.1421 536.74205 1754.9275 528.8727 1770.4917 518.7486 C 1779.1013 513.17743 1787.5712 507.29593 1795.2732 500.51271 C 1798.8516 497.03281 1802.5266 492.98578 1803.4483 487.9342 C 1803.5105 480.172 1796.5693 473.92283 1789.2489 472.74416 C 1773.8624 467.98571 1756.1022 475.94404 1748.5063 489.94418 C 1739.2705 502.25507 1725.8041 512.37871 1710.1779 514.22257 C 1696.5327 515.99102 1682.4153 508.72485 1675.4957 496.9129 C 1668.8313 487.95783 1662.207 478.06895 1651.705 473.27791 C 1643.6585 469.01484 1634.5498 466.62374 1625.418 466.90625 z "
       id="path1090-9"
       inkscape:connector-curvature="0"
       sodipodi:nodetypes="cscsccsssssscccccc" />
    <path
       style="display:inline;fill:#ffffff;stroke:none;stroke-width:0.991354"
       d="m 1531.0226,1552.7764 c -19.527,0.1166 -39.1567,-0.07 -58.5002,3.292 -21.9311,3.7615 -43.6385,10.8354 -62.9714,22.906 -20.5553,12.8062 -37.5897,33.3542 -44.8673,58.1366 -3.4952,11.5442 -4.0648,24.1008 -1.2748,35.8965 4.8501,21.7063 19.0996,40.5391 37.613,50.0978 21.6568,12.8338 46.8446,15.7674 71.1224,15.63 46.9502,1.7866 93.988,2.4618 140.9094,-0.5599 27.3178,-1.5475 55.385,-5.003 80.1376,-18.5957 17.3715,-9.6892 31.7614,-27.3953 35.2075,-48.7269 6.281,-34.942 -11.2819,-72.4285 -39.871,-89.0728 -25.5276,-15.9276 -54.925,-22.1458 -83.8188,-25.8622 -24.4548,-2.9982 -49.1041,-3.3164 -73.6864,-3.1414 z"
       id="path3280-8-3"
       inkscape:connector-curvature="0"
       sodipodi:nodetypes="csssc" />
    <path
       style="fill:#ffffff;fill-rule:evenodd;stroke:none;stroke-width:1.07322px;stroke-linecap:butt;stroke-linejoin:miter;stroke-opacity:1"
       d="m 377.51665,761.5608 c -32.4617,1.79515 -65.08744,2.66681 -97.23696,7.95082 -14.36992,3.09291 -29.22619,6.90855 -41.07377,16.1815 -10.21468,10.44655 -17.3574,23.50187 -23.72185,36.60688 -5.45872,14.74002 -4.0435,30.97601 -0.76396,46.04545 2.34881,13.89024 7.73916,28.04855 18.66207,37.26767 11.30012,10.7655 25.25237,20.01048 41.07499,21.18155 15.15796,1.20679 30.36564,-0.23472 45.53989,0.45828 71.52045,0.13516 143.25615,0.71935 214.46125,-7.12753 11.57788,-1.85695 22.51756,-8.77888 28.35208,-19.26913 6.59654,-9.54595 14.02914,-19.57176 14.75932,-31.6715 0.82157,-11.36805 0.0514,-22.77495 0.0858,-34.15923 -0.25356,-7.3192 0.3421,-14.82565 -1.63887,-21.94938 -2.28991,-8.29822 -7.60967,-15.33835 -13.95919,-20.88675 -12.96374,-12.17325 -30.04406,-18.96153 -47.34829,-21.42492 -30.69794,-5.90031 -61.931,-8.4944 -93.14616,-8.93815 -14.68008,-0.30084 -29.36404,-0.27893 -44.04636,-0.26556 z"
       id="path1299"
       inkscape:connector-curvature="0" />
    <path
       style="display:inline;fill:#ffffff;stroke:none;stroke-width:1"
       d="m 1579.8445,1226.8876 c 10.8195,-11.5712 12.6153,-27.6824 8.3349,-36.5519 -14.3352,-19.07 -23.666,-31.1287 -18.9556,-59.0775 1.8899,-10.6227 -10.6134,-54.69 -10.6134,-54.69 0,0 -18.8784,35.0095 -23.1768,48.4387 -4.2987,13.4308 -0.8577,8.5167 -1.1091,14.2481 -0.2509,5.73 5.2504,24.4274 10.1452,33.8185 9.1181,15.8303 33.4249,28.4532 20.0415,48.0454 -29.2938,37.8208 6.5931,83.639 50.3342,32.8542 -61.0177,33.4873 -47.1285,-14.1159 -35.0011,-27.0855 z"
       id="path3023-0"
       inkscape:connector-curvature="0"
       sodipodi:nodetypes="scccsscccss" />
    <path
       style="display:inline;fill:#ffffff;fill-rule:evenodd;stroke:none;stroke-width:1px;stroke-linecap:butt;stroke-linejoin:miter;stroke-opacity:1"
       d="m 463.94149,1909.1524 c -28.8926,-1.9628 -70.7911,12.0344 -46.4898,52.4279 -53.0586,-26.4704 -127.5213,-35.9738 -145.041,8.1212 -2.9485,-53.932 -38.5111,-39.2875 -67.8631,-26.3004 27.9346,-22.1424 -23.4398,-33.052 -50.9437,-33.5284 56.996,-47.8017 26.119,-61.7102 2.7943,-78.5323 57.4315,11.386 42.9826,-14.3734 49.4459,-29.3254 49.812,32.1764 85.2527,23.2921 112.648,-8.5788 15.1349,16.5395 20.6066,51.4042 73.5776,-3.81 -18.8313,46.9564 7.2124,41.3921 49.0134,17.387 -6.2541,15.9892 -45.124,41.0794 21.271,36.7994 -41.1448,16.1299 -49.3548,36.7253 1.5874,65.3398 z"
       id="path4584-8"
       inkscape:connector-curvature="0"
       sodipodi:nodetypes="cccccccccccc" />
    <path
       style="fill:#ffffff;fill-rule:evenodd;stroke:none;stroke-width:0.999993px;stroke-linecap:butt;stroke-linejoin:miter;stroke-opacity:1"
       d="m 1088.4402,1861.1551 c 12.6082,4.62 30.6985,12.1275 32.8912,20.213 2.1928,8.0848 13.7047,23.1004 9.8674,36.3833 -3.8373,13.2822 -14.8011,26.5651 -25.2166,34.0733 -10.4157,7.5075 -30.1504,13.2822 -42.7587,14.4376 -12.6083,1.1553 -44.9513,-6.9301 -54.2706,-4.6201 -9.3192,2.31 -43.30683,3.4647 -60.30065,-2.31 -16.99383,-5.7755 -36.1804,-27.1432 -38.92135,-40.4262 -2.74096,-13.2829 9.31917,-39.848 11.51191,-46.7781 2.1928,-6.9308 11.51198,-9.2409 11.51198,-9.2409 26.0186,-3.9635 117.34611,-7.6933 155.68541,-1.7319 z"
       id="path1099"
       inkscape:connector-curvature="0"
       sodipodi:nodetypes="ccccccccccc" />
    <path
       style="color:#000000;display:inline;overflow:visible;visibility:visible;fill:#ffffff;fill-opacity:1;fill-rule:nonzero;stroke:none;stroke-width:1px;marker:none;enable-background:accumulate"
       d="m 1428.9418,2297.8625 c 10.0648,-21.2883 60.2411,-23.0324 78.4347,-18.6876 -35.8332,-23.8542 -33.7133,-38.6554 16.8677,-40.9108 -82.2192,-43.0069 -13.4386,-36.452 0.8058,-47.328 -65.6109,-14.8522 -34.8616,-33.2412 -22.0128,-51.5627 -76.3255,-0.6943 -49.6995,-30.0577 -51.6147,-53.4639 -7.085,10.9771 -39.7009,44.384 -39.4782,7.1568 -52.4858,35.4734 -114.599,58.364 -115.9681,-3.7926 -22.0919,31.2499 -43.1172,44.4482 -39.4783,7.1568 -53.1236,48.4611 -97.4625,30.9645 -142.2788,17.2172 -12.7867,14.6299 -15.4342,37.1188 -53.8706,31.8156 4.6223,14.5152 -9.0101,24.4792 -38.8719,30.3777 38.755,8.7978 45.4838,17.8447 -27.92387,27.5138 55.39427,0.9879 106.99127,2.9588 40.09217,36.0854 20.3635,0.8204 70.3265,-26.8263 43.2379,54.1826 36.5379,-25.9104 74.7768,-40.196 118.7051,14.1799 23.7334,-27.1267 63.0239,-40.5279 77.9034,-6.6068 6.8317,-14.4502 32.1246,-19.865 53.3759,-20.5069 7.8839,5.7492 15.9107,13.5548 24.1713,23.7802 15.6264,-21.4425 38.021,-35.9145 77.9033,-6.6067 z"
       id="path3549-3-7-5"
       inkscape:connector-curvature="0"
       sodipodi:nodetypes="cccccccccccccccccccc" />
    <path
       style="color:#000000;display:inline;overflow:visible;visibility:visible;fill:#ffffff;fill-opacity:1;fill-rule:nonzero;stroke:none;stroke-width:1px;marker:none;enable-background:accumulate"
       d="m 1236.0973,3100.5115 c -43.5876,1.0127 -87.6794,2.3026 -130.1152,13.293 -16.2581,4.504 -32.1169,13.6969 -40.8933,28.54 -12.9261,20.9979 -13.5356,48.1413 -4.1815,70.6368 8.6392,21.7902 25.7702,40.9136 48.1103,48.9857 29.3834,10.5885 61.0434,10.9262 91.8981,11.303 17.5884,0.09 35.1708,0.5429 52.7558,0.8295 49.7815,0.5215 99.7834,-3.0065 148.5723,-13.2119 12.5066,-3.132 24.9526,-9.7458 31.6859,-21.1583 9.3345,-14.4665 12.7477,-31.6967 15.5425,-48.4189 1.9359,-15.0588 -0.751,-31.1141 -9.6333,-43.6735 -12.9883,-19.9832 -35.2284,-32.7789 -58.4669,-36.7438 -25.2079,-4.8818 -51.0089,-4.3959 -76.4764,-6.9623 -22.8958,-1.7278 -45.8157,-3.6794 -68.7983,-3.4193 z"
       id="path3330-06"
       inkscape:connector-curvature="0"
       sodipodi:nodetypes="zsssssz" />
    <path
       style="color:#000000;display:inline;overflow:visible;visibility:visible;fill:#ffffff;fill-opacity:1;fill-rule:nonzero;stroke:none;stroke-width:0.999998px;marker:none;enable-background:accumulate"
       d="m 1303.5525,3247.7228 c -37.42,0.8395 -75.2729,1.9088 -111.704,11.0197 -13.9576,3.7337 -27.5724,11.3545 -35.107,23.6592 -11.097,17.4068 -11.6203,39.9083 -3.5898,58.5567 7.4168,18.0637 22.1238,33.9166 41.3027,40.6083 25.2257,8.7777 52.4059,9.0576 78.8946,9.3699 15.0996,0.074 30.1942,0.4501 45.2909,0.6877 42.7375,0.4323 85.6641,-2.4923 127.5494,-10.9525 10.737,-2.5963 21.4218,-8.079 27.2024,-17.5399 8.0137,-11.9924 10.9439,-26.2759 13.3432,-40.1383 1.662,-12.4835 -0.6447,-25.7931 -8.2701,-36.2046 -11.1505,-16.5657 -30.2436,-27.1731 -50.1939,-30.46 -21.641,-4.0469 -43.7912,-3.6441 -65.655,-5.7716 -19.6562,-1.4323 -39.3329,-3.0502 -59.0634,-2.8346 z"
       id="path3330-06-3"
       inkscape:connector-curvature="0"
       sodipodi:nodetypes="zsssssz" />
    <path
       style="color:#000000;display:inline;overflow:visible;visibility:visible;fill:#ffffff;fill-opacity:1;fill-rule:nonzero;stroke:none;stroke-width:1px;marker:none;enable-background:accumulate"
       d="m 1039.2669,1903.8172 c 12.9493,3.5313 53.5872,20.5771 12.2952,22.1787 58.4932,34.8788 42.1807,72.286 34.7936,80.3376 16.1722,-2.9028 46.5457,6.9602 41.217,29.266 15.5796,-3.3105 28.124,3.9847 37.959,20.7427 5.4751,-22.5128 14.7633,-26.7531 33.5882,14.6671 -5.0222,-31.6407 -8.5325,-61.1815 35.5765,-24.5631 -1.3396,-11.6529 -37.505,-38.8648 55.2875,-27.1762 -32.7571,-19.6367 -52.8115,-40.7758 2.6164,-68.3558 -25.4958,-7.917 -44.0058,-20.0077 -15.9196,-44.1161 -24.7104,-4.752 -32.1598,-33.2989 -29.3536,-43.8776 -22.4857,21.5457 -39.1208,21.0346 -47.2071,-7.7103 -38.5962,48.8917 -38.9502,9.3578 -52.5793,1.7385 -9.2198,38.1114 -32.9734,21.426 -54.7012,14.9485 7.6586,43.5652 -27.838,29.7409 -53.5726,31.92 z"
       id="path3549-3-8"
       inkscape:connector-curvature="0"
       sodipodi:nodetypes="ccccccccccccccc" />
    <path
       style="display:inline;fill:#ffffff;fill-opacity:1;fill-rule:evenodd;stroke:none;stroke-width:1px;stroke-linecap:butt;stroke-linejoin:miter;stroke-opacity:1"
       d="m 907.57193,889.81119 c -8.81473,0.86734 -15.44501,7.06793 -20.26405,13.30501 -4.38673,5.15329 -12.18285,6.20817 -18.93807,6.08783 -9.23044,0.22173 -16.93619,6.16177 -21.71485,12.8845 -2.79904,3.55077 -3.63246,8.00224 -3.37801,12.27282 -0.51833,6.67297 -6.21459,11.93324 -6.9703,18.52713 0.16443,6.3875 6.74215,10.535 8.11843,16.59892 1.43482,4.5169 2.25566,9.9862 6.986,12.7515 6.65345,3.1882 14.91216,-0.2253 21.38499,3.5487 4.65552,2.9316 8.61494,6.6895 13.1783,9.748 4.79525,3.46691 10.36477,6.0294 16.36506,7.2675 13.65218,3.3373 27.92208,0.9185 41.40962,-1.867 18.61674,-3.5707 37.62058,-5.4628 56.65035,-5.6211 5.6369,-0.3583 10.5284,-3.1437 15.0536,-5.9562 5.1629,-2.8443 11.4202,-4.4438 17.431,-3.1727 6.2475,0.7524 13.1542,2.4968 19.052,-0.3939 7.8685,-4.7571 11.0864,-13.1958 15.4998,-20.35492 3.5252,-6.1287 7.4785,-12.97344 5.784,-20.0904 -2.3671,-5.88049 -9.3328,-8.27678 -14.1478,-12.17595 -8.161,-7.58527 -7.1646,-19.54532 -14.7985,-27.42615 -7.3569,-7.78732 -19.197,-10.83932 -30.2106,-10.57648 -8.5491,0.18336 -16.81456,2.5898 -24.52014,5.78799 -5.76397,1.83563 -12.92195,1.6179 -17.47365,-2.47125 -4.52053,-3.22883 -9.99753,-6.67829 -16.08581,-5.53162 -8.48076,0.94699 -15.92603,6.65075 -24.75611,5.44371 -8.62181,-1.16006 -14.6027,-8.87024 -23.65526,-8.58594 z"
       id="path4367-3"
       inkscape:connector-curvature="0"
       sodipodi:nodetypes="ccccccccccccccccccccccc" />
    <path
       style="display:inline;color:#000000;overflow:visible;visibility:visible;fill:#ffffff;fill-opacity:1;fill-rule:nonzero;stroke:none;stroke-width:1px;marker:none;enable-background:accumulate"
       d="m 919.98446,956.58587 c 0.43094,17.40692 10.57354,33.58462 24.60304,43.46733 4.0486,3.4474 7.8177,7.2049 11.522,11.0151 -9.5441,6.7343 -21.8739,8.4934 -30.6973,16.3868 -3.0033,7.8153 2.0786,16.9291 9.5442,19.9766 7.9011,4.1347 17.5508,5.3387 23.9324,12.0527 5.8472,7.0001 1.9231,19.0861 -6.6504,21.789 -11.2727,5.778 -17.9502,20.1486 -13.5426,32.3069 4.131,10.8528 14.5875,18.0402 25.4452,21.0937 5.2942,1.6139 10.7387,2.647 16.1286,3.8787 -10.8778,-5.5071 -22.4207,-11.1561 -29.8066,-21.25 -5.866,-8.2804 -2.1755,-21.8742 7.6733,-25.1751 6.0663,-1.8597 13.149,-3.1903 17.0207,-8.7544 8.1822,-11.235 4.0413,-29.3207 -8.5309,-35.4929 -6.8306,-3.5643 -14.777,-5.4022 -20.3877,-10.9819 -1.6954,-3.9526 2.6275,-8.2401 6.5884,-7.513 7.4263,-1.7714 15.8041,-2.1777 21.7723,-7.5012 4.4591,-5.1824 3.2488,-13.2448 -0.7338,-18.3354 -8.0405,-15.38991 -15.424,-31.12291 -23.8906,-46.28913 -6.1584,-1.4328 -12.5406,-0.9451 -18.79,-1.6404 -3.7393,-0.2117 -7.4785,-0.4233 -11.21781,-0.635 0.006,0.5339 0.0117,1.0677 0.0176,1.6016 z"
       id="path5058"
       inkscape:connector-curvature="0"
       sodipodi:nodetypes="cscsssssccsssccsccccc" />
  </g>
  <g
     inkscape:groupmode="layer"
     id="layer1"
     inkscape:label="txt"
     style="display:inline">
    <text
       xml:space="preserve"
       style="font-style:normal;font-variant:normal;font-weight:normal;font-stretch:normal;font-size:45.3333px;line-height:125%;font-family:Lavi;-inkscape-font-specification:Lavi;text-align:center;letter-spacing:0px;word-spacing:0px;text-anchor:middle;fill:#000000;fill-opacity:1;stroke:none"
       x="352.83478"
       y="308.57437"
       id="text4246-70-2-2-2-7-4-9-6"><tspan
         sodipodi:role="line"
         style="font-size:45.3333px"
         x="352.83478"
         y="308.57437"
         id="tspan9933-2-7">Hmm...</tspan></text>
    <text
       xml:space="preserve"
       style="font-style:normal;font-variant:normal;font-weight:normal;font-stretch:normal;font-size:45.3333px;line-height:125%;font-family:Lavi;-inkscape-font-specification:Lavi;text-align:center;letter-spacing:0px;word-spacing:0px;text-anchor:middle;fill:#000000;fill-opacity:1;stroke:none"
       x="415.25522"
       y="407.0365"
       id="text4246-70-2-2-2-7-4-9"><tspan
         sodipodi:role="line"
         style="font-size:45.3333px"
         x="415.25522"
         y="407.0365"
         id="tspan9933-2">Je vois...</tspan></text>
    <text
       xml:space="preserve"
       style="font-style:normal;font-variant:normal;font-weight:normal;font-stretch:normal;font-size:45.3333px;line-height:125%;font-family:Lavi;-inkscape-font-specification:Lavi;text-align:center;letter-spacing:0px;word-spacing:0px;text-anchor:middle;fill:#000000;fill-opacity:1;stroke:none"
       x="2015.585"
       y="305.93054"
       id="text4246-70-2-2-2-7-4-9-7"><tspan
         sodipodi:role="line"
         style="font-size:45.3333px"
         x="2015.585"
         y="305.93054"
         id="tspan10157">    ...et te voici à présent </tspan><tspan
         sodipodi:role="line"
         style="font-size:45.3333px"
         x="2015.585"
         y="362.59717"
         id="tspan697">devant moi, car tu veux des </tspan><tspan
         sodipodi:role="line"
         style="font-size:45.3333px"
         x="2015.585"
         y="419.26379"
         id="tspan699">larmes de Phénix pour pouvoir </tspan><tspan
         sodipodi:role="line"
         style="font-size:45.3333px"
         x="2015.585"
         y="475.93042"
         id="tspan701">guérir, pas vrai ?</tspan></text>
    <text
       xml:space="preserve"
       style="font-style:normal;font-variant:normal;font-weight:normal;font-stretch:normal;font-size:45.3333px;line-height:125%;font-family:Lavi;-inkscape-font-specification:Lavi;text-align:center;letter-spacing:0px;word-spacing:0px;text-anchor:middle;fill:#000000;fill-opacity:1;stroke:none"
       x="391.04419"
       y="838.33826"
       id="text4246-70-2-2-2-7-4-9-9"><tspan
         sodipodi:role="line"
         style="font-size:45.3333px"
         x="391.04419"
         y="838.33826"
         id="tspan9933-2-3">Oui, c'est <tspan
   style="font-style:normal;font-variant:normal;font-weight:bold;font-stretch:normal;font-family:Lavi;-inkscape-font-specification:'Lavi Bold'"
   id="tspan3433">ma</tspan></tspan><tspan
         sodipodi:role="line"
         style="font-size:45.3333px"
         x="391.04419"
         y="895.00488"
         id="tspan12869"><tspan
   style="font-style:normal;font-variant:normal;font-weight:bold;font-stretch:normal;font-family:Lavi;-inkscape-font-specification:'Lavi Bold'"
   id="tspan3435">seule option</tspan>.</tspan></text>
    <text
       xml:space="preserve"
       style="font-style:normal;font-variant:normal;font-weight:normal;font-stretch:normal;font-size:45.3333px;line-height:125%;font-family:Lavi;-inkscape-font-specification:Lavi;text-align:center;letter-spacing:0px;word-spacing:0px;text-anchor:middle;display:inline;fill:#000000;fill-opacity:1;stroke:none"
       x="952.45361"
       y="960.59735"
       id="text4246-70-2-2-2-7-4-9-9-3"><tspan
         sodipodi:role="line"
         style="font-style:italic;font-variant:normal;font-weight:normal;font-stretch:normal;font-size:45.3333px;font-family:Lavi;-inkscape-font-specification:'Lavi Italic'"
         x="952.45361"
         y="960.59735"
         id="tspan12869-7">*soupir*</tspan></text>
    <text
       xml:space="preserve"
       style="font-style:normal;font-variant:normal;font-weight:normal;font-stretch:normal;font-size:45.3333px;line-height:125%;font-family:Lavi;-inkscape-font-specification:Lavi;text-align:center;letter-spacing:0px;word-spacing:0px;text-anchor:middle;fill:#000000;fill-opacity:1;stroke:none"
       x="1567.6672"
       y="827.2207"
       id="text4246-70-2-2-2-7-4-9-9-6-6"><tspan
         sodipodi:role="line"
         style="font-size:45.3333px"
         x="1567.6672"
         y="827.2207"
         id="tspan9933-2-3-0-2">... eh bien, </tspan><tspan
         sodipodi:role="line"
         style="font-size:45.3333px"
         x="1567.6672"
         y="883.88733"
         id="tspan30961-6">qu'attends-tu ?</tspan></text>
    <text
       xml:space="preserve"
       style="font-style:normal;font-variant:normal;font-weight:normal;font-stretch:normal;font-size:45.3333px;line-height:125%;font-family:Lavi;-inkscape-font-specification:Lavi;text-align:center;letter-spacing:0px;word-spacing:0px;text-anchor:middle;fill:#000000;fill-opacity:1;stroke:none"
       x="1588.8657"
       y="993.98041"
       id="text4246-70-2-2-2-7-4-9-9-6"><tspan
         sodipodi:role="line"
         style="font-size:45.3333px"
         x="1588.8657"
         y="993.98041"
         id="tspan30961">Essaie donc</tspan><tspan
         sodipodi:role="line"
         style="font-size:45.3333px"
         x="1588.8657"
         y="1050.6471"
         id="tspan35605">de me faire</tspan><tspan
         sodipodi:role="line"
         style="font-size:45.3333px"
         x="1588.8657"
         y="1107.3137"
         id="tspan35611">pleurer.</tspan></text>
    <text
       xml:space="preserve"
       style="font-style:normal;font-variant:normal;font-weight:normal;font-stretch:normal;font-size:45.3333px;line-height:125%;font-family:Lavi;-inkscape-font-specification:Lavi;text-align:center;letter-spacing:0px;word-spacing:0px;text-anchor:middle;fill:#000000;fill-opacity:1;stroke:none"
       x="1552.2095"
       y="1638.8534"
       id="text4246-70-2-2-2-7-4-9-9-6-5"><tspan
         sodipodi:role="line"
         style="font-size:45.3333px"
         x="1552.2095"
         y="1638.8534"
         id="tspan35611-6">Je te donne</tspan><tspan
         sodipodi:role="line"
         style="font-size:45.3333px"
         x="1552.2095"
         y="1695.52"
         id="tspan29603"><tspan
   style="font-style:normal;font-variant:normal;font-weight:bold;font-stretch:normal;font-family:Lavi;-inkscape-font-specification:'Lavi Bold'"
   id="tspan34809">une minute </tspan>!</tspan></text>
    <text
       xml:space="preserve"
       style="font-style:normal;font-variant:normal;font-weight:normal;font-stretch:normal;font-size:55.9581px;line-height:125%;font-family:Lavi;-inkscape-font-specification:Lavi;text-align:center;letter-spacing:0px;word-spacing:0px;text-anchor:middle;fill:#000000;fill-opacity:1;stroke:none;stroke-width:1"
       x="311.79352"
       y="1889.1261"
       id="text4246-70-2-2-2-7-4-9-9-6-1"><tspan
         sodipodi:role="line"
         style="font-style:normal;font-variant:normal;font-weight:bold;font-stretch:normal;font-size:55.9581px;font-family:Lavi;-inkscape-font-specification:'Lavi Bold';stroke-width:1"
         x="311.79352"
         y="1889.1261"
         id="tspan40668">Quoi ?!</tspan></text>
    <text
       xml:space="preserve"
       style="font-style:normal;font-variant:normal;font-weight:normal;font-stretch:normal;font-size:49.2216px;line-height:125%;font-family:Lavi;-inkscape-font-specification:Lavi;text-align:center;letter-spacing:0px;word-spacing:0px;text-anchor:middle;fill:#000000;fill-opacity:1;stroke:none;stroke-width:1"
       x="472.64255"
       y="1972.0665"
       id="text4246-70-2-2-2-7-4-9-9-6-1-2-2"><tspan
         sodipodi:role="line"
         style="font-size:49.2216px;stroke-width:1"
         x="472.64255"
         y="1972.0665"
         id="tspan44044-1">Vous <tspan
   style="font-style:normal;font-variant:normal;font-weight:bold;font-stretch:normal;font-family:Lavi;-inkscape-font-specification:'Lavi Bold';stroke-width:1"
   id="tspan50492">faire</tspan></tspan><tspan
         sodipodi:role="line"
         style="font-style:normal;font-variant:normal;font-weight:bold;font-stretch:normal;font-size:49.2216px;font-family:Lavi;-inkscape-font-specification:'Lavi Bold';stroke-width:1"
         x="472.64255"
         y="2033.5935"
         id="tspan40438">pleurer ?!</tspan></text>
    <text
       xml:space="preserve"
       style="font-style:normal;font-variant:normal;font-weight:normal;font-stretch:normal;font-size:45.3333px;line-height:125%;font-family:Lavi;-inkscape-font-specification:Lavi;text-align:center;letter-spacing:0px;word-spacing:0px;text-anchor:middle;fill:#000000;fill-opacity:1;stroke:none"
       x="660.6972"
       y="2136.5947"
       id="text4246-70-2-2-2-7-4-9-9-6-1-2"><tspan
         sodipodi:role="line"
         style="font-size:45.3333px"
         x="660.6972"
         y="2136.5947"
         id="tspan44044">Mais je ne</tspan><tspan
         sodipodi:role="line"
         style="font-size:45.3333px"
         x="660.6972"
         y="2193.2615"
         id="tspan53926">savais pas </tspan><tspan
         sodipodi:role="line"
         style="font-size:45.3333px"
         x="660.6972"
         y="2249.928"
         id="tspan53928">que...</tspan></text>
    <text
       xml:space="preserve"
       style="font-style:normal;font-variant:normal;font-weight:normal;font-stretch:normal;font-size:49.2681px;line-height:125%;font-family:Lavi;-inkscape-font-specification:Lavi;text-align:center;letter-spacing:0px;word-spacing:0px;text-anchor:middle;fill:#000000;fill-opacity:1;stroke:none;stroke-width:1"
       x="699.79742"
       y="2319.0542"
       id="text4246-70-2-2-2-7-4-9-9-6-1-2-27"
       transform="scale(0.9865238,1.0136603)"><tspan
         sodipodi:role="line"
         style="font-size:49.2681px;stroke-width:1"
         x="699.79742"
         y="2319.0542"
         id="tspan1132">En <tspan
   style="font-style:normal;font-variant:normal;font-weight:bold;font-stretch:normal;font-family:Lavi;-inkscape-font-specification:'Lavi Bold';stroke-width:1"
   id="tspan1136">une</tspan></tspan><tspan
         sodipodi:role="line"
         style="font-size:49.2681px;stroke-width:1"
         x="699.79742"
         y="2380.6394"
         id="tspan1140"><tspan
   style="font-style:normal;font-variant:normal;font-weight:bold;font-stretch:normal;font-family:Lavi;-inkscape-font-specification:'Lavi Bold';stroke-width:1"
   id="tspan1142"> minute</tspan>,</tspan><tspan
         sodipodi:role="line"
         style="font-size:49.2681px;stroke-width:1"
         x="699.79742"
         y="2442.2244"
         id="tspan1134"> en plus ?!</tspan></text>
    <text
       xml:space="preserve"
       style="font-style:normal;font-variant:normal;font-weight:normal;font-stretch:normal;font-size:48.1157px;line-height:125%;font-family:Lavi;-inkscape-font-specification:Lavi;text-align:center;letter-spacing:0px;word-spacing:0px;text-anchor:middle;fill:#000000;fill-opacity:1;stroke:none;stroke-width:1"
       x="1022.1918"
       y="1917.3142"
       id="text4246-70-2-2-2-7-4-9-9-6-1-2-3"><tspan
         sodipodi:role="line"
         style="font-size:48.1157px;stroke-width:1"
         x="1022.1918"
         y="1917.3142"
         id="tspan44044-5">Heu...</tspan></text>
    <text
       xml:space="preserve"
       style="font-style:normal;font-variant:normal;font-weight:normal;font-stretch:normal;font-size:51.9425px;line-height:125%;font-family:Lavi;-inkscape-font-specification:Lavi;text-align:center;letter-spacing:0px;word-spacing:0px;text-anchor:middle;fill:#000000;fill-opacity:1;stroke:none;stroke-width:1"
       x="1187.4293"
       y="1953.7235"
       id="text4246-70-2-2-2-7-4-9-9-6-1-2-3-9-6"><tspan
         sodipodi:role="line"
         style="font-style:normal;font-variant:normal;font-weight:bold;font-stretch:normal;font-size:51.9425px;font-family:Lavi;-inkscape-font-specification:'Lavi Bold';stroke-width:1"
         x="1187.4293"
         y="1953.7235"
         id="tspan62775-6">OK !</tspan></text>
    <text
       xml:space="preserve"
       style="font-style:normal;font-variant:normal;font-weight:normal;font-stretch:normal;font-size:40.5417px;line-height:125%;font-family:Lavi;-inkscape-font-specification:Lavi;text-align:center;letter-spacing:0px;word-spacing:0px;text-anchor:middle;fill:#000000;fill-opacity:1;stroke:none;stroke-width:1"
       x="1377.374"
       y="1972.0564"
       id="text4246-70-2-2-2-7-4-9-9-6-1-2-3-9-6-0"><tspan
         sodipodi:role="line"
         style="font-size:40.5417px;stroke-width:1"
         x="1377.374"
         y="1972.0564"
         id="tspan62775-6-2">Voyons voir.</tspan></text>
    <text
       xml:space="preserve"
       style="font-style:normal;font-variant:normal;font-weight:normal;font-stretch:normal;font-size:45.3333px;line-height:125%;font-family:Lavi;-inkscape-font-specification:Lavi;text-align:center;letter-spacing:0px;word-spacing:0px;text-anchor:middle;fill:#000000;fill-opacity:1;stroke:none"
       x="1277.869"
       y="2055.957"
       id="text4246-70-2-2-2-7-4-9-9-6-1-2-3-9"><tspan
         sodipodi:role="line"
         style="font-size:45.3333px"
         x="1277.869"
         y="2055.957"
         id="tspan62775">Hmm... Pensez à</tspan><tspan
         sodipodi:role="line"
         style="font-size:45.3333px"
         x="1277.869"
         y="2112.6238"
         id="tspan85354"><tspan
   style="font-style:normal;font-variant:normal;font-weight:bold;font-stretch:normal;font-family:Lavi;-inkscape-font-specification:'Lavi Bold'"
   id="tspan173527">la faim dans le monde</tspan>.</tspan></text>
    <text
       xml:space="preserve"
       style="font-style:normal;font-variant:normal;font-weight:normal;font-stretch:normal;font-size:45.3333px;line-height:125%;font-family:Lavi;-inkscape-font-specification:Lavi;text-align:center;letter-spacing:0px;word-spacing:0px;text-anchor:middle;fill:#000000;fill-opacity:1;stroke:none"
       x="1278.3167"
       y="2194.4316"
       id="text4246-70-2-2-2-7-4-9-9-6-1-2-3-9-2"><tspan
         sodipodi:role="line"
         style="font-size:45.3333px"
         x="1278.3167"
         y="2194.4316"
         id="tspan62775-9">Heu non non non !</tspan></text>
    <text
       xml:space="preserve"
       style="font-style:normal;font-variant:normal;font-weight:normal;font-stretch:normal;font-size:45.3333px;line-height:125%;font-family:Lavi;-inkscape-font-specification:Lavi;text-align:center;letter-spacing:0px;word-spacing:0px;text-anchor:middle;fill:#000000;fill-opacity:1;stroke:none"
       x="1269.4706"
       y="2262.7942"
       id="text4246-70-2-2-2-7-4-9-9-6-1-2-3-9-2-2"><tspan
         sodipodi:role="line"
         style="font-size:45.3333px"
         x="1269.4706"
         y="2262.7942"
         id="tspan62775-9-6">J'ai mieux :</tspan></text>
    <text
       xml:space="preserve"
       style="font-style:normal;font-variant:normal;font-weight:normal;font-stretch:normal;font-size:45.3333px;line-height:125%;font-family:Lavi;-inkscape-font-specification:Lavi;text-align:center;letter-spacing:0px;word-spacing:0px;text-anchor:middle;fill:#000000;fill-opacity:1;stroke:none"
       x="1296.0024"
       y="2341.2722"
       id="text4246-70-2-2-2-7-4-9-9-6-1-2-3-9-2-7-6"><tspan
         sodipodi:role="line"
         style="font-size:45.3333px"
         x="1296.0024"
         y="2341.2722"
         id="tspan62775-9-3-1">Vos êtres chers</tspan><tspan
         sodipodi:role="line"
         style="font-size:45.3333px"
         x="1296.0024"
         y="2397.939"
         id="tspan70880-2"><tspan
   style="font-style:normal;font-variant:normal;font-weight:bold;font-stretch:normal;font-family:Lavi;-inkscape-font-specification:'Lavi Bold'"
   id="tspan188616">disparus</tspan>.</tspan></text>
    <text
       xml:space="preserve"
       style="font-style:normal;font-variant:normal;font-weight:normal;font-stretch:normal;font-size:45.3333px;line-height:125%;font-family:Lavi;-inkscape-font-specification:Lavi;text-align:center;letter-spacing:0px;word-spacing:0px;text-anchor:middle;fill:#000000;fill-opacity:1;stroke:none"
       x="1184.426"
       y="3080.6577"
       id="text4246-70-2-2-2-7-4-9-9-6-1-2-3-9-2-7"><tspan
         sodipodi:role="line"
         style="font-size:45.3333px"
         x="1184.426"
         y="3080.6577"
         id="tspan70880">Toujours pas ?</tspan></text>
    <text
       xml:space="preserve"
       style="font-style:normal;font-variant:normal;font-weight:normal;font-stretch:normal;font-size:45.3333px;line-height:125%;font-family:Lavi;-inkscape-font-specification:Lavi;text-align:center;letter-spacing:0px;word-spacing:0px;text-anchor:middle;fill:#000000;fill-opacity:1;stroke:none"
       x="1258.7228"
       y="3172.1897"
       id="text4246-70-2-2-2-7-4-9-9-6-1-2-3-9-2-7-9"><tspan
         sodipodi:role="line"
         style="font-size:45.3333px"
         x="1258.7228"
         y="3172.1897"
         id="tspan70880-3">Et <tspan
   style="font-style:normal;font-variant:normal;font-weight:bold;font-stretch:normal;font-family:Lavi;-inkscape-font-specification:'Lavi Bold'"
   id="tspan179566">les animaux </tspan></tspan><tspan
         sodipodi:role="line"
         style="font-size:45.3333px"
         x="1258.7228"
         y="3228.8564"
         id="tspan80607"><tspan
   style="font-style:normal;font-variant:normal;font-weight:bold;font-stretch:normal;font-family:Lavi;-inkscape-font-specification:'Lavi Bold'"
   id="tspan179568">abandonnés </tspan>?!</tspan></text>
    <text
       xml:space="preserve"
       style="font-style:normal;font-variant:normal;font-weight:normal;font-stretch:normal;font-size:30.5428px;line-height:125%;font-family:Lavi;-inkscape-font-specification:Lavi;text-align:center;letter-spacing:0px;word-spacing:0px;text-anchor:middle;fill:#000000;fill-opacity:1;stroke:none;stroke-width:0.999999"
       x="1321.5493"
       y="3293.5981"
       id="text4246-70-2-2-2-7-4-9-9-6-1-2-3-9-2-7-9-1"><tspan
         sodipodi:role="line"
         style="font-size:30.5428px;stroke-width:0.999999"
         x="1321.5493"
         y="3293.5981"
         id="tspan80607-7">Ça, c'est trop</tspan><tspan
         sodipodi:role="line"
         style="font-size:30.5428px;stroke-width:0.999999"
         x="1321.5493"
         y="3331.7766"
         id="tspan113931">triste, les animaux </tspan><tspan
         sodipodi:role="line"
         style="font-size:30.5428px;stroke-width:0.999999"
         x="1321.5493"
         y="3369.9551"
         id="tspan115521">abandonnés...</tspan></text>
    <text
       xml:space="preserve"
       style="font-style:normal;font-variant:normal;font-weight:normal;font-stretch:normal;font-size:45.3333px;line-height:125%;font-family:Lavi;-inkscape-font-specification:Lavi;text-align:center;letter-spacing:0px;word-spacing:0px;text-anchor:middle;fill:#000000;fill-opacity:1;stroke:none"
       x="2282.5342"
       y="3193.1409"
       id="text4246-70-2-2-2-7-4-9-9-6-1-2-3-9-2-7-9-5"><tspan
         sodipodi:role="line"
         style="font-size:45.3333px"
         x="2282.5342"
         y="3193.1409"
         id="tspan80607-3">...</tspan></text>
  </g>
</svg>
