<?xml version="1.0" encoding="UTF-8" standalone="no"?>
<!-- Created with Inkscape (http://www.inkscape.org/) -->

<svg
   id="svg2"
   version="1.1"
   inkscape:version="1.2 (dc2aedaf03, 2022-05-15)"
   width="2481"
   height="3503"
   sodipodi:docname="E37P07.svg"
   xmlns:inkscape="http://www.inkscape.org/namespaces/inkscape"
   xmlns:sodipodi="http://sodipodi.sourceforge.net/DTD/sodipodi-0.dtd"
   xmlns:xlink="http://www.w3.org/1999/xlink"
   xmlns="http://www.w3.org/2000/svg"
   xmlns:svg="http://www.w3.org/2000/svg"
   xmlns:rdf="http://www.w3.org/1999/02/22-rdf-syntax-ns#"
   xmlns:cc="http://creativecommons.org/ns#"
   xmlns:dc="http://purl.org/dc/elements/1.1/">
  <metadata
     id="metadata8">
    <rdf:RDF>
      <cc:Work
         rdf:about="">
        <dc:format>image/svg+xml</dc:format>
        <dc:type
           rdf:resource="http://purl.org/dc/dcmitype/StillImage" />
        <dc:title />
      </cc:Work>
    </rdf:RDF>
  </metadata>
  <defs
     id="defs6">
    <filter
       style="color-interpolation-filters:sRGB"
       id="filter4375-4-1-1-1-9-6-9-2-1-5-4"
       inkscape:label="deevad outline effect"
       x="-0.007108724"
       y="-0.012620398"
       width="1.0142174"
       height="1.0252408">
      <feFlood
         id="feFlood4377-7-9-0-8-1-0-2-2-06-5-3"
         flood-opacity="1"
         flood-color="rgb(0,0,0)"
         result="flood" />
      <feComposite
         id="feComposite4379-3-8-8-2-77-6-0-8-3-8-64"
         in2="SourceGraphic"
         in="flood"
         operator="in"
         result="composite1" />
      <feMorphology
         id="feMorphology4393-1-0-49-8-9-2-2-9-2-7-3"
         operator="dilate"
         radius="4"
         result="result3" />
      <feComposite
         id="feComposite4385-9-5-7-0-8-6-3-7-0-1-1"
         in2="result3"
         in="SourceGraphic"
         operator="over"
         result="composite2" />
    </filter>
  </defs>
  <sodipodi:namedview
     pagecolor="#ffffff"
     bordercolor="#666666"
     borderopacity="1"
     objecttolerance="10"
     gridtolerance="10"
     guidetolerance="10"
     inkscape:pageopacity="0"
     inkscape:pageshadow="2"
     inkscape:window-width="1920"
     inkscape:window-height="1056"
     id="namedview4"
     showgrid="false"
     inkscape:zoom="0.40000001"
     inkscape:cx="1112.5"
     inkscape:cy="1031.25"
     inkscape:window-x="1920"
     inkscape:window-y="0"
     inkscape:window-maximized="1"
     inkscape:current-layer="layer3"
     inkscape:pagecheckerboard="0"
     inkscape:showpageshadow="0"
     inkscape:deskcolor="#d1d1d1" />
  <g
     inkscape:groupmode="layer"
     id="layer2"
     inkscape:label="artwork"
     sodipodi:insensitive="true">
    <image
       xlink:href="../gfx_Pepper-and-Carrot_by-David-Revoy_E37P07.png"
       y="0"
       x="0"
       id="image10"
       height="3503"
       width="2481" />
  </g>
  <g
     inkscape:groupmode="layer"
     id="layer3"
     inkscape:label="speechbubbles">
    <path
       style="display:inline;fill:#ffffff;fill-rule:evenodd;stroke:none;stroke-width:1.11956px;stroke-linecap:butt;stroke-linejoin:miter;stroke-opacity:1"
       d="m 1921.7927,1520.1844 c -35.9251,-2.1925 -88.0218,13.4421 -57.8055,58.5611 -65.9732,-29.567 -202.9817,-48.1547 -224.7658,1.0987 -3.6662,-60.2413 -39.3862,-51.5044 -75.8826,-36.998 34.734,-24.7327 6.7781,-21.3252 -27.4203,-21.8573 70.8688,-53.3939 32.4763,-68.9295 3.4743,-87.7194 71.4105,12.7179 53.4447,-16.055 61.4812,-32.7562 61.9363,35.9406 106.0033,26.017 140.0668,-9.5823 18.8186,18.4744 25.6222,57.4177 91.4864,-4.2556 -23.4149,52.4495 8.9678,46.2344 60.9433,19.421 -7.7763,17.8595 -56.1072,45.885 26.4484,41.1043 -51.1595,18.0168 -61.3678,41.0217 1.9738,72.9837 z"
       id="path4584-8"
       inkscape:connector-curvature="0"
       sodipodi:nodetypes="cccccccccccc" />
    <path
       style="fill:#ffffff;stroke:none;stroke-width:0.987614"
       d="m 1666.7404,1542.0644 c -44.6523,0.5463 -89.9706,9.0845 -129.3335,29.8371 -27.6701,14.5859 -45.3115,43.9008 -46.5732,73.8384 -2.9365,27.4193 4.3473,56.9139 24.3896,77.4271 19.3741,20.0065 46.397,31.1059 73.2512,38.7966 52.1958,14.9949 107.2327,16.1774 161.3169,16.0282 57.8991,-0.7174 116.5174,-7.0081 171.0756,-26.4024 15.6353,-5.6003 31.1467,-13.3361 41.6693,-26.0938 11.1398,-12.513 17.6127,-28.2474 20.5599,-44.3028 6.9488,-32.1101 -1.6135,-67.5264 -24.7099,-92.1362 -16.3728,-17.8904 -38.9604,-29.6267 -62.5689,-36.4149 -32.2378,-9.7235 -66.4626,-10.4396 -99.9664,-9.2849 -36.421,0.7289 -72.8621,0.3349 -109.2593,-1.0738 -6.6162,-0.1281 -13.2335,-0.2342 -19.8513,-0.2186 z"
       id="path3280-8-0-3"
       inkscape:connector-curvature="0"
       sodipodi:nodetypes="csssc" />
    <path
       style="fill:#ffffff;fill-rule:evenodd;stroke:none;stroke-width:1px;stroke-linecap:butt;stroke-linejoin:miter;stroke-opacity:1"
       d="m 1936.1061,1731.1574 c 19.1204,15.4627 39.0722,32.1803 63.6123,29.0086 -15.036,6.0295 -43.8148,9.8246 -66.282,-5.5838 -35.0644,-24.0476 0.2146,-23.9396 0.2146,-23.9396 z"
       id="path4248"
       inkscape:connector-curvature="0"
       sodipodi:nodetypes="ccscc" />
    <path
       style="fill:#ffffff;fill-rule:evenodd;stroke:none;stroke-width:0.84259px;stroke-linecap:butt;stroke-linejoin:miter;stroke-opacity:1"
       d="m 209.18843,2520.692 c 13.91687,18.6091 30.69058,26.056 55.768,1.0613 20.456,6.0403 20.31799,24.7701 87.33472,2.1218 -38.46395,28.588 -22.32998,30.9026 0,30.236 -32.44044,37.0364 -4.7759,31.2953 7.36561,36.6022 -39.75751,22.3704 -34.5481,32.8673 -15.78336,39.7846 -13.40496,13.5521 -22.77006,26.6965 5.26103,36.0712 -21.92211,3.6978 -52.96264,2.0329 -43.14122,24.4014 -34.8096,-14.1518 -59.10343,-10.2794 -79.96913,-0.5309 -18.00279,-12.9686 -32.62185,-29.3494 -83.12584,-9.548 27.96981,-21.9401 16.90362,-32.9472 -5.26117,-40.8458 41.64075,-21.2391 9.13426,-28.6347 -23.14898,-36.0712 58.36414,-2.5541 41.77684,-26.0994 26.30571,-49.3332 27.32733,4.6669 54.75149,9.6745 68.39463,-33.9494 z"
       id="path4489"
       inkscape:connector-curvature="0"
       sodipodi:nodetypes="cccccccccccccc" />
    <path
       style="color:#000000;display:inline;overflow:visible;visibility:visible;fill:#ffffff;fill-opacity:1;fill-rule:nonzero;stroke:none;stroke-width:1px;marker:none;enable-background:accumulate"
       d="m 194.15137,2627.0953 c 14.3116,13.119 20.5898,27.322 21.7824,31.497 1.1926,4.174 -2.1039,30.52 2.0703,35.291 4.1742,4.77 19.6785,5.366 21.4675,8.944 1.7889,3.578 -3.5779,22.064 0,25.642 3.5779,3.578 28.6232,13.119 29.8159,16.101 1.1926,2.981 7.7521,19.082 19.6784,31.604 -11.33,-31.604 -7.7521,-38.164 -11.9263,-42.934 -4.1742,-4.771 -15.9274,-10.181 -18.3127,-15.548 -2.3853,-5.367 6.711,-25.728 0.086,-28.027 -4.7705,-4.77 -19.8083,-10.267 -19.8083,-10.267 4.1743,-4.771 18.356,-27.854 -1.3225,-55.881 -19.6785,-28.027 -43.5312,3.578 -43.5312,3.578 z"
       id="path5050-8"
       inkscape:connector-curvature="0"
       sodipodi:nodetypes="csccscccccccc" />
    <path
       style="color:#000000;display:inline;overflow:visible;visibility:visible;fill:#ffffff;fill-opacity:1;fill-rule:nonzero;stroke:none;stroke-width:1.20338px;marker:none;enable-background:accumulate"
       d="m 1026.0995,2698.1663 c 2.8018,-50.3777 54.4643,-84.1254 181.5962,-75.284 68.0987,4.7367 145.3684,7.6801 142.0527,81.4762 -3.3155,73.7962 -114.31,72.4521 -137.1746,74.2916 -22.8647,1.8394 -142.9615,-0.49 -164.4088,-25.4802 -13.4256,-15.6437 -22.0758,-39.4049 -22.0655,-55.0036 z"
       id="path4546-6-89"
       inkscape:connector-curvature="0"
       sodipodi:nodetypes="cssssc" />
    <path
       style="color:#000000;display:inline;overflow:visible;visibility:visible;fill:#ffffff;fill-opacity:1;fill-rule:nonzero;stroke:none;stroke-width:1px;marker:none;enable-background:accumulate"
       d="m 1112.3939,2718.8111 c -36.5658,59.4022 -50.7173,145.4159 26.0841,179.4136 -60.0157,-38.5902 -23.0543,-135.4959 8.3656,-161.6817 21.2953,-14.4935 -34.4497,-17.7319 -34.4497,-17.7319 z"
       id="path3978-4"
       inkscape:connector-curvature="0"
       sodipodi:nodetypes="cccc" />
    <path
       style="color:#000000;display:inline;overflow:visible;visibility:visible;fill:#ffffff;fill-opacity:1;fill-rule:nonzero;stroke:none;stroke-width:1.69256px;marker:none;enable-background:accumulate"
       d="m 275.81528,829.53573 c -57.73566,0.9676 -116.1952,5.66989 -171.17298,22.34446 -33.487816,9.98566 -62.654974,31.29889 -80.039215,58.73876 -6.994036,14.04367 -6.615686,29.72182 -9.161693,44.65281 -1.784199,17.40577 1.837304,36.09258 14.522754,49.91654 15.826977,18.5713 38.355176,31.3016 60.865059,42.539 29.977335,13.9914 63.623555,20.555 97.179235,22.6975 51.3349,5.3696 103.23886,7.4139 154.81828,3.7431 30.81585,-2.0126 61.80763,-4.6083 91.76876,-11.6491 17.39221,-4.1219 33.82895,-10.8525 49.47849,-18.6996 15.7401,-7.8413 31.21996,-16.2556 45.42677,-26.1843 18.60558,-13.7981 32.88926,-33.17765 35.99274,-54.88729 5.30702,-30.69331 -8.36317,-63.87725 -36.19117,-82.89948 -28.62948,-21.59998 -65.10973,-32.4926 -101.23964,-39.42043 -49.93744,-9.70007 -101.31918,-11.23153 -152.24739,-10.89197 z"
       id="path3365-9"
       inkscape:connector-curvature="0"
       sodipodi:nodetypes="csszcsc"
       inkscape:transform-center-x="-498.87641"
       inkscape:transform-center-y="147.54627" />
    <path
       style="fill:#ffffff;fill-rule:evenodd;stroke:none;stroke-width:0.977216px;stroke-linecap:butt;stroke-linejoin:miter;stroke-opacity:1"
       d="m 1029.7571,920.64705 c 10.9731,-65.50225 101.4386,-92.81872 197.7064,-86.01322 45.1242,3.18999 120.5141,-3.04759 145.0143,11.64251 27.7684,16.64965 5.2477,62.88484 6.1676,82.82731 0.3742,31.1419 -12.1302,78.95915 -111.1521,88.82865 -99.022,9.8696 -246.548,-2.882 -237.7362,-97.28525 z"
       id="path912"
       inkscape:connector-curvature="0"
       sodipodi:nodetypes="csscsc" />
    <path
       style="color:#000000;display:inline;overflow:visible;visibility:visible;fill:#ffffff;fill-opacity:1;fill-rule:nonzero;stroke:none;stroke-width:0.989872px;marker:none;enable-background:accumulate"
       d="m 473.4959,1110.2215 c -40.3937,1.8691 -54.77121,0.1547 -74.36032,-43.9141 -19.5892,-44.0678 -35.24613,-35.3212 -35.24613,-35.3212 l -26.14855,14.5263 c 0,0 69.82372,109.5525 135.755,64.709 z"
       id="path3072-5-5"
       inkscape:connector-curvature="0"
       sodipodi:nodetypes="ccccc" />
    <path
       style="color:#000000;display:inline;overflow:visible;visibility:visible;fill:#ffffff;fill-opacity:1;fill-rule:nonzero;stroke:none;stroke-width:1.18666px;marker:none;enable-background:accumulate"
       d="m 1185.2636,970.87365 c 9.0206,24.3101 13.1324,82.50155 -80.7067,96.26575 51.5508,-19.8949 62.0936,-41.7392 52.6757,-73.22242 -6.0659,-20.27796 4.2366,-21.91106 4.2366,-21.91106 z"
       id="path4440-1"
       inkscape:connector-curvature="0"
       sodipodi:nodetypes="ccscc" />
    <path
       style="display:inline;fill:#ffffff;fill-rule:evenodd;stroke:none;stroke-width:1.01877px;stroke-linecap:butt;stroke-linejoin:miter;stroke-opacity:1"
       d="m 1563.2191,834.10016 c 28.2256,1.43741 24.1693,30.2986 -8.3389,32.52833 30.0736,11.07394 22.1849,16.55772 5.4421,20.73654 32.2379,49.96334 15.449,78.92487 -2.4932,107.39244 46.0553,-10.29071 43.0923,15.90833 50.8641,34.11683 16.0765,-33.93418 16.7527,-11.3404 13.132,27.0265 18.1848,-44.0327 25.696,-47.0666 23.4768,-12.7143 14.6358,-27.6181 28.7855,-37.5698 42.3763,-27.2159 33.8288,-24.19393 54.2771,-7.4248 38.7593,25.824 38.2648,-36.4952 47.275,-36.5499 52.5322,-15.3076 6.3251,-15.7172 10.9459,-38.49762 32.6487,-1.4653 5.8329,-43.91327 15.4551,-6.6044 22.6908,-0.9801 3.548,-42.1807 51.2989,-24.67207 54.9369,-5.0224 -2.5276,-8.6471 -2.0199,-18.0901 2.07,-28.47237 -3.7417,-14.95333 -3.2371,-30.00482 -0.5017,-45.10804 -3.9782,-26.67646 1.4726,-47.64662 4.5706,-70.04025 -5.1411,8.79645 -8.5841,-36.83532 -8.3451,-39.40497 -8.1433,1.71777 -54.7562,-0.36731 -47.2319,-1.28703 -37.4885,2.22104 -29.5424,0.137 -35.126,-0.66509 -81.4284,-8.26292 -80.3511,-0.48864 -92.8138,-2.19083 -17.0946,3.40129 -30.7477,1.98864 -44.3869,0.55613 -8.0015,2.90754 -16.1433,2.0104 -24.2824,1.19283 -5.0728,1.24643 -16.5159,1.56075 -36.5478,0.61834 13.0142,1.10599 2.5574,1.23425 -43.4321,-0.11776 z"
       id="path4289-9"
       inkscape:connector-curvature="0"
       sodipodi:nodetypes="cccccccccccccccccccccccc" />
    <path
       style="color:#000000;display:inline;overflow:visible;visibility:visible;fill:#ffffff;fill-opacity:1;fill-rule:nonzero;stroke:none;stroke-width:1px;marker:none;enable-background:accumulate"
       d="m 1669.8183,1095.0591 c 52.9673,-34.0351 71.8625,-58.8898 88.416,-83.1049 7.7887,-11.3942 -22.5092,-17.40291 -22.5092,-17.40291 l -11.5344,24.88391 c 0,0 -12.622,41.2034 -54.3724,75.6239 z"
       id="path4000-2"
       inkscape:connector-curvature="0"
       sodipodi:nodetypes="csccc"
       inkscape:transform-center-x="-308.61774"
       inkscape:transform-center-y="-55.962808" />
    <path
       style="color:#000000;display:inline;overflow:visible;visibility:visible;fill:#ffffff;fill-opacity:1;fill-rule:nonzero;stroke:none;stroke-width:1px;marker:none;enable-background:accumulate"
       d="m 2170.4717,893.06789 c -21.7199,4.3 -44.3146,2.474 -65.7458,8.48024 -15.2905,3.68185 -31.0907,6.81325 -46.8816,5.0084 -11.1328,-0.76246 -22.8996,0.98586 -32.2442,7.41742 -13.1892,8.16372 -24.6892,18.84257 -34.6093,30.68497 -4.7517,6.13911 -8.9099,13.47915 -8.6271,21.4617 0.6589,8.15921 5.8847,15.15373 11.9704,20.30721 12.2206,11.28947 28.7927,17.18997 45.3102,17.97797 18.8757,2.0412 37.1882,8.4338 56.3052,8.3195 10.4712,-0.2781 20.7221,-3.8652 31.2443,-2.7997 8.0433,0.8683 15.4662,4.3097 23.2566,6.2176 6.9522,1.537 14.3981,1.1896 20.9879,-1.6153 8.4368,-2.9368 17.0934,-6.5934 26.2321,-5.7289 15.0365,0.5627 30.0412,-1.2812 44.8092,-3.949 10.4909,-1.5891 21.4113,-2.4686 31.0242,-7.31471 11.6148,-7.59444 20.6002,-18.30337 30.2865,-28.05488 4.2808,-4.8901 7.402,-11.66219 5.6127,-18.21358 -1.7726,-7.65644 -7.8969,-13.53177 -14.6951,-17.07615 -12.7115,-8.41435 -25.4001,-17.0486 -36.4076,-27.63675 -8.1606,-5.57908 -18.5847,-6.33441 -28.1499,-5.14311 -13.7915,1.01127 -27.6677,-1.24936 -40.7533,-5.54882 -6.1866,-1.56346 -12.5096,-2.88962 -18.9254,-2.79411 z"
       id="path3365-8"
       inkscape:connector-curvature="0"
       sodipodi:nodetypes="cssccsc" />
    <path
       style="display:inline;fill:#ffffff;fill-opacity:1;fill-rule:evenodd;stroke:none;stroke-width:1px;stroke-linecap:butt;stroke-linejoin:miter;stroke-opacity:1"
       d="m 2231.8795,955.14643 c -1.4297,8.459 7.6905,12.502 13.3057,16.588 7.0937,5.072 5.0374,15.927 -2.8535,18.922 -6.6614,2.438 -9.0687,9.339 -9.5278,15.82497 0.6979,7.757 3.662,13.46 2.8543,19.998 0.7758,9.959 11.0423,12.466 10.1091,22.941 -0.9566,6.951 -5.9088,9.739 -12.2778,13.752 2.1992,4.9978 -11.1367,21.6776 -16.8896,25.4794 7.8261,-4.4494 22.2841,-11.4819 25.4378,-21.2415 12.9454,-6.0505 22.9576,-18.2077 12.7096,-32.1719 -7.4268,-8.207 -10.2366,-22.295 -1.8919,-30.861 6.0058,-4.62697 13.7043,-10.08597 12.902,-18.73797 -2.3975,-11.731 -3.0261,-25.609 -12.9899,-33.83 -5.6468,-3.884 -8.5965,-13.223 -16.3596,-12.996 -6.7189,2.442 -5.6829,10.787 -4.5284,16.333 z"
       id="path4396-1"
       inkscape:connector-curvature="0"
       sodipodi:nodetypes="ccccccccccccccc" />
    <path
       style="color:#000000;display:inline;overflow:visible;visibility:visible;fill:#ffffff;fill-opacity:1;fill-rule:nonzero;stroke:none;stroke-width:0.58297px;marker:none;enable-background:accumulate"
       d="m 1925.1424,869.40511 c 9.7784,-12.51422 117.4695,-21.42748 145.3353,6.87679 19.4198,19.72576 18.3957,55.40763 1.7504,65.25521 -16.6451,9.84672 -97.0072,12.61998 -119.8474,7.60573 -20.5392,-4.50995 -42.0981,-14.21594 -43.2348,-40.05023 -0.4639,-10.54418 6.218,-27.17241 15.9965,-39.6875 z"
       id="path4040-3"
       inkscape:connector-curvature="0"
       sodipodi:nodetypes="zssssz" />
    <path
       style="color:#000000;display:inline;overflow:visible;visibility:visible;fill:#ffffff;fill-opacity:1;fill-rule:nonzero;stroke:none;stroke-width:0.999998px;marker:none;enable-background:accumulate"
       d="m 192.32826,1381.1217 c -6.61016,21.6773 -43.89296,23.4951 -57.61779,19.0895 27.66598,24.2507 26.70152,39.3181 -10.86128,41.6571 62.99339,43.7067 11.51606,37.0932 1.36256,48.1757 49.4615,15.0627 27.33186,33.8074 18.52597,52.4681 56.85112,0.6415 38.24636,30.5542 40.64254,54.3771 4.8196,-11.1786 27.71603,-45.2131 29.09366,-7.3187 37.60372,-36.1525 82.89635,-59.5056 86.49279,3.7627 15.15114,-31.8288 41.29632,-44.8326 40.13333,-6.871 37.53972,-49.3746 60.23483,-32.0494 94.16952,-18.0944 -9.11029,-17.9032 -28.29904,-44.1647 38.7861,-32.4319 -37.3192,-21.093 -8.29092,-27.5628 11.35477,-32.131 -15.88479,-8.9225 -18.81229,-18.1262 10.68219,-28.0301 -22.44361,-0.9587 -43.37242,-2.9217 -17.04117,-36.6979 -8.26086,-0.8181 -40.25615,28.5438 -23.44838,-53.9389 -26.12721,26.4058 -54.00264,40.9794 -88.96095,-14.3336 -16.54397,27.6338 -45.23915,41.3076 -57.72309,6.7913 -4.4869,14.7143 -23.09218,20.2489 -38.88672,20.9193 -6.10779,-5.8447 -12.40727,-13.7832 -18.98094,-24.1846 -10.74432,21.8396 -26.81658,36.5898 -57.72311,6.7913 z"
       id="path3549-3-7-3"
       inkscape:connector-curvature="0"
       sodipodi:nodetypes="cccccccccccccccccccc" />
    <path
       style="color:#000000;display:inline;overflow:visible;visibility:visible;fill:#ffffff;fill-opacity:1;fill-rule:nonzero;stroke:none;stroke-width:1px;marker:none;enable-background:accumulate"
       d="m 264.8927,1553.8317 c -6.75576,12.853 -43.26253,45.4194 -53.2553,55.6175 4.16934,1.1193 18.49163,-0.6612 23.70885,-0.424 -28.18696,30.3633 -75.14135,49.9921 -114.1922,49.1115 24.25327,-6.1985 48.19266,-15.9707 67.33595,-32.4693 1.27157,-1.27 2.94318,-2.2742 3.93941,-3.7153 0.44585,-1.5091 -1.22772,-1.1492 -2.12241,-1.2189 -6.48954,-0.5288 -13.00655,-0.3703 -19.51056,-0.3998 15.86642,-14.3214 47.17809,-46.8583 52.52599,-64.6698 4.97614,-0.092 37.13148,-4.0317 41.79442,-2.4536 3.48254,-1.6486 2.08311,1.2448 2.00837,1.4519 z"
       id="path5066-7"
       inkscape:connector-curvature="0"
       sodipodi:nodetypes="cccccccccccc" />
    <path
       style="fill:#ffffff;fill-rule:evenodd;stroke:none;stroke-width:1px;stroke-linecap:butt;stroke-linejoin:miter;stroke-opacity:1"
       d="m 157.8069,2096.6973 c 7.4959,18.2948 15.02654,35.498 39.34133,-13.5676 -2.74445,14.6793 0.45019,39.1305 36.25433,16.6856 -20.31902,28.0034 -11.79607,30.2706 0,29.6177 -17.13704,36.279 -2.52293,30.6553 3.89097,35.8536 -21.00237,21.913 -18.25044,32.1952 -8.33775,38.971 -7.08132,13.275 -12.02854,26.1506 2.7792,35.3336 -11.5806,3.6221 -27.97812,1.9913 -22.78984,23.9024 -18.38857,-13.8625 -31.22207,-10.0693 -42.24461,-0.5201 -9.51018,-12.7034 -17.23287,-28.7492 -43.91219,-9.3527 14.77538,-21.4914 8.92954,-32.2734 -2.77927,-40.0105 21.99721,-20.8048 4.82528,-28.0492 -12.22871,-35.3336 30.83153,-2.5019 22.0691,-25.5657 13.89629,-48.3243 14.43598,4.5714 28.92311,9.4767 36.13025,-33.2551 z"
       id="path4489-0"
       inkscape:connector-curvature="0"
       sodipodi:nodetypes="cccccccccccccc" />
    <path
       style="fill:#ffffff;stroke:none;stroke-width:0.999997"
       d="M 1429.0918 1395.6445 C 1416.0181 1399.1158 1402.5029 1401.5231 1388.9286 1400.8571 C 1385.5677 1400.9092 1382.1977 1401.0254 1378.8691 1401.5254 C 1371.986 1405.8151 1367.3168 1412.8612 1364.3125 1420.2578 C 1359.9382 1428.832 1355.3909 1437.3267 1351.4746 1446.125 C 1350.0065 1458.9518 1358.9258 1472.0853 1371.3906 1475.4492 C 1382.7905 1477.3273 1394.4504 1478.8701 1405.0772 1483.6682 C 1412.7393 1486.6682 1421.2338 1488.2537 1429.3842 1486.48 C 1441.6671 1484.524 1453.9157 1481.1834 1466.4574 1481.9368 C 1481.782 1483.2667 1496.2588 1489.804 1511.7367 1489.9531 C 1522.3708 1490.0795 1532.7297 1487.1848 1542.7703 1483.9705 C 1550.6248 1482.1032 1558.7642 1483.105 1566.6476 1484.215 C 1574.2437 1484.5315 1581.5834 1480.7946 1586.6167 1475.2441 C 1594.4707 1467.6105 1600.3679 1457.6285 1601.968 1446.6974 C 1603.2907 1436.1095 1600.7916 1424.7368 1593.7773 1416.5 C 1588.831 1410.5144 1581.1254 1407.1536 1573.4214 1406.9902 C 1562.9819 1406.0333 1552.2472 1405.7603 1542.3532 1401.9172 C 1529.9273 1397.3424 1516.4549 1394.9647 1503.2415 1396.7589 C 1489.5745 1398.1525 1475.71 1399.7558 1462.0285 1397.6275 C 1452.6106 1396.3613 1443.2018 1394.7952 1433.6855 1394.5195 C 1432.1543 1394.8945 1430.623 1395.2695 1429.0918 1395.6445 z "
       id="path3280-1"
       inkscape:connector-curvature="0"
       sodipodi:nodetypes="csssc" />
    <path
       style="fill:#ffffff;fill-opacity:1;stroke:none;stroke-width:0.999996"
       d="m 544.83061,1488.0259 c 31.13037,3.6326 39.44918,14.8095 6.97434,23.6108 40.77828,5.8333 11.6708,39.6407 -0.84539,43.1247 18.68194,-4.0904 35.50704,4.1568 35.50704,4.1568 5.00829,5.5367 -21.17167,34.2518 -19.76012,34.8256 2.87539,0.5361 19.93741,-1.9372 22.87633,0.4954 2.93895,2.4339 -24.39634,39.4339 -20.54841,40.5702 3.8481,1.1373 90.57347,-25.8381 103.13232,-20.5639 12.55896,5.2742 -2.33831,28.0714 1.48858,28.5754 3.82662,0.504 47.62659,-12.505 52.40495,-12.033 4.778,0.472 1.72311,25.3019 6.50135,25.7738 4.77836,0.472 38.61734,-15.2673 42.4441,-14.7633 3.82688,0.504 2.45334,16.375 7.23159,16.847 4.77836,0.4719 25.24348,-14.142 28.11899,-13.6061 2.87527,0.536 14.39991,31.7973 19.22038,33.5334 4.82071,1.7365 34.03755,-35.9599 36.87071,-36.6883 2.83288,-0.7295 22.37108,42.2893 26.19796,42.7932 3.82688,0.5039 21.83847,-30.4862 24.71399,-29.9502 2.87538,0.5361 21.54518,17.632 25.39311,18.7679 3.84805,1.1363 27.22949,-40.1622 31.03507,-40.2902 3.80583,-0.1283 36.7256,15.8536 39.6858,18.9182 2.9602,3.066 5.1578,-16.6312 8.9634,-16.7595 3.8057,-0.128 47.9519,9.7797 48.8824,9.1153 0.9301,-0.6641 -7.0837,-12.4215 -4.2295,-12.5176 2.8543,-0.097 48.1001,14.2045 49.8974,10.9796 -5.2912,-24.0558 101.6487,2.4388 104.1486,9.7855 0,0 -44.5503,-50.405 -39.9204,-54.3595 4.6299,-3.9533 21.9041,-0.1047 22.7919,-2.0334 0.8877,-1.9285 -10.8045,-9.7635 -8.0351,-12.3883 2.7697,-2.6262 34.7788,-13.8316 37.5271,-17.0886 2.7484,-3.2581 -14.6524,-10.901 -10.9103,-12.9256 -6.0856,-6.1086 54.0843,-21.7131 60.3188,-19.1232 -2.9607,0.7116 -34.9529,-15.9812 -25.4992,-21.9275 3.6575,-4.5548 7.8902,-6.3975 13.0021,-9.9338 -5.4352,-1.4068 -19.2613,-6.3144 -18.4157,-9.5072 0.8456,-3.1929 9.8301,-19.3214 12.5996,-21.9462 2.7697,-2.6249 -20.022,-0.5915 -20.1066,-3.1202 -0.085,-2.53 0.3235,-40.5636 33.3552,-64.6809 -18.4912,5.4304 -68.5738,10.0569 -68.5738,10.0569 l 11.2316,-21.8857 c 0,0 -41.913,20.5368 -57.9648,18.5027 -31.5664,-4 -25.0772,-37.7678 -25.0772,-37.7678 0,0 -37.3743,16.677 -42.2795,12.4121 -4.9054,-4.2664 -11.7086,-12.4747 -13.1145,-16.8766 -2.5152,2.7916 -25.0952,18.5685 -29.8733,18.0966 -14.4061,2.2801 -54.61842,-25.5885 -57.10773,-27.1946 -12.54915,10.2061 -26.4406,18.562 -34.85016,19.2168 -4.36863,1.328 -18.86036,-14.3911 -18.51368,-19.9511 -2.08599,4.631 -27.24847,21.9439 -33.04144,19.6277 -4.79958,-1.1055 -16.22845,-12.178 -20.25645,-16.2761 -4.79125,8.233 -17.483,19.5854 -17.483,19.5854 0,0 -33.61939,-7.7339 -41.66627,-24.5154 -3.91686,18.395 -22.60933,35.8777 -27.32417,37.3022 -4.71472,1.4246 -75.19611,-34.4243 -72.46894,-38.3134 -0.45238,20.2003 -4.41028,36.9011 -10.71055,37.8514 -6.59622,2.1221 -58.72854,-37.5877 -60.56763,-35.627 -1.83946,1.9605 5.83821,38.1358 0.15085,38.9603 -5.68726,0.8244 -16.33523,-2.8873 -16.33523,-2.8873 l -0.55736,10.4192 c 0,0 -47.33205,-37.9796 -52.2163,-41.6123 -4.88402,-3.6342 15.10529,38.7896 18.12895,43.7522 -17.29486,-4.482 -45.31452,-18.301 -49.22589,-21.335 -3.35288,-3.1105 17.2307,33.5275 14.85841,38.9074 -7.00945,8.0113 -33.82244,1.3877 -33.85674,0.8901 l 22.39088,14.4377 c 6.50873,5.0947 6.70105,4.2879 7.99248,11.1241 5.32899,14.6885 -27.04931,27.5727 -22.39853,23.4599 37.12183,8.2851 32.04463,7.694 -2.30239,13.9733 z"
       id="path5888-3"
       inkscape:connector-curvature="0"
       sodipodi:nodetypes="cccccccsscccccccsccscscsccscccccccccscccscsccccccccccccccccscccccccc" />
    <path
       style="color:#000000;display:inline;overflow:visible;visibility:visible;fill:#ffffff;fill-opacity:1;fill-rule:nonzero;stroke:none;stroke-width:1px;marker:none;enable-background:accumulate"
       d="m 1029.1942,2506.0538 c -6.4333,15.6506 -42.7179,16.9629 -56.07528,13.7817 26.92538,17.508 25.98669,28.3861 -10.57036,30.075 61.30694,31.5541 11.2077,26.7792 1.32597,34.7804 48.13737,10.8742 26.6002,24.4075 18.03007,37.8796 55.329,0.4628 37.2223,22.0581 39.5543,39.2574 4.6906,-8.0707 26.9742,-32.6414 28.315,-5.2836 36.597,-26.1008 80.677,-42.9607 84.1771,2.7159 14.7456,-22.9786 29.4467,-32.6903 28.315,-5.2835 36.5348,-35.6461 69.3662,-22.8152 102.3924,-12.7403 8.6741,-10.7588 9.6849,-27.2874 37.7477,-23.414 -3.9347,-10.6639 5.5405,-17.9942 26.9387,-22.3473 -28.4347,-6.4418 -33.6752,-13.0863 19.1217,-20.2368 -40.1754,-0.6917 -77.6392,-2.1087 -30.5047,-26.4941 -14.7874,-0.5901 -49.872,19.7578 -33.5143,-39.7907 -25.4277,19.0635 -52.5568,29.5852 -86.5791,-10.348 -16.1012,19.9499 -44.0282,29.8219 -56.1779,4.9029 -4.3668,10.6234 -22.474,14.6187 -37.8457,15.1032 -5.9442,-4.2198 -12.075,-9.9514 -18.4727,-17.4607 -10.4566,15.7675 -26.0986,26.4162 -56.1779,4.9029 z"
       id="path3549-3-7"
       inkscape:connector-curvature="0"
       sodipodi:nodetypes="cccccccccccccccccccc" />
    <path
       style="color:#000000;display:inline;overflow:visible;visibility:visible;fill:#ffffff;fill-opacity:1;fill-rule:nonzero;stroke:none;stroke-width:0.999999px;marker:none;enable-background:accumulate"
       d="m 816.63784,1756.6297 c -53.77145,-23.5695 -66.64315,-43.3978 -72.53669,-59.3997 4.92832,-2.8264 19.90718,-12.2286 19.90718,-12.2286 -16.13101,-13.5035 -22.74289,-67.3125 -10.60035,-69.1694 13.12461,-2.0071 37.10425,-0.6792 37.10425,-0.6792 -15.10667,5.504 -31.61267,72.6481 3.53791,74.6731 -13.86907,7.2537 -15.94917,12.9369 -22.14538,13.688 0.0252,10.0268 26.00335,44.2425 44.73308,53.1158 z"
       id="path4456-3"
       inkscape:connector-curvature="0"
       sodipodi:nodetypes="cccscccc" />
    <path
       style="fill:#ffffff;fill-rule:evenodd;stroke:none;stroke-width:1px;stroke-linecap:butt;stroke-linejoin:miter;stroke-opacity:1"
       d="m 167.70136,2121.0977 c -3.69503,-24.293 -4.22495,-65.7807 10.34503,-85.4357 -12.3556,9.997 -31.21448,52.6878 -29.1892,79.8508 3.16086,42.393 20.17148,17.9256 20.17148,17.9256 z"
       id="path4248-7"
       inkscape:connector-curvature="0"
       sodipodi:nodetypes="ccscc" />
  </g>
  <g
     inkscape:groupmode="layer"
     id="layer1"
     inkscape:label="txt">
    <text
       xml:space="preserve"
       style="font-style:normal;font-variant:normal;font-weight:normal;font-stretch:normal;font-size:45.3333px;line-height:125%;font-family:Lavi;-inkscape-font-specification:Lavi;text-align:center;letter-spacing:0px;word-spacing:0px;text-anchor:middle;fill:#000000;fill-opacity:1;stroke:none"
       x="320.20328"
       y="913.11249"
       id="text4246-70-2-2-2-7-4-9-9-6-1-2-3-9-2-7-9-3"><tspan
         sodipodi:role="line"
         style="font-size:45.3333px"
         x="320.20328"
         y="913.11249"
         id="tspan5910">Grrr ! Allez, </tspan><tspan
         sodipodi:role="line"
         style="font-size:45.3333px"
         x="320.20328"
         y="969.77911"
         id="tspan2831">Pepper ! Trouve une</tspan><tspan
         sodipodi:role="line"
         style="font-size:45.3333px"
         x="320.20328"
         y="1026.4458"
         id="tspan2833">histoire triste.</tspan><tspan
         sodipodi:role="line"
         style="font-size:45.3333px"
         x="320.20328"
         y="1083.1124"
         id="tspan2829" /></text>
    <text
       xml:space="preserve"
       style="font-style:normal;font-variant:normal;font-weight:normal;font-stretch:normal;font-size:45.3333px;line-height:125%;font-family:Lavi;-inkscape-font-specification:Lavi;text-align:center;letter-spacing:0px;word-spacing:0px;text-anchor:middle;fill:#000000;fill-opacity:1;stroke:none"
       x="1206.7052"
       y="917.41296"
       id="text4246-70-2-2-2-7-4-9-9-6-1-2-3-9-2-7-9-3-3"><tspan
         sodipodi:role="line"
         style="font-size:45.3333px"
         x="1206.7052"
         y="917.41296"
         id="tspan2829-3">Tu peux y</tspan><tspan
         sodipodi:role="line"
         style="font-size:45.3333px"
         x="1206.7052"
         y="974.07965"
         id="tspan5270">arriver.</tspan></text>
    <text
       xml:space="preserve"
       style="font-style:normal;font-variant:normal;font-weight:normal;font-stretch:normal;font-size:52.6959px;line-height:125%;font-family:Lavi;-inkscape-font-specification:Lavi;text-align:center;letter-spacing:0px;word-spacing:0px;text-anchor:middle;fill:#000000;fill-opacity:1;stroke:none;stroke-width:1"
       x="1735.2688"
       y="908.93842"
       id="text4246-70-2-2-2-7-4-9-9-6-1-2-3-9-2-7-9-3-3-7"><tspan
         sodipodi:role="line"
         style="font-style:normal;font-variant:normal;font-weight:bold;font-stretch:normal;font-size:52.6959px;font-family:Lavi;-inkscape-font-specification:'Lavi Bold';stroke-width:1"
         x="1735.2688"
         y="908.93842"
         id="tspan2829-3-5">Tu peux y</tspan><tspan
         sodipodi:role="line"
         style="font-style:normal;font-variant:normal;font-weight:bold;font-stretch:normal;font-size:52.6959px;font-family:Lavi;-inkscape-font-specification:'Lavi Bold';stroke-width:1"
         x="1735.2688"
         y="974.80829"
         id="tspan5270-3">arriver.</tspan></text>
    <text
       xml:space="preserve"
       style="font-style:normal;font-variant:normal;font-weight:normal;font-stretch:normal;font-size:45.3333px;line-height:125%;font-family:Lavi;-inkscape-font-specification:Lavi;text-align:center;letter-spacing:0px;word-spacing:0px;text-anchor:middle;fill:#000000;fill-opacity:1;stroke:none"
       x="2001.5763"
       y="914.20508"
       id="text4246-70-2-2-2-7-4-9-9-6-1-2-3-9-2-7-9-3-5"><tspan
         sodipodi:role="line"
         style="font-size:45.3333px"
         x="2001.5763"
         y="914.20508"
         id="tspan2829-1">Non...</tspan></text>
    <text
       xml:space="preserve"
       style="font-style:normal;font-variant:normal;font-weight:normal;font-stretch:normal;font-size:36.074px;line-height:125%;font-family:Lavi;-inkscape-font-specification:Lavi;text-align:center;letter-spacing:0px;word-spacing:0px;text-anchor:middle;fill:#000000;fill-opacity:1;stroke:none;stroke-width:0.999996"
       x="2210.7493"
       y="943.36493"
       id="text4246-70-2-2-2-7-4-9-9-6-1-2-3-9-2-7-9-3-5-2"
       transform="scale(0.97209399,1.0287071)"><tspan
         sodipodi:role="line"
         style="font-size:36.074px;stroke-width:0.999996"
         x="2210.7493"
         y="943.36493"
         id="tspan2829-1-7">Tu ne peux pas.</tspan></text>
    <text
       xml:space="preserve"
       style="font-style:normal;font-variant:normal;font-weight:normal;font-stretch:normal;font-size:14.541px;line-height:0%;font-family:Lavi;-inkscape-font-specification:Lavi;text-align:center;letter-spacing:0px;word-spacing:0px;text-anchor:middle;display:inline;fill:#000000;fill-opacity:1;stroke:#000000;stroke-width:2.01521;stroke-miterlimit:4;stroke-dasharray:none;stroke-opacity:1"
       x="562.51788"
       y="1417.0394"
       id="text4246-3-7-9-5-1-6-2-3"
       transform="matrix(0.96995835,0,-0.17070021,1.0309721,0,0)"><tspan
         sodipodi:role="line"
         style="font-size:54.5284px;line-height:1.25;stroke:#000000;stroke-width:2.01521;stroke-miterlimit:4;stroke-dasharray:none;stroke-opacity:1"
         x="562.51788"
         y="1417.0394"
         id="tspan22576">Hé ! Oh !</tspan><tspan
         sodipodi:role="line"
         style="font-size:54.5284px;line-height:1.25;stroke:#000000;stroke-width:2.01521;stroke-miterlimit:4;stroke-dasharray:none;stroke-opacity:1"
         x="562.51788"
         y="1485.2"
         id="tspan22580">Va-t'en !</tspan></text>
    <text
       xml:space="preserve"
       style="font-style:normal;font-variant:normal;font-weight:normal;font-stretch:normal;font-size:6.87975px;line-height:0%;font-family:Lavi;-inkscape-font-specification:Lavi;text-align:center;letter-spacing:0px;word-spacing:0px;text-anchor:middle;fill:#000000;fill-opacity:1;stroke:none;stroke-width:0.87182"
       x="-341.33691"
       y="2062.9126"
       id="text4246-4-9-8-0-3"
       transform="matrix(0.86354336,-0.84725955,0.23030923,0.93205314,0,0)"><tspan
         sodipodi:role="line"
         style="font-size:80.8612px;line-height:1.25;stroke-width:0.87182"
         x="-341.33691"
         y="2062.9126"
         id="tspan4205-3-3"><tspan
   style="font-size:69.6307px;stroke-width:0.87182"
   id="tspan4438">!</tspan>!</tspan></text>
    <text
       xml:space="preserve"
       style="font-style:normal;font-variant:normal;font-weight:normal;font-stretch:normal;font-size:13.6455px;line-height:0%;font-family:Lavi;-inkscape-font-specification:Lavi;text-align:center;letter-spacing:0px;word-spacing:0px;text-anchor:middle;display:inline;fill:#000000;fill-opacity:1;stroke:#000000;stroke-width:2.01521;stroke-miterlimit:4;stroke-dasharray:none;stroke-opacity:1"
       x="1191.769"
       y="1431.825"
       id="text4246-3-7-9-5-1-6-2-3-8"
       transform="matrix(0.97850393,0,-0.17220413,1.0219683,0,0)"><tspan
         sodipodi:role="line"
         style="font-size:51.17px;line-height:1.25;stroke:#000000;stroke-width:2.01521;stroke-miterlimit:4;stroke-dasharray:none;stroke-opacity:1"
         x="1191.769"
         y="1431.825"
         id="tspan22580-9">T'avise pas d'toucher</tspan><tspan
         sodipodi:role="line"
         style="font-size:51.17px;line-height:1.25;stroke:#000000;stroke-width:2.01521;stroke-miterlimit:4;stroke-dasharray:none;stroke-opacity:1"
         x="1191.769"
         y="1495.7875"
         id="tspan34893">à ma marchandise si t'as</tspan><tspan
         sodipodi:role="line"
         style="font-size:51.17px;line-height:1.25;stroke:#000000;stroke-width:2.01521;stroke-miterlimit:4;stroke-dasharray:none;stroke-opacity:1"
         x="1191.769"
         y="1559.75"
         id="tspan34895">rien pour payer, hein !</tspan></text>
    <text
       xml:space="preserve"
       style="font-style:normal;font-variant:normal;font-weight:normal;font-stretch:normal;font-size:45.3333px;line-height:125%;font-family:Lavi;-inkscape-font-specification:Lavi;text-align:center;letter-spacing:0px;word-spacing:0px;text-anchor:middle;fill:#000000;fill-opacity:1;stroke:none"
       x="1483.4071"
       y="1455.3622"
       id="text4246-70-2-2-2-7-4-9-9-6-1-2-3-9-2-7-9-3-3-5-6"><tspan
         sodipodi:role="line"
         style="font-style:italic;font-variant:normal;font-weight:normal;font-stretch:normal;font-size:45.3333px;font-family:Lavi;-inkscape-font-specification:'Lavi Italic'"
         x="1483.4071"
         y="1455.3622"
         id="tspan11363-1">Oh non...</tspan></text>
    <text
       xml:space="preserve"
       style="font-style:normal;font-variant:normal;font-weight:normal;font-stretch:normal;font-size:15.3246px;line-height:0%;font-family:Lavi;-inkscape-font-specification:Lavi;text-align:center;letter-spacing:2px;word-spacing:0px;text-anchor:middle;display:inline;fill:#000000;fill-opacity:1;stroke:#000000;stroke-width:2.01521;stroke-miterlimit:4;stroke-dasharray:none;stroke-opacity:1"
       x="2107.2039"
       y="1398.4261"
       id="text4246-3-7-9-5-1-6-2"
       transform="matrix(0.92840736,0,-0.16338778,1.0771134,0,0)"><tspan
         sodipodi:role="line"
         style="font-size:57.4671px;line-height:1.25;stroke:#000000;stroke-width:2.01521;stroke-miterlimit:4;stroke-dasharray:none;stroke-opacity:1"
         x="2108.2039"
         y="1398.4261"
         id="tspan1222">CARROT !</tspan></text>
    <text
       xml:space="preserve"
       style="font-style:normal;font-variant:normal;font-weight:normal;font-stretch:normal;font-size:45.3333px;line-height:125%;font-family:Lavi;-inkscape-font-specification:Lavi;text-align:center;letter-spacing:0px;word-spacing:0px;text-anchor:middle;fill:#000000;fill-opacity:1;stroke:none"
       x="1742.5636"
       y="1625.2692"
       id="text4246-70-2-2-2-7-4-9-9-6-1-2-3-9-2-7-9-3-3-5"><tspan
         sodipodi:role="line"
         style="font-size:45.3333px"
         x="1742.5636"
         y="1625.2692"
         id="tspan5270-2">Tu pourrais m'aider</tspan><tspan
         sodipodi:role="line"
         style="font-size:45.3333px"
         x="1742.5636"
         y="1681.9358"
         id="tspan11361">au lieu de penser</tspan><tspan
         sodipodi:role="line"
         style="font-size:45.3333px"
         x="1742.5636"
         y="1738.6024"
         id="tspan11363">à ton ventre !</tspan></text>
    <text
       xml:space="preserve"
       style="font-style:normal;font-variant:normal;font-weight:normal;font-stretch:normal;font-size:15.3246px;line-height:0%;font-family:Lavi;-inkscape-font-specification:Lavi;text-align:center;letter-spacing:0px;word-spacing:0px;text-anchor:middle;display:inline;fill:#000000;fill-opacity:1;stroke:#000000;stroke-width:2.01521;stroke-miterlimit:4;stroke-dasharray:none;stroke-opacity:1"
       x="684.43365"
       y="2438.4612"
       id="text4246-3-7-9-5-1-6-2-9"
       transform="matrix(0.92840736,0,-0.16338778,1.0771134,0,0)"><tspan
         sodipodi:role="line"
         style="font-size:57.4671px;line-height:1.25;stroke:#000000;stroke-width:2.01521;stroke-miterlimit:4;stroke-dasharray:none;stroke-opacity:1"
         x="684.43365"
         y="2438.4612"
         id="tspan1222-1">Oh ?!</tspan></text>
    <text
       xml:space="preserve"
       style="font-style:normal;font-variant:normal;font-weight:normal;font-stretch:normal;font-size:55.8737px;line-height:125%;font-family:Lavi;-inkscape-font-specification:Lavi;text-align:center;letter-spacing:0px;word-spacing:0px;text-anchor:middle;fill:#000000;fill-opacity:1;stroke:none;stroke-width:0.999999"
       x="1152.1935"
       y="2595.791"
       id="text4246-70-2-2-2-7-4-9-9-6-1-2-3-9-2-7-9-3-3-2-2"><tspan
         sodipodi:role="line"
         style="font-style:normal;font-variant:normal;font-weight:bold;font-stretch:normal;font-size:55.8737px;font-family:Lavi;-inkscape-font-specification:'Lavi Bold';stroke-width:0.999999"
         x="1152.1935"
         y="2595.791"
         id="tspan17035-3">Mais oui...</tspan></text>
    <text
       xml:space="preserve"
       style="font-style:normal;font-variant:normal;font-weight:normal;font-stretch:normal;font-size:45.3333px;line-height:125%;font-family:Lavi;-inkscape-font-specification:Lavi;text-align:center;letter-spacing:0px;word-spacing:0px;text-anchor:middle;fill:#000000;fill-opacity:1;stroke:none"
       x="1189.1333"
       y="2630.5107"
       id="text4246-70-2-2-2-7-4-9-9-6-1-2-3-9-2-7-9-3-3-2"><tspan
         sodipodi:role="line"
         style="font-size:45.3333px"
         x="1189.1333"
         y="2630.5107"
         id="tspan5270-0" /><tspan
         sodipodi:role="line"
         style="font-size:45.3333px"
         x="1189.1333"
         y="2687.1775"
         id="tspan17033">Ça devrait</tspan><tspan
         sodipodi:role="line"
         style="font-size:45.3333px"
         x="1189.1333"
         y="2743.844"
         id="tspan17035">marcher.</tspan></text>
  </g>
</svg>
