<?xml version="1.0" encoding="UTF-8" standalone="no"?>
<!-- Created with Inkscape (http://www.inkscape.org/) -->

<svg
   xmlns:dc="http://purl.org/dc/elements/1.1/"
   xmlns:cc="http://creativecommons.org/ns#"
   xmlns:rdf="http://www.w3.org/1999/02/22-rdf-syntax-ns#"
   xmlns:svg="http://www.w3.org/2000/svg"
   xmlns="http://www.w3.org/2000/svg"
   xmlns:xlink="http://www.w3.org/1999/xlink"
   xmlns:sodipodi="http://sodipodi.sourceforge.net/DTD/sodipodi-0.dtd"
   xmlns:inkscape="http://www.inkscape.org/namespaces/inkscape"
   id="svg2"
   version="1.1"
   inkscape:version="0.92.2 5c3e80d, 2017-08-06"
   width="2481"
   height="3503"
   sodipodi:docname="E06P01.svg">
  <metadata
     id="metadata8">
    <rdf:RDF>
      <cc:Work
         rdf:about="">
        <dc:format>image/svg+xml</dc:format>
        <dc:type
           rdf:resource="http://purl.org/dc/dcmitype/StillImage" />
        <dc:title />
      </cc:Work>
    </rdf:RDF>
  </metadata>
  <defs
     id="defs6" />
  <sodipodi:namedview
     pagecolor="#ffffff"
     bordercolor="#666666"
     borderopacity="1"
     objecttolerance="10"
     gridtolerance="10"
     guidetolerance="10"
     inkscape:pageopacity="0"
     inkscape:pageshadow="2"
     inkscape:window-width="1366"
     inkscape:window-height="703"
     id="namedview4"
     showgrid="false"
     inkscape:zoom="0.58495632"
     inkscape:cx="1420.9663"
     inkscape:cy="621.52532"
     inkscape:window-x="0"
     inkscape:window-y="0"
     inkscape:window-maximized="1"
     inkscape:current-layer="layer1" />
  <g
     inkscape:groupmode="layer"
     id="layer2"
     inkscape:label="artwork"
     sodipodi:insensitive="true">
    <image
       sodipodi:absref="/felles/omsetting/pepper-carrot/webcomics/ep06_The-Potion-Contest/lang/nn/../gfx_Pepper-and-Carrot_by-David-Revoy_E06P01.png"
       xlink:href="../gfx_Pepper-and-Carrot_by-David-Revoy_E06P01.png"
       width="2481"
       height="3503"
       id="image10"
       x="0"
       y="0" />
  </g>
  <g
     inkscape:groupmode="layer"
     id="layer3"
     inkscape:label="speechbubbles">
    <path
       style="fill:#ffffff;stroke:none"
       d="m 1065.0584,2991.5882 c 139.0204,-151.8259 352.2724,-147.4644 534.1995,-135.0446 l -2.4584,29.6919 c -271.0832,-44.1257 -427.9056,20.1405 -531.7411,105.3527 z"
       id="path4208"
       inkscape:connector-curvature="0"
       sodipodi:nodetypes="cccc" />
    <path
       style="fill:#ffffff;stroke:none"
       d="m 848.69618,2327.5469 c 11.92344,-57.0082 80.05736,-226.7656 764.80332,-144.4206 25.5503,5.0674 32.3637,24.0701 32.3637,24.0701 l -11.9235,7.6011 c 0,0 -669.41585,-141.8868 -785.24352,112.7494 z"
       id="path4184"
       inkscape:connector-curvature="0" />
    <path
       style="fill:#ffffff;stroke:none;stroke-width:0.98617625"
       d="m 110.49575,929.9846 c 1.0653,-30.35787 22.67989,-26.21189 41.6876,-26.44314 18.47533,-4.56828 17.20058,-25.41604 66.39133,-4.66645 18.42117,-5.86223 25.23598,-21.95565 66.39134,-7.77738 15.95451,-6.23852 31.90902,-9.27592 47.86353,3.11096 27.71867,-1.61682 31.65858,-23.19676 92.63909,3.11095 27.14464,-12.64516 42.3516,-6.04785 54.03947,6.22192 14.01735,-4.05434 26.42154,-16.23476 46.31953,9.33287 23.90632,-1.15666 43.34813,3.28994 51.69439,24.07954 5.20552,8.95055 31.74119,13.12987 23.00457,38.93539 34.9191,31.00504 19.76269,52.28594 16.96442,71.59994 -0.72115,14.6065 -18.61268,20.2565 -40.71187,28.7094 6.55762,20.996 -7.09584,28.4179 -18.52782,37.3316 -10.28117,16.1462 -23.75324,13.0046 -37.05565,10.8884 -26.24773,33.3396 -52.49547,25.7934 -78.74321,26.4432 -12.00243,11.0165 -21.98393,7.781 -30.8797,-3.1112 -39.03663,19.5282 -50.85335,3.7987 -69.47931,-3.1108 -39.22104,31.264 -58.67516,14.7341 -83.37517,10.8884 -17.49285,5.658 -34.95621,11.0781 -49.40751,-7.7776 -42.81081,10.0059 -41.51912,-8.2623 -52.4955,-18.6657 -19.17906,14.3205 -28.44062,5.3277 -38.5996,-1.5553 -26.692457,-6.7492 -13.91633,-18.4689 -18.527816,-27.9987 -21.142802,-21.2581 -20.769963,-42.5165 -7.719925,-63.7746 -9.78711,-11.2638 -24.618295,-21.6039 -1.544009,-38.88703 -9.519366,-15.10062 -20.609459,-30.06977 6.175954,-48.21894 -3.003842,-11.99138 4.603466,-15.96518 13.895866,-18.66573 z"
       id="path4086"
       inkscape:connector-curvature="0"
       sodipodi:nodetypes="cccccccccccccccccccccccccc" />
    <path
       style="fill:#ffffff;stroke:none;stroke-width:1px;stroke-linecap:butt;stroke-linejoin:miter;stroke-opacity:1"
       d="m 230.13067,823.60392 c -9.53903,-20.56429 -0.23424,-22.81511 10.00568,-26.42602 11.63357,-13.55921 16.74734,-4.29914 22.87013,1.42938 15.03339,7.03416 19.43438,18.62507 14.29383,34.3052 -2.64407,15.25927 -13.01754,16.99209 -27.15828,12.13219 -15.35344,0.0889 -21.95096,-7.11879 -20.01136,-21.44075 z"
       id="path4088"
       inkscape:connector-curvature="0"
       sodipodi:nodetypes="cccccc" />
    <path
       style="fill:#ffffff;stroke:none;stroke-width:1px;stroke-linecap:butt;stroke-linejoin:miter;stroke-opacity:1"
       d="m 275.87093,761.44332 c -5.09277,-10.88445 3.68029,-14.83599 15.72321,-17.15259 19.65656,11.35504 12.8163,22.10199 7.14692,32.87581 -12.0433,1.8308 -24.81763,4.83126 -22.87013,-15.72322 z"
       id="path4090"
       inkscape:connector-curvature="0"
       sodipodi:nodetypes="cccc" />
    <path
       style="fill:#ffffff;stroke:none;stroke-width:0.91884249px;stroke-linecap:butt;stroke-linejoin:miter;stroke-opacity:1"
       d="m 360.54489,1285.1069 c -8.51685,0.3666 -16.54792,4.5827 -22.94382,10.5994 -9.98417,-2.8214 -22.862,-7.3606 -31.45449,1.3452 -3.63281,4.4874 -6.66299,12.781 -13.47668,10.5462 -11.30607,-0.1289 -25.8275,2.2389 -30.22247,15.5365 -2.05184,5.148 -1.41187,13.3678 -7.71707,14.8216 -8.29992,3.9804 -14.38882,15.5104 -9.5506,24.9428 1.72681,2.7177 2.19713,6.4309 -0.32669,8.69 -5.06101,9.0042 -0.98588,20.5294 5.90132,26.8418 2.05528,2.913 -1.41917,6.5378 0.20429,9.8187 1.6166,7.666 9.07361,9.9586 15.15761,10.7737 0.48738,3.9414 1.52324,8.4715 4.52542,11.3083 5.76481,6.3536 14.42792,6.7648 21.98761,7.0052 6.43674,3.242 11.14746,9.826 18.25823,11.5856 12.23773,3.935 24.8734,-2.5811 34.96502,-9.2563 3.9005,7.3888 8.97767,14.9889 16.9914,17.2427 6.73749,2.5803 13.93464,0.8391 20.61075,-0.2795 16.78172,2.5745 35.07456,12.5101 51.5404,3.4253 5.97393,-3.2097 10.95717,-8.2574 15.10746,-13.8476 6.58707,6.0003 17.2124,9.7096 24.1824,2.6824 1.9123,-2.3078 3.73336,-6.7402 7.18663,-4.0871 15.91896,5.1074 33.57631,13.1153 49.95687,5.1673 7.71502,-2.7211 14.40189,-8.9567 20.95155,-13.1096 10.66717,4.9442 24.8756,6.2435 33.41242,-3.8388 3.11359,-2.2921 4.04659,-9.5075 8.66743,-7.8035 10.80093,1.4124 22.63511,-4.4207 26.4288,-16.0384 1.63324,-5.0367 1.96305,-11.2255 6.89914,-13.8726 7.51451,-6.7054 11.68949,-18.8296 7.15935,-28.9252 -2.7272,-6.4773 -6.35321,-12.6897 -5.91007,-20.1067 -1.59251,-12.5144 -12.09052,-21.094 -23.04972,-22.2997 -4.64854,-1.3042 -11.0263,0.3663 -13.2396,-5.4809 -12.70989,-17.3848 -34.92237,-22.4569 -54.18068,-17.9359 -3.81037,1.1409 -5.31494,-4.439 -8.62265,-5.6983 -7.87741,-6.1682 -18.68811,-5.5104 -26.33333,0.6853 -3.5056,4.0899 -6.69403,-2.0454 -10.5227,-2.6857 -14.20043,-5.4272 -31.99032,-4.1513 -43.29312,7.7206 -11.60531,-14.8138 -31.37767,-19.3263 -47.96388,-13.2846 -5.03968,0.9123 -9.8788,4.3214 -14.67188,4.7201 -8.34141,-4.1456 -17.35011,-7.4536 -26.61463,-6.9089 z"
       id="path4094"
       inkscape:connector-curvature="0" />
    <path
       style="fill:#ffffff;stroke:none"
       d="m 254.84178,1217.9014 c -21.93594,-5.4808 -17.74008,-13.6811 -13.99678,-23.3941 -3.03862,-16.7769 7.36071,-14.91 15.68046,-15.9283 15.0063,-6.7699 26.74841,-2.9642 35.56127,10.332 10.07962,11.2071 4.80314,19.8776 -7.9578,27.312 -9.7183,11.33 -19.48107,11.7989 -29.28715,1.6784 z"
       id="path4088-4"
       inkscape:connector-curvature="0"
       sodipodi:nodetypes="cccccc" />
    <path
       style="fill:#ffffff;stroke:none"
       d="m 281.23738,1261.3662 c -1.6722,-15.5601 8.1265,-14.7295 15.31815,-17.624 8.5716,-3.7924 14.70548,-2.0987 17.90033,6.2094 9.77538,3.2771 13.75133,9.4545 10.08794,19.4525 -3.52546,10.5347 -12.20688,9.4657 -20.99121,8.1652 -4.6338,4.2774 -9.42027,7.1804 -15.37947,-0.4737 -11.84717,-2.3085 -12.53472,-8.0516 -6.93574,-15.7294 z"
       id="path4119"
       inkscape:connector-curvature="0"
       sodipodi:nodetypes="ccccccc" />
    <path
       style="fill:#ffffff;stroke:none;stroke-width:0.8753044px;stroke-linecap:butt;stroke-linejoin:miter;stroke-opacity:1"
       d="m 295.73444,1655.6447 c -2.8494,-23.9193 12.24438,-22.685 32.38044,-23.958 11.36762,-14.8798 20.02737,-32.4272 59.24291,-19.8701 27.43371,-25.6013 56.37293,-20.0535 85.71313,-6.2093 48.08173,-31.9109 59.80749,-12.1372 83.19216,-4.9676 56.32223,-25.1369 63.17617,6.5868 88.23411,17.3863 42.84179,-26.9111 67.82276,-19.6816 93.66827,1.7825 14.68494,0.022 46.87249,8.7631 43.58293,30.1579 29.25074,9.76 33.88182,26.8938 28.51061,53.7926 25.41627,35.9437 8.06315,63.1213 -15.11401,71.7022 22.3082,31.4657 -9.6106,24.834 -42.2459,41.2644 -4.3271,20.1348 -19.43347,23.0119 -39.07511,18.6281 -8.99072,17.9156 -24.15723,28.3427 -57.98241,16.1443 -24.51137,19.7133 -51.05596,19.3945 -79.41069,1.2419 -11.18086,21.0069 -30.84955,22.8998 -55.46146,13.6605 -33.77117,11.5159 -47.72026,0.4979 -56.72192,-16.1443 -21.60448,10.9497 -43.31571,20.0065 -66.80582,-2.4837 -27.31799,6.0973 -34.72974,-4.6159 -35.29363,-21.1119 -21.4418,14.5241 -35.44366,9.5012 -45.37754,-6.2095 -15.74999,-0.3849 -41.09515,10.8122 -36.44184,-18.8121 -22.85787,-5.3156 -40.40989,-9.2085 -26.94628,-33.3583 -7.10376,-14.6767 -17.54879,-58.6524 8.62732,-76.9723 -4.80426,-26.6731 15.57856,-31.6021 33.72473,-35.6636 z"
       id="path4121"
       inkscape:connector-curvature="0"
       sodipodi:nodetypes="ccccccccccccccccccccccc" />
    <path
       style="fill:#ffffff;stroke:none"
       d="m 426.16799,1495.7228 c -1.6722,-15.5601 8.1265,-14.7295 15.31815,-17.624 8.5716,-3.7924 14.70548,-2.0987 17.90033,6.2094 9.77538,3.2771 13.75133,9.4545 10.08794,19.4525 -3.52546,10.5347 -12.20688,9.4657 -20.99121,8.1652 -4.6338,4.2774 -9.42027,7.1804 -15.37947,-0.4737 -11.84717,-2.3085 -12.53472,-8.0516 -6.93574,-15.7294 z"
       id="path4119-8"
       inkscape:connector-curvature="0"
       sodipodi:nodetypes="ccccccc" />
    <path
       style="fill:#ffffff;stroke:none"
       d="m 473.63058,1564.8263 c -15.87888,-16.1637 -4.1024,-20.2143 1.38885,-27.0178 6.23672,-8.4833 14.66459,-9.736 25.73404,-2.2704 13.95095,-1.3644 23.98299,3.3767 28.85294,16.1601 5.508,13.3003 -5.22536,16.5249 -16.2828,19.5483 -1.36816,7.0209 -4.14446,12.6166 -17.73722,7.265 -15.41163,3.4716 -21.35155,-2.4587 -21.95581,-13.6852 z"
       id="path4119-7"
       inkscape:connector-curvature="0"
       sodipodi:nodetypes="ccccccc" />
    <path
       style="fill:#ffffff;stroke:none;stroke-width:1.01428354"
       d="m 834.82259,2156.8344 c 22.89196,-26.8114 184.32821,-26.7384 218.14981,-4.2782 33.8217,22.4602 30.5324,56.8909 6.2781,81.6803 -17.0935,17.4708 -192.29731,22.0647 -219.35465,2.813 -27.05735,-19.2516 -27.96522,-53.4038 -5.07326,-80.2151 z"
       id="path4160"
       inkscape:connector-curvature="0"
       sodipodi:nodetypes="zsssz" />
    <path
       style="fill:#ffffff;stroke:none;stroke-width:1.01782954px;stroke-linecap:butt;stroke-linejoin:miter;stroke-opacity:1"
       d="m 1146.5657,2114.824 c 44.5871,-29.2083 315.4291,-18.5884 345.0453,19.9428 29.6161,38.5312 -2.4124,78.0264 -37.1792,91.6987 -34.7668,13.6724 -265.8994,10.185 -295.3258,-7.5134 -39.2581,-23.6115 -57.1274,-74.9198 -12.5403,-104.1281 z"
       id="path4162"
       inkscape:connector-curvature="0"
       sodipodi:nodetypes="zsssz" />
    <path
       style="fill:#ffffff;stroke:none;stroke-width:0.98150951"
       d="m 1599.5834,2116.1977 c 55.271,-41.8436 331.2292,-10.8705 374.5895,31.5018 43.3603,42.3721 41.0582,144.0089 7.0303,170.8987 -34.0282,26.8894 -342.2483,25.4438 -395.7015,-12.3806 -38.507,-27.2478 -41.1893,-148.1762 14.0817,-190.0199 z"
       id="path4164"
       inkscape:connector-curvature="0"
       sodipodi:nodetypes="zsssz" />
    <path
       style="fill:#ffffff;stroke:none;stroke-width:1.01658559"
       d="m 1202.6849,2821.5119 c 20.6475,-14.0231 55.0452,-19.8752 87.252,-20.4786 32.2068,-0.6033 78.0776,3.6735 101.8051,19.8549 23.7275,16.1816 42.2106,30.4369 36.856,57.6458 -5.3544,27.2089 -43.0352,46.1053 -80.1669,55.5628 -37.1317,9.4574 -101.6027,0.4916 -131.8577,-14.1459 -30.2547,-14.6376 -46.4908,-27.5393 -48.3521,-49.0378 -1.8614,-21.4982 13.8163,-35.3782 34.4636,-49.4012 z"
       id="path4204"
       inkscape:connector-curvature="0"
       sodipodi:nodetypes="zzzzzzzz" />
    <path
       style="fill:#ffffff;stroke:none;stroke-width:0.87745118px;stroke-linecap:butt;stroke-linejoin:miter;stroke-opacity:1"
       d="m 1563.2486,2882.7571 c 0.5794,-19.0846 0.4805,-52.5809 22.0528,-69.7401 21.5725,-17.1592 55.7611,-9.7311 91.604,-9.7311 35.843,0 94.562,-5.2198 122.1386,12.9747 27.5766,18.1947 35.4931,40.7474 35.6238,66.4965 0.1308,25.7491 -16.5685,54.5016 -37.3201,71.362 -20.7516,16.8604 -52.069,18.5849 -76.3367,22.706 -24.2677,4.1211 -41.1688,10.9983 -67.8547,3.2437 -26.6859,-7.7545 -66.604,-37.7414 -79.7294,-56.7652 -13.1255,-19.0238 -10.7577,-21.4619 -10.1783,-40.5465 z"
       id="path4206"
       inkscape:connector-curvature="0"
       sodipodi:nodetypes="zzzzzzzzzz" />
  </g>
  <g
     inkscape:groupmode="layer"
     id="layer1"
     inkscape:label="txt"
     style="display:inline">
    <flowRoot
       xml:space="preserve"
       id="flowRoot2987"
       style="font-style:normal;font-variant:normal;font-weight:normal;font-stretch:normal;line-height:0.01%;font-family:Lavi;-inkscape-font-specification:Lavi;letter-spacing:0px;word-spacing:0px;fill:#000000;fill-opacity:1;stroke:none"
       transform="matrix(0.95842652,0,0,0.92639044,-37.066572,697.22258)"><flowRegion
         id="flowRegion2989"><rect
           id="rect2991"
           width="525.65155"
           height="245.01311"
           x="138.55077"
           y="262.427"
           style="font-style:normal;font-variant:normal;font-weight:normal;font-stretch:normal;font-family:Lavi;-inkscape-font-specification:Lavi" /></flowRegion><flowPara
         style="font-size:48px;line-height:1.25;text-align:center;text-anchor:middle"
         id="flowPara3425">Å søren, eg sovna</flowPara><flowPara
         style="font-size:48px;line-height:1.25;text-align:center;text-anchor:middle"
         id="flowPara3431">visst med vindauget </flowPara><flowPara
         style="font-size:48px;line-height:1.25;text-align:center;text-anchor:middle"
         id="flowPara3857">ope att ...</flowPara></flowRoot>    <flowRoot
       xml:space="preserve"
       id="flowRoot2987-6"
       style="font-style:normal;font-variant:normal;font-weight:normal;font-stretch:normal;line-height:0.01%;font-family:Lavi;-inkscape-font-specification:Lavi;letter-spacing:0px;word-spacing:0px;fill:#000000;fill-opacity:1;stroke:none"
       transform="matrix(0.95842652,0,0,0.92639044,97.769338,1075.5274)"><flowRegion
         id="flowRegion2989-7"><rect
           id="rect2991-2"
           width="469.7883"
           height="144.64441"
           x="120.55251"
           y="265.53046"
           style="font-style:normal;font-variant:normal;font-weight:normal;font-stretch:normal;font-family:Lavi;-inkscape-font-specification:Lavi" /></flowRegion><flowPara
         style="font-size:48px;line-height:1.25;text-align:center;text-anchor:middle"
         id="flowPara3453">... men for</flowPara><flowPara
         style="font-size:48px;line-height:1.25;text-align:center;text-anchor:middle"
         id="flowPara3457">ein vind ...</flowPara></flowRoot>    <flowRoot
       xml:space="preserve"
       id="flowRoot2987-6-5"
       style="font-style:normal;font-variant:normal;font-weight:normal;font-stretch:normal;line-height:0.01%;font-family:Lavi;-inkscape-font-specification:Lavi;letter-spacing:0px;word-spacing:0px;fill:#000000;fill-opacity:1;stroke:none"
       transform="matrix(0.95842652,0,0,0.92639044,144.3222,1401.1916)"><flowRegion
         id="flowRegion2989-7-8"><rect
           id="rect2991-2-1"
           width="570.64728"
           height="189.15115"
           x="120.55251"
           y="265.53046"
           style="font-style:normal;font-variant:normal;font-weight:normal;font-stretch:normal;font-family:Lavi;-inkscape-font-specification:Lavi" /></flowRegion><flowPara
         style="font-size:48px;line-height:1.25;text-align:center;text-anchor:middle"
         id="flowPara4454">... og kvifor kan eg</flowPara><flowPara
         style="font-size:48px;line-height:1.25;text-align:center;text-anchor:middle"
         id="flowPara3463">sjå Komona gjennom vindauget?</flowPara></flowRoot>    <flowRoot
       xml:space="preserve"
       id="flowRoot2987-6-5-6"
       style="font-style:normal;font-variant:normal;font-weight:normal;font-stretch:normal;line-height:0.01%;font-family:Lavi;-inkscape-font-specification:Lavi;letter-spacing:0px;word-spacing:0px;fill:#000000;fill-opacity:1;stroke:#000000;stroke-width:1.84872246;stroke-miterlimit:4;stroke-dasharray:none;stroke-opacity:1"
       transform="matrix(0.78204538,0,-0.07297395,1.1138741,760.27579,1867.0593)"><flowRegion
         id="flowRegion2989-7-8-9"><rect
           id="rect2991-2-1-1"
           width="293.92557"
           height="139.87151"
           x="120.55251"
           y="265.53046"
           style="font-style:normal;font-variant:normal;font-weight:normal;font-stretch:normal;font-family:Lavi;-inkscape-font-specification:Lavi;stroke:#000000;stroke-width:1.84872246;stroke-miterlimit:4;stroke-dasharray:none;stroke-opacity:1" /></flowRegion><flowPara
         style="font-size:48px;line-height:1.25;text-align:center;text-anchor:middle;stroke:#000000;stroke-width:1.84872246;stroke-miterlimit:4;stroke-dasharray:none;stroke-opacity:1"
         id="flowPara3094-2">KOMONA!</flowPara></flowRoot>    <flowRoot
       xml:space="preserve"
       id="flowRoot2987-6-5-6-7"
       style="font-style:normal;font-variant:normal;font-weight:normal;font-stretch:normal;line-height:0.01%;font-family:Lavi;-inkscape-font-specification:Lavi;letter-spacing:0px;word-spacing:0px;fill:#000000;fill-opacity:1;stroke:none"
       transform="matrix(0.95842652,0,0,0.92639044,1035.2658,1888.3713)"><flowRegion
         id="flowRegion2989-7-8-9-6"><rect
           id="rect2991-2-1-1-3"
           width="334.15536"
           height="167.27036"
           x="120.55251"
           y="274.30832"
           style="font-style:normal;font-variant:normal;font-weight:normal;font-stretch:normal;font-family:Lavi;-inkscape-font-specification:Lavi" /></flowRegion><flowPara
         style="font-size:48px;line-height:1.25;text-align:center;text-anchor:middle"
         id="flowPara3094-2-2">Konkurransen! </flowPara></flowRoot>    <flowRoot
       xml:space="preserve"
       id="flowRoot2987-6-5-6-7-8"
       style="font-style:normal;font-variant:normal;font-weight:normal;font-stretch:normal;line-height:0.01%;font-family:Lavi;-inkscape-font-specification:Lavi;letter-spacing:0px;word-spacing:0px;fill:#000000;fill-opacity:1;stroke:none"
       transform="matrix(0.95842652,0,0,0.92639044,1400.5012,1894.4489)"><flowRegion
         id="flowRegion2989-7-8-9-6-7"><rect
           id="rect2991-2-1-1-3-3"
           width="554.99268"
           height="264.13297"
           x="120.55251"
           y="265.53046"
           style="font-style:normal;font-variant:normal;font-weight:normal;font-stretch:normal;font-family:Lavi;-inkscape-font-specification:Lavi" /></flowRegion><flowPara
         style="font-size:48px;line-height:1.25;text-align:center;text-anchor:middle"
         id="flowPara4218">Eg må ha ...</flowPara><flowPara
         style="font-size:48px;line-height:1.25;text-align:center;text-anchor:middle"
         id="flowPara4461">... ha sovna ved</flowPara><flowPara
         style="font-size:48px;line-height:1.25;text-align:center;text-anchor:middle"
         id="flowPara3475">eit uhell!</flowPara></flowRoot>    <flowRoot
       xml:space="preserve"
       id="flowRoot2987-6-5-6-3"
       style="font-style:normal;font-variant:normal;font-weight:normal;font-stretch:normal;line-height:0.01%;font-family:Lavi;-inkscape-font-specification:Lavi;letter-spacing:0px;word-spacing:0px;fill:#000000;fill-opacity:1;stroke:none"
       transform="matrix(0.95842652,0,0,0.92639044,1007.104,2593.9365)"><flowRegion
         id="flowRegion2989-7-8-9-3"><rect
           id="rect2991-2-1-1-36"
           width="357.43549"
           height="179.76456"
           x="120.55251"
           y="265.53046"
           style="font-style:normal;font-variant:normal;font-weight:normal;font-stretch:normal;font-family:Lavi;-inkscape-font-specification:Lavi" /></flowRegion><flowPara
         style="font-size:48px;line-height:1.25;text-align:center;text-anchor:middle"
         id="flowPara3217">... men? </flowPara></flowRoot>    <flowRoot
       xml:space="preserve"
       id="flowRoot2987-6-5-6-3-5"
       style="font-style:normal;font-variant:normal;font-weight:normal;font-stretch:normal;line-height:0.01%;font-family:Lavi;-inkscape-font-specification:Lavi;letter-spacing:0px;word-spacing:0px;fill:#000000;fill-opacity:1;stroke:none"
       transform="matrix(0.95842652,0,0,0.92639044,1410.8828,2590.1163)"><flowRegion
         id="flowRegion2989-7-8-9-3-6"><rect
           id="rect2991-2-1-1-36-5"
           width="357.43549"
           height="179.76456"
           x="120.55251"
           y="265.53046"
           style="font-style:normal;font-variant:normal;font-weight:normal;font-stretch:normal;font-family:Lavi;-inkscape-font-specification:Lavi" /></flowRegion><flowPara
         style="font-size:48px;line-height:1.25;text-align:center;text-anchor:middle"
         id="flowPara4473">Kvar er</flowPara><flowPara
         style="font-size:48px;line-height:1.25;text-align:center;text-anchor:middle"
         id="flowPara3483">eg?!</flowPara></flowRoot>    <flowRoot
       xml:space="preserve"
       id="flowRoot2987-6-5-6-3-8"
       style="font-style:normal;font-variant:normal;font-weight:normal;font-stretch:normal;line-height:0.01%;font-family:Lavi;-inkscape-font-specification:Lavi;letter-spacing:0px;word-spacing:0px;fill:#000000;fill-opacity:1;stroke:none"
       transform="matrix(0.61014531,-0.25329543,0,1.157985,1395.3419,2775.0442)"><flowRegion
         id="flowRegion2989-7-8-9-3-9"><rect
           id="rect2991-2-1-1-36-7"
           width="357.43549"
           height="179.76456"
           x="120.55251"
           y="265.53046"
           style="font-style:normal;font-variant:normal;font-weight:normal;font-stretch:normal;font-family:Lavi;-inkscape-font-specification:Lavi" /></flowRegion><flowPara
         style="font-size:48px;line-height:1.25;text-align:center;text-anchor:middle"
         id="flowPara3217-6"><flowSpan
           style="stroke:#000000;stroke-width:2.49833798;stroke-miterlimit:4;stroke-dasharray:none;stroke-opacity:1"
           id="flowSpan4084">kk? </flowSpan></flowPara></flowRoot>    <flowRoot
       xml:space="preserve"
       id="flowRoot2987-6-5-6-3-8-7"
       style="font-style:normal;font-variant:normal;font-weight:normal;font-stretch:normal;line-height:0.01%;font-family:Lavi;-inkscape-font-specification:Lavi;letter-spacing:0px;word-spacing:0px;fill:#000000;fill-opacity:1;stroke:none"
       transform="matrix(0.61014531,-0.25329543,0,1.157985,1349.8756,2797.7657)"><flowRegion
         id="flowRegion2989-7-8-9-3-9-7"><rect
           id="rect2991-2-1-1-36-7-9"
           width="357.43549"
           height="179.76456"
           x="120.55251"
           y="265.53046"
           style="font-style:normal;font-variant:normal;font-weight:normal;font-stretch:normal;font-family:Lavi;-inkscape-font-specification:Lavi" /></flowRegion><flowPara
         style="font-size:48px;line-height:1.25;text-align:center;text-anchor:middle"
         id="flowPara3217-6-4"><flowSpan
           style="font-size:42.82865143px"
           id="flowSpan3308"><flowSpan
             style="stroke:#000000;stroke-width:1.83330417;stroke-miterlimit:4;stroke-dasharray:none;stroke-opacity:1"
             id="flowSpan4078">Kva </flowSpan></flowSpan></flowPara></flowRoot></g>
</svg>
