<?xml version="1.0" encoding="UTF-8" standalone="no"?>
<!-- Created with Inkscape (http://www.inkscape.org/) -->

<svg
   id="svg2"
   version="1.1"
   inkscape:version="1.2.1 (9c6d41e410, 2022-07-14)"
   width="2481"
   height="3503"
   sodipodi:docname="E37P03.svg"
   xmlns:inkscape="http://www.inkscape.org/namespaces/inkscape"
   xmlns:sodipodi="http://sodipodi.sourceforge.net/DTD/sodipodi-0.dtd"
   xmlns:xlink="http://www.w3.org/1999/xlink"
   xmlns="http://www.w3.org/2000/svg"
   xmlns:svg="http://www.w3.org/2000/svg"
   xmlns:rdf="http://www.w3.org/1999/02/22-rdf-syntax-ns#"
   xmlns:cc="http://creativecommons.org/ns#"
   xmlns:dc="http://purl.org/dc/elements/1.1/">
  <metadata
     id="metadata8">
    <rdf:RDF>
      <cc:Work
         rdf:about="">
        <dc:format>image/svg+xml</dc:format>
        <dc:type
           rdf:resource="http://purl.org/dc/dcmitype/StillImage" />
      </cc:Work>
    </rdf:RDF>
  </metadata>
  <defs
     id="defs6" />
  <sodipodi:namedview
     pagecolor="#ffffff"
     bordercolor="#666666"
     borderopacity="1"
     objecttolerance="10"
     gridtolerance="10"
     guidetolerance="10"
     inkscape:pageopacity="0"
     inkscape:pageshadow="2"
     inkscape:window-width="1366"
     inkscape:window-height="705"
     id="namedview4"
     showgrid="false"
     inkscape:zoom="0.2799099"
     inkscape:cx="1177.1645"
     inkscape:cy="618.05603"
     inkscape:window-x="-8"
     inkscape:window-y="-8"
     inkscape:window-maximized="1"
     inkscape:current-layer="layer1"
     inkscape:pagecheckerboard="0"
     inkscape:showpageshadow="0"
     inkscape:deskcolor="#d1d1d1" />
  <g
     inkscape:groupmode="layer"
     id="layer2"
     inkscape:label="artwork"
     sodipodi:insensitive="true">
    <image
       xlink:href="../gfx_Pepper-and-Carrot_by-David-Revoy_E37P03.png"
       y="0"
       x="0"
       id="image10"
       height="3503"
       width="2481" />
  </g>
  <g
     inkscape:groupmode="layer"
     id="layer3"
     inkscape:label="speechbubbles">
    <path
       style="fill:#ffffff;stroke:none"
       d="m 360.81076,483.27055 c -24.56923,-19.74397 -22.57209,-29.32044 -19.38779,-40.05561 3.18412,-10.73531 7.28186,-20.14814 3.61763,-26.41179 -3.66404,-6.26351 -11.74206,-11.72395 -18.29755,-14.98031 -6.55548,-3.25646 -0.45551,-10.46603 0.21288,-18.13003 0.66831,-7.66412 -10.65562,-47.81818 -10.65562,-47.81818 0,0 -16.12893,27.00135 -18.3493,36.73423 -2.22054,9.73275 -3.08233,13.28039 -2.88893,17.39675 0.19358,4.1165 2.17394,14.17648 7.99925,19.25288 5.82532,5.0764 13.79112,7.01762 19.0679,9.86162 5.27689,2.84391 3.98478,11.55697 3.32674,20.195 -0.65814,8.63801 0.27632,15.01927 9.71886,26.19244 8.09394,9.57758 25.63593,17.763 25.63593,17.763 z"
       id="path3023-2"
       inkscape:connector-curvature="0"
       sodipodi:nodetypes="csssscssssssc" />
    <path
       style="color:#000000;display:inline;overflow:visible;visibility:visible;fill:#ffffff;fill-opacity:1;fill-rule:nonzero;stroke:none;stroke-width:0.999998px;marker:none;enable-background:accumulate"
       d="m 403.42298,834.07226 c -16.6818,-24.82678 6.70933,-94.25013 56.4409,-100.94979 -22.32483,1.35916 -74.47842,-5.24564 -96.28686,102.62894 -9.86485,48.79671 26.31789,-1.15111 26.31789,-1.15111 z"
       id="path4035-4"
       inkscape:connector-curvature="0"
       sodipodi:nodetypes="ccscc" />
    <path
       style="color:#000000;display:inline;overflow:visible;visibility:visible;fill:#ffffff;fill-opacity:1;fill-rule:nonzero;stroke:none;stroke-width:1px;marker:none;enable-background:accumulate"
       d="m 287.22173,764.37695 c -38.96189,0.65395 -78.11944,10.64091 -111.12094,30.8291 -22.1425,14.35978 -38.29561,36.96183 -44.14449,62.03048 -6.79053,27.64899 -2.07119,58.40272 15.35681,81.67937 14.2336,18.66671 36.17978,30.59043 58.9706,36.99009 25.33592,7.0944 51.95492,7.29143 78.11836,8.10392 29.63759,0.58466 59.36834,-0.30844 88.79903,-3.84444 25.5416,-3.97417 51.10124,-12.284 71.31109,-28.25968 16.30294,-13.60004 25.1995,-34.21323 25.96591,-54.75252 3.35157,-38.39787 -13.54001,-78.58273 -45.67966,-102.11056 -19.7039,-14.56477 -44.15856,-21.56538 -68.38358,-25.33285 -22.83479,-3.77078 -46.02641,-5.53145 -69.19313,-5.33291 z"
       id="path4040-4-5-3"
       inkscape:connector-curvature="0"
       sodipodi:nodetypes="zssssz" />
    <path
       style="color:#000000;display:inline;overflow:visible;visibility:visible;fill:#ffffff;fill-opacity:1;fill-rule:nonzero;stroke:none;stroke-width:1.04565px;marker:none;enable-background:accumulate"
       d="m 278.7244,132.72278 c -34.8234,0.40182 -70.14124,3.07044 -103.26065,13.21971 -15.91764,4.85297 -30.77315,12.60712 -42.73191,23.17848 -15.32889,13.31254 -26.00699,31.01384 -28.77597,49.98168 -3.47616,20.43459 -1.42886,41.16181 0.0723,61.66217 1.89592,18.35006 7.15548,37.22372 20.38564,51.8553 17.32368,19.77577 43.75905,31.97677 71.07426,36.92119 31.23516,5.95605 63.36208,5.35897 95.12549,5.82907 31.77626,-0.11585 63.84689,-0.44422 95.07692,-6.22623 27.25007,-5.49881 54.03466,-15.41599 75.04747,-32.11168 15.69675,-13.6055 23.4614,-32.97077 25.27151,-52.0835 3.66447,-26.95442 3.04465,-55.08772 -7.89846,-80.74914 -10.07312,-23.32162 -30.3045,-43.17377 -55.90585,-53.68426 -25.49631,-11.00717 -54.06334,-14.18437 -81.99124,-16.26734 -20.45291,-1.42762 -40.98432,-1.5805 -61.48946,-1.52545 z"
       id="path4040-4-5-3-5"
       inkscape:connector-curvature="0"
       sodipodi:nodetypes="zssssz" />
    <path
       style="display:inline;fill:#ffffff;stroke:none;stroke-width:1.01856"
       d="m 1372.5254,123.51953 c -49.0999,0.40617 -98.8591,6.64811 -144.6858,25.03838 -22.42,9.07708 -39.9322,28.11364 -49.6266,50.016 -5.787,12.8048 -8.5445,26.79015 -9.0565,40.7888 -1.5478,23.1199 1.8324,47.55822 14.8496,67.21746 12.9635,19.23993 33.686,31.55093 54.9012,39.83371 38.9659,15.60249 81.156,23.25833 123.1223,22.07801 38.3334,-1.53179 75.8506,-10.72042 114.1171,-13.02056 43.3862,-3.50776 87.2968,-4.49918 129.795,-14.81556 16.3525,-3.50551 31.3942,-13.04546 41.0145,-26.79384 8.0005,-11.01375 11.7541,-24.37021 14.6104,-37.49384 4.2366,-21.58647 3.3274,-44.2787 -3.0936,-65.34013 -7.9185,-23.36708 -25.2443,-43.07285 -46.8166,-54.86138 -29.9719,-17.65084 -64.9605,-23.35061 -98.981,-27.51709 -46.4966,-5.47922 -93.4123,-5.11327 -140.15,-5.12996 z"
       id="path3280-8-2"
       inkscape:connector-curvature="0"
       sodipodi:nodetypes="csssc" />
    <path
       style="color:#000000;display:inline;overflow:visible;visibility:visible;fill:#ffffff;fill-opacity:1;fill-rule:nonzero;stroke:none;stroke-width:1.23333px;marker:none;enable-background:accumulate"
       d="m 1485.9524,316.34649 c -38.6929,0.6003 -77.8414,11.56161 -110.1483,35.10513 -29.6037,23.01174 -49.195,61.33785 -49.402,101.03479 -0.085,32.87073 15.1397,64.88162 38.8815,85.10509 20.2552,17.58872 45.2401,27.30595 70.317,33.39931 39.3328,9.91002 79.9408,13.93476 120.2744,11.53775 25.6764,-1.41072 51.1394,-5.57772 76.4371,-10.37576 18.4405,-3.66822 36.9115,-8.91255 53.2881,-19.08879 15.8481,-9.54258 29.5522,-23.54936 38.2482,-40.87251 13.1259,-25.76429 16.2032,-56.70103 10.9945,-85.36092 -6.2081,-33.25868 -25.8241,-63.7496 -53.5633,-79.96177 -23.4058,-14.34879 -50.1291,-20.5112 -76.5129,-24.51566 -36.4856,-5.17397 -73.3521,-5.21497 -110.0779,-6.01028 -2.9122,-0.01 -5.8243,-9.1e-4 -8.7364,0.003 z"
       id="path3365-7"
       inkscape:connector-curvature="0"
       sodipodi:nodetypes="cscsccc" />
    <path
       style="fill:#ffffff;fill-rule:evenodd;stroke:none;stroke-width:0.999999px;stroke-linecap:butt;stroke-linejoin:miter;stroke-opacity:1"
       d="m 1615.4482,493.17881 c -6.3324,4.61753 23.1312,48.65505 53.6406,67.52901 38.9988,24.12578 112.2777,14.3494 131.5101,5.98579 -39.7827,19.67647 -151.2589,38.53306 -215.4148,-49.39071 -15.2092,-20.84384 30.2641,-24.12409 30.2641,-24.12409 z"
       id="path1357"
       inkscape:connector-curvature="0"
       inkscape:transform-center-x="-30.354172"
       inkscape:transform-center-y="-147.57618"
       sodipodi:nodetypes="cscsc" />
    <path
       style="color:#000000;display:inline;overflow:visible;visibility:visible;fill:#ffffff;fill-opacity:1;fill-rule:nonzero;stroke:none;stroke-width:1.44436px;marker:none;enable-background:accumulate"
       d="m 130.0861,2768.4588 c 4.1646,-39.7667 52.76306,-68.7922 178.71482,-61.119 67.46643,4.1101 144.08544,6.8552 138.76731,65.1114 -5.31819,58.2567 -115.45731,56.5921 -138.20384,57.9201 -22.74661,1.3284 -141.14535,-4.9608 -161.7482,-24.8113 -12.89682,-12.426 -17.96894,-24.7842 -17.53009,-37.1012 z"
       id="path4546-6-5"
       inkscape:connector-curvature="0"
       sodipodi:nodetypes="cssssc" />
    <path
       style="color:#000000;display:inline;overflow:visible;visibility:visible;fill:#ffffff;fill-opacity:1;fill-rule:nonzero;stroke:none;stroke-width:1.66673px;marker:none;enable-background:accumulate"
       d="m 836.3687,3230.3551 c 5.15653,-72.4835 65.33002,-125.3888 221.2805,-111.4026 83.5354,7.4914 178.4032,12.4949 171.8185,118.6795 -6.5847,106.1854 -142.9566,103.1513 -171.1209,105.5719 -28.1643,2.4214 -174.76275,-9.0423 -200.27272,-45.224 -15.96856,-22.6489 -22.24873,-45.1745 -21.70538,-67.6248 z"
       id="path4546-6-5-2"
       inkscape:connector-curvature="0"
       sodipodi:nodetypes="cssssc" />
    <path
       style="fill:#ffffff;fill-rule:evenodd;stroke:none;stroke-width:1px;stroke-linecap:butt;stroke-linejoin:miter;stroke-opacity:1"
       d="m 1373.2637,3271.7707 c 22.5866,-17.8161 34.5507,-17.0035 58.8747,-18.7273 24.3239,-1.7244 84.3852,-5.6068 108.13,-1.0095 23.745,4.5978 46.3316,9.7705 52.123,16.0922 5.7914,6.3217 19.6908,24.7127 19.6908,32.7588 0,8.0461 8.108,34.4827 -6.9497,51.7245 -15.0577,17.2414 -30.1154,29.8854 -57.3351,29.3105 -27.2198,-0.5748 -64.8641,0 -82.8176,0.5749 -17.9534,0.5741 -72.972,-6.8972 -82.8174,-21.8393 -9.8454,-14.9426 -23.7449,-37.3566 -21.4283,-50.0006 2.3166,-12.6435 12.5296,-38.8842 12.5296,-38.8842 z"
       id="path1289"
       inkscape:connector-curvature="0"
       sodipodi:nodetypes="csssssssscc" />
    <path
       style="fill:#ffffff;fill-rule:evenodd;stroke:none;stroke-width:1px;stroke-linecap:butt;stroke-linejoin:miter;stroke-opacity:1"
       d="m 1520.7213,3290.478 c 0,0 0.2613,-30.8716 9.7849,-41.8248 9.5236,-10.953 35.9725,-32.826 61.189,-35.0384 -49.4537,-3.6057 -69.9603,11.1043 -78.3427,19.1018 -8.3839,7.9982 -32.4023,48.2786 -32.4023,48.2786 z"
       id="path1367-3"
       inkscape:connector-curvature="0" />
    <path
       style="color:#000000;display:inline;overflow:visible;visibility:visible;fill:#ffffff;fill-opacity:1;fill-rule:nonzero;stroke:none;stroke-width:1px;marker:none;enable-background:accumulate"
       d="m 371.05804,2770.2315 c -13.44223,35.2759 -28.63005,94.9961 57.30853,115.005 -17.80709,4.5085 -119.29491,-9.1273 -91.99905,-114.8163 7.92058,-30.6682 15.69642,-16.5134 23.06049,-15.8694 7.36416,0.6441 11.63003,15.6807 11.63003,15.6807 z"
       id="path4064-5"
       inkscape:connector-curvature="0"
       sodipodi:nodetypes="ccszc" />
    <path
       style="color:#000000;display:inline;overflow:visible;visibility:visible;fill:#ffffff;fill-opacity:1;fill-rule:nonzero;stroke:none;stroke-width:1px;marker:none;enable-background:accumulate"
       d="m 985.81867,3194.6677 c 41.23993,-57.572 33.73823,-151.8082 -50.60213,-153.341 81.57176,24.5899 42.90889,109.9963 14.4588,139.3816 -19.62934,16.6806 36.14333,13.9594 36.14333,13.9594 z"
       id="path3978-4"
       inkscape:connector-curvature="0"
       sodipodi:nodetypes="cccc" />
  </g>
  <g
     inkscape:groupmode="layer"
     id="layer1"
     inkscape:label="txt">
    <text
       xml:space="preserve"
       style="font-style:normal;font-variant:normal;font-weight:normal;font-stretch:normal;font-size:45.3333px;line-height:125%;font-family:Lavi;-inkscape-font-specification:Lavi;text-align:center;letter-spacing:0px;word-spacing:0px;text-anchor:middle;fill:#000000;fill-opacity:1;stroke:none"
       x="295.43417"
       y="216.36084"
       id="text4246-70-2-2-2-7-4-9-9-6-1-2-3-9-2-7-9-3"><tspan
         sodipodi:role="line"
         style="font-size:45.3333px"
         x="295.43417"
         y="216.36084"
         id="tspan1051">De verdad </tspan><tspan
         sodipodi:role="line"
         style="font-size:45.3333px"
         x="295.43417"
         y="273.02747"
         id="tspan789">pusieron carteles</tspan><tspan
         sodipodi:role="line"
         style="font-size:45.3333px"
         x="295.43417"
         y="329.69409"
         id="tspan791">en todos lados.</tspan></text>
    <text
       xml:space="preserve"
       style="font-style:normal;font-variant:normal;font-weight:normal;font-stretch:normal;font-size:45.3333px;line-height:125%;font-family:Lavi;-inkscape-font-specification:Lavi;text-align:center;letter-spacing:0px;word-spacing:0px;text-anchor:middle;fill:#000000;fill-opacity:1;stroke:none"
       x="297.66208"
       y="832.55078"
       id="text4246-70-2-2-2-7-4-9-9-6-1-2-3-9-2-7-9-3-3"><tspan
         sodipodi:role="line"
         style="font-size:45.3333px"
         x="297.66208"
         y="832.55078"
         id="tspan15033">Incluso </tspan><tspan
         sodipodi:role="line"
         style="font-size:45.3333px"
         x="297.66208"
         y="889.21741"
         id="tspan1165">en las esquinas</tspan><tspan
         sodipodi:role="line"
         style="font-size:45.3333px"
         x="297.66208"
         y="945.88403"
         id="tspan795">más lejanas.</tspan></text>
    <text
       xml:space="preserve"
       style="font-style:normal;font-variant:normal;font-weight:normal;font-stretch:normal;font-size:45.3333px;line-height:125%;font-family:Lavi;-inkscape-font-specification:Lavi;text-align:center;letter-spacing:0px;word-spacing:0px;text-anchor:middle;fill:#000000;fill-opacity:1;stroke:none"
       x="1423.1024"
       y="199.99611"
       id="text4246-70-2-2-2-7-4-9-9-6-1-2-3-9-2-7-9-3-6"><tspan
         sodipodi:role="line"
         style="font-size:45.3333px"
         x="1423.1024"
         y="199.99611"
         id="tspan1169">Vamos, salgamos </tspan><tspan
         sodipodi:role="line"
         style="font-size:45.3333px"
         x="1423.1024"
         y="256.66272"
         id="tspan1175">de aquí antes de que</tspan><tspan
         sodipodi:role="line"
         style="font-size:45.3333px"
         x="1423.1024"
         y="313.32935"
         id="tspan799">nos reconozcan.</tspan></text>
    <text
       xml:space="preserve"
       style="font-style:normal;font-variant:normal;font-weight:normal;font-stretch:normal;font-size:45.3333px;line-height:125%;font-family:Lavi;-inkscape-font-specification:Lavi;text-align:center;letter-spacing:0px;word-spacing:0px;text-anchor:middle;fill:#000000;fill-opacity:1;stroke:none"
       x="1538.675"
       y="381.04031"
       id="text4246-70-2-2-2-7-4-9-9-6-1-2-3-9-2-7-9-3-6-7"><tspan
         sodipodi:role="line"
         style="font-size:45.3333px"
         x="1538.675"
         y="381.04031"
         id="tspan617">Tenemos </tspan><tspan
         sodipodi:role="line"
         style="font-size:45.3333px"
         x="1538.675"
         y="437.70694"
         id="tspan1235">problemas más </tspan><tspan
         sodipodi:role="line"
         style="font-size:45.3333px"
         x="1538.675"
         y="494.37357"
         id="tspan1237">grandes ahora</tspan><tspan
         sodipodi:role="line"
         style="font-size:45.3333px"
         x="1538.675"
         y="551.04016"
         id="tspan998">mismo...</tspan></text>
    <text
       xml:space="preserve"
       style="font-style:normal;font-variant:normal;font-weight:normal;font-stretch:normal;font-size:45.3333px;line-height:125%;font-family:Lavi;-inkscape-font-specification:Lavi;text-align:center;letter-spacing:0px;word-spacing:0px;text-anchor:middle;fill:#000000;fill-opacity:1;stroke:none"
       x="294.23251"
       y="2781.9722"
       id="text4246-70-2-2-2-7-4-9-9-6-1-2-3-9-2-7-9-3-6-7-3"><tspan
         sodipodi:role="line"
         style="font-size:45.3333px"
         x="294.23251"
         y="2781.9722"
         id="tspan62644">Esa luz...</tspan></text>
    <text
       xml:space="preserve"
       style="font-style:normal;font-variant:normal;font-weight:normal;font-stretch:normal;font-size:45.3333px;line-height:125%;font-family:Lavi;-inkscape-font-specification:Lavi;text-align:center;letter-spacing:0px;word-spacing:0px;text-anchor:middle;fill:#000000;fill-opacity:1;stroke:none"
       x="1032.7876"
       y="3191.3821"
       id="text4246-70-2-2-2-7-4-9-9-6-1-2-3-9-2-7-9-3-6-7-3-6"><tspan
         sodipodi:role="line"
         style="font-size:45.3333px"
         x="1032.7876"
         y="3191.3821"
         id="tspan851">Debemos estar</tspan><tspan
         sodipodi:role="line"
         style="font-size:45.3333px"
         x="1032.7876"
         y="3248.0488"
         id="tspan853"> muy cerca de</tspan><tspan
         sodipodi:role="line"
         style="font-size:45.3333px"
         x="1032.7876"
         y="3304.7153"
         id="tspan861">su nido.</tspan></text>
    <text
       xml:space="preserve"
       style="font-style:normal;font-variant:normal;font-weight:normal;font-stretch:normal;font-size:48.525px;line-height:125%;font-family:Lavi;-inkscape-font-specification:Lavi;text-align:center;letter-spacing:0px;word-spacing:0px;text-anchor:middle;fill:#000000;fill-opacity:1;stroke:none;stroke-width:1"
       x="1490.6833"
       y="3328.5591"
       id="text4246-70-2-2-2-7-4-9-9-6-1-2-3-9-2-7-9-3-6-7-3-6-7"><tspan
         sodipodi:role="line"
         style="font-style:normal;font-variant:normal;font-weight:bold;font-stretch:normal;font-size:48.525px;font-family:Lavi;-inkscape-font-specification:'Lavi Bold';stroke-width:1"
         x="1490.6833"
         y="3328.5591"
         id="tspan121879-0">¡Bingo!</tspan></text>
  </g>
</svg>
