<?xml version="1.0" encoding="UTF-8" standalone="no"?>
<!-- Created with Inkscape (http://www.inkscape.org/) -->

<svg
   id="svg2"
   version="1.1"
   inkscape:version="1.2.1 (9c6d41e410, 2022-07-14)"
   width="2481"
   height="3503"
   sodipodi:docname="E37P01.svg"
   xmlns:inkscape="http://www.inkscape.org/namespaces/inkscape"
   xmlns:sodipodi="http://sodipodi.sourceforge.net/DTD/sodipodi-0.dtd"
   xmlns:xlink="http://www.w3.org/1999/xlink"
   xmlns="http://www.w3.org/2000/svg"
   xmlns:svg="http://www.w3.org/2000/svg"
   xmlns:rdf="http://www.w3.org/1999/02/22-rdf-syntax-ns#"
   xmlns:cc="http://creativecommons.org/ns#"
   xmlns:dc="http://purl.org/dc/elements/1.1/">
  <metadata
     id="metadata8">
    <rdf:RDF>
      <cc:Work
         rdf:about="">
        <dc:format>image/svg+xml</dc:format>
        <dc:type
           rdf:resource="http://purl.org/dc/dcmitype/StillImage" />
      </cc:Work>
    </rdf:RDF>
  </metadata>
  <defs
     id="defs6" />
  <sodipodi:namedview
     pagecolor="#ffffff"
     bordercolor="#666666"
     borderopacity="1"
     objecttolerance="10"
     gridtolerance="10"
     guidetolerance="10"
     inkscape:pageopacity="0"
     inkscape:pageshadow="2"
     inkscape:window-width="1366"
     inkscape:window-height="705"
     id="namedview4"
     showgrid="false"
     inkscape:zoom="0.36388287"
     inkscape:cx="1273.7615"
     inkscape:cy="2869.0551"
     inkscape:window-x="-8"
     inkscape:window-y="-8"
     inkscape:window-maximized="1"
     inkscape:current-layer="layer1"
     inkscape:pagecheckerboard="0"
     inkscape:showpageshadow="0"
     inkscape:deskcolor="#d1d1d1"
     showguides="false" />
  <g
     inkscape:groupmode="layer"
     id="layer2"
     inkscape:label="artwork"
     sodipodi:insensitive="true">
    <image
       xlink:href="../gfx_Pepper-and-Carrot_by-David-Revoy_E37P01.png"
       y="0"
       x="0"
       id="image10"
       height="3503"
       width="2481" />
  </g>
  <g
     inkscape:groupmode="layer"
     id="layer3"
     inkscape:label="speechbubbles">
    <path
       style="color:#000000;display:inline;overflow:visible;visibility:visible;fill:#ffffff;fill-opacity:1;fill-rule:nonzero;stroke:none;stroke-width:0.999998px;marker:none;enable-background:accumulate"
       d="m 1957.6629,2315.1087 c 15.8896,4.7552 27.218,-10.2594 36.5884,-10.1737 9.3705,0.085 20.4858,-1.4767 31.5776,-11.7728 11.8207,-15.5362 46.6253,-47.4088 4.9039,-39.2982 -15.2177,1.3778 -15.6011,25.3088 -21.9093,33.4823 -6.3081,8.1734 -14.6485,3.6312 -21.2243,9.0949 -6.5758,5.4636 -12.6894,16.2295 -29.9363,18.6675 z"
       id="path4538-0"
       inkscape:connector-curvature="0"
       sodipodi:nodetypes="ccccccc" />
    <path
       style="color:#000000;display:inline;overflow:visible;visibility:visible;fill:#ffffff;fill-opacity:1;fill-rule:nonzero;stroke:none;stroke-width:1px;marker:none;enable-background:accumulate"
       d="m 2249.24,3145.8561 c 34.555,29.8645 38.7386,62.8188 5.9526,98.2544 -21.168,42.3886 0.4462,38.3212 0.4462,38.3212 l 34.145,-19.6238 c 0,0 46.2012,-75.3554 -40.5438,-116.9518 z"
       id="path3072-56-6"
       inkscape:connector-curvature="0"
       sodipodi:nodetypes="ccccc" />
    <path
       style="color:#000000;display:inline;overflow:visible;visibility:visible;fill:#ffffff;fill-opacity:1;fill-rule:nonzero;stroke:none;stroke-width:1.24776px;marker:none;enable-background:accumulate"
       d="m 847.1762,2234.3704 c -28.32832,0.667 -57.2014,0.5678 -84.02305,10.1173 -15.74509,5.5745 -30.61223,16.2146 -39.27852,33.3187 -10.13387,19.5988 -9.81916,46.2069 -2.25385,68.9801 3.54761,10.567 8.4571,20.6616 14.64869,29.4264 6.72464,9.3324 15.55183,16.4797 25.14208,19.6119 27.79854,11.5633 56.71591,14.3241 85.08587,15.485 29.6679,0.8973 59.20878,-0.3057 88.51254,-3.0891 24.70663,-2.7804 49.52503,-7.7974 71.48064,-20.6774 13.2568,-8.1013 25.4772,-20.3565 30.8022,-37.8994 7.4314,-24.2539 2.6051,-55.3961 -13.4195,-75.8136 -12.8078,-15.6635 -30.16391,-23.2508 -46.88491,-27.8613 -27.6138,-7.4778 -55.5152,-8.8065 -83.22699,-10.5704 -15.55285,-0.8334 -31.12316,-1.5798 -46.5852,-1.0282 z"
       id="path4546-6-21-1"
       inkscape:connector-curvature="0"
       sodipodi:nodetypes="cssssc" />
    <path
       style="color:#000000;display:inline;overflow:visible;visibility:visible;fill:#ffffff;fill-opacity:1;fill-rule:nonzero;stroke:none;stroke-width:1.24776px;marker:none;enable-background:accumulate"
       d="m 849.18072,2151.1293 c -18.14856,0.3855 -36.60784,0.3282 -54.22804,5.8465 -10.34202,3.2213 -20.37079,9.3697 -26.75086,19.2536 -7.4408,11.3254 -8.54323,26.7013 -4.82103,39.861 1.75096,6.1063 4.39595,11.9396 7.92602,17.0045 3.84313,5.3928 9.13788,9.5229 15.11734,11.3329 17.21046,6.682 35.56772,8.2774 53.65329,8.9483 18.9285,0.5184 37.87868,-0.1767 56.75468,-1.7852 15.93601,-1.6067 32.05304,-4.5058 46.7246,-11.9486 8.8747,-4.6815 17.29002,-11.7632 21.55478,-21.9007 5.94067,-14.0154 4.38006,-32.0113 -4.86713,-43.8099 -7.42318,-9.0513 -18.15062,-13.4357 -28.61755,-16.0999 -17.29268,-4.3212 -35.07036,-5.089 -52.70551,-6.1083 -9.90514,-0.4816 -19.8257,-0.9129 -29.74059,-0.5942 z"
       id="path4546-6-21-1-7"
       inkscape:connector-curvature="0"
       sodipodi:nodetypes="cssssc" />
    <path
       style="color:#000000;display:inline;overflow:visible;visibility:visible;fill:#ffffff;fill-opacity:1;fill-rule:nonzero;stroke:none;stroke-width:0.999999px;marker:none;enable-background:accumulate"
       d="m 1112.0298,2244.6942 c -36.4729,-14.2248 -66.2411,-6.7142 -86.7414,26.8513 -30.09489,27.8109 -33.25183,11.7546 -33.25183,11.7546 l 6.41738,-29.5186 c 0,0 50.85485,-55.2993 113.57585,-9.0873 z"
       id="path3072-56"
       inkscape:connector-curvature="0"
       sodipodi:nodetypes="ccccc" />
    <path
       style="fill:#ffffff;stroke:none;stroke-width:1.0606"
       d="m 2095.1348,2130.2227 c -28.5882,0.7098 -58.3476,3.8196 -83.7119,18.0493 -31.6251,20.1271 -43.1176,65.6376 -25.0238,98.4221 7.9054,14.9187 21.7142,26.1644 37.518,31.8566 19.2472,7.3377 39.9471,9.1734 60.1181,12.5354 52.7012,7.0828 106.9959,5.6916 158.5744,-7.8795 15.0609,-3.8228 31.1055,-11.3204 37.6874,-26.3501 7.8624,-18.7115 7.5035,-39.9925 2.9254,-59.4746 -4.8779,-19.0215 -14.9913,-37.3975 -30.8669,-49.3502 -18.0344,-11.7846 -40.2444,-12.6888 -61.0005,-15.0401 -31.9837,-2.9007 -64.1356,-2.8165 -96.2202,-2.7689 z"
       id="path3280-10"
       inkscape:connector-curvature="0"
       sodipodi:nodetypes="csssc" />
    <path
       style="color:#000000;display:inline;overflow:visible;visibility:visible;fill:#ffffff;fill-opacity:1;fill-rule:nonzero;stroke:none;stroke-width:1.23847px;marker:none;enable-background:accumulate"
       d="m 2110.3094,2518.166 c -34.3161,0.9363 -69.214,1.7668 -102.3142,12.0113 -23.3377,6.8578 -45.2606,20.7208 -59.1701,41.2543 -17.1135,23.5737 -29.255,51.5852 -31.1476,81.0407 -1.512,23.694 2.649,47.952 13.0435,69.295 7.3463,14.9518 18.8553,28.0601 33.6348,35.7008 15.9513,8.629 34.0522,11.8881 51.8932,13.3455 22.9748,2.3581 45.9885,4.3135 68.9488,6.8204 53.3032,5.2663 106.9294,9.2286 160.4987,6.4035 35.9683,-1.3068 71.9535,-2.0736 107.9359,-2.801 18.6585,-0.7449 37.5859,-1.8946 55.521,-7.5533 11.9021,-5.4078 18.9485,-18.7912 18.693,-31.7639 1.8855,-24.2364 -5.3925,-48.1727 -15.6586,-69.7861 -9.5359,-20.2484 -20.2522,-39.9024 -29.6269,-60.2308 -9.6072,-19.2648 -21.35,-38.313 -38.8681,-51.1448 -21.2022,-15.8932 -47.0181,-23.6852 -72.607,-28.6034 -42.9239,-8.3198 -86.6396,-11.0345 -130.1975,-13.459 -10.1874,-0.4069 -20.3836,-0.5958 -30.5789,-0.5292 z"
       id="path4546-6-21-1-2"
       inkscape:connector-curvature="0"
       sodipodi:nodetypes="cssssccccccccc" />
    <path
       style="color:#000000;display:inline;overflow:visible;visibility:visible;fill:#ffffff;fill-opacity:1;fill-rule:nonzero;stroke:none;stroke-width:0.999994px;marker:none;enable-background:accumulate"
       d="m 2072.4015,2461.8063 c 23.2757,17.8081 28.2898,43.1252 10.979,76.5719 -9.716,36.9964 3.1402,30.1775 3.1402,30.1775 l 19.3218,-21.1913 c 0,0 22.491,-67.2 -33.441,-85.5581 z"
       id="path3072-56-7"
       inkscape:connector-curvature="0"
       sodipodi:nodetypes="ccccc" />
    <path
       style="color:#000000;display:inline;overflow:visible;visibility:visible;fill:#ffffff;fill-opacity:1;fill-rule:nonzero;stroke:none;stroke-width:0.957549px;marker:none;enable-background:accumulate"
       d="m 2169.2257,3221.6449 c -36.0074,0.8969 -72.6555,5.9031 -104.7718,19.6335 -23.6674,9.6608 -41.0528,27.9981 -48.0298,48.4977 -8.8978,23.0221 -10.449,48.6774 0.7745,71.3727 9.3378,18.7117 29.0448,33.1482 51.5785,41.3678 30.3041,11.6076 63.3622,17.6647 96.4051,21.5819 48.8094,5.3987 98.5672,5.3301 147.3436,-0.256 27.6047,-3.6883 55.4517,-10.9734 77.1009,-25.7609 23.4348,-16.0986 35.9816,-41.5615 33.423,-66.2287 -1.8601,-28.3039 -17.2079,-56.3978 -44.0269,-75.0583 -21.6226,-15.4701 -49.5125,-24.1007 -77.7265,-28.0085 -43.4762,-6.7074 -87.9641,-7.0468 -132.0706,-7.1412 z"
       id="path4040-40"
       inkscape:connector-curvature="0"
       sodipodi:nodetypes="zssssz" />
  </g>
  <g
     inkscape:groupmode="layer"
     id="layer1"
     inkscape:label="txt"
     style="display:inline">
    <text
       xml:space="preserve"
       style="font-style:normal;font-variant:normal;font-weight:normal;font-stretch:normal;font-size:45.3333px;line-height:125%;font-family:Lavi;-inkscape-font-specification:Lavi;text-align:center;letter-spacing:0px;word-spacing:0px;text-anchor:middle;fill:#000000;fill-opacity:1;stroke:none"
       x="870.99451"
       y="2214.8057"
       id="text4246-70-2-2-2-7-4-9-9-6-1-2-3-9"><tspan
         sodipodi:role="line"
         style="font-size:45.3333px"
         x="870.99451"
         y="2214.8057"
         id="tspan2979">Fiu...</tspan></text>
    <text
       xml:space="preserve"
       style="font-style:normal;font-variant:normal;font-weight:normal;font-stretch:normal;font-size:45.3333px;line-height:125%;font-family:Lavi;-inkscape-font-specification:Lavi;text-align:center;letter-spacing:0px;word-spacing:0px;text-anchor:middle;fill:#000000;fill-opacity:1;stroke:none"
       x="874.24341"
       y="2307.0212"
       id="text4246-70-2-2-2-7-4-9-9-6-1-2-3-9-3"><tspan
         sodipodi:role="line"
         style="font-size:45.3333px"
         x="874.24341"
         y="2307.0212"
         id="tspan982">¡Me alegra</tspan><tspan
         sodipodi:role="line"
         style="font-size:45.3333px"
         x="874.24341"
         y="2363.688"
         id="tspan433">estar aquí!</tspan></text>
    <text
       xml:space="preserve"
       style="font-style:normal;font-variant:normal;font-weight:normal;font-stretch:normal;font-size:45.3333px;line-height:125%;font-family:Lavi;-inkscape-font-specification:Lavi;text-align:center;letter-spacing:0px;word-spacing:0px;text-anchor:middle;fill:#000000;fill-opacity:1;stroke:none"
       x="2135.9358"
       y="2189.3025"
       id="text4246-70-2-2-2-7-4-9-9-6-1-2-3-9-3-5"><tspan
         sodipodi:role="line"
         style="font-size:45.3333px"
         x="2135.9358"
         y="2189.3025"
         id="tspan1022">Oh, es día </tspan><tspan
         sodipodi:role="line"
         style="font-size:45.3333px"
         x="2135.9358"
         y="2245.9692"
         id="tspan1026">de mercado.</tspan></text>
    <text
       xml:space="preserve"
       style="font-style:normal;font-variant:normal;font-weight:normal;font-stretch:normal;font-size:45.3333px;line-height:125%;font-family:Lavi;-inkscape-font-specification:Lavi;text-align:center;letter-spacing:0px;word-spacing:0px;text-anchor:middle;fill:#000000;fill-opacity:1;stroke:none"
       x="2147.6399"
       y="2598.4341"
       id="text4246-70-2-2-2-7-4-9-9-6-1-2-3-9-3-5-2"><tspan
         sodipodi:role="line"
         style="font-size:45.3333px"
         x="2147.6399"
         y="2598.4341"
         id="tspan1190">Compremos algo </tspan><tspan
         sodipodi:role="line"
         style="font-size:45.3333px"
         x="2147.6399"
         y="2655.1006"
         id="tspan1194">de comer antes de</tspan><tspan
         sodipodi:role="line"
         style="font-size:45.3333px"
         x="2147.6399"
         y="2711.7673"
         id="tspan1196"> subir al volcán.</tspan></text>
    <text
       xml:space="preserve"
       style="font-style:normal;font-variant:normal;font-weight:normal;font-stretch:normal;font-size:45.3333px;line-height:125%;font-family:Lavi;-inkscape-font-specification:Lavi;text-align:center;letter-spacing:0px;word-spacing:0px;text-anchor:middle;fill:#000000;fill-opacity:1;stroke:none"
       x="2218.8547"
       y="3310.4353"
       id="text4246-70-2-2-2-7-4-9-9-6-1-2-3-9-3-5-2-0"><tspan
         sodipodi:role="line"
         style="font-size:45.3333px"
         x="2218.8547"
         y="3310.4353"
         id="tspan38660">¡Ya <tspan
   style="font-style:italic;font-variant:normal;font-weight:normal;font-stretch:normal;font-family:Lavi;-inkscape-font-specification:'Lavi Italic'"
   id="tspan1236">sabía</tspan> que te </tspan><tspan
         sodipodi:role="line"
         style="font-size:45.3333px"
         x="2218.8547"
         y="3367.1021"
         id="tspan1238">gustaría la idea!</tspan></text>
    <text
       xml:space="preserve"
       style="fill:#ffffff;stroke-width:10"
       x="2076.7012"
       y="3310.4353"
       id="text616"><tspan
         sodipodi:role="line"
         id="tspan614"
         x="2076.7012"
         y="3310.4353">|</tspan></text>
  </g>
</svg>
