<?xml version="1.0" encoding="UTF-8" standalone="no"?>
<!-- Created with Inkscape (http://www.inkscape.org/) -->

<svg
   xmlns:dc="http://purl.org/dc/elements/1.1/"
   xmlns:cc="http://creativecommons.org/ns#"
   xmlns:rdf="http://www.w3.org/1999/02/22-rdf-syntax-ns#"
   xmlns:svg="http://www.w3.org/2000/svg"
   xmlns="http://www.w3.org/2000/svg"
   xmlns:xlink="http://www.w3.org/1999/xlink"
   xmlns:sodipodi="http://sodipodi.sourceforge.net/DTD/sodipodi-0.dtd"
   xmlns:inkscape="http://www.inkscape.org/namespaces/inkscape"
   id="svg2"
   version="1.1"
   inkscape:version="0.92.4 (5da689c313, 2019-01-14)"
   width="2481"
   height="3503"
   sodipodi:docname="E11P05.svg">
  <sodipodi:namedview
     pagecolor="#ffffff"
     bordercolor="#666666"
     inkscape:pageopacity="0"
     inkscape:pageshadow="2"
     inkscape:window-width="1813"
     inkscape:window-height="955"
     id="namedview70"
     showgrid="false"
     inkscape:zoom="0.36770972"
     inkscape:cx="587.50325"
     inkscape:cy="791.1445"
     inkscape:current-layer="layer1"
     inkscape:window-x="0"
     inkscape:window-y="64"
     inkscape:window-maximized="0" />
  <metadata
     id="metadata8">
    <rdf:RDF>
      <cc:Work
         rdf:about="">
        <dc:format>image/svg+xml</dc:format>
        <dc:type
           rdf:resource="http://purl.org/dc/dcmitype/StillImage" />
        <dc:title />
      </cc:Work>
    </rdf:RDF>
  </metadata>
  <defs
     id="defs6">
    <filter
       style="color-interpolation-filters:sRGB"
       id="filter4375-4-1-1"
       inkscape:label="deevad outline effect">
      <feFlood
         id="feFlood4377-7-9-0"
         flood-opacity="1"
         flood-color="rgb(118,29,43)"
         result="flood" />
      <feComposite
         id="feComposite4379-3-8-8"
         in2="SourceGraphic"
         in="flood"
         operator="in"
         result="composite1" />
      <feMorphology
         id="feMorphology4393-1-0-49"
         operator="dilate"
         radius="4"
         result="result3" />
      <feComposite
         id="feComposite4385-9-5-7"
         in2="result3"
         in="SourceGraphic"
         operator="over"
         result="composite2" />
    </filter>
    <filter
       style="color-interpolation-filters:sRGB"
       id="filter4375-4-1-1-9"
       inkscape:label="deevad outline effect">
      <feFlood
         id="feFlood4377-7-9-0-2"
         flood-opacity="1"
         flood-color="rgb(0,0,0)"
         result="flood" />
      <feComposite
         id="feComposite4379-3-8-8-5"
         in2="SourceGraphic"
         in="flood"
         operator="in"
         result="composite1" />
      <feMorphology
         id="feMorphology4393-1-0-49-5"
         operator="dilate"
         radius="4"
         result="result3" />
      <feComposite
         id="feComposite4385-9-5-7-5"
         in2="result3"
         in="SourceGraphic"
         operator="over"
         result="composite2" />
    </filter>
  </defs>
  <sodipodi:namedview
     pagecolor="#ffffff"
     bordercolor="#666666"
     borderopacity="1"
     objecttolerance="10"
     gridtolerance="10"
     guidetolerance="10"
     inkscape:pageopacity="0"
     inkscape:pageshadow="2"
     inkscape:window-width="1920"
     inkscape:window-height="1025"
     id="namedview4"
     showgrid="false"
     inkscape:zoom="0.34782609"
     inkscape:cx="849.68266"
     inkscape:cy="571.54505"
     inkscape:window-x="0"
     inkscape:window-y="26"
     inkscape:window-maximized="1"
     inkscape:current-layer="layer1" />
  <g
     inkscape:groupmode="layer"
     id="layer2"
     inkscape:label="artwork"
     sodipodi:insensitive="true">
    <image
       sodipodi:absref="/felles/omsetting/pepper-carrot/webcomics/ep11_The-Witches-of-Chaosah/lang/nn/../gfx_Pepper-and-Carrot_by-David-Revoy_E11P05.png"
       xlink:href="../gfx_Pepper-and-Carrot_by-David-Revoy_E11P05.png"
       width="2481"
       height="3503"
       id="image10"
       x="0"
       y="0" />
  </g>
  <g
     inkscape:groupmode="layer"
     id="layer3"
     inkscape:label="speechbubbles" />
  <g
     inkscape:groupmode="layer"
     id="layer1"
     inkscape:label="txt">
    <flowRoot
       xml:space="preserve"
       id="flowRoot2987-7-9-9-7-0-3-4"
       style="font-style:normal;font-variant:normal;font-weight:normal;font-stretch:normal;line-height:0.01%;font-family:Lavi;-inkscape-font-specification:Lavi;letter-spacing:0px;word-spacing:0px;fill:#000000;fill-opacity:1;stroke:#000000;stroke-width:0.99236238;stroke-miterlimit:4;stroke-dasharray:none;stroke-opacity:1;filter:url(#filter4375-4-1-1)"
       transform="matrix(0.72826899,-0.81755759,0.24767521,2.1649058,787.1265,-276.56588)"><flowRegion
         id="flowRegion2989-4-5-8-7-41-7-62"
         style="stroke-width:5.40286207"><rect
           id="rect2991-45-1-3-3-8-0-4"
           width="319.66232"
           height="56.089447"
           x="120.55251"
           y="265.53046"
           style="font-style:normal;font-variant:normal;font-weight:normal;font-stretch:normal;font-family:Lavi;-inkscape-font-specification:Lavi;fill:#000000;fill-opacity:1;stroke:#000000;stroke-width:0.99236238;stroke-miterlimit:4;stroke-dasharray:none;stroke-opacity:1" /></flowRegion><flowPara
         id="flowPara2995-4-1-5-0-7-2-6"
         style="font-weight:normal;font-size:48px;line-height:1.25;-inkscape-font-specification:Lavi;letter-spacing:7.06853437px;fill:#ffffff;fill-opacity:1;stroke:#ffffff;stroke-width:0.99236238;stroke-linejoin:miter;stroke-miterlimit:4;stroke-dasharray:none;stroke-opacity:1">Dzzz</flowPara></flowRoot>    <path
       style="color:#000000;display:inline;overflow:visible;visibility:visible;fill:#ffffff;fill-opacity:1;fill-rule:nonzero;stroke:none;stroke-width:0.94012195px;marker:none;enable-background:accumulate"
       d="m 1293.0069,1034.5972 c -8.4011,0.6001 -15.8988,3.4693 -20.6709,8.4124 -12.3676,-13.8897 -29.7291,1.129 -31.326,4.2665 -15.5615,-7.6146 -37.5122,-2.6779 -46.1934,4.8311 -20.6626,-11.2302 -65.0749,5.1097 -64.1966,27.9338 -24.1891,16.1568 -25.7332,35.5555 -18.5959,47.4459 -18.5732,13.3061 -28.9482,75.9711 23.041,82.9348 14.275,23.7807 53.8215,34.7351 72.3945,21.4288 25.0679,6.6674 40.7577,12.6636 47.1455,0.1132 10.0351,11.2702 33.1784,13.8407 36.7877,1.91 17.9408,11.8264 42.8299,15.126 56.4505,5.3677 25.0678,6.6675 40.7577,12.6656 47.1457,0.1151 12.3672,13.8897 33.4208,17.3974 44.8578,-0.086 21.4607,8.9479 24.8839,3.3154 39.4802,-5.8677 23.9523,18.4423 45.9233,10.4381 55.1178,-5.3596 34.0266,8.0069 40.0617,-19.4489 38.5728,-29.7802 30.1514,-9.7446 38.8943,-34.3641 16.9319,-55.5414 7.4172,-25.4837 -2.3254,-55.4423 -47.1018,-68.3943 -10.5131,-20.2604 -46.9944,-35.8728 -72.5233,-19.8117 -17.5974,-15.8886 -45.8582,-16.2808 -57.6048,-4.113 -8.879,-9.9717 -20.3021,-5.0434 -26.6477,-0.3088 -15.9048,-10.092 -38.5998,-14.0008 -56.1311,-2.971 -10.4485,-9.434 -24.6555,-13.4034 -36.9339,-12.5256 z"
       id="path4043"
       inkscape:connector-curvature="0"
       sodipodi:nodetypes="ccccccccccccccccccccccc" />
    <flowRoot
       xml:space="preserve"
       id="flowRoot2987-4-9-3-5-9-8-3-5-4-0-5-5"
       style="font-style:normal;font-variant:normal;font-weight:normal;font-stretch:normal;line-height:0.01%;font-family:Lavi;-inkscape-font-specification:Lavi;text-align:center;letter-spacing:0px;word-spacing:0px;text-anchor:middle;fill:#000000;fill-opacity:1;stroke:none"
       transform="translate(978.9534,822.89393)"><flowRegion
         id="flowRegion2989-5-4-5-8-9-5-4-2-2-5-0-8"><rect
           id="rect2991-7-9-6-5-7-5-4-9-5-4-3-2"
           width="493.73337"
           height="314.38708"
           x="120.55251"
           y="265.53046"
           style="font-style:normal;font-variant:normal;font-weight:normal;font-stretch:normal;font-family:Lavi;-inkscape-font-specification:Lavi;text-align:center;text-anchor:middle" /></flowRegion><flowPara
         style="font-size:45px;line-height:1.25;text-align:center;text-anchor:middle"
         id="flowPara4272-0">Du og eg – me har</flowPara><flowPara
         style="font-size:45px;line-height:1.25;text-align:center;text-anchor:middle"
         id="flowPara51">mykje til felles ...</flowPara></flowRoot>    <path
       style="color:#000000;display:inline;overflow:visible;visibility:visible;fill:#ffffff;fill-opacity:1;fill-rule:nonzero;stroke:none;stroke-width:1px;marker:none;enable-background:accumulate"
       d="m 1263.0275,1261.586 c 3.2526,-13.9142 12.362,-12.7945 19.7109,-8.2909 7.1257,-0.1505 15.5492,0.9462 9.5739,13.2654 4.4484,3.5928 10.3777,11.5837 -2.1306,18.3276 -1.7432,6.2934 -19.9536,11.285 -26.591,-2.8511 -12.9529,-6.0801 -17.4582,-18.2401 -0.5632,-20.451 z"
       id="path4051"
       inkscape:connector-curvature="0"
       sodipodi:nodetypes="cccccc" />
    <path
       style="color:#000000;display:inline;overflow:visible;visibility:visible;fill:#ffffff;fill-opacity:1;fill-rule:nonzero;stroke:none;stroke-width:1px;marker:none;enable-background:accumulate"
       d="m 1286.2708,1309.2578 c 3.6765,-1.0212 6.7369,1.1598 9.1289,4.1414 11.2359,-14.5964 27.0112,26.7457 -0.4784,19.6785 -16.7378,5.7055 -18.2129,-9.5291 -11.4815,-14.9079 -2.5821,-3.2186 -0.8455,-7.8909 2.831,-8.912 z"
       id="path4059"
       inkscape:connector-curvature="0"
       sodipodi:nodetypes="zcccz" />
    <path
       style="color:#000000;display:inline;overflow:visible;visibility:visible;fill:#ffffff;fill-opacity:1;fill-rule:nonzero;stroke:none;stroke-width:0.93552887px;marker:none;enable-background:accumulate"
       d="m 926.01028,2377.7845 c 4.93355,-0.5176 9.29609,-2.3865 12.01856,-5.4552 7.51975,8.1455 17.47591,-1.2315 18.36108,-3.1528 9.29033,4.3028 22.12236,0.9197 27.10074,-3.7686 12.35524,6.3882 38.20774,-4.2865 37.29414,-18.0317 13.9543,-10.1899 14.5258,-21.9146 10.1187,-28.9515 10.699,-8.3668 15.7153,-46.3421 -15.0013,-49.5776 -8.8142,-14.0737 -32.2777,-19.9459 -42.97659,-11.5788 -14.86834,-3.5557 -24.20608,-6.8803 -27.74715,0.8052 -6.10154,-6.6095 -19.76599,-7.7304 -21.68266,-0.4701 -10.76377,-6.7982 -25.46831,-8.3265 -33.31438,-2.1906 -14.86825,-3.5555 -24.2061,-6.8814 -27.74717,0.8042 -7.51954,-8.1454 -19.97058,-9.8704 -26.39734,0.8829 -12.78508,-4.9974 -14.70171,-1.538 -23.13196,4.2692 -14.41656,-10.6757 -27.20723,-5.4426 -32.34365,4.2528 -20.16382,-4.1973 -23.23814,12.4687 -22.1823,18.6702 -17.5747,6.434 -22.29179,21.44 -8.99886,33.8017 -3.92196,15.5024 2.33238,33.3851 28.90836,40.3648 6.53916,12.021 28.27981,20.7583 43.02436,10.6015 10.63222,9.2538 27.27049,8.9666 33.97185,1.4127 5.39857,5.8477 12.03538,2.6646 15.68747,-0.3076 9.53534,5.7901 22.95928,7.7264 33.08479,0.7514 6.31294,5.4945 14.74275,7.6246 21.95331,6.8679 z"
       id="path4043-4"
       inkscape:connector-curvature="0"
       sodipodi:nodetypes="ccccccccccccccccccccccc" />
    <flowRoot
       xml:space="preserve"
       id="flowRoot2987-4-9-3-5-9-8-3-5-4-0-5-5-7"
       style="font-style:normal;font-variant:normal;font-weight:normal;font-stretch:normal;line-height:0.01%;font-family:Lavi;-inkscape-font-specification:Lavi;text-align:center;letter-spacing:0px;word-spacing:0px;text-anchor:middle;fill:#000000;fill-opacity:1;stroke:none"
       transform="translate(530.87792,2020.1239)"><flowRegion
         id="flowRegion2989-5-4-5-8-9-5-4-2-2-5-0-8-9"><rect
           id="rect2991-7-9-6-5-7-5-4-9-5-4-3-2-2"
           width="493.73337"
           height="314.38708"
           x="120.55251"
           y="265.53046"
           style="font-style:normal;font-variant:normal;font-weight:normal;font-stretch:normal;font-family:Lavi;-inkscape-font-specification:Lavi;text-align:center;text-anchor:middle" /></flowRegion><flowPara
         style="font-size:45px;line-height:1.25;text-align:center;text-anchor:middle"
         id="flowPara4272-0-7">Unge ...</flowPara></flowRoot>    <path
       style="color:#000000;display:inline;overflow:visible;visibility:visible;fill:#ffffff;fill-opacity:1;fill-rule:nonzero;stroke:none;stroke-width:1.02015615px;marker:none;enable-background:accumulate"
       d="m 1064.4176,2465.0345 c 5.4717,-0.5176 10.31,-2.3865 13.3295,-5.4552 8.34,8.1455 19.3822,-1.2315 20.3639,-3.1528 10.3036,4.3028 24.5353,0.9197 30.0568,-3.7686 13.703,6.3882 42.3753,-4.2865 41.3621,-18.0317 15.4764,-10.1899 16.1102,-21.9146 11.2224,-28.9515 11.866,-8.3668 17.4295,-46.3421 -16.6375,-49.5776 -9.7758,-14.0737 -35.7986,-19.9459 -47.6645,-11.5788 -16.4901,-3.5557 -26.8464,-6.8803 -30.7737,0.8052 -6.7671,-6.6095 -21.922,-7.7304 -24.0477,-0.4701 -11.9379,-6.7982 -28.2465,-8.3265 -36.9482,-2.1906 -16.4901,-3.5555 -26.8465,-6.8814 -30.77386,0.8042 -8.33966,-8.1454 -22.14885,-9.8704 -29.27665,0.8829 -14.17963,-4.9974 -16.30532,-1.538 -25.65511,4.2692 -15.98908,-10.6757 -30.17493,-5.4426 -35.8716,4.2528 -22.36324,-4.1973 -25.7729,12.4687 -24.60189,18.6702 -19.49169,6.434 -24.72331,21.44 -9.98043,33.8017 -4.34976,15.5024 2.5868,33.3851 32.0616,40.3648 7.25243,12.021 31.36448,20.7583 47.71733,10.6015 11.79196,9.2538 30.24509,8.9666 37.67739,1.4127 5.98744,5.8477 13.34818,2.6646 17.39862,-0.3076 10.5754,5.7901 25.4636,7.7264 36.6936,0.7514 7.0015,5.4945 16.3508,7.6246 24.3479,6.8679 z"
       id="path4043-4-9"
       inkscape:connector-curvature="0"
       sodipodi:nodetypes="ccccccccccccccccccccccc" />
    <flowRoot
       xml:space="preserve"
       id="flowRoot2987-4-9-3-5-9-8-3-5-4-0-5-5-7-1"
       style="font-style:normal;font-variant:normal;font-weight:normal;font-stretch:normal;line-height:0.01%;font-family:Lavi;-inkscape-font-specification:Lavi;text-align:center;letter-spacing:0px;word-spacing:0px;text-anchor:middle;fill:#000000;fill-opacity:1;stroke:none"
       transform="translate(658.11252,2111.665)"><flowRegion
         id="flowRegion2989-5-4-5-8-9-5-4-2-2-5-0-8-9-8"><rect
           id="rect2991-7-9-6-5-7-5-4-9-5-4-3-2-2-3"
           width="493.73337"
           height="314.38708"
           x="120.55251"
           y="265.53046"
           style="font-style:normal;font-variant:normal;font-weight:normal;font-stretch:normal;font-family:Lavi;-inkscape-font-specification:Lavi;text-align:center;text-anchor:middle" /></flowRegion><flowPara
         style="font-size:45px;line-height:1.25;text-align:center;text-anchor:middle"
         id="flowPara4272-0-7-7">... åleine ...</flowPara></flowRoot>    <path
       style="color:#000000;display:inline;overflow:visible;visibility:visible;fill:#ffffff;fill-opacity:1;fill-rule:nonzero;stroke:none;stroke-width:1.00987434px;marker:none;enable-background:accumulate"
       d="m 1723.0777,2601.3246 c 7.8581,-0.7381 14.8065,-3.4028 19.1428,-7.7784 11.9772,11.6143 27.8351,-1.7559 29.2449,-4.4952 14.7972,6.135 35.2357,1.3112 43.1651,-5.3736 19.6791,9.1086 60.856,-6.1118 59.401,-25.7102 22.2259,-14.5292 23.1361,-31.2468 16.1166,-41.2804 17.0411,-11.9297 25.0309,-66.0763 -23.8934,-70.6897 -14.0391,-20.0668 -51.411,-28.4397 -68.4518,-16.5096 -23.6819,-5.0698 -38.5546,-9.8102 -44.1946,1.1482 -9.7183,-9.4241 -31.4828,-11.0225 -34.5355,-0.6704 -17.1444,-9.693 -40.5652,-11.8721 -53.0622,-3.1234 -23.6816,-5.0696 -38.5546,-9.8119 -44.1948,1.1466 -11.9767,-11.614 -31.8084,-14.0736 -42.0449,1.259 -20.3635,-7.1256 -23.4161,-2.193 -36.8438,6.0872 -22.9621,-15.2219 -43.3346,-7.7605 -51.5157,6.0638 -32.1163,-5.9847 -37.013,17.7784 -35.3314,26.6208 -27.9923,9.1739 -35.5056,30.57 -14.333,48.1959 -6.2467,22.1038 3.715,47.6018 46.0442,57.5536 10.4155,17.1401 45.0432,29.598 68.528,15.1161 16.9345,13.1945 43.4354,12.785 54.1091,2.0143 8.5988,8.3379 19.1697,3.7994 24.9866,-0.4385 15.1875,8.2558 36.5688,11.0165 52.6963,1.0714 10.0551,7.8343 23.4817,10.8714 34.9665,9.7925 z"
       id="path4043-4-9-1"
       inkscape:connector-curvature="0"
       sodipodi:nodetypes="ccccccccccccccccccccccc" />
    <flowRoot
       xml:space="preserve"
       id="flowRoot2987-4-9-3-5-9-8-3-5-4-0-5-5-7-1-9"
       style="font-style:normal;font-variant:normal;font-weight:normal;font-stretch:normal;line-height:0.01%;font-family:Lavi;-inkscape-font-specification:Lavi;text-align:center;letter-spacing:0px;word-spacing:0px;text-anchor:middle;fill:#000000;fill-opacity:1;stroke:none"
       transform="translate(1304.8506,2184.3034)"><flowRegion
         id="flowRegion2989-5-4-5-8-9-5-4-2-2-5-0-8-9-8-8"><rect
           id="rect2991-7-9-6-5-7-5-4-9-5-4-3-2-2-3-4"
           width="493.73337"
           height="314.38708"
           x="120.55251"
           y="265.53046"
           style="font-style:normal;font-variant:normal;font-weight:normal;font-stretch:normal;font-family:Lavi;-inkscape-font-specification:Lavi;text-align:center;text-anchor:middle" /></flowRegion><flowPara
         style="font-size:45px;line-height:1.25;text-align:center;text-anchor:middle"
         id="flowPara4435">... fanga av</flowPara><flowPara
         style="font-size:45px;line-height:1.25;text-align:center;text-anchor:middle"
         id="flowPara53">skjebnane våre ...</flowPara></flowRoot>    <path
       style="color:#000000;display:inline;overflow:visible;visibility:visible;fill:#ffffff;fill-opacity:1;fill-rule:nonzero;stroke:none;stroke-width:1px;marker:none;enable-background:accumulate"
       d="m 1199.2151,2323.7893 c 2.225,-9.385 13.0044,-12.9003 20.604,-6.006 5.7937,-4.4838 15.1847,0.9709 10.4045,11.3728 7.9371,3.6245 10.2853,20.5369 -3.8877,20.7106 -3.8301,8.4751 -19.496,8.8047 -25.723,-3.4794 -10.5094,4.3941 -19.2873,-20.2128 -1.3978,-22.598 z"
       id="path4051-1"
       inkscape:connector-curvature="0"
       sodipodi:nodetypes="cccccc" />
    <path
       style="color:#000000;display:inline;overflow:visible;visibility:visible;fill:#ffffff;fill-opacity:1;fill-rule:nonzero;stroke:none;stroke-width:1px;marker:none;enable-background:accumulate"
       d="m 1261.6184,2282.2669 c 3.7043,-1.6524 6.641,0 8.8742,2.5696 6.3848,-5.2404 23.2295,7.2113 -1.4295,19.7477 -9.1804,4.5419 -17.6092,-6.4102 -10.6909,-12.9246 -2.4109,-2.7727 -0.4581,-7.7403 3.2462,-9.3927 z"
       id="path4059-6"
       inkscape:connector-curvature="0"
       sodipodi:nodetypes="zcccz" />
    <path
       style="color:#000000;display:inline;overflow:visible;visibility:visible;fill:#ffffff;fill-opacity:1;fill-rule:nonzero;stroke:none;stroke-width:1px;marker:none;enable-background:accumulate"
       d="m 1765.5082,2376.4339 c 14.1067,14.7269 5.3775,33.1901 -19.7909,27.1407 -14.6783,6.3004 -38.9492,-22.0463 -11.6312,-27.7892 -1.0944,-13.4466 34.9155,-16.36 31.4221,0.6485 z"
       id="path4051-1-3"
       inkscape:connector-curvature="0"
       sodipodi:nodetypes="cccc" />
    <path
       style="color:#000000;display:inline;overflow:visible;visibility:visible;fill:#ffffff;fill-opacity:1;fill-rule:nonzero;stroke:none;stroke-width:1px;marker:none;enable-background:accumulate"
       d="m 1734.4609,2345.1465 c -3.6004,3.1824 -7.7715,3.0113 -11.5262,1.6893 -2.5115,3.1494 -25.5738,-4.2698 -7.1025,-18.6006 8.7242,-8.2935 23.4543,-2.1601 18.2536,6.9001 4.0532,1.4271 3.9754,6.829 0.3751,10.0112 z"
       id="path4059-6-7"
       inkscape:connector-curvature="0"
       sodipodi:nodetypes="zcccz" />
  </g>
</svg>
