<?xml version="1.0" encoding="UTF-8" standalone="no"?>
<!-- Created with Inkscape (http://www.inkscape.org/) -->

<svg
   xmlns:dc="http://purl.org/dc/elements/1.1/"
   xmlns:cc="http://creativecommons.org/ns#"
   xmlns:rdf="http://www.w3.org/1999/02/22-rdf-syntax-ns#"
   xmlns:svg="http://www.w3.org/2000/svg"
   xmlns="http://www.w3.org/2000/svg"
   xmlns:xlink="http://www.w3.org/1999/xlink"
   xmlns:sodipodi="http://sodipodi.sourceforge.net/DTD/sodipodi-0.dtd"
   xmlns:inkscape="http://www.inkscape.org/namespaces/inkscape"
   id="svg2"
   version="1.1"
   inkscape:version="0.92.2 5c3e80d, 2017-08-06"
   width="2481"
   height="3503"
   sodipodi:docname="E24P02.svg">
  <metadata
     id="metadata8">
    <rdf:RDF>
      <cc:Work
         rdf:about="">
        <dc:format>image/svg+xml</dc:format>
        <dc:type
           rdf:resource="http://purl.org/dc/dcmitype/StillImage" />
        <dc:title />
      </cc:Work>
    </rdf:RDF>
  </metadata>
  <defs
     id="defs6">
    <filter
       style="color-interpolation-filters:sRGB"
       id="filter4375-4-1-1-1-9"
       inkscape:label="deevad outline effect">
      <feFlood
         id="feFlood4377-7-9-0-8-1"
         flood-opacity="1"
         flood-color="rgb(0,0,0)"
         result="flood" />
      <feComposite
         id="feComposite4379-3-8-8-2-77"
         in2="SourceGraphic"
         in="flood"
         operator="in"
         result="composite1" />
      <feMorphology
         id="feMorphology4393-1-0-49-8-9"
         operator="dilate"
         radius="4"
         result="result3" />
      <feComposite
         id="feComposite4385-9-5-7-0-8"
         in2="result3"
         in="SourceGraphic"
         operator="over"
         result="composite2" />
    </filter>
  </defs>
  <sodipodi:namedview
     pagecolor="#ffffff"
     bordercolor="#666666"
     borderopacity="1"
     objecttolerance="10"
     gridtolerance="10"
     guidetolerance="10"
     inkscape:pageopacity="0"
     inkscape:pageshadow="2"
     inkscape:window-width="1680"
     inkscape:window-height="1001"
     id="namedview4"
     showgrid="false"
     inkscape:zoom="0.4568573"
     inkscape:cx="1561.2065"
     inkscape:cy="688.86135"
     inkscape:window-x="33"
     inkscape:window-y="0"
     inkscape:window-maximized="0"
     inkscape:current-layer="layer1"
     inkscape:snap-global="false"
     showguides="true" />
  <g
     inkscape:groupmode="layer"
     id="layer2"
     inkscape:label="artwork"
     sodipodi:insensitive="true">
    <image
       sodipodi:absref="/Users/gand/Downloads/lang/it/../gfx_Pepper-and-Carrot_by-David-Revoy_E24P02.png"
       xlink:href="../gfx_Pepper-and-Carrot_by-David-Revoy_E24P02.png"
       y="0"
       x="0"
       id="image10"
       height="3503"
       width="2481" />
  </g>
  <g
     inkscape:groupmode="layer"
     id="layer3"
     inkscape:label="speechbubbles">
    <path
       style="fill:#ffffff;stroke:none;stroke-width:1.07074678"
       d="m 989.01328,941.75918 c 66.78462,-9.58301 124.60912,3.0328 139.88052,12.38154 15.2714,9.34875 30.4649,27.40393 39.0915,34.41356 28.7973,23.39952 19.5754,147.97022 7.271,160.85452 -9.6554,10.1105 -16.2763,41.5687 -57.0181,52.0679 -40.7418,10.4993 -115.6983,15.4365 -140.74321,5.6868 -25.04495,-9.7497 -78.22363,-2.6636 -92.93153,-65.1848 -14.70791,-62.5213 -1.80053,-161.24775 45.30823,-181.80359 26.55736,-11.58822 59.14159,-18.41593 59.14159,-18.41593 z"
       id="path3286"
       inkscape:connector-curvature="0"
       sodipodi:nodetypes="csssssssc" />
    <path
       style="color:#000000;display:inline;overflow:visible;visibility:visible;fill:#ffffff;fill-opacity:1;fill-rule:nonzero;stroke:none;stroke-width:1.1479516px;marker:none;enable-background:accumulate"
       d="m 2228.221,1393.3113 c -196.8132,-3.3407 -252.8593,-14.6209 -251.7199,-187.062 1.1392,-172.441 73.7864,-216.40337 179.7073,-219.84288 102.8273,-3.43938 182.8196,17.83638 203.5925,65.60818 23.9997,51.0349 15.2016,109.8185 22.3716,155.6074 11.0263,39.262 -0.6718,117.5369 -22.2449,139.7509 -21.4964,22.1352 -91.6024,46.8869 -131.7066,45.9384 z"
       id="path3365"
       inkscape:connector-curvature="0"
       sodipodi:nodetypes="cscccsc" />
    <path
       style="color:#000000;display:inline;overflow:visible;visibility:visible;fill:#ffffff;fill-opacity:1;fill-rule:nonzero;stroke:none;stroke-width:1px;marker:none;enable-background:accumulate"
       d="m 1190.4458,1312.0824 c -70.0617,-6.5837 -91.3329,-16.7984 -111.4751,-72.4567 -20.1421,-55.6582 0.6832,-59.9839 0.6832,-59.9839 0,0 10.9679,110.8571 110.7919,132.4406 z"
       id="path5002"
       inkscape:connector-curvature="0" />
    <path
       style="color:#000000;display:inline;overflow:visible;visibility:visible;fill:#ffffff;fill-opacity:1;fill-rule:nonzero;stroke:none;stroke-width:1.44092059px;marker:none;enable-background:accumulate"
       d="m 1976.3547,1403.9835 c 59.3789,18.9247 107.0017,-9.9103 137.4754,-67.9838 30.4737,-58.0735 56.0374,-46.8999 56.0374,-46.8999 l 8.073,43.7309 c 0,0 -56.1244,126.0088 -201.5858,71.1528 z"
       id="path3072"
       inkscape:connector-curvature="0"
       sodipodi:nodetypes="csccc" />
    <path
       style="color:#000000;display:inline;overflow:visible;visibility:visible;fill:#ffffff;fill-opacity:1;fill-rule:nonzero;stroke:none;stroke-width:1.0126915px;marker:none;enable-background:accumulate"
       d="M 65.974493,2355.4056 C 55.482171,2228.5179 -55.968711,2147.2044 328.89161,2137.0085 c 103.83509,-2.7508 223.72218,-18.828 240.27864,166.9053 16.5563,185.7331 -150.8912,201.8436 -184.76726,210.4713 -33.87604,8.628 -194.1432,10.624 -247.53616,-37.2555 -29.98867,-26.892 -66.353773,-82.5873 -70.892337,-121.724 z"
       id="path4546"
       inkscape:connector-curvature="0"
       sodipodi:nodetypes="cssssc" />
    <path
       style="color:#000000;display:inline;overflow:visible;visibility:visible;fill:#ffffff;fill-opacity:1;fill-rule:nonzero;stroke:none;stroke-width:1.04143572px;marker:none;enable-background:accumulate"
       d="m 934.05587,2596.0597 c -80.6948,4.7978 -205.58048,1.1134 -241.94891,-60.2478 -36.36827,-61.3611 -46.35956,-152.6906 -8.43848,-197.989 37.92093,-45.2985 109.6575,-91.701 180.19027,-93.0853 178.48275,-3.5037 201.18265,73.1617 235.37765,130.7557 34.1951,57.5938 20.282,145.1398 -61.7551,187.9863 -82.03718,42.8467 -103.42543,32.5801 -103.42543,32.5801 z"
       id="path3970"
       inkscape:connector-curvature="0"
       sodipodi:nodetypes="cccccsc" />
    <path
       style="color:#000000;display:inline;overflow:visible;visibility:visible;fill:#ffffff;fill-opacity:1;fill-rule:nonzero;stroke:none;stroke-width:0.99999994px;marker:none;enable-background:accumulate"
       d="m 963.80348,2976.7135 c -45.90053,2.8068 -115.56624,-4.2781 -136.25319,-40.1751 -20.68685,-35.8969 -27.7413,-84.3963 -6.17117,-110.8964 21.57003,-26.5 62.37493,-53.646 102.49509,-54.4558 40.1201,-0.81 96.07479,14.8 115.52539,48.4932 19.4507,33.6929 24.4129,112.9087 -22.251,137.9743 -46.66411,25.0658 -53.34512,19.0598 -53.34512,19.0598 z"
       id="path3970-4"
       inkscape:connector-curvature="0" />
    <path
       style="fill:#ffffff;fill-rule:evenodd;stroke:none;stroke-width:1px;stroke-linecap:butt;stroke-linejoin:miter;stroke-opacity:1"
       d="m 346.57119,2616.5493 c -63.2798,-44.5839 -68.79168,-98.8369 -22.99541,-144.2951 18.90772,-28.5006 -29.49137,-44.6932 -49.46806,0.8803 2.52314,18.0735 -60.406,94.8559 72.46347,143.4148 z"
       id="path4278"
       inkscape:connector-curvature="0"
       sodipodi:nodetypes="cccc" />
    <path
       style="color:#000000;display:inline;overflow:visible;visibility:visible;fill:#ffffff;fill-opacity:1;fill-rule:nonzero;stroke:none;stroke-width:1px;marker:none;enable-background:accumulate"
       d="m 764.62842,2655.7378 c 40.56205,-7.5931 54.44696,-12.612 63.67875,-60.0495 9.2317,-47.4376 26.81589,-42.5763 26.81589,-42.5763 l 12.15811,31.5107 c 0,0 -26.74612,99.3801 -102.65275,71.1151 z"
       id="path3072-5"
       inkscape:connector-curvature="0" />
    <path
       style="color:#000000;display:inline;overflow:visible;visibility:visible;fill:#ffffff;fill-opacity:1;fill-rule:nonzero;stroke:none;stroke-width:1px;marker:none;enable-background:accumulate"
       d="m 739.08809,2819.3997 c 21.8597,19.4259 25.84476,19.8547 38.08065,11.9234 12.23579,-7.9313 27.1542,-23.1621 53.13132,-17.7581 84.05943,-18.1201 113.76084,72.1324 -3.48563,23.5751 -17.33625,-6.3711 -39.16416,13.5701 -53.85665,11.2775 -14.69258,-2.2926 -25.60297,-17.6945 -33.86969,-29.0179 z"
       id="path4538"
       inkscape:connector-curvature="0"
       sodipodi:nodetypes="cccccc" />
    <path
       style="fill:#ffffff;fill-rule:evenodd;stroke:none;stroke-width:0.99999988px;stroke-linecap:butt;stroke-linejoin:miter;stroke-opacity:1"
       d="m 1300.2738,3118.7847 c 0.4899,11.0441 -0.098,24.9183 -8.5553,31.69 -10.3062,5.4462 -20.8634,-3.2955 -29.1271,-9.9042 -2.7094,-2.8895 0.478,3.5483 0.2593,5.1725 2.0028,9.7753 3.1217,22.9218 -4.2802,29.8705 -9.1312,6.7298 -20.65,0.9552 -29.2762,-3.334 3.5687,11.0942 7.9145,25.0324 1.8388,36.0031 -3.9965,5.1248 -10.7789,4.9966 -15.8365,3.9211 3.9772,8.2102 4.4724,21.6272 -3.7614,26.315 -3.7291,2.6344 -9.4398,2.1044 -12.6331,2.2466 6.9796,8.6702 13.3806,22.5108 7.8072,34.2204 -3.0567,5.9156 -8.2014,9.7559 -13.4397,12.4498 8.1718,1.5434 18.5028,7.2721 18.5657,18.6616 0.269,6.5419 -4.2946,13.3617 -6.6451,17.1888 9.5198,-3.8559 21.1567,-8.4961 30.4737,-1.7782 4.2259,4.5735 5.2761,11.9363 4.5415,18.4158 9.7696,-7.1119 19.9657,-3.272 31.7251,1.9681 7.18,4.5008 10.9498,13.8895 12.7451,22.924 12.7434,-10.8661 28.0712,-23.4809 44.5656,-18.4858 11.6835,4.0201 18.9044,16.7479 26.2612,27.3197 3.5772,-11.5137 10.2223,-24.8689 21.5365,-26.0523 11.2318,0.9415 16.5219,14.9088 21.8352,24.7445 1.0318,4.9949 3.7567,8.8241 4.8041,6.6033 4.7209,-12.0226 11.1325,-25.9007 22.7395,-29.3989 12.1277,-0.7518 20.3514,12.4015 26.9221,22.6505 2.7498,-12.6051 8.3698,-27.5897 20.2235,-30.4437 11.7916,-0.3897 19.2244,12.9073 24.6905,23.5301 2.4962,4.2187 4.5331,8.7919 6.9775,13.0515 1.928,-11.0457 6.316,-33.1087 16.91,-33.3696 9.9028,0.044 17.6712,8.613 24.9178,15.5376 0.085,-12.4012 10.7965,-23.9527 21.2133,-19.7808 13.3312,3.3599 25.7044,2.0563 36.9908,10.2718 -3.2986,-9.3221 -6.079,-23.1912 1.8674,-30.3611 4.4708,-3.3536 10.1071,-2.8746 15.03,-1.4774 -4.6618,-9.9414 -4.0974,-25.0455 5.0318,-31.0519 4.9672,-3.9875 10.9972,-5.2269 16.6275,-7.2273 -10.1317,-8.5533 -25.916,-19.5389 -23.0076,-35.4527 0.9919,-7.1341 11.5594,-16.9225 14.0292,-21.7788 -26.7431,10.6328 -25.4108,-5.0029 -8.827,-22.1206 2.0209,-4.3174 1.1316,-4.2462 -2.2393,-1.3365 -9.162,6.2442 -19.0663,13.9562 -29.9954,13.2159 -8.0242,-4.1892 -5.701,-25.981 -0.3081,-32.8283 -12.3413,5.7193 -26.048,12.6978 -39.4556,8.1534 -8.7168,-6.707 -7.6696,-21.6276 -3.5162,-31.3826 1.5144,-3.9916 -0.5187,-1.3498 -2.4058,0.5192 -7.1926,6.9249 -15.5542,14.9178 -25.204,14.6751 -8.9979,-3.4413 -10.8018,-17.4577 -7.7221,-26.8004 0.027,-2.3367 2.2862,-8.973 -0.6928,-4.2728 -5.7829,6.8627 -15.5997,24.4968 -24.3611,22.204 -4.2621,-2.014 -4.8464,-16.5498 -6.1554,-21.5724 -4.1815,8.0091 -13.6041,25.5523 -22.3835,22.1846 -8.1041,-4.3536 -9.2384,-16.4012 -9.4881,-25.7259 -2.9128,8.5966 -8.5647,15.184 -17.5698,15.6068 -9.398,-0.9789 -13.4107,-36.9445 -15.524,-46.3482 -0.6532,-2.9182 -3.3161,-9.3478 -2.075,4.6438 -2.598,8.1116 -8.1964,41.5576 -16.4565,39.0538 -10.0705,-4.1234 -11.3045,-12.3677 -14.2886,-22.9049 -2.4878,9.3501 -8.5932,20.6712 -17.9492,19.5477 -11.521,-2.5368 -16.022,-17.9925 -21.0286,-28.2926 -0.8502,11.9986 -3.5513,26.9299 -13.58,32.5314 -10.1804,2.9383 -18.3202,-7.8865 -23.2211,-17.1123 -3.676,-5.7398 -6.9574,-11.8196 -10.1916,-17.92 l 0.054,1.0832 z m 153.066,253.4119 c 0,0.016 0.011,-0.053 0,0 z"
       id="path1504"
       inkscape:connector-curvature="0"
       sodipodi:nodetypes="cccccccccccccccccccccccccccccccccccccccccccccccccccccccccccccccccc" />
    <path
       style="fill:#ffffff;stroke:none;stroke-width:0.99999994"
       d="m 1452.7195,2949.0485 c 13.6365,51.0487 1.8285,73.4399 -12.8291,87.351 -14.6575,13.9112 -29.2574,24.6287 -30.4169,39.0049 -1.1585,14.3763 4.3679,32.4449 9.991,45.1906 5.6233,12.7459 -8.7567,28.7391 -16.1641,41.0823 -7.4074,12.3434 -32.4176,87.9891 -32.4176,87.9891 0,0 45.6605,-29.3056 57.0155,-43.5686 11.3552,-14.2629 -1.5936,-24.3112 1.6003,-31.5097 3.1938,-7.1984 16.2252,-28.4819 13.3417,-43.3703 -2.8832,-14.8884 -6.8861,-37.3598 -11.1969,-47.9831 -4.3108,-10.6233 8.1814,-20.8918 17.4263,-34.2439 9.2448,-13.3519 26.0549,-36.6775 19.2727,-60.0623 -6.7821,-23.3848 -15.6229,-39.88 -15.6229,-39.88 z"
       id="path3023"
       inkscape:connector-curvature="0"
       sodipodi:nodetypes="csssscssssssc" />
    <path
       style="color:#000000;display:inline;overflow:visible;visibility:visible;fill:#ffffff;fill-opacity:1;fill-rule:nonzero;stroke:none;stroke-width:1px;marker:none;enable-background:accumulate"
       d="m 1805.1943,2316.7331 c -1.7851,-38.0564 -1.1108,-75.183 73.8621,-100.0361 74.9731,-24.8531 206.044,-12.5854 233.8709,-10.8732 45.4203,2.7946 165.0863,9.9363 191.8623,37.8962 26.7761,27.9597 30.7956,61.2059 28.085,91.3412 -2.4971,27.7618 -14.3082,67.5414 -46.4395,76.8613 -32.1314,9.32 -262.0499,23.1758 -299.5364,16.9626 -37.4865,-6.2132 -95.3203,-14.9135 -127.4513,-33.5534 -32.5747,-18.897 -52.4681,-40.5422 -54.2531,-78.5986 z"
       id="path3373"
       inkscape:connector-curvature="0"
       sodipodi:nodetypes="zsssssssz" />
    <path
       style="color:#000000;display:inline;overflow:visible;visibility:visible;fill:#ffffff;fill-opacity:1;fill-rule:nonzero;stroke:none;stroke-width:1px;marker:none;enable-background:accumulate"
       d="m 2031.8102,2507.7263 c 30.9235,-44.7181 56.4448,-90.7801 41.0641,-127.8508 -21.7419,-52.4025 -15.1545,-27.3052 -15.1545,-27.3052 l 48.1596,27.1477 c 4.0617,-2.2231 16.5042,46.8286 -74.0692,128.0083 z"
       id="path3072-1"
       inkscape:connector-curvature="0"
       sodipodi:nodetypes="csccc" />
    <path
       style="display:inline;fill:#ffffff;stroke:none;stroke-width:1.01148832"
       d="m 1760.816,3271.7399 c 3.8546,-84.3854 49.8362,-128.6959 103.5241,-149.2855 53.6879,-20.5896 370.1638,-14.8702 434.2911,8.0073 64.1269,22.8774 72.4396,88.7007 74.741,153.5246 0.8717,75.061 -31.8215,88.5434 -69.1049,97.6943 -37.2831,9.1509 -408.1701,27.5806 -488.1395,-6.0984 -72.8227,-30.7541 -55.3118,-103.8423 -55.3118,-103.8423 z"
       id="path3008"
       inkscape:connector-curvature="0"
       sodipodi:nodetypes="ccccccc" />
    <path
       style="color:#000000;display:inline;overflow:visible;visibility:visible;fill:#ffffff;fill-opacity:1;fill-rule:nonzero;stroke:none;stroke-width:1px;marker:none;enable-background:accumulate"
       d="m 2061.7741,3118.5751 c 31.2021,-26.3616 74.0861,-59.4473 33.587,-95.3422 1.3128,2.6276 75.7675,26.7026 -7.7455,112.4393 -83.5133,85.7365 -101.538,90.3039 -101.538,90.3039 z"
       id="path4064"
       inkscape:connector-curvature="0"
       sodipodi:nodetypes="ccscc"
       inkscape:transform-center-x="86.439437"
       inkscape:transform-center-y="119.77252" />
    <g
       id="g5381"
       transform="matrix(-1.943999,-0.03507888,0.02110171,-1.1694129,2814.7591,4709.8659)"
       style="display:inline;fill:#ffffff;stroke-width:0.82700133">
      <path
         inkscape:connector-curvature="0"
         id="path5263"
         d="m 1231.4261,3164.2107 c -4.7051,-6.6655 -8.3522,-20.2367 -8.3522,-21.805 0,-1.5684 0.3921,-7.4497 0.3921,-7.4497 l -3.1367,-1.1763 2.7446,-5.0971 -3.1367,0.3921 c 0,0 8.4753,-16.4011 10.0436,-19.1457 1.5684,-2.7446 4.313,-9.018 4.313,-9.018 0,0 11.2013,-0.9423 14.338,-2.1186 3.1367,-1.1762 12.5468,-11.3705 12.5468,-11.3705 0,0 11.3706,5.4892 15.6836,6.2734 4.3129,0.7842 24.3095,1.9604 27.8383,0 3.5288,-1.9605 7.0576,-4.7051 7.0576,-4.7051 0,0 9.018,-0.7841 11.3705,-1.9604 2.3526,-1.1763 6.6655,-3.9209 6.6655,-3.9209 0,0 7.4497,0.7842 10.5864,0.3921 3.1367,-0.3921 17.644,0 19.2124,0 1.5683,0 12.5468,6.6655 12.5468,6.6655 l 7.0576,6.6655 c 0,0 5.8813,-0.3921 8.626,-1.1763 2.7446,-0.7841 5.0971,3.1367 5.0971,3.1367 0,0 10.3649,28.9788 11.9333,33.6838 1.5683,4.7051 2.3525,14.1152 2.3525,14.1152 0,0 -4.313,7.4497 -6.6655,10.5864 -2.3525,3.1367 -9.018,10.5864 -12.5468,13.331 -3.5288,2.7446 -7.8418,7.0576 -12.1548,4.313 -4.313,-2.7446 -8.6259,-2.3525 -10.1943,-0.3921 -1.5684,1.9604 -12.9389,15.6836 -16.8598,14.1152 -3.9209,-1.5684 -17.2519,-3.9209 -21.1728,-7.4497 -3.9209,-3.5288 -10.1943,4.7051 -12.9389,2.3525 -2.7446,-2.3525 -6.6655,-6.6655 -9.4102,-6.6655 -2.7446,0 -40.639,11.3296 -44.5599,9.7612 -3.9209,-1.5684 -13.5936,-9.7859 -15.9461,-11.3542 -2.3526,-1.5684 -8.2339,-10.9785 -8.2339,-10.9785 z"
         style="color:#000000;display:inline;overflow:visible;visibility:visible;fill:#ffffff;fill-opacity:1;fill-rule:nonzero;stroke:none;stroke-width:0.82700133px;marker:none;enable-background:accumulate"
         sodipodi:nodetypes="cscccccccccccccssccccccsssssscssccc" />
    </g>
    <path
       style="color:#000000;display:inline;overflow:visible;visibility:visible;fill:#ffffff;fill-opacity:1;fill-rule:nonzero;stroke:none;stroke-width:1px;marker:none;enable-background:accumulate"
       d="m 214.82896,1030.4867 c 6.80442,0.878 -13.01369,58.3529 -13.01369,58.3529 0,0 37.57996,20.9895 40.57677,25.605 -3.12032,14.3994 -21.44854,49.3771 -21.44854,49.3771 l 47.969,66.5041 -32.27308,-66.6621 30.22524,-55.2358 -42.64068,-25.4823 18.48922,-41.6529 z"
       id="path4448-7"
       inkscape:connector-curvature="0"
       sodipodi:nodetypes="cccccccccc" />
    <path
       style="color:#000000;display:inline;overflow:visible;visibility:visible;fill:#ffffff;fill-opacity:1;fill-rule:nonzero;stroke:none;stroke-width:1px;marker:none;enable-background:accumulate"
       d="m 1181.3418,1264.7261 c -13.8665,-3.5055 -55.1437,-19.0159 -6.106,-17.5657 -59.3797,-25.0538 -32.5866,-43.8491 -10.6916,-63.0001 -18.1994,-6.138 -47.6034,-8.1294 -37.3738,-24.7898 -19.517,1.4993 -31.4964,-4.8263 -36.7506,-18.1339 -14.8623,16.6729 -27.349,19.2808 -33.8988,-13.2573 -5.9732,24.2527 -19.7877,28.8493 -57.79865,-1.6874 -2.7979,8.899 11.59785,29.2427 -92.86732,14.4217 31.06193,16.9622 71.33888,54.7798 -4.02112,72.0652 26.93842,7.6306 44.11746,17.9678 2.13299,34.3899 27.2039,5.1866 25.23782,27.2561 17.97888,35.0755 34.45627,-14.845 53.77794,-13.3862 52.4848,8.8739 63.60652,-34.4878 49.19912,-4.5663 62.32942,2.0745 25.1052,-28.2285 46.7116,-14.0788 69.7714,-7.7794 7.3512,-33.4408 43.8059,-20.6979 74.8104,-20.6871 z"
       id="path3549-3-78"
       inkscape:connector-curvature="0"
       sodipodi:nodetypes="ccccccccccccccc" />
  </g>
  <g
     inkscape:groupmode="layer"
     id="layer1"
     inkscape:label="txt"
     style="display:inline">
    <text
       xml:space="preserve"
       style="font-style:normal;font-variant:normal;font-weight:normal;font-stretch:normal;line-height:0%;font-family:Lavi;-inkscape-font-specification:Lavi;letter-spacing:0px;word-spacing:0px;fill:#000000;fill-opacity:1;stroke:#000000;stroke-width:1.03244162;stroke-miterlimit:4;stroke-dasharray:none;stroke-opacity:1;filter:url(#filter4375-4-1-1-1-9)"
       x="787.65729"
       y="1584.5073"
       id="text4580"
       transform="matrix(0.99628009,-0.49104872,-0.18392799,1.3011878,1393.6124,-1187.4855)"><tspan
         sodipodi:role="line"
         id="tspan4582"
         x="787.65729"
         y="1584.5073"
         style="font-size:70px;line-height:1.25;fill:#ffffff;stroke-width:1.03244162"><tspan
           style="font-size:80.40014648px;stroke-width:1.03244162"
           id="tspan4617">Sb<tspan
   style="font-size:67.99041748px"
   id="tspan835">a</tspan><tspan
   style="font-size:63.13396072px"
   id="tspan837">m</tspan>!</tspan></tspan></text>
    <text
       xml:space="preserve"
       style="font-style:normal;font-variant:normal;font-weight:normal;font-stretch:normal;line-height:0%;font-family:Lavi;-inkscape-font-specification:Lavi;text-align:center;letter-spacing:0px;word-spacing:0px;text-anchor:middle;fill:#000000;fill-opacity:1;stroke:none;stroke-width:1.60000002;stroke-miterlimit:4;stroke-dasharray:none"
       x="1032.287"
       y="1007.827"
       id="text4246-7-6-2-04"><tspan
         sodipodi:role="line"
         style="font-size:45px;line-height:1.25;stroke:none;stroke-width:1.60000002;stroke-miterlimit:4;stroke-dasharray:none;stroke-opacity:1"
         x="1032.287"
         y="1007.827"
         id="tspan953">Un inverno</tspan><tspan
         sodipodi:role="line"
         style="font-size:45px;line-height:1.25;stroke:none;stroke-width:1.60000002;stroke-miterlimit:4;stroke-dasharray:none;stroke-opacity:1"
         x="1032.287"
         y="1064.077"
         id="tspan1002">senza un</tspan><tspan
         sodipodi:role="line"
         style="font-size:45px;line-height:1.25;stroke:none;stroke-width:1.60000002;stroke-miterlimit:4;stroke-dasharray:none;stroke-opacity:1"
         x="1032.287"
         y="1120.327"
         id="tspan1010">Albero</tspan><tspan
         sodipodi:role="line"
         style="font-size:45px;line-height:1.25;stroke:none;stroke-width:1.60000002;stroke-miterlimit:4;stroke-dasharray:none;stroke-opacity:1"
         x="1032.287"
         y="1176.577"
         id="tspan901">dell'Unità?!</tspan></text>
    <text
       xml:space="preserve"
       style="font-style:normal;font-variant:normal;font-weight:normal;font-stretch:normal;line-height:0%;font-family:Lavi;-inkscape-font-specification:Lavi;text-align:center;letter-spacing:0px;word-spacing:0px;text-anchor:middle;fill:#000000;fill-opacity:1;stroke:none;stroke-width:1.60000002;stroke-miterlimit:4;stroke-dasharray:none"
       x="2184.2798"
       y="1073.6553"
       id="text4246-7-6-2-04-3"><tspan
         sodipodi:role="line"
         style="font-size:45px;line-height:1.25;stroke:none;stroke-width:1.60000002;stroke-miterlimit:4;stroke-dasharray:none;stroke-opacity:1"
         x="2184.2798"
         y="1073.6553"
         id="tspan1014">Se stanno così</tspan><tspan
         sodipodi:role="line"
         style="font-size:45px;line-height:1.25;stroke:none;stroke-width:1.60000002;stroke-miterlimit:4;stroke-dasharray:none;stroke-opacity:1"
         x="2184.2798"
         y="1129.9053"
         id="tspan1525">le cose perché</tspan><tspan
         sodipodi:role="line"
         style="font-size:45px;line-height:1.25;stroke:none;stroke-width:1.60000002;stroke-miterlimit:4;stroke-dasharray:none;stroke-opacity:1"
         x="2184.2798"
         y="1186.1553"
         id="tspan927">non costruirsi</tspan><tspan
         sodipodi:role="line"
         style="font-size:45px;line-height:1.25;stroke:none;stroke-width:1.60000002;stroke-miterlimit:4;stroke-dasharray:none;stroke-opacity:1"
         x="2184.2798"
         y="1242.4053"
         id="tspan925">l'albero da soli</tspan><tspan
         sodipodi:role="line"
         style="font-size:45px;line-height:1.25;stroke:none;stroke-width:1.60000002;stroke-miterlimit:4;stroke-dasharray:none;stroke-opacity:1"
         x="2184.2798"
         y="1298.6553"
         id="tspan935">con l'aiuto</tspan><tspan
         sodipodi:role="line"
         style="font-size:45px;line-height:1.25;stroke:none;stroke-width:1.60000002;stroke-miterlimit:4;stroke-dasharray:none;stroke-opacity:1"
         x="2184.2798"
         y="1354.9053"
         id="tspan937">della magia?!</tspan></text>
    <text
       xml:space="preserve"
       style="font-style:normal;font-variant:normal;font-weight:normal;font-stretch:normal;line-height:0%;font-family:Lavi;-inkscape-font-specification:Lavi;text-align:center;letter-spacing:0px;word-spacing:0px;text-anchor:middle;fill:#000000;fill-opacity:1;stroke:none;stroke-width:1.60000002;stroke-miterlimit:4;stroke-dasharray:none"
       x="318.74161"
       y="2246.7109"
       id="text4246-7-6-2-04-3-5"><tspan
         sodipodi:role="line"
         style="font-size:45px;line-height:1.25;stroke:none;stroke-width:1.60000002;stroke-miterlimit:4;stroke-dasharray:none;stroke-opacity:1"
         x="318.74161"
         y="2246.7109"
         id="tspan1135">Hey! Potrei anche</tspan><tspan
         sodipodi:role="line"
         style="font-size:45px;line-height:1.25;stroke:none;stroke-width:1.60000002;stroke-miterlimit:4;stroke-dasharray:none;stroke-opacity:1"
         x="318.74161"
         y="2302.9609"
         id="tspan946">unire la magia</tspan><tspan
         sodipodi:role="line"
         style="font-size:45px;line-height:1.25;stroke:none;stroke-width:1.60000002;stroke-miterlimit:4;stroke-dasharray:none;stroke-opacity:1"
         x="318.74161"
         y="2359.2109"
         id="tspan3784">di Hippiah e Chaosah</tspan><tspan
         sodipodi:role="line"
         style="font-size:45px;line-height:1.25;stroke:none;stroke-width:1.60000002;stroke-miterlimit:4;stroke-dasharray:none;stroke-opacity:1"
         x="318.74161"
         y="2415.4609"
         id="tspan954">insieme per la</tspan><tspan
         sodipodi:role="line"
         style="font-size:45px;line-height:1.25;stroke:none;stroke-width:1.60000002;stroke-miterlimit:4;stroke-dasharray:none;stroke-opacity:1"
         x="318.74161"
         y="2471.7109"
         id="tspan106">prima volta!</tspan><tspan
         sodipodi:role="line"
         style="font-size:45px;line-height:1.25;stroke:none;stroke-width:1.60000002;stroke-miterlimit:4;stroke-dasharray:none;stroke-opacity:1"
         x="318.74161"
         y="2490.2444"
         id="tspan1139" /></text>
    <text
       xml:space="preserve"
       style="font-style:normal;font-variant:normal;font-weight:normal;font-stretch:normal;line-height:0%;font-family:Lavi;-inkscape-font-specification:Lavi;text-align:center;letter-spacing:0px;word-spacing:0px;text-anchor:middle;fill:#000000;fill-opacity:1;stroke:none;stroke-width:1.60000002;stroke-miterlimit:4;stroke-dasharray:none"
       x="885.86469"
       y="2322.834"
       id="text4246-7-6-2-04-3-5-0"><tspan
         sodipodi:role="line"
         style="font-size:45px;line-height:1.25;stroke:none;stroke-width:1.60000002;stroke-miterlimit:4;stroke-dasharray:none;stroke-opacity:1"
         x="885.86469"
         y="2322.834"
         id="tspan1259">Un grande</tspan><tspan
         sodipodi:role="line"
         style="font-size:45px;line-height:1.25;stroke:none;stroke-width:1.60000002;stroke-miterlimit:4;stroke-dasharray:none;stroke-opacity:1"
         x="885.86469"
         y="2379.084"
         id="tspan960">albero verde,</tspan><tspan
         sodipodi:role="line"
         style="font-size:45px;line-height:1.25;stroke:none;stroke-width:1.60000002;stroke-miterlimit:4;stroke-dasharray:none;stroke-opacity:1"
         x="885.86469"
         y="2435.334"
         id="tspan1139-8">ricoperto di stelle e</tspan><tspan
         sodipodi:role="line"
         style="font-size:45px;line-height:1.25;stroke:none;stroke-width:1.60000002;stroke-miterlimit:4;stroke-dasharray:none;stroke-opacity:1"
         x="885.86469"
         y="2491.584"
         id="tspan1263">illuminato da mini</tspan><tspan
         sodipodi:role="line"
         style="font-size:45px;line-height:1.25;stroke:none;stroke-width:1.60000002;stroke-miterlimit:4;stroke-dasharray:none;stroke-opacity:1"
         x="885.86469"
         y="2547.834"
         id="tspan908">sistemi solari!</tspan></text>
    <text
       xml:space="preserve"
       style="font-style:normal;font-variant:normal;font-weight:normal;font-stretch:normal;font-size:10.77101231px;line-height:0%;font-family:Lavi;-inkscape-font-specification:Lavi;text-align:center;letter-spacing:0px;word-spacing:0px;text-anchor:middle;fill:#000000;fill-opacity:1;stroke:none;stroke-width:1.60000002;stroke-miterlimit:4;stroke-dasharray:none"
       x="922.15674"
       y="2868.6753"
       id="text4246-7-6-2-04-3-5-0-7"
       transform="scale(1.0118702,0.98826905)"><tspan
         sodipodi:role="line"
         style="font-size:40.39129639px;line-height:1.25;stroke:none;stroke-width:1.60000002;stroke-miterlimit:4;stroke-dasharray:none;stroke-opacity:1"
         x="922.15674"
         y="2868.6753"
         id="tspan1139-8-9">Wow!</tspan><tspan
         sodipodi:role="line"
         style="font-size:40.39129639px;line-height:1.25;stroke:none;stroke-width:1.60000002;stroke-miterlimit:4;stroke-dasharray:none;stroke-opacity:1"
         x="929.25677"
         y="2919.1643"
         id="tspan1255">Sarebbe </tspan><tspan
         sodipodi:role="line"
         style="font-size:40.39129639px;line-height:1.25;stroke:none;stroke-width:1.60000002;stroke-miterlimit:4;stroke-dasharray:none;stroke-opacity:1"
         x="922.15674"
         y="2969.6536"
         id="tspan1257">perfetto!</tspan></text>
    <flowRoot
       xml:space="preserve"
       id="flowRoot1245"
       style="font-style:normal;font-variant:normal;font-weight:normal;font-stretch:normal;font-size:0.66666669px;line-height:318.00000668%;font-family:Neuropolitical;-inkscape-font-specification:Neuropolitical;text-align:center;letter-spacing:0px;word-spacing:0px;writing-mode:lr-tb;text-anchor:middle;fill:#000000;fill-opacity:1;stroke:none;stroke-width:1px;stroke-linecap:butt;stroke-linejoin:miter;stroke-opacity:1"><flowRegion
         id="flowRegion1247"><rect
           id="rect1249"
           width="13.224999"
           height="3.3062499"
           x="790.19373"
           y="2848.3625" /></flowRegion><flowPara
         id="flowPara1251" /></flowRoot>    <text
       xml:space="preserve"
       style="font-style:normal;font-variant:normal;font-weight:normal;font-stretch:normal;line-height:0%;font-family:Lavi;-inkscape-font-specification:Lavi;text-align:center;letter-spacing:0px;word-spacing:0px;text-anchor:middle;fill:#000000;fill-opacity:1;stroke:none"
       x="1410.1737"
       y="3233.3367"
       id="text4246"><tspan
         sodipodi:role="line"
         style="font-size:45px;line-height:1.25"
         x="1410.1737"
         y="3233.3367"
         id="tspan4252">E soprattutto</tspan></text>
    <text
       xml:space="preserve"
       style="font-style:normal;font-variant:normal;font-weight:normal;font-stretch:normal;line-height:0%;font-family:Lavi;-inkscape-font-specification:Lavi;text-align:center;letter-spacing:0px;word-spacing:0px;text-anchor:middle;fill:#000000;fill-opacity:1;stroke:none"
       x="2281.2227"
       y="3300.3694"
       id="text4246-6"
       transform="skewX(-14.861122)"><tspan
         sodipodi:role="line"
         style="font-size:74.66666412px;line-height:1.25"
         x="2281.2227"
         y="3300.3694"
         id="tspan4252-1">originale!</tspan></text>
    <text
       xml:space="preserve"
       style="font-style:normal;font-variant:normal;font-weight:normal;font-stretch:normal;line-height:0%;font-family:Lavi;-inkscape-font-specification:Lavi;text-align:center;letter-spacing:0px;word-spacing:0px;text-anchor:middle;fill:#000000;fill-opacity:1;stroke:none"
       x="2067.7212"
       y="2275.9609"
       id="text4246-2"><tspan
         sodipodi:role="line"
         style="font-size:45px;line-height:1.25"
         x="2067.7212"
         y="2275.9609"
         id="tspan1351">Fare questa magia</tspan><tspan
         sodipodi:role="line"
         style="font-size:45px;line-height:1.25"
         x="2067.7212"
         y="2332.2109"
         id="tspan962">qui dentro non se ne</tspan><tspan
         sodipodi:role="line"
         style="font-size:45px;line-height:1.25"
         x="2067.7212"
         y="2388.4609"
         id="tspan1426">parla proprio...</tspan></text>
    <text
       xml:space="preserve"
       style="font-style:normal;font-variant:normal;font-weight:normal;font-stretch:normal;line-height:0%;font-family:Lavi;-inkscape-font-specification:Lavi;text-align:center;letter-spacing:0px;word-spacing:0px;text-anchor:middle;fill:#000000;fill-opacity:1;stroke:none"
       x="2064.7913"
       y="3175.3882"
       id="text4246-2-3"><tspan
         sodipodi:role="line"
         style="font-size:45px;line-height:1.25"
         x="2064.7913"
         y="3175.3882"
         id="tspan1436">...le mie madrine se</tspan><tspan
         sodipodi:role="line"
         style="font-size:45px;line-height:1.25"
         x="2064.7913"
         y="3231.6382"
         id="tspan982">ne accorgono subito</tspan><tspan
         sodipodi:role="line"
         style="font-size:45px;line-height:1.25"
         x="2064.7913"
         y="3287.8882"
         id="tspan990">se non sto studiando i miei</tspan><tspan
         sodipodi:role="line"
         style="font-size:45px;line-height:1.25"
         x="2064.7913"
         y="3344.1382"
         id="tspan1000">“Incantesimi di Distruzione”.</tspan></text>
    <text
       xml:space="preserve"
       style="font-style:normal;font-variant:normal;font-weight:normal;font-stretch:normal;font-size:9.86460209px;line-height:0%;font-family:Lavi;-inkscape-font-specification:Lavi;text-align:center;letter-spacing:0px;word-spacing:0px;text-anchor:middle;opacity:0.553;fill:#ffffff;fill-opacity:1;stroke:#ffffff;stroke-width:0.41015577;stroke-miterlimit:4;stroke-dasharray:none;stroke-opacity:1"
       x="1723.8367"
       y="993.6333"
       id="text4246-8"
       transform="matrix(1.0148684,-0.23351779,-0.23771225,1.0400462,0,0)"><tspan
         sodipodi:role="line"
         style="font-size:25.28764343px;line-height:1.25;fill:#ffffff;stroke:#ffffff;stroke-width:0.41015577;stroke-miterlimit:4;stroke-dasharray:none;stroke-opacity:1"
         x="1723.8367"
         y="993.6333"
         id="tspan4150-8">tic</tspan></text>
    <text
       xml:space="preserve"
       style="font-style:normal;font-variant:normal;font-weight:normal;font-stretch:normal;font-size:9.86460209px;line-height:0%;font-family:Lavi;-inkscape-font-specification:Lavi;text-align:center;letter-spacing:0px;word-spacing:0px;text-anchor:middle;opacity:0.553;fill:#ffffff;fill-opacity:1;stroke:#ffffff;stroke-width:0.41015577;stroke-miterlimit:4;stroke-dasharray:none;stroke-opacity:1"
       x="659.43341"
       y="516.69019"
       id="text4246-8-3"
       transform="matrix(1.0294788,0.15704104,-0.60436617,0.87917276,0,0)"><tspan
         sodipodi:role="line"
         style="font-size:25.28764343px;line-height:1.25;fill:#ffffff;stroke:#ffffff;stroke-width:0.41015577;stroke-miterlimit:4;stroke-dasharray:none;stroke-opacity:1"
         x="659.43341"
         y="516.69019"
         id="tspan4150-8-6">Ffff</tspan></text>
    <text
       xml:space="preserve"
       style="font-style:normal;font-variant:normal;font-weight:normal;font-stretch:normal;font-size:13.87211895px;line-height:0%;font-family:Lavi;-inkscape-font-specification:Lavi;text-align:center;letter-spacing:0px;word-spacing:0px;text-anchor:middle;fill:#000000;fill-opacity:1;stroke:#000000;stroke-width:1.60000002;stroke-miterlimit:4;stroke-dasharray:none;stroke-opacity:1"
       x="1265.1823"
       y="1197.7053"
       id="text4246-7-6-2-04-7"
       transform="skewX(-10.479117)"><tspan
         sodipodi:role="line"
         style="font-size:52.02044678px;line-height:1.25;stroke:#000000;stroke-width:1.60000002;stroke-miterlimit:4;stroke-dasharray:none;stroke-opacity:1"
         x="1265.1823"
         y="1201.7373"
         id="tspan1006-5" /><tspan
         sodipodi:role="line"
         style="font-size:52.02044678px;line-height:1.25;stroke:#000000;stroke-width:1.60000002;stroke-miterlimit:4;stroke-dasharray:none;stroke-opacity:1"
         x="1265.1823"
         y="1201.7373"
         id="tspan1008-6" /><tspan
         sodipodi:role="line"
         style="font-size:52.02044678px;line-height:1.25;stroke:#000000;stroke-width:1.60000002;stroke-miterlimit:4;stroke-dasharray:none;stroke-opacity:1"
         x="1265.1823"
         y="1245.3379"
         id="tspan1010-2">MAI!</tspan></text>
    <text
       xml:space="preserve"
       style="font-style:normal;font-variant:normal;font-weight:normal;font-stretch:normal;line-height:0%;font-family:Lavi;-inkscape-font-specification:Lavi;text-align:center;letter-spacing:0px;word-spacing:0px;text-anchor:middle;display:inline;fill:#000000;fill-opacity:1;stroke:#000000;stroke-width:1.10000002;stroke-miterlimit:4;stroke-dasharray:none;stroke-opacity:1"
       x="811.54419"
       y="1010.7184"
       id="text4246-7-6-2"
       transform="skewX(-26.235822)"><tspan
         sodipodi:role="line"
         style="font-size:45px;line-height:1.25;stroke:#000000;stroke-width:1.10000002;stroke-miterlimit:4;stroke-dasharray:none;stroke-opacity:1"
         x="811.54419"
         y="1010.7184"
         id="tspan1069-6">Grrrrr...!!!</tspan></text>
  </g>
</svg>
