<?xml version="1.0" encoding="UTF-8" standalone="no"?>
<!-- Created with Inkscape (http://www.inkscape.org/) -->

<svg
   xmlns:dc="http://purl.org/dc/elements/1.1/"
   xmlns:cc="http://creativecommons.org/ns#"
   xmlns:rdf="http://www.w3.org/1999/02/22-rdf-syntax-ns#"
   xmlns:svg="http://www.w3.org/2000/svg"
   xmlns="http://www.w3.org/2000/svg"
   xmlns:xlink="http://www.w3.org/1999/xlink"
   xmlns:sodipodi="http://sodipodi.sourceforge.net/DTD/sodipodi-0.dtd"
   xmlns:inkscape="http://www.inkscape.org/namespaces/inkscape"
   id="svg2"
   version="1.1"
   inkscape:version="0.92.4 (5da689c313, 2019-01-14)"
   width="2481"
   height="3503"
   sodipodi:docname="E03P05.svg">
  <metadata
     id="metadata8">
    <rdf:RDF>
      <cc:Work
         rdf:about="">
        <dc:format>image/svg+xml</dc:format>
        <dc:type
           rdf:resource="http://purl.org/dc/dcmitype/StillImage" />
        <dc:title />
      </cc:Work>
    </rdf:RDF>
  </metadata>
  <defs
     id="defs6" />
  <sodipodi:namedview
     pagecolor="#ffffff"
     bordercolor="#666666"
     borderopacity="1"
     objecttolerance="10"
     gridtolerance="10"
     guidetolerance="10"
     inkscape:pageopacity="0"
     inkscape:pageshadow="2"
     inkscape:window-width="1920"
     inkscape:window-height="1019"
     id="namedview4"
     showgrid="false"
     inkscape:zoom="0.63043064"
     inkscape:cx="1252.5007"
     inkscape:cy="1571.4448"
     inkscape:window-x="2560"
     inkscape:window-y="34"
     inkscape:window-maximized="1"
     inkscape:current-layer="layer3" />
  <g
     inkscape:groupmode="layer"
     id="layer2"
     inkscape:label="artwork"
     sodipodi:insensitive="true"
     style="display:inline">
    <image
       sodipodi:absref="/home/deevad/peppercarrot/webcomics/ep03_The-secret-ingredients/lang/ru/../gfx_Pepper-and-Carrot_by-David-Revoy_E03P05.png"
       xlink:href="../gfx_Pepper-and-Carrot_by-David-Revoy_E03P05.png"
       width="2481"
       height="3503"
       id="image10"
       x="0"
       y="0" />
  </g>
  <g
     inkscape:groupmode="layer"
     id="layer3"
     inkscape:label="speechbubbles">
    <path
       style="fill:#ffffff;stroke:none;stroke-width:1px;stroke-linecap:butt;stroke-linejoin:miter;stroke-opacity:1"
       d="m 1618.6795,748.53306 c 11.4726,-82.39413 109.5112,-98.03858 123.0698,-105.33933 13.5585,-7.30074 94.9096,-10.42963 104.2963,-9.38667 9.3867,1.04297 113.6831,18.77335 125.1557,17.73038 11.4726,-1.04296 105.3393,-9.38667 128.2845,2.08593 22.9452,11.4726 77.1793,85.52302 77.1793,115.76896 0,30.24595 -26.0741,91.7808 -88.6519,119.94082 -62.5778,28.16002 -182.5187,52.14818 -256.5691,46.93336 -74.0504,-5.21481 -129.3275,-18.77334 -151.2297,-40.67558 -21.9022,-21.90223 -71.9645,-106.38229 -61.5349,-147.05787 z"
       id="path3061"
       inkscape:connector-curvature="0" />
    <path
       style="fill:#ffffff;stroke:none;stroke-width:1px;stroke-linecap:butt;stroke-linejoin:miter;stroke-opacity:1"
       d="m 1585.3047,973.8132 c 59.4489,18.77335 150.1868,-13.55852 156.4446,-58.40596 6.2577,-44.84744 19.8163,-69.87856 19.8163,-69.87856 l 30.2459,34.4178 -14.6015,49.01929 c 0,0 -66.7497,114.72603 -191.9053,44.84743 z"
       id="path3063"
       inkscape:connector-curvature="0" />
    <path
       style="fill:#ffffff;stroke:none;stroke-width:1px;stroke-linecap:butt;stroke-linejoin:miter;stroke-opacity:1"
       d="m 1070.5059,1867.6224 c 3.2827,-63.5822 45.9567,-110.3858 277.9285,-109.5027 231.9716,0.883 283.3994,15.8955 295.4357,78.5947 12.0363,62.6991 -27.3552,83.8933 -80.9713,106.8535 -53.6161,22.9603 -178.3556,53.8683 -281.211,37.9727 -102.8554,-15.8955 -217.7471,-52.9852 -211.1819,-113.9182 z"
       id="path3065"
       inkscape:connector-curvature="0" />
    <path
       style="fill:#ffffff;stroke:none;stroke-width:1px;stroke-linecap:butt;stroke-linejoin:miter;stroke-opacity:1"
       d="m 1178.5489,2195.1236 c -49.0193,-99.0815 -43.8045,-127.2416 51.1052,-205.4638 94.9097,-78.2223 31.2889,-88.6519 31.2889,-88.6519 0,0 -235.7098,154.3586 -82.3941,294.1157 z"
       id="path3067"
       inkscape:connector-curvature="0" />
  </g>
  <g
     inkscape:groupmode="layer"
     id="layer1"
     inkscape:label="txt">
    <flowRoot
       xml:space="preserve"
       id="flowRoot2987"
       style="font-style:normal;font-variant:normal;font-weight:normal;font-stretch:normal;line-height:0.01%;font-family:Neucha;-inkscape-font-specification:Neucha;letter-spacing:0px;word-spacing:0px;fill:#000000;fill-opacity:1;stroke:none"
       transform="translate(1520.5257,438.20454)"><flowRegion
         id="flowRegion2989"><rect
           id="rect2991"
           width="498.03751"
           height="289.55246"
           x="120.55251"
           y="265.53046"
           style="font-style:normal;font-variant:normal;font-weight:normal;font-stretch:normal;font-family:Neucha;-inkscape-font-specification:Neucha" /></flowRegion><flowPara
         style="font-style:normal;font-variant:normal;font-weight:normal;font-stretch:normal;font-size:48px;line-height:1.25;font-family:Neucha;-inkscape-font-specification:Neucha;text-align:center;text-anchor:middle"
         id="flowPara3017">Во-первых, нужно пару жемчужин мглы из этих чёрных туч ...</flowPara></flowRoot>    <flowRoot
       xml:space="preserve"
       id="flowRoot2987-3"
       style="font-style:normal;font-variant:normal;font-weight:normal;font-stretch:normal;line-height:0.01%;font-family:Neucha;-inkscape-font-specification:Neucha;letter-spacing:0px;word-spacing:0px;fill:#000000;fill-opacity:1;stroke:none"
       transform="translate(947.06394,1549.2445)"><flowRegion
         id="flowRegion2989-7"><rect
           id="rect2991-1"
           width="584.88531"
           height="330.5639"
           x="120.55251"
           y="265.53046"
           style="font-style:normal;font-variant:normal;font-weight:normal;font-stretch:normal;font-family:Neucha;-inkscape-font-specification:Neucha" /></flowRegion><flowPara
         style="font-style:normal;font-variant:normal;font-weight:normal;font-stretch:normal;font-size:48px;line-height:1.25;font-family:Neucha;-inkscape-font-specification:Neucha;text-align:center;text-anchor:middle"
         id="flowPara3059">... и немного красных ягод из проклятых джунглей ...</flowPara></flowRoot>    <flowRoot
       xml:space="preserve"
       id="flowRoot3358"
       style="font-style:normal;font-weight:normal;line-height:0.01%;font-family:sans-serif;letter-spacing:0px;word-spacing:0px;fill:#000000;fill-opacity:1;stroke:none;stroke-width:1px;stroke-linecap:butt;stroke-linejoin:miter;stroke-opacity:1"><flowRegion
         id="flowRegion3360"><rect
           id="rect3362"
           width="28.949259"
           height="43.423889"
           x="2065.0471"
           y="866.20496" /></flowRegion><flowPara
         id="flowPara3364"
         style="font-size:40px;line-height:1.25"> </flowPara></flowRoot>  </g>
</svg>
