<?xml version="1.0" encoding="UTF-8" standalone="no"?>
<svg
   xmlns:dc="http://purl.org/dc/elements/1.1/"
   xmlns:cc="http://creativecommons.org/ns#"
   xmlns:rdf="http://www.w3.org/1999/02/22-rdf-syntax-ns#"
   xmlns:svg="http://www.w3.org/2000/svg"
   xmlns="http://www.w3.org/2000/svg"
   xmlns:xlink="http://www.w3.org/1999/xlink"
   xmlns:sodipodi="http://sodipodi.sourceforge.net/DTD/sodipodi-0.dtd"
   xmlns:inkscape="http://www.inkscape.org/namespaces/inkscape"
   id="svg2"
   version="1.1"
   inkscape:version="0.91 r13725"
   width="2481"
   height="3503"
   sodipodi:docname="E34P09.svg">
  <metadata
     id="metadata8">
    <rdf:RDF>
      <cc:Work
         rdf:about="">
        <dc:format>image/svg+xml</dc:format>
        <dc:type
           rdf:resource="http://purl.org/dc/dcmitype/StillImage" />
        <dc:title />
      </cc:Work>
    </rdf:RDF>
  </metadata>
  <defs
     id="defs6">
    <filter
       style="color-interpolation-filters:sRGB"
       id="filter4375-4-1-1-1-9-5-8-8-5-5-3-3-3-0"
       inkscape:label="soundFX1">
      <feFlood
         id="feFlood4377-7-9-0-8-1-7-3-1-2-7-6-6-5-96"
         flood-opacity="1"
         flood-color="rgb(52,52,52)"
         result="flood" />
      <feComposite
         id="feComposite4379-3-8-8-2-77-4-1-0-6-4-7-7-6-3"
         in2="SourceGraphic"
         in="flood"
         operator="in"
         result="composite1"
         baseFrequency="0.053999999999999999 0.053999999999999999" />
      <feMorphology
         id="feMorphology4393-1-0-49-8-9-3-0-1-9-9-5-5-2-8"
         operator="dilate"
         radius="2.5856550817276021"
         result="result3" />
      <feComposite
         id="feComposite4385-9-5-7-0-8-8-7-5-4-9-3-3-9-5"
         in2="result3"
         in="SourceGraphic"
         operator="over"
         result="fbSourceGraphic" />
      <feColorMatrix
         result="fbSourceGraphicAlpha"
         in="fbSourceGraphic"
         values="0 0 0 -1 0 0 0 0 -1 0 0 0 0 -1 0 0 0 0 1 0"
         id="feColorMatrix4544-9-4-4-5-5-1-6" />
      <feTurbulence
         id="feTurbulence4546-3-6-5-6-6-2-1"
         type="fractalNoise"
         numOctaves="4"
         seed="147"
         baseFrequency="0.046080819231719368"
         result="turbulence" />
      <feDisplacementMap
         id="feDisplacementMap4548-8-0-9-2-2-7-1"
         in2="turbulence"
         in="fbSourceGraphic"
         scale="13.20326"
         yChannelSelector="G"
         xChannelSelector="R"
         result="fbSourceGraphic" />
      <feColorMatrix
         result="fbSourceGraphicAlpha"
         in="fbSourceGraphic"
         values="0 0 0 -1 0 0 0 0 -1 0 0 0 0 -1 0 0 0 0 1 0"
         id="feColorMatrix4670-7-7-3-9-9-0-5" />
      <feFlood
         id="feFlood4672-4-4-5-1-1-9-9"
         flood-opacity="1"
         flood-color="rgb(28,28,28)"
         result="flood"
         in="fbSourceGraphic" />
      <feComposite
         id="feComposite4674-8-3-7-2-2-3-8"
         in2="fbSourceGraphic"
         in="flood"
         operator="in"
         result="composite1" />
      <feGaussianBlur
         id="feGaussianBlur4676-3-7-08-7-7-6-4"
         in="composite1"
         stdDeviation="0"
         result="blur" />
      <feOffset
         id="feOffset4678-6-9-1-0-0-0-8"
         dx="-8.3919392296330813"
         dy="1.5526614972014983"
         result="offset" />
      <feComposite
         id="feComposite4680-4-0-9-9-9-6-1"
         in2="offset"
         in="fbSourceGraphic"
         operator="over"
         result="composite2" />
    </filter>
    <filter
       style="color-interpolation-filters:sRGB"
       id="filter4375-4-1-1-1-9-5-8-8-5-5-3-3-3-0-6"
       inkscape:label="soundFX1">
      <feFlood
         id="feFlood4377-7-9-0-8-1-7-3-1-2-7-6-6-5-96-3"
         flood-opacity="1"
         flood-color="rgb(52,52,52)"
         result="flood" />
      <feComposite
         id="feComposite4379-3-8-8-2-77-4-1-0-6-4-7-7-6-3-2"
         in2="SourceGraphic"
         in="flood"
         operator="in"
         result="composite1"
         baseFrequency="0.053999999999999999 0.053999999999999999" />
      <feMorphology
         id="feMorphology4393-1-0-49-8-9-3-0-1-9-9-5-5-2-8-0"
         operator="dilate"
         radius="2.5856550817276021"
         result="result3" />
      <feComposite
         id="feComposite4385-9-5-7-0-8-8-7-5-4-9-3-3-9-5-6"
         in2="result3"
         in="SourceGraphic"
         operator="over"
         result="fbSourceGraphic" />
      <feColorMatrix
         result="fbSourceGraphicAlpha"
         in="fbSourceGraphic"
         values="0 0 0 -1 0 0 0 0 -1 0 0 0 0 -1 0 0 0 0 1 0"
         id="feColorMatrix4544-9-4-4-5-5-1-6-1" />
      <feTurbulence
         id="feTurbulence4546-3-6-5-6-6-2-1-5"
         type="fractalNoise"
         numOctaves="4"
         seed="147"
         baseFrequency="0.046080819231719368"
         result="turbulence" />
      <feDisplacementMap
         id="feDisplacementMap4548-8-0-9-2-2-7-1-5"
         in2="turbulence"
         in="fbSourceGraphic"
         scale="13.20326"
         yChannelSelector="G"
         xChannelSelector="R"
         result="fbSourceGraphic" />
      <feColorMatrix
         result="fbSourceGraphicAlpha"
         in="fbSourceGraphic"
         values="0 0 0 -1 0 0 0 0 -1 0 0 0 0 -1 0 0 0 0 1 0"
         id="feColorMatrix4670-7-7-3-9-9-0-5-4" />
      <feFlood
         id="feFlood4672-4-4-5-1-1-9-9-7"
         flood-opacity="1"
         flood-color="rgb(28,28,28)"
         result="flood"
         in="fbSourceGraphic" />
      <feComposite
         id="feComposite4674-8-3-7-2-2-3-8-6"
         in2="fbSourceGraphic"
         in="flood"
         operator="in"
         result="composite1" />
      <feGaussianBlur
         id="feGaussianBlur4676-3-7-08-7-7-6-4-5"
         in="composite1"
         stdDeviation="0"
         result="blur" />
      <feOffset
         id="feOffset4678-6-9-1-0-0-0-8-6"
         dx="-8.3919392296330813"
         dy="1.5526614972014983"
         result="offset" />
      <feComposite
         id="feComposite4680-4-0-9-9-9-6-1-9"
         in2="offset"
         in="fbSourceGraphic"
         operator="over"
         result="composite2" />
    </filter>
  </defs>
  <sodipodi:namedview
     pagecolor="#ffffff"
     bordercolor="#666666"
     borderopacity="1"
     objecttolerance="10"
     gridtolerance="10"
     guidetolerance="10"
     inkscape:pageopacity="0"
     inkscape:pageshadow="2"
     inkscape:window-width="959"
     inkscape:window-height="576"
     id="namedview4"
     showgrid="false"
     inkscape:zoom="0.30417501"
     inkscape:cx="1549.8659"
     inkscape:cy="893.96202"
     inkscape:window-x="65"
     inkscape:window-y="24"
     inkscape:window-maximized="1"
     inkscape:current-layer="layer1"
     inkscape:document-rotation="0"
     inkscape:snap-global="false"
     borderlayer="true" />
  <g
     inkscape:groupmode="layer"
     id="layer2"
     inkscape:label="artwork"
     sodipodi:insensitive="true">
    <image
       sodipodi:absref="/home/denez/Desktop/Link to Projet ADG/AdG 2-Travaux/5-BD pepper trad/34/gfx_Pepper-and-Carrot_by-David-Revoy_E34P09.png"
       xlink:href="../gfx_Pepper-and-Carrot_by-David-Revoy_E34P09.png"
       y="0"
       x="0"
       id="image10"
       height="3503"
       width="2481" />
  </g>
  <g
     inkscape:groupmode="layer"
     id="layer3"
     inkscape:label="speechbubbles"
     style="display:inline">
    <path
       style="color:#000000;display:inline;overflow:visible;visibility:visible;fill:#ffffff;fill-opacity:1;fill-rule:nonzero;stroke:none;stroke-width:1.06937px;marker:none;enable-background:accumulate"
       d="m 1413.9252,2288.6897 c -21.0035,-5.3737 -81.566,-47.9371 -7.2888,-45.7139 -54.6661,-17.9093 -47.3991,-53.5519 -2.4758,-74.369 -58.9238,4.2548 -100.5769,0.6207 -70.2151,-36.1664 -79.2184,3.5955 -122.8044,10.2673 -109.8003,-28.5578 -40.1503,42.6369 -78.6617,34.6793 -88.5825,-15.1981 -6.9274,35.2294 -81.7002,33.1271 -167.99998,12.6992 8.30388,14.5849 88.47908,54.7735 -30.55105,45.7152 47.04927,26.0011 49.14048,39.3386 -30.92339,50.3382 40.80347,11.6971 66.82446,27.5422 3.23088,52.7159 41.20562,7.9508 106.39464,5.6199 27.23252,53.7673 52.19075,-22.7557 139.25082,-6.3139 101.72672,30.3911 102.2721,-41.2428 121.9423,-30.2458 137.385,-0.6941 38.0267,-43.2711 92.9821,-38.37 124.9467,-13.2168 -15.5391,-38.3461 66.3526,-31.727 113.3151,-31.7108 z"
       id="path3549-3-78-5"
       inkscape:connector-curvature="0"
       sodipodi:nodetypes="ccccccccccccccc" />
    <path
       style="color:#000000;display:inline;overflow:visible;visibility:visible;fill:#ffffff;fill-opacity:1;fill-rule:nonzero;stroke:none;stroke-width:1.53798px;marker:none;enable-background:accumulate"
       d="M 1165.125 2415.5957 C 1130.4961 2415.3971 1095.0603 2423.1298 1065.7591 2442.1634 C 1034.0314 2463.018 1012.4338 2496.9293 1002.3955 2533.1554 C 992.59617 2568.5592 994.46263 2607.4336 1009.3327 2641.1701 C 1016.1701 2656.2876 1027.4362 2668.8862 1039.3142 2680.254 C 1046.8855 2687.8765 1055.8402 2694.0208 1065.5476 2698.6 C 1080.001 2705.4324 1095.4478 2709.892 1110.918 2713.7598 C 1137.2367 2719.946 1164.6219 2721.6842 1191.4772 2718.4018 C 1210.0229 2716.3248 1228.6862 2712.8862 1245.8592 2705.3477 C 1267.2776 2695.5069 1285.9394 2680.4166 1301.9961 2663.3125 C 1312.5213 2651.8799 1320.8033 2638.3469 1325.6024 2623.5344 C 1336.6453 2590.7606 1334.1192 2554.4228 1322.3121 2522.2219 C 1312.2354 2494.3965 1294.7895 2469.0929 1271.4314 2450.7849 C 1248.3998 2432.4135 1220.2152 2420.7112 1190.9864 2417.1249 C 1182.4155 2416.0108 1173.7662 2415.5389 1165.125 2415.5957 z "
       id="path3365-3"
       inkscape:connector-curvature="0"
       sodipodi:nodetypes="cssccsc" />
    <path
       style="display:inline;fill:#ffffff;fill-rule:evenodd;stroke:none;stroke-width:1.17316px;stroke-linecap:butt;stroke-linejoin:miter;stroke-opacity:1"
       d="m 110.47937,2161.9777 c 27.00627,30.5566 28.99279,50.587 4.47805,37.845 23.21642,20.2958 17.7594,24.163 -1.09209,31.4045 45.00831,48.4469 29.82444,82.3498 13.22486,115.9106 52.03608,-18.6238 52.52287,10.0397 64.29871,28.3481 13.60837,-39.1345 17.78769,-14.9455 19.33622,26.9124 14.54455,-50.3409 22.82779,-54.8363 25.40414,-17.5261 12.88044,-32.1048 27.84821,-45.1294 45.21465,-36.2236 35.72406,-31.571 46.07455,7.5635 64.62603,23.8453 1.08945,-38.2468 16.00624,-49.3869 47.28538,-14.1128 0.97111,-23.1453 24.84543,-24.4555 47.956,6.6692 -30.8302,-62.3313 18.50508,-7.9801 26.25177,-4.7769 -14.8352,-32.1576 0.89979,-55.9178 65.74098,-15.9188 -21.13709,-6.5023 -32.88529,-44.2221 -2.34238,-59.9155 -31.61396,-11.9409 -29.91266,-28.6874 -10.70949,-47.9591 -35.23206,-24.2871 4.40354,-52.8742 25.3581,-80.3881 -39.03304,15.1516 -69.35953,16.982 -72.91076,-22.1549 -60.28877,34.9993 -50.27198,17.4563 -43.46053,2.3085 -38.92399,39.7495 -42.57911,6.2301 -42.27078,-4.298 -53.05088,44.1106 -94.51354,5.7912 -112.60806,-17.9142 -12.70445,54.2582 -31.57226,35.128 -50.46575,15.6952 12.16377,38.1297 -6.20677,36.5435 -25.73118,22.0288 6.62197,25.7578 -8.57577,49.7265 -41.21419,15.3504 11.342,17.4269 -7.45968,27.8555 -46.36968,-5.13 z"
       id="path4289-9"
       inkscape:connector-curvature="0"
       sodipodi:nodetypes="cccccccccccccccccccccccc" />
    <path
       style="fill:#ffffff;fill-rule:evenodd;stroke:none;stroke-width:1.82px;stroke-linecap:butt;stroke-linejoin:miter;stroke-opacity:1"
       d="m 862.34153,1281.9721 c 49.24921,91.7805 67.9304,84.7087 75.58641,41.9832 13.45702,15.4323 16.32168,60.6932 54.82727,5.5858 23.77569,40.023 42.94939,34.914 58.35239,-7.1739 41.3018,75.8538 66.4858,32.0394 88.6487,15.1094 55.9268,42.4272 209.7445,48.8759 277.0761,-5.8369 14.2611,19.5051 29.4575,34.8489 58.0491,-1.9364 -2.7973,44.5449 34.5117,7.5009 66.1916,-49.2058 -4.0578,33.3537 -24.8906,90.2026 18.3732,57.2753 5.0091,23.8344 1.0517,55.3699 93.5903,4.0248 -26.9151,67.9175 50.9592,-1.2141 126.4188,-67.1871 -47.5557,57.5257 -112.5282,128.2944 -31.3123,105.1684 -45.66,48.1932 -41.5696,65.8771 88.0559,63.4999 -122.6885,24.8181 -152.8019,57.3228 -79.4641,123.2148 -53.064,-31.0307 -129.261,-35.2418 -63.76,7.5461 -66.0044,-34.2663 -75.5133,-17.672 -52.0236,10.4041 -72.0633,-49.3277 -38.1748,-9.7825 -34.1787,29.1527 -51.877,-24.5276 -86.607,-52.6972 -78.9699,10.0835 -53.99,-48.1752 -63.1971,-30.9006 -69.5441,-9.4462 -95.8595,-72.8026 -83.4586,-29.2975 -101.8802,-18.9061 -27.7172,-26.9338 -27.0156,-4.8298 -21.906,24.8798 -26.5269,-31.4777 -50.5589,-43.6108 -68.1974,-6.1606 -16.6187,-17.3167 -32.9273,-41.8525 -51.8559,-5.4578 -22.8906,-19.8523 -47.0343,-27.744 -76.5949,16.0725 -12.5728,-26.4714 -31.1245,-45.5282 -93.3131,-10.4684 -11.7231,-56.7978 -64.96743,-47.6201 -131.73016,-16.9621 2.04936,-33.3735 -3.22389,-55.2983 -72.41546,22.7077 14.375,-34.0901 30.74732,-70.0258 -11.15322,-52.1235 26.29241,-65.2228 -10.51003,-47.7521 -88.44937,-34.4229 79.61884,-37.9606 120.95094,-76.2312 44.06736,-75.6147 52.83758,-37.8995 48.69361,-57.7575 24.8769,-56.1043 3.60861,-11.7108 46.63496,-32.981 -13.63884,-32.175 31.83107,-15.9508 78.78672,-11.3665 66.27322,-87.5263 z"
       id="path4656"
       inkscape:connector-curvature="0"
       sodipodi:nodetypes="ccccccccccccccccccccccccccccccccc" />
    <path
       style="fill:#ffffff;fill-rule:evenodd;stroke:none;stroke-width:0.952181px;stroke-linecap:butt;stroke-linejoin:miter;stroke-opacity:1"
       d="m 690.1345,1241.283 c 27.41589,13.5269 97.73364,21.0234 2.79374,61.3674 50.25636,0.9671 78.05895,1.7537 30.73102,19.124 64.31417,0.3154 1.3642,9.9013 -30.42836,19.2955 35.00208,-0.2589 86.8674,-7.2784 7.97909,24.6341 65.2518,-9.2869 47.84116,2.0347 -17.90886,24.1629 63.72945,-18.0895 90.0562,-15.5403 63.0337,-1.2529 26.73296,-4.4671 30.05212,9.3935 -22.80424,23.1786 71.92756,-18.6636 70.40175,-11.588 74.26744,34.6472 17.09674,-81.4311 20.00543,-18.0057 24.10106,21.1079 27.25378,-121.4005 64.09961,-31.7441 72.17808,-18.6724 -6.77983,-94.3594 42.88914,-55.4681 55.87468,-19.5954 -3.34763,-23.0122 12.57725,-69.487 60.10795,-13.1188 -11.33293,-20.7496 -3.6201,-42.2962 39.0696,9.0732 -12.9463,-34.3451 11.0362,-44.1683 85.7556,-11.8006 -0.5765,-17.0771 -7.8637,-35.014 70.6938,-4.833 -1.4739,-15.6767 -17.4912,-37.2075 89.3993,-9.2545 0.6974,-27.3754 17.9156,-29.1099 47.9138,-16.5125 -5.1247,-23.4934 27.6368,-12.9018 69.1606,2.7953 -26.4467,-32.042 9.6132,-28.6243 61.7248,-18.8217 -5.0602,-15.5655 -12.2946,-31.5384 18.1592,-40.4365 -58.8814,-45.8169 -6.7958,-49.5374 11.1749,-54.4273 -29.4938,-1.4095 -51.5414,-17.4541 -13.5592,-30.1681 -44.2238,7.4451 -27.9846,-15.1614 -25.553,-27.4943 l -71.2402,-18.905 -69.8435,-8.3897 -83.812,-8.3137 -78.2247,-1.3291 -79.6215,0.4324 -69.8433,3.8873 -60.06531,-8.4427 -61.46216,9.1027 -86.60577,-1.2836 -41.90601,30.0425 c 14.11156,28.7919 -30.48286,28.5474 -71.24025,30.2008 z"
       id="path4323"
       inkscape:connector-curvature="0"
       sodipodi:nodetypes="ccccccccccccccccccccccccccccccccccc" />
    <path
       style="color:#000000;display:inline;overflow:visible;visibility:visible;fill:#ffffff;fill-opacity:1;fill-rule:nonzero;stroke:none;stroke-width:1.29506px;marker:none;enable-background:accumulate"
       d="m 1926.575,2196.9193 c -39.1755,1.6625 -78.4763,1.7932 -117.4866,6.2878 -20.1258,2.6696 -40.2637,9.0988 -56.6433,21.9885 -22.4768,16.8362 -37.2517,43.9344 -40.6367,72.5415 -4.9376,30.1077 -8.1894,61.3223 -1.9679,91.5017 6.2612,24.0415 26.3622,42.3572 48.9773,48.7845 47.3776,15.7157 97.3106,20.5974 146.7884,21.6138 31.4418,0.6629 62.894,0.2292 94.3371,-0.023 44.2046,-1.1053 88.2559,-5.5872 132.1886,-10.5872 18.7295,-2.5703 37.7415,-5.7442 55.0874,-13.9192 18.2826,-8.9603 33.6929,-24.6461 41.6187,-44.1947 12.2838,-28.3165 12.1121,-61.2633 3.597,-90.6872 -8.6459,-29.0892 -27.6601,-54.751 -52.8268,-70.1975 -25.7934,-16.6745 -56.1784,-23.9269 -86.212,-25.4174 -53.9612,-4.6915 -108.0894,-7.6161 -162.2405,-7.8805 -1.5269,0.063 -3.0538,0.1256 -4.5807,0.1885 z"
       id="path4546-6-5-5"
       inkscape:connector-curvature="0"
       sodipodi:nodetypes="cssssc" />
    <path
       style="color:#000000;display:inline;overflow:visible;visibility:visible;fill:#ffffff;fill-opacity:1;fill-rule:nonzero;stroke:none;stroke-width:0.710908px;marker:none;enable-background:accumulate"
       d="m 427.36079,1539.322 c -18.49435,2.3317 -20.41009,4.4325 -21.96654,15.8617 -1.55611,11.4299 -0.85275,28.3587 -14.56075,40.6485 -13.70771,12.2903 -23.6764,10.0093 -30.31719,9.0645 4.26773,13.7681 1.4232,41.4005 9.47615,45.7822 8.05295,4.3816 -16.23573,2.0167 -16.23573,2.0167 0,0 -18.78665,-30.5045 -14.52874,-48.8854 4.25786,-18.3808 31.63742,-15.9961 42.0788,-22.7096 10.44133,-6.7135 10.50842,-30.2213 17.90427,-37.5835 7.39563,-7.363 19.29539,-5.4547 28.14973,-4.1951 z"
       id="path4538-7"
       inkscape:connector-curvature="0"
       sodipodi:nodetypes="ccscccsscc" />
    <path
       style="color:#000000;display:inline;overflow:visible;visibility:visible;fill:#ffffff;fill-opacity:1;fill-rule:nonzero;stroke:none;stroke-width:0.576009px;marker:none;enable-background:accumulate"
       d="m 269.38616,1653.529 c 23.98622,-18.7388 72.99975,-31.6297 113.83578,1.6461 32.33893,26.3516 21.53309,64.4595 4.25504,76.2832 -17.27802,11.8238 -72.26174,14.2552 -97.55286,8.4261 -19.52455,-4.5006 -40.92884,-15.7046 -42.10867,-45.5966 -0.48149,-12.2006 -2.41553,-22.02 21.57071,-40.7588 z"
       id="path4040-2-9"
       inkscape:connector-curvature="0"
       sodipodi:nodetypes="zssssz" />
    <path
       style="color:#000000;display:inline;overflow:visible;visibility:visible;fill:#ffffff;fill-opacity:1;fill-rule:nonzero;stroke:none;stroke-width:0.590855px;marker:none;enable-background:accumulate"
       d="m 248.38875,1580.4882 c 25.2386,-18.1575 76.81125,-29.8607 119.77943,4.4047 34.02742,27.1353 22.65738,64.9814 4.47719,76.3864 -18.18014,11.405 -76.0347,12.504 -102.64632,6.062 -20.54397,-4.9737 -43.06584,-16.6964 -44.30727,-46.617 -0.50663,-12.2123 -2.54165,-22.0785 22.69697,-40.2361 z"
       id="path4040-2"
       inkscape:connector-curvature="0"
       sodipodi:nodetypes="zssssz" />
    <path
       style="display:inline;fill:#ffffff;stroke:none;stroke-width:0.94991"
       d="m 1983.1169,1062.6294 c -1.7021,-25.9962 28.8155,-91.07497 177.6791,-86.1798 148.8634,4.89516 195.4554,33.4892 199.8178,79.6976 6.9009,73.1 -71.416,92.6343 -183.872,98.0493 -115.93,5.5813 -195.424,-44.5966 -193.6249,-91.5671 z"
       id="path3280-8-3-6"
       inkscape:connector-curvature="0"
       sodipodi:nodetypes="csssc" />
    <path
       style="display:inline;fill:#ffffff;stroke:none;stroke-width:1.57021"
       d="M 2044.627 157.73242 C 1990.6214 158.95983 1936.0871 158.38619 1882.9304 169.37513 C 1847.5257 176.64379 1812.292 187.61824 1781.5343 207.02432 C 1758.108 222.64189 1741.3799 247.39608 1734.3474 274.54826 C 1725.2272 308.73644 1730.8006 347.13362 1751.4807 376.15038 C 1764.3357 394.43424 1783.0392 408.09805 1803.6382 416.47361 C 1829.1732 427.59304 1856.3452 434.17197 1883.2626 440.96973 C 1960.8832 459.20816 2041.9601 464.52916 2120.9683 452.63025 C 2152.8138 447.9671 2184.4912 441.26853 2214.8945 430.58203 C 2243.6081 419.78358 2271.2293 404.31282 2292.3387 381.72628 C 2310.5238 360.43695 2318.503 331.88598 2318.0172 304.21292 C 2318.0106 280.16242 2312.092 255.26316 2297.0454 236.05467 C 2282.0806 217.63065 2261.1676 205.4629 2240.3749 194.71396 C 2209.0715 179.44864 2174.6447 172.57744 2140.6568 166.20814 C 2109.0299 160.27218 2076.8112 157.30232 2044.627 157.73242 z "
       id="path3280-8-3"
       inkscape:connector-curvature="0"
       sodipodi:nodetypes="csssc" />
    <path
       style="color:#000000;display:inline;overflow:visible;visibility:visible;fill:#ffffff;fill-opacity:1;fill-rule:nonzero;stroke:none;stroke-width:0.608783px;marker:none;enable-background:accumulate"
       d="m 1751.2966,118.06982 c -18.0333,0.18933 -36.0674,0.22455 -54.1008,0.0344 -11.8069,-0.14349 -23.6739,0.0747 -35.3256,1.9339 -21.7025,3.33547 -42.8876,10.36344 -60.9783,21.58126 -5.0414,3.15184 -9.8752,6.71023 -13.2123,11.37103 -12.5007,16.257 -12.9164,39.54684 0.49,55.49229 8.9508,10.35064 22.6898,16.12839 36.063,20.81189 33.1778,11.68115 69.2079,15.30029 104.6925,15.4305 30.6511,0.016 61.6457,3.38414 92.0083,-1.81956 26.5951,-4.66092 52.6534,-14.43113 72.6572,-30.91977 12.1858,-10.71873 18.2326,-27.36074 13.0367,-42.12219 -4.9328,-15.01303 -18.236,-26.96879 -33.7278,-33.98225 -24.2465,-11.69586 -52.0403,-16.28689 -79.4047,-17.27415 -14.0556,-0.58807 -28.1303,-0.61588 -42.1982,-0.53739 z"
       id="path3525-8"
       inkscape:connector-curvature="0"
       sodipodi:nodetypes="cscsc" />
    <path
       style="fill:#ffffff;fill-rule:evenodd;stroke:none;stroke-width:1.06468px;stroke-linecap:butt;stroke-linejoin:miter;stroke-opacity:1"
       d="m 784.45325,422.60021 c 0,0 22.37691,25.375 30.38987,41.353 9.55841,41.6769 -15.08254,52.26548 -11.80509,72.946 4.69971,21.617 12.77263,34.196 42.40829,52.053 -36.46109,-14.098 -60.72938,-25.376 -65.42892,-46.992 -4.6996,-21.617 12.02504,-48.872 9.37974,-58.27 -2.64548,-9.399 -11.01511,-33.835 -33.19349,-51.692 -22.17826,-17.857 28.2496,-9.398 28.2496,-9.398 z"
       id="path1303"
       inkscape:connector-curvature="0"
       sodipodi:nodetypes="cccccccc" />
    <path
       style="color:#000000;display:inline;overflow:visible;visibility:visible;fill:#ffffff;fill-opacity:1;fill-rule:nonzero;stroke:none;stroke-width:1.02862px;marker:none;enable-background:accumulate"
       d="m 1299.1639,933.87003 c -53.7539,0.60259 -108.0725,6.18237 -157.8254,20.55394 -25.0489,6.8158 -45.6236,20.20051 -58.473,36.26591 -18.1662,20.72842 -25.1768,45.23962 -24.61,69.18952 -0.3504,21.7572 2.047,44.0819 14.328,64.4005 10.2812,16.3502 24.218,32.3696 45.5371,43.0868 16.2373,7.9151 36.3066,10.8229 55.8433,12.0262 47.5428,3.2038 95.6196,-3.3074 142.9207,2.4567 34.8345,3.7138 69.7749,9.2669 105.2613,7.7134 21.3721,-1.3133 41.788,-6.2024 62.8833,-8.6256 13.8625,-1.6374 28.4724,-2.7177 40.6995,-7.8656 3.4856,-1.1629 5.5556,-3.4509 6.6744,-5.9122 2.8424,-6.2805 1.3866,-12.9579 0.8002,-19.3896 -1.7843,-12.7405 -4.3346,-25.749 -0.2318,-38.4116 4.5637,-27.0264 13.4224,-54.101 9.4977,-81.4382 -3.3739,-19.522 -12.553,-39.13286 -30.8536,-54.58743 -16.5279,-12.5725 -39.762,-19.71581 -62.8307,-24.9568 -35.3576,-7.67817 -72.3962,-10.66881 -109.1552,-13.30256 -13.4555,-0.78675 -26.9584,-1.25367 -40.4658,-1.20338 z"
       id="path4040-40"
       inkscape:connector-curvature="0"
       sodipodi:nodetypes="zsssszccccccccz" />
    <path
       style="display:inline;fill:#ffffff;stroke:none;stroke-width:0.973412"
       d="m 765.26611,81.412961 c -66.86527,2.600242 -141.33564,-2.466213 -177.26657,0.966656 -5.11208,85.524513 -24.06685,151.585093 -17.62007,192.206803 5.61002,33.64126 11.90906,67.27391 21.5683,100.45506 6.37868,18.77118 18.42748,37.20772 38.9167,50.17049 22.80177,14.88849 52.31469,22.91333 81.57319,28.80487 70.64193,14.26468 147.1454,15.46871 217.59837,-0.045 19.05684,-4.06897 37.16729,-10.27562 53.62142,-18.27709 30.98795,-14.86292 57.09985,-34.96688 75.56695,-58.19082 18.2362,-24.45166 23.719,-52.37569 27.5974,-79.59941 4.6377,-33.19844 2.8131,-67.56158 -13.2728,-99.17136 -12.3787,-23.86919 -31.2822,-46.32378 -57.2429,-63.85253 C 984.22555,114.14468 943.25272,102.21371 902.07553,94.145888 857.56197,85.46574 811.3995,81.121864 765.26611,81.412961 Z"
       id="path3280-5"
       inkscape:connector-curvature="0"
       sodipodi:nodetypes="ccsscccccccccc" />
    <path
       style="fill:#ffffff;fill-rule:evenodd;stroke:none;stroke-width:1.36569px;stroke-linecap:butt;stroke-linejoin:miter;stroke-opacity:1"
       d="m 1309.5687,939.23352 c 8.7674,-29.78389 -2.55,-70.85724 -21.3421,-92.51878 19.294,12.00335 47.6581,40.90723 49.4868,77.53639 2.8542,57.16677 -26.6522,18.09019 -26.6522,18.09019 z"
       id="path4248"
       inkscape:connector-curvature="0"
       sodipodi:nodetypes="ccscc" />
    <path
       style="color:#000000;display:inline;overflow:visible;visibility:visible;fill:#ffffff;fill-opacity:1;fill-rule:nonzero;stroke:none;stroke-width:1.27845px;marker:none;enable-background:accumulate"
       d="m 2159.8838,536.71889 c 47.5494,-40.109 11.4958,-121.92186 -22.0631,-138.04748 -43.9644,-41.61081 21.7355,-52.5057 21.7355,-52.5057 l 27.3389,46.67174 c -4.9414,6.99806 59.5251,106.49368 -27.0113,143.88144 z"
       id="path3072-56"
       inkscape:connector-curvature="0"
       sodipodi:nodetypes="ccccc" />
    <path
       style="fill:#ffffff;fill-rule:evenodd;stroke:none;stroke-width:1px;stroke-linecap:butt;stroke-linejoin:miter;stroke-opacity:1"
       d="m 2145.9447,911.76156 c 17.8164,6.86787 32.8659,22.27667 36.9127,41.22902 2.4357,13.03639 -1.9004,26.29118 -8.401,37.50329 -6.139,11.51773 -13.902,22.87523 -15.1546,36.21623 -0.038,3.7486 4.352,7.1591 7.7995,4.9374 5.4591,-2.2621 9.1063,-7.2123 13.9986,-10.3572 13.619,-10.9723 25.9848,-24.85172 30.732,-42.05359 4.3293,-16.93725 -3.8025,-35.55082 -17.8163,-45.50969 -14.6218,-11.8782 -32.4276,-19.47815 -50.851,-23.07104 0.9267,0.36853 1.8534,0.73706 2.7801,1.10558 z"
       id="path914"
       inkscape:connector-curvature="0"
       sodipodi:nodetypes="cscc" />
    <path
       style="fill:#ffffff;fill-rule:evenodd;stroke:none;stroke-width:1px;stroke-linecap:butt;stroke-linejoin:miter;stroke-opacity:1"
       d="m 1859.1104,1611.6362 -101.7503,-92.9388 -6.0669,33.3207 -71.4256,-61.6811 -11.1854,27.4382 91.4542,66.5103 8.19,-37.7549 z"
       id="path4667"
       inkscape:connector-curvature="0" />
    <path
       style="color:#000000;display:inline;overflow:visible;visibility:visible;fill:#ffffff;fill-opacity:1;fill-rule:nonzero;stroke:none;stroke-width:1.14715px;marker:none;enable-background:accumulate"
       d="m 285.67734,2318.4867 c -40.4116,58.36 -53.3089,167.707 24.2468,263.215 -108.4132,-99.32 -82.2954,-214.062 -72.6196,-244.978 2.0322,-33.697 48.3728,-18.237 48.3728,-18.237 z"
       id="path4008-0"
       inkscape:connector-curvature="0"
       sodipodi:nodetypes="cccc" />
    <path
       style="color:#000000;display:inline;overflow:visible;visibility:visible;fill:#ffffff;fill-opacity:1;fill-rule:nonzero;stroke:none;stroke-width:1px;marker:none;enable-background:accumulate"
       d="m 2007.8186,2508.6854 c -16.2035,68.7147 -23.8042,123.8365 19.1198,161.3448 -35.9827,-18.9303 -60.1167,-37.3437 -55.228,-133.0047 3.2811,-29.3033 15.4575,-25.6682 36.1082,-28.3401 z"
       id="path4064-5"
       inkscape:connector-curvature="0"
       sodipodi:nodetypes="cccc" />
    <path
       style="fill:#ffffff;fill-rule:evenodd;stroke:none;stroke-width:1.0599px;stroke-linecap:butt;stroke-linejoin:miter;stroke-opacity:1"
       d="m 1312.6704,2517.7831 c 23.7195,-14.0861 43.1327,-10.969 67.1439,-1.3968 -21.0663,-24.318 -50.0172,-29.1023 -87.4659,-14.9118 -44.493,16.8599 17.6099,16.5876 17.6099,16.5876 z"
       id="path4248-5"
       inkscape:connector-curvature="0"
       sodipodi:nodetypes="ccscc" />
    <path
       style="fill:#ffffff;fill-opacity:1;stroke:none;stroke-width:0.656533"
       d="m 2186.6362,2529.7013 c -20.2714,-4.5023 -28.068,-8.6829 -24.4295,-11.2559 -33.9462,-21.5129 -5.0712,-41.3861 -1.0396,-43.737 -0.011,-1.592 -10.9154,0.6431 -12.4746,-0.643 -1.5593,-1.2869 10.7022,-12.0255 8.6232,-12.6686 -2.0793,-0.6437 -46.567,3.9856 -53.3241,1.0911 -6.7572,-2.8945 -3.1188,-10.2913 -5.1978,-10.6129 -2.0791,-0.3215 -21.311,1.6078 -23.9099,1.2862 -2.5987,-0.3215 -7.2767,-9.9691 -9.8756,-10.2907 -2.599,-0.3215 -14.5539,4.1808 -16.633,3.8592 -2.0791,-0.3216 -1.0395,-8.3614 -3.6384,-8.6829 -2.599,-0.3216 -14.034,6.753 -15.5934,6.4315 -1.5593,-0.3216 -7.2769,-16.4013 -9.8758,-17.3659 -2.599,-0.9647 -19.2317,17.6874 -20.7911,18.0089 -1.5593,0.3222 -11.4351,-21.8681 -13.5143,-22.1897 -2.0791,-0.3215 -12.4746,15.1152 -14.0339,14.7936 -1.5594,-0.3216 -11.4352,-9.3267 -13.5142,-9.9698 -2.0791,-0.643 -15.5934,19.9389 -17.6725,19.9389 -2.0792,0 -19.7516,-8.6829 -21.3109,-10.2907 -1.5594,-1.6083 -3.1187,8.3615 -5.1978,8.3615 -2.0791,0 -25.9889,-5.7891 -26.5088,-5.4676 -0.5197,0.3216 3.6386,6.4322 2.0792,6.4322 -1.5593,0 -25.9888,-8.0398 -27.0285,-6.4322 -1.0395,1.6084 -53.0173,-8.0398 -56.6558,-6.7536 -3.6385,1.2868 23.3901,26.371 20.7912,28.3009 -2.5989,1.9292 -11.955,-0.3215 -12.4748,0.6431 -0.5197,0.9646 5.7176,5.1453 4.1584,6.4315 -1.5595,1.2868 -19.2319,6.4321 -20.7912,8.0399 -1.5594,1.6083 7.7966,5.789 5.7176,6.7536 -2.0792,0.9653 -32.7463,7.0753 -33.2659,8.6836 -0.5198,1.6078 15.5934,9.326 13.5142,11.5768 -2.0791,2.2515 -7.7967,3.2161 -7.2769,4.8245 0.5198,1.6077 10.3957,3.5376 9.8758,5.1453 -0.5197,1.6077 -5.7175,9.6483 -7.2768,10.9344 -1.5594,1.2862 10.9153,0.6431 10.9153,1.9293 0,1.2868 -0.9181,20.6031 -19.3844,32.291 32.2989,-7.7421 45.8931,-3.9901 63.0458,-1.4178 17.1527,2.573 10.3955,18.6528 12.9944,19.6174 2.5988,0.9652 21.8307,-5.4669 24.4296,-3.2161 2.5989,2.2515 3.6384,6.4321 5.7176,6.4321 2.079,0 14.034,-9.0045 16.6328,-8.6829 2.5989,0.3215 27.0285,14.472 30.6671,14.7935 3.6384,0.3216 17.6723,-5.4675 20.7911,-5.789 3.1187,-0.3216 5.7174,7.7183 8.3164,7.0752 2.5989,-0.6431 19.2318,-6.4321 21.8305,-5.789 2.599,0.6437 4.6781,3.216 6.7573,2.573 2.079,-0.6432 11.4351,-3.2161 11.4351,-3.2161 0,0 6.7571,1.9299 9.8757,1.9299 3.1187,0 24.4295,-10.6129 27.0285,-11.256 2.5989,-0.6431 29.2801,10.9614 27.7207,12.8907 3.3116,-8.4443 19.3137,-13.7539 22.6978,-14.1768 3.6384,-0.9653 14.5538,1.9292 15.5933,0.9646 1.0396,-0.9646 4.1582,-6.1106 7.2769,-6.4322 3.1187,-0.3215 10.3956,-1.6077 10.3956,-1.6077 l -1.0395,-1.9298 c 0,0 21.8306,5.1459 24.4296,7.0751 2.5988,1.93 -1.5594,-8.3614 -3.1188,-10.9343 9.356,2.5729 36.9043,8.0398 38.9833,9.6482 2.0792,1.6077 -3.6383,-5.789 -6.757,-8.0399 4.1582,0.9646 7.7967,1.2862 7.7967,1.2862 l -11.955,-7.7183 3.6386,-0.6431 c 0,0 -7.7967,-3.5376 -7.7967,-5.1453 0,-1.6084 20.2712,-3.5376 20.2712,-3.5376 0,0 -8.3164,-2.8945 -6.2373,-4.5023 2.0792,-1.6083 7.277,-2.573 7.277,-2.573 l 1.0394,-4.1807 z"
       id="path5888-3"
       inkscape:connector-curvature="0"
       sodipodi:nodetypes="cccccsscccccccsccscscsccsccccccsccscscssccsccscscccccccsccccccsccccc" />
  </g>
  <g
     inkscape:groupmode="layer"
     id="layer1"
     inkscape:label="txt">
    <text
       xml:space="preserve"
       style="font-style:normal;font-variant:normal;font-weight:normal;font-stretch:normal;font-size:80px;line-height:1.25;font-family:Lavi;-inkscape-font-specification:Lavi;letter-spacing:0px;word-spacing:0px;fill:#ffffff;fill-opacity:1;stroke:#ffffff;stroke-width:0.668774;stroke-miterlimit:4;stroke-dasharray:none;stroke-opacity:1;filter:url(#filter4375-4-1-1-1-9-5-8-8-5-5-3-3-3-0)"
       id="text4580-6-0-0-0-9-3-3-2-0"
       transform="matrix(1.1484433,-0.31259721,-0.62973044,2.2133476,1615.3614,-1809.1372)"
       x="-607.91235"
       y="1245.0809"><tspan
         id="tspan1534-6"
         style="font-size:61.3371px"><tspan
   id="tspan882"
   style="font-size:71.8115px">DR</tspan><tspan
   style="font-size:66.5743px"
   id="tspan1814">Z</tspan>OO !!</tspan></text>
    <text
       xml:space="preserve"
       style="font-style:normal;font-variant:normal;font-weight:normal;font-stretch:normal;font-size:45px;line-height:1.25;font-family:Lavi;-inkscape-font-specification:Lavi;text-align:center;letter-spacing:0px;word-spacing:0px;text-anchor:middle;fill:#000000;fill-opacity:1;stroke:none"
       x="829.04907"
       y="178.81442"
       id="text4246-3-2-2-6-3-7-9-3-3-56-9-3-20"><tspan
         style="font-size:45px"
         sodipodi:role="line"
         x="836.21216"
         y="178.81442"
         id="tspan218">Je vais ben… t’és </tspan><tspan
         style="font-size:45px"
         sodipodi:role="line"
         x="829.04907"
         y="235.06442"
         id="tspan5521">rendue aossi caley</tspan><tspan
         style="font-size:45px"
         sodipodi:role="line"
         x="829.04907"
         y="291.31442"
         id="tspan5523"> come yeuz d’avant</tspan><tspan
         style="font-size:45px"
         sodipodi:role="line"
         x="829.04907"
         y="347.56442"
         id="tspan5525"> tai hardi pus vite</tspan><tspan
         style="font-size:45px"
         sodipodi:role="line"
         x="836.21216"
         y="403.81442"
         id="tspan5527">qe je ne sonjaes... </tspan></text>
    <text
       xml:space="preserve"
       style="font-style:normal;font-variant:normal;font-weight:normal;font-stretch:normal;font-size:45px;line-height:1.25;font-family:Lavi;-inkscape-font-specification:Lavi;text-align:center;letter-spacing:0px;word-spacing:0px;text-anchor:middle;fill:#000000;fill-opacity:1;stroke:none"
       x="1290.303"
       y="1014.1287"
       id="text4246-3-2-2-6-3-7-9-3-3-56-9-3-20-3"><tspan
         style="font-size:45px"
         sodipodi:role="line"
         x="1297.4661"
         y="1014.1287"
         id="tspan133">Ça hâte mez </tspan><tspan
         style="font-size:45px"
         sodipodi:role="line"
         x="1290.303"
         y="1070.3787"
         id="tspan5534">envizeys maez ella</tspan><tspan
         style="font-size:45px"
         sodipodi:role="line"
         x="1290.303"
         y="1126.6287"
         id="tspan5536"> ét ben adnouviao</tspan></text>
    <text
       xml:space="preserve"
       style="font-style:normal;font-variant:normal;font-weight:normal;font-stretch:normal;font-size:45px;line-height:1.25;font-family:Lavi;-inkscape-font-specification:Lavi;text-align:center;letter-spacing:0px;word-spacing:0px;text-anchor:middle;fill:#000000;fill-opacity:1;stroke:none"
       x="1729.1007"
       y="191.33838"
       id="text4246-3-2-2-6-3-7-9-3-3-56-9-3-20-3-2"><tspan
         style="font-size:45px"
         sodipodi:role="line"
         x="1729.1007"
         y="191.33838"
         id="tspan994-7">Tez envizeys ?</tspan></text>
    <text
       xml:space="preserve"
       style="font-style:normal;font-variant:normal;font-weight:normal;font-stretch:normal;font-size:45px;line-height:1.25;font-family:Lavi;-inkscape-font-specification:Lavi;text-align:center;letter-spacing:0px;word-spacing:0px;text-anchor:middle;fill:#000000;fill-opacity:1;stroke:none"
       x="2030.2909"
       y="250.40437"
       id="text4246-3-2-2-6-3-7-9-3-3-56-9-3-20-3-2-0"><tspan
         style="font-size:45px"
         sodipodi:role="line"
         x="2030.2909"
         y="250.40437"
         id="tspan233">tout ça taet pour</tspan><tspan
         style="font-size:45px"
         sodipodi:role="line"
         x="2030.2909"
         y="306.65436"
         id="tspan5547"> m’assaeyer don aloure</tspan><tspan
         style="font-size:45px"
         sodipodi:role="line"
         x="2030.2909"
         y="362.90436"
         id="tspan5549"> e n’a ren a vair od</tspan><tspan
         style="font-size:45px"
         sodipodi:role="line"
         x="2030.2909"
         y="419.15436"
         id="tspan5551"> mon tardement ?</tspan></text>
    <text
       xml:space="preserve"
       style="font-style:normal;font-variant:normal;font-weight:normal;font-stretch:normal;font-size:45px;line-height:1.25;font-family:Lavi;-inkscape-font-specification:Lavi;text-align:center;letter-spacing:0px;word-spacing:0px;text-anchor:middle;fill:#000000;fill-opacity:1;stroke:none"
       x="2179.271"
       y="1053.5718"
       id="text4246-3-2-2-6-3-7-9-3-3-56-9-3-20-3-2-0-3"><tspan
         style="font-size:42.5px"
         sodipodi:role="line"
         x="2179.271"
         y="1053.5718"
         id="tspan5555">Tu n’nas du vice</tspan><tspan
         style="font-size:42.5px"
         sodipodi:role="line"
         x="2179.271"
         y="1109.8218"
         id="tspan5559">den la toupiy !</tspan></text>
    <text
       xml:space="preserve"
       style="font-style:normal;font-variant:normal;font-weight:normal;font-stretch:normal;font-size:45px;line-height:1.25;font-family:Lavi;-inkscape-font-specification:Lavi;text-align:center;letter-spacing:0px;word-spacing:0px;text-anchor:middle;fill:#000000;fill-opacity:1;stroke:none"
       x="314.83337"
       y="1631.6757"
       id="text4246-3-2-2-6-3-7-9-3-3-56-9-3-20-3-2-0-3-1"><tspan
         style="font-size:45px"
         sodipodi:role="line"
         x="314.83337"
         y="1631.6757"
         id="tspan1224">Ha...</tspan></text>
    <text
       xml:space="preserve"
       style="font-style:normal;font-variant:normal;font-weight:normal;font-stretch:normal;font-size:45px;line-height:1.25;font-family:Lavi;-inkscape-font-specification:Lavi;text-align:center;letter-spacing:0px;word-spacing:0px;text-anchor:middle;fill:#000000;fill-opacity:1;stroke:none"
       x="327.27063"
       y="1708.0287"
       id="text4246-3-2-2-6-3-7-9-3-3-56-9-3-20-3-2-0-3-1-2"><tspan
         style="font-size:45px"
         sodipodi:role="line"
         x="327.27063"
         y="1708.0287"
         id="tspan1224-2">ha.</tspan></text>
    <text
       xml:space="preserve"
       style="font-style:normal;font-variant:normal;font-weight:normal;font-stretch:normal;font-size:51.75510025px;line-height:1.25;font-family:Lavi;-inkscape-font-specification:Lavi;text-align:center;letter-spacing:0px;word-spacing:0px;text-anchor:middle;fill:#000000;fill-opacity:1;stroke:none;stroke-width:1.15011001"
       x="1262.6477"
       y="1284.0323"
       id="text4246-3-2-2-6-3-7-9-3-3-56-9-3-20-3-3"
       transform="matrix(1,0,-0.12506286,1,0,0)"><tspan
         style="font-style:normal;font-variant:normal;font-weight:bold;font-stretch:normal;font-size:51.75510025px;font-family:Lavi;-inkscape-font-specification:'Lavi Bold';stroke-width:1.15011001"
         sodipodi:role="line"
         x="1262.6477"
         y="1284.0323"
         id="tspan237">QHI QE V’ÉTE A</tspan><tspan
         style="font-style:normal;font-variant:normal;font-weight:bold;font-stretch:normal;font-size:51.75510025px;font-family:Lavi;-inkscape-font-specification:'Lavi Bold';stroke-width:1.15011001"
         sodipodi:role="line"
         x="1262.6477"
         y="1348.7262"
         id="tspan5563"> LAOMER, VOUZAOTRS ?</tspan></text>
    <text
       xml:space="preserve"
       style="font-style:normal;font-variant:normal;font-weight:normal;font-stretch:normal;font-size:47.46429825px;line-height:1.25;font-family:Lavi;-inkscape-font-specification:Lavi;text-align:center;letter-spacing:0px;word-spacing:0px;text-anchor:middle;fill:#000000;fill-opacity:1;stroke:none;stroke-width:1.05475998"
       x="1461.5524"
       y="1443.9385"
       id="text4246-3-2-2-6-3-7-9-3-3-56-9-3-20-3-3-2"
       transform="matrix(1,0,-0.12506286,1,0,0)"><tspan
         style="font-style:normal;font-variant:normal;font-weight:bold;font-stretch:normal;font-size:47.46429825px;font-family:Lavi;-inkscape-font-specification:'Lavi Bold';stroke-width:1.05475998"
         sodipodi:role="line"
         x="1461.5524"
         y="1443.9385"
         id="tspan5580">JE VIENZ QE DE ME FAERE ATAQER,</tspan><tspan
         style="font-style:normal;font-variant:normal;font-weight:bold;font-stretch:normal;font-size:47.46429825px;font-family:Lavi;-inkscape-font-specification:'Lavi Bold';stroke-width:1.05475998"
         sodipodi:role="line"
         x="1461.5524"
         y="1503.2688"
         id="tspan5588">E VOUZ RESTEZ CHOMAE LA ?!</tspan><tspan
         style="font-style:normal;font-variant:normal;font-weight:bold;font-stretch:normal;font-size:47.46429825px;font-family:Lavi;-inkscape-font-specification:'Lavi Bold';stroke-width:1.05475998"
         sodipodi:role="line"
         x="1461.5524"
         y="1562.5992"
         id="tspan5584"> EMPOGNEZ-LAZ !!!</tspan></text>
    <text
       xml:space="preserve"
       style="font-style:normal;font-variant:normal;font-weight:normal;font-stretch:normal;font-size:55.07120132px;line-height:1.25;font-family:Lavi;-inkscape-font-specification:Lavi;text-align:center;letter-spacing:0px;word-spacing:0px;text-anchor:middle;fill:#000000;fill-opacity:1;stroke:none;stroke-width:1.22379005"
       x="618.62585"
       y="2207.3679"
       id="text4246-3-2-2-6-3-7-9-3-3-56-9-3-20-3-3-2-7"
       transform="matrix(0.99725425,0,-0.12471947,1.0027533,0,0)"><tspan
         style="font-style:normal;font-variant:normal;font-weight:bold;font-stretch:normal;font-size:47.5px;font-family:Lavi;-inkscape-font-specification:'Lavi Bold';stroke-width:1.22379005"
         sodipodi:role="line"
         x="618.62585"
         y="2207.3679"
         id="tspan150">JE LAZ VEUS</tspan><tspan
         style="font-style:normal;font-variant:normal;font-weight:bold;font-stretch:normal;font-size:47.5px;font-family:Lavi;-inkscape-font-specification:'Lavi Bold';stroke-width:1.22379005"
         sodipodi:role="line"
         x="618.62585"
         y="2266.7429"
         id="tspan5592"> TOUTE</tspan><tspan
         style="font-style:normal;font-variant:normal;font-weight:bold;font-stretch:normal;font-size:47.5px;font-family:Lavi;-inkscape-font-specification:'Lavi Bold';stroke-width:1.22379005"
         sodipodi:role="line"
         x="618.62585"
         y="2326.1179"
         id="tspan5594">EN VIY !</tspan></text>
    <text
       xml:space="preserve"
       style="font-style:normal;font-variant:normal;font-weight:normal;font-stretch:normal;font-size:56px;line-height:1.25;font-family:Lavi;-inkscape-font-specification:Lavi;text-align:center;letter-spacing:0px;word-spacing:0px;text-anchor:middle;fill:#000000;fill-opacity:1;stroke:none;stroke-width:1.57727003"
       x="1546.9048"
       y="2006.6577"
       id="text4246-3-2-2-6-3-7-9-3-3-56-9-3-20-3-3-2-7-2"
       transform="matrix(0.89307378,0,-0.11169036,1.1197283,0,0)"><tspan
         style="font-style:normal;font-variant:normal;font-weight:bold;font-stretch:normal;font-size:50.00000036px;font-family:Lavi;-inkscape-font-specification:'Lavi Bold';stroke-width:1.57727003"
         sodipodi:role="line"
         x="1546.9048"
         y="2006.6577"
         id="tspan1414-3">HAPEZ-LAZ !!!</tspan></text>
    <text
       xml:space="preserve"
       style="font-style:normal;font-variant:normal;font-weight:normal;font-stretch:normal;font-size:45px;line-height:1.25;font-family:Lavi;-inkscape-font-specification:Lavi;text-align:center;letter-spacing:0px;word-spacing:0px;text-anchor:middle;fill:#000000;fill-opacity:1;stroke:none"
       x="1165.3292"
       y="2482.3032"
       id="text4246-3-2-2-6-3-7-9-3-3-56-9-3-20-3-2-0-3-19"><tspan
         style="font-size:45px"
         sodipodi:role="line"
         x="1165.3292"
         y="2482.3032"
         id="tspan171">Shichimi,</tspan><tspan
         style="font-size:45px"
         sodipodi:role="line"
         x="1172.4923"
         y="2538.5532"
         id="tspan5605"> je n’en </tspan><tspan
         style="font-size:45px"
         sodipodi:role="line"
         x="1165.3292"
         y="2594.8032"
         id="tspan5607">ercaozerom</tspan><tspan
         style="font-size:45px"
         sodipodi:role="line"
         x="1165.3292"
         y="2651.0532"
         id="tspan5609"> ûne aotr</tspan><tspan
         style="font-size:45px"
         sodipodi:role="line"
         x="1165.3292"
         y="2707.3032"
         id="tspan5611"> fais !</tspan></text>
    <text
       xml:space="preserve"
       style="font-style:normal;font-variant:normal;font-weight:normal;font-stretch:normal;font-size:45px;line-height:1.25;font-family:Lavi;-inkscape-font-specification:Lavi;text-align:center;letter-spacing:0px;word-spacing:0px;text-anchor:middle;fill:#000000;fill-opacity:1;stroke:none"
       x="1978.2208"
       y="2267.5603"
       id="text4246-3-2-2-6-3-7-9-3-3-56-9-3-20-3-2-0-3-19-8-3"><tspan
         style="font-size:42.5px"
         sodipodi:role="line"
         x="1978.2208"
         y="2267.5603"
         id="tspan188">Je sei admao, Carote,</tspan><tspan
         style="font-size:42.5px"
         sodipodi:role="line"
         x="1978.2208"
         y="2323.8103"
         id="tspan5624">maez j’om de decanilher</tspan><tspan
         style="font-size:42.5px"
         sodipodi:role="line"
         x="1978.2208"
         y="2380.0603"
         id="tspan5626"> a la grande vitesse,</tspan><tspan
         style="font-size:42.5px"
         sodipodi:role="line"
         x="1978.2208"
         y="2436.3103"
         id="tspan5628"> un coup de pus.</tspan></text>
    <text
       xml:space="preserve"
       style="font-style:normal;font-variant:normal;font-weight:normal;font-stretch:normal;font-size:45px;line-height:1.25;font-family:Lavi;-inkscape-font-specification:Lavi;text-align:center;letter-spacing:0px;word-spacing:0px;text-anchor:middle;fill:#000000;fill-opacity:1;stroke:none"
       x="1974.8418"
       y="2505.3699"
       id="text4246-3-2-2-6-3-7-9-3-3-56-9-3-20-3-2-0-3-19-8"><tspan
         style="font-size:42.5px"
         sodipodi:role="line"
         x="1981.6069"
         y="2505.3699"
         id="tspan1046">Croche </tspan><tspan
         style="font-size:42.5px"
         sodipodi:role="line"
         x="1974.8418"
         y="2558.4949"
         id="tspan5636">den mai !</tspan></text>
    <text
       xml:space="preserve"
       style="font-style:normal;font-variant:normal;font-weight:normal;font-stretch:normal;font-size:6.99764px;line-height:0%;font-family:Lavi;-inkscape-font-specification:Lavi;letter-spacing:0px;word-spacing:0px;fill:#000000;fill-opacity:1;stroke:#000000;stroke-width:6.65341;stroke-miterlimit:4;stroke-dasharray:none;stroke-opacity:1;paint-order:stroke fill markers"
       x="1234.3364"
       y="2988.7241"
       id="text4580-25"
       transform="matrix(0.70061135,-0.52267462,0.27429036,1.222697,0,0)"><tspan
         sodipodi:role="line"
         id="tspan4582-4"
         x="1234.3364"
         y="2988.7241"
         style="font-size:40.8195px;line-height:100%;letter-spacing:2.84772px;fill:#ffffff;stroke:#000000;stroke-width:6.65341;stroke-miterlimit:4;stroke-dasharray:none;stroke-opacity:1;paint-order:stroke fill markers"><tspan
           style="font-size:46.8842px;line-height:100%;letter-spacing:2.84772px;stroke:#000000;stroke-width:6.65341;stroke-miterlimit:4;stroke-dasharray:none;stroke-opacity:1;paint-order:stroke fill markers"
           id="tspan4617-9">Tap !</tspan></tspan></text>
    <text
       xml:space="preserve"
       style="font-style:normal;font-variant:normal;font-weight:normal;font-stretch:normal;font-size:6.12727px;line-height:0%;font-family:Lavi;-inkscape-font-specification:Lavi;letter-spacing:0px;word-spacing:0px;fill:#000000;fill-opacity:1;stroke:#000000;stroke-width:5.82585;stroke-miterlimit:4;stroke-dasharray:none;stroke-opacity:1;paint-order:stroke fill markers"
       x="1244.6915"
       y="2939.7729"
       id="text4580-25-6"
       transform="matrix(0.70061135,-0.52267462,0.27429036,1.222697,0,0)"><tspan
         sodipodi:role="line"
         id="tspan4582-4-1"
         x="1244.6915"
         y="2939.7729"
         style="font-size:35.7423px;line-height:100%;letter-spacing:2.49352px;fill:#ffffff;stroke:#000000;stroke-width:5.82585;stroke-miterlimit:4;stroke-dasharray:none;stroke-opacity:1;paint-order:stroke fill markers"><tspan
           style="font-size:41.0527px;line-height:100%;letter-spacing:2.49352px;stroke:#000000;stroke-width:5.82585;stroke-miterlimit:4;stroke-dasharray:none;stroke-opacity:1;paint-order:stroke fill markers"
           id="tspan4617-9-0">Tap !</tspan></tspan></text>
    <text
       xml:space="preserve"
       style="font-style:normal;font-variant:normal;font-weight:normal;font-stretch:normal;font-size:80px;line-height:1.25;font-family:Lavi;-inkscape-font-specification:Lavi;letter-spacing:0px;word-spacing:0px;fill:#ffffff;fill-opacity:1;stroke:#ffffff;stroke-width:0.668774;stroke-miterlimit:4;stroke-dasharray:none;stroke-opacity:1;filter:url(#filter4375-4-1-1-1-9-5-8-8-5-5-3-3-3-0-6)"
       id="text4580-6-0-0-0-9-3-3-2-0-3"
       transform="matrix(1.2199315,-0.31719701,-0.66892978,2.2459164,3443.4589,177.24169)"
       x="-607.91235"
       y="1245.0809"><tspan
         id="tspan1534-6-7"
         style="font-size:61.3371px"><tspan
   style="font-size:66.5743px"
   id="tspan1814-4">Ziioo</tspan>OO !!</tspan></text>
  </g>
</svg>
