<?xml version="1.0" encoding="UTF-8" standalone="no"?>
<!-- Created with Inkscape (http://www.inkscape.org/) -->

<svg
   xmlns:dc="http://purl.org/dc/elements/1.1/"
   xmlns:cc="http://creativecommons.org/ns#"
   xmlns:rdf="http://www.w3.org/1999/02/22-rdf-syntax-ns#"
   xmlns:svg="http://www.w3.org/2000/svg"
   xmlns="http://www.w3.org/2000/svg"
   xmlns:xlink="http://www.w3.org/1999/xlink"
   xmlns:sodipodi="http://sodipodi.sourceforge.net/DTD/sodipodi-0.dtd"
   xmlns:inkscape="http://www.inkscape.org/namespaces/inkscape"
   id="svg2"
   version="1.1"
   inkscape:version="0.92.3 (2405546, 2018-03-11)"
   width="2481"
   height="3503"
   sodipodi:docname="E29P04.svg">
  <metadata
     id="metadata8">
    <rdf:RDF>
      <cc:Work
         rdf:about="">
        <dc:format>image/svg+xml</dc:format>
        <dc:type
           rdf:resource="http://purl.org/dc/dcmitype/StillImage" />
        <dc:title />
      </cc:Work>
    </rdf:RDF>
  </metadata>
  <defs
     id="defs6">
    <filter
       style="color-interpolation-filters:sRGB"
       id="filter4375-4-1-1-1-9"
       inkscape:label="deevad outline effect">
      <feFlood
         id="feFlood4377-7-9-0-8-1"
         flood-opacity="1"
         flood-color="rgb(0,0,0)"
         result="flood" />
      <feComposite
         id="feComposite4379-3-8-8-2-77"
         in2="SourceGraphic"
         in="flood"
         operator="in"
         result="composite1" />
      <feMorphology
         id="feMorphology4393-1-0-49-8-9"
         operator="dilate"
         radius="3.5"
         result="result3" />
      <feComposite
         id="feComposite4385-9-5-7-0-8"
         in2="result3"
         in="SourceGraphic"
         operator="over"
         result="composite2" />
    </filter>
  </defs>
  <sodipodi:namedview
     pagecolor="#ffffff"
     bordercolor="#666666"
     borderopacity="1"
     objecttolerance="10"
     gridtolerance="10"
     guidetolerance="10"
     inkscape:pageopacity="0"
     inkscape:pageshadow="2"
     inkscape:window-width="1920"
     inkscape:window-height="1022"
     id="namedview4"
     showgrid="false"
     inkscape:zoom="0.47935747"
     inkscape:cx="1405.0078"
     inkscape:cy="2161.7619"
     inkscape:window-x="0"
     inkscape:window-y="0"
     inkscape:window-maximized="1"
     inkscape:current-layer="layer1"
     inkscape:snap-global="false" />
  <g
     inkscape:groupmode="layer"
     id="layer2"
     inkscape:label="artwork"
     sodipodi:insensitive="true">
    <image
       xlink:href="../gfx_Pepper-and-Carrot_by-David-Revoy_E29P04.png"
       y="0"
       x="0"
       id="image10"
       height="3503"
       width="2481" />
  </g>
  <g
     inkscape:groupmode="layer"
     id="layer3"
     inkscape:label="speechbubbles">
    <path
       style="color:#000000;display:inline;overflow:visible;visibility:visible;fill:#ffffff;fill-opacity:1;fill-rule:nonzero;stroke:none;stroke-width:1.04955101px;marker:none;enable-background:accumulate"
       d="m 1747.0092,131.66677 c 33.7996,-20.7887 474.1459,-33.60842 535.2312,11.33117 38.7625,28.51696 23.5955,136.36118 -25.8983,157.0258 -58.249,24.32008 -383.8083,17.72915 -465.6866,4.17313 -77.8988,-12.89719 -80.7765,-57.07257 -84.7052,-99.98655 -1.6034,-17.51494 7.2592,-51.75478 41.0589,-72.54355 z"
       id="path4040-4-0"
       inkscape:connector-curvature="0"
       sodipodi:nodetypes="zssssz" />
    <path
       style="fill:#ffffff;stroke:none"
       d="m 2131.7915,445.1527 c 52.0797,-62.97217 40.5599,-106.89763 -10.3849,-161.57773 -30.8676,-33.13074 -53.0957,-49.56362 -53.0957,-49.56362 l 44.4365,-11.17106 49.9606,31.26438 c 0,0 89.2487,110.10775 -30.9165,191.04803 z"
       id="path3063"
       inkscape:connector-curvature="0"
       sodipodi:nodetypes="cscccc" />
    <path
       style="color:#000000;display:inline;overflow:visible;visibility:visible;fill:#ffffff;fill-opacity:1;fill-rule:nonzero;stroke:none;stroke-width:0.89347708px;marker:none;enable-background:accumulate"
       d="m 1735.695,970.18403 c 1.246,-28.03525 -3.4309,-61.11181 29.7605,-104.65775 23.6306,-31.00266 50.6906,-31.09877 150.0568,-33.22158 91.6721,-4.42675 171.3073,55.05462 145.5376,156.37916 -2.8273,82.08904 -116.9857,74.32644 -140.8414,77.69654 -23.8557,3.3702 -138.2416,2.3888 -160.8482,-24.0982 -14.1513,-16.58 -23.5421,-37.8236 -23.6653,-72.09817 z"
       id="path4546-6"
       inkscape:connector-curvature="0"
       sodipodi:nodetypes="csccssc" />
    <path
       style="color:#000000;display:inline;overflow:visible;visibility:visible;fill:#ffffff;fill-opacity:1;fill-rule:nonzero;stroke:none;stroke-width:1px;marker:none;enable-background:accumulate"
       d="m 2058.949,780.54364 c 9.1284,42.15323 9.9229,57.84514 -32.0252,91.28724 -41.9482,33.44204 -30.1382,47.46229 -30.1382,47.46229 l 35.2785,-4.99268 c 0,0 84.878,-77.03313 26.8849,-133.75685 z"
       id="path3072"
       inkscape:connector-curvature="0" />
    <path
       style="color:#000000;display:inline;overflow:visible;visibility:visible;fill:#ffffff;fill-opacity:1;fill-rule:nonzero;stroke:none;stroke-width:1.00893998px;marker:none;enable-background:accumulate"
       d="m 742.3668,180.77898 c 24.54715,-35.34082 231.75328,-73.70115 304.5788,-0.87112 72.8255,72.83004 28.6526,160.22615 -13.1326,188.03391 -41.78504,27.80788 -164.75266,58.26407 -220.86403,34.42878 -56.11148,-23.83529 -99.81873,-59.46442 -102.67202,-132.41826 -1.16452,-29.77538 7.54258,-53.83237 32.08985,-89.17331 z"
       id="path4040"
       inkscape:connector-curvature="0"
       sodipodi:nodetypes="zssssz" />
    <path
       style="color:#000000;display:inline;overflow:visible;visibility:visible;fill:#ffffff;fill-opacity:1;fill-rule:nonzero;stroke:none;stroke-width:1px;marker:none;enable-background:accumulate"
       d="m 927.43282,520.21555 c 19.56717,-37.91334 24.33095,-91.92051 -16.62461,-116.94423 -32.00795,-36.20829 -9.67863,-17.32971 -9.67863,-17.32971 l 32.39871,9.54307 c 0,0 63.63839,61.67926 -6.09547,124.73087 z"
       id="path3072-1"
       inkscape:connector-curvature="0"
       sodipodi:nodetypes="ccccc" />
    <path
       style="fill:#ffffff;fill-opacity:1;fill-rule:evenodd;stroke:none;stroke-width:1px;stroke-linecap:butt;stroke-linejoin:miter;stroke-opacity:1"
       d="m 486.03269,429.00909 c -11.78237,3.45864 -26.01828,-0.74899 -34.57607,-8.15263 -7.08075,-6.68721 -17.01074,-13.3491 -17.7254,-21.98808 -0.78596,-9.91947 5.94499,-20.77271 -3.71288,-30.02739 -13.46238,-8.53432 -21.51604,-13.91901 -21.93366,-27.44905 -0.49458,-11.53162 5.57886,-22.67415 13.3064,-30.91503 6.46417,-5.69346 3.23184,-13.76292 -2.09911,-19.92549 -5.60383,-9.86661 -9.69639,-22.86862 0.75239,-30.68782 6.77543,-3.72535 14.18016,-5.01355 14.81032,-12.81183 1.74931,-10.85262 -6.17753,-20.78415 -7.49577,-31.53175 -6.3628,-10.72007 -2.8158,-39.81777 3.97176,-48.54931 5.04743,-6.06044 9.4892,-13.78623 21.16176,-13.93988 19.78178,-4.26035 47.13873,-2.23397 58.0381,-14.54687 7.12631,-6.99684 11.66176,-17.02823 25.03867,-18.85348 15.57743,-2.47843 30.87547,10.42367 45.07772,15.18682 13.85078,-10.36049 38.82264,-8.81162 46.36526,1.57953 4.18125,5.86329 23.50859,31.58085 24.60387,38.10889 4.07654,13.01954 -8.46305,35.1769 3.00617,46.49479 12.21903,8.19818 7.02444,27.91799 4.47032,38.44049 -3.66397,8.3406 2.16895,17.01373 3.53145,25.64816 2.3945,9.20505 -5.21523,19.20189 -3.36057,28.40299 5.23226,13.78778 11.10413,26.16521 6.10877,40.43019 -1.94079,12.46165 -3.38695,17.57342 -16.19914,24.41239 -4.18961,3.06174 -6.5178,8.81564 -7.63289,13.5487 -3.89219,11.6257 -7.1651,17.31781 -17.10219,27.30395 -8.57523,7.39843 -24.28097,9.1082 -37.41406,5.25094 -10.18808,-1.82229 -21.37158,-8.10109 -31.26965,-5.67643 -12.7847,5.27537 -16.21615,22.49725 -32.82987,20.94606 -8.87349,-0.86603 -15.42343,-6.38555 -24.05201,-7.97123 -4.21484,-1.11979 -8.51324,-2.00888 -12.83953,-2.72723 z"
       id="path4367"
       inkscape:connector-curvature="0"
       sodipodi:nodetypes="ccccccccccccccccccccccccccccccc" />
    <path
       style="fill:#ffffff;stroke:none;stroke-width:1"
       d="m 481.33413,569.27983 c -26.16799,-11.86997 -29.23382,-39.59074 -20.73941,-48.80022 8.49436,-9.2095 12.7305,-19.1347 12.40759,-27.59531 -0.32293,-8.46061 -5.50646,-17.21425 -10.12026,-24.21281 -4.61385,-6.99861 0.88784,-16.71803 5.41776,-24.19003 4.52995,-7.47208 25.74725,-46.21168 25.74725,-46.21168 0,0 -33.81232,12.14437 -40.8764,20.86652 -7.0641,8.72215 -8.88284,16.10827 -10.78771,20.43039 -1.90487,4.32223 -5.43175,20.28888 -2.44001,28.74234 2.99167,8.45347 10.76629,15.12526 14.36709,20.98686 3.60084,5.86151 2.03948,12.29665 -2.9751,20.77153 -5.01458,8.47491 -9.53561,29.71668 2.24235,44.7525 6.98238,8.91376 16.67122,13.76389 27.75685,14.45991 z"
       id="path3023"
       inkscape:connector-curvature="0"
       sodipodi:nodetypes="csssscssssssc"
       inkscape:transform-center-x="-13.368944"
       inkscape:transform-center-y="102.37524" />
    <path
       style="fill:#ffffff;fill-opacity:1;fill-rule:evenodd;stroke:none;stroke-width:1.06732416px;stroke-linecap:butt;stroke-linejoin:miter;stroke-opacity:1"
       d="m 150.66487,245.1395 c -5.79206,-9.48004 1.39884,-21.37536 7.13211,-25.58589 6.42753,-7.83119 14.68565,-7.76853 22.40363,-7.17992 7.67766,1.54018 13.30603,-6.00348 18.29141,-13.80163 7.89065,-10.11786 19.3479,-13.58997 28.65929,-6.21161 6.92028,5.02948 14.92276,11.21273 22.50809,5.44301 9.04582,-5.83922 20.56004,-10.94867 29.29148,-1.31177 6.21125,11.19177 16.52363,6.43307 24.12218,2.01646 9.75981,-5.18111 20.44142,-8.32661 30.52218,-3.30203 6.68399,2.94091 14.9733,4.37628 18.27081,15.45641 3.98009,12.13478 8.26193,26.62038 17.58319,30.2571 6.59787,3.1405 16.08895,5.04338 17.74994,17.67553 -0.19334,11.27265 -3.68675,22.38821 -6.86389,32.20624 -9.39343,12.72067 -23.80101,2.93829 -35.73026,6.46064 -7.8,2.26834 -14.19832,15.81962 -27.23653,17.57372 -18.05433,2.93838 -21.72666,-8.08714 -32.68569,-2.68333 -12.92394,5.05011 -16.45515,-1.03883 -28.70038,8.05389 -13.94377,8.4493 -30.3487,5.71094 -42.5837,-7.86889 -5.25111,-6.74897 -17.54194,2.4983 -24.22848,3.78888 -8.93158,0.45544 -13.51391,2.62296 -20.11112,-8.97196 -5.28858,-8.26966 -3.86593,-5.6549 -7.3887,-14.85208 -3.68296,-9.08052 -12.23691,-11.05677 -14.80815,-21.7997 -1.96953,-8.87878 4.86047,-16.07715 3.80259,-25.36307 z"
       id="path4367-3"
       inkscape:connector-curvature="0"
       sodipodi:nodetypes="ccccccccccccccccccccccc" />
    <path
       style="opacity:1;fill:#ffffff;fill-rule:evenodd;stroke:none;stroke-width:0.99999994px;stroke-linecap:butt;stroke-linejoin:miter;stroke-opacity:1"
       d="m 309.34922,457.71798 c -15.64979,-24.8542 8.77501,-47.91607 8.58626,-62.92677 -0.19481,-15.49635 -40.69805,-21.31418 -41.62679,-35.6781 -0.92874,-14.36402 24.25197,-42.90833 22.3945,-65.352 -1.85748,-22.44378 -33.11728,-22.62637 -30.33094,3.4084 2.78634,26.03475 -20.58525,41.20496 -15.67743,61.79602 8.18516,34.34048 37.35935,31.20382 47.00302,40.86297 6.38476,6.395 -4.2802,22.87728 -1.49386,38.139 2.78634,15.26172 11.14524,19.75048 11.14524,19.75048 z"
       id="path4272"
       inkscape:connector-curvature="0"
       sodipodi:nodetypes="csssssssc" />
    <path
       style="color:#000000;display:inline;overflow:visible;visibility:visible;fill:#ffffff;fill-opacity:1;fill-rule:nonzero;stroke:none;stroke-width:1.00563073px;marker:none;enable-background:accumulate"
       d="m 2035.1564,993.10516 c -1.1672,-20.68945 16.6147,-51.74483 50.2071,-64.60522 49.8989,-19.10304 74.6672,-11.34735 116.8754,-10.46848 39.2085,0.8164 101.9598,7.34077 134.9028,30.35362 25.4856,17.80335 41.1629,45.63381 35.3263,67.36812 -5.8363,21.7342 -22.0937,50.9796 -65.7662,56.9752 -46.8391,6.4303 -124.9252,0.9856 -169.5721,2.1513 -39.9311,1.0426 -64.201,-6.3925 -85.2121,-21.7343 -21.3011,-15.5535 -15.5938,-39.3509 -16.7612,-60.04024 z"
       id="path3373"
       inkscape:connector-curvature="0"
       sodipodi:nodetypes="zsssssssz" />
    <path
       style="fill:#ffffff;fill-rule:evenodd;stroke:none;stroke-width:1.07383847px;stroke-linecap:butt;stroke-linejoin:miter;stroke-opacity:1"
       d="m 864.48452,1223.5898 c 40.88157,3.4907 100.74566,-13.0192 67.69466,-65.5744 65.21245,26.313 118.63882,45.8066 221.10482,-27.7326 -8.6718,81.4659 37.9691,73.8546 80.0168,58.2141 -40.3542,27.4139 32.083,43.1229 71.0477,44.6628 -82.4261,59.2943 -38.0186,67.3435 -1.0419,76.7065 -74.2578,-3.5532 -67.0365,32.0871 -51.9716,52.0996 -69.4902,-42.8941 -167.2575,-17.5824 -156.577,12.5816 -31.002,-17.3709 -55.5493,-64.3702 -132.52604,4.554 28.30632,-59.5014 -8.79694,-53.2559 -68.86757,-23.9247 9.41436,-20.2671 65.36828,-51.086 -28.87987,-47.8499 58.8691,-19.2669 71.21426,-45.3663 0,-83.737 z"
       id="path4584"
       inkscape:connector-curvature="0"
       sodipodi:nodetypes="cccccccccccc" />
    <path
       style="color:#000000;display:inline;overflow:visible;visibility:visible;fill:#ffffff;fill-opacity:1;fill-rule:nonzero;stroke:none;stroke-width:1px;marker:none;enable-background:accumulate"
       d="m 1284.4552,1484.7539 c -74.0623,-16.7815 -162.4554,-85.4407 -173.3256,-102.2336 5.7646,-4.0191 72.5018,-4.3109 72.5018,-4.3109 -25.8476,-20.7242 -129.727,-70.2911 -122.0213,-64.8466 -4.5243,-14.4638 68.3453,-13.6441 68.3453,-13.6441 0,0 96.3576,81.9196 112.2383,92.2829 -16.3671,10.5299 -65.2194,8.0221 -73.0419,9.9521 2.0894,11.1694 89.3696,76.2156 115.3034,82.8002 z"
       id="path4456"
       inkscape:connector-curvature="0"
       sodipodi:nodetypes="cccccccc" />
  </g>
  <g
     inkscape:groupmode="layer"
     id="layer1"
     inkscape:label="txt">
    <text
       xml:space="preserve"
       style="font-style:normal;font-variant:normal;font-weight:normal;font-stretch:normal;line-height:0%;font-family:Lavi;-inkscape-font-specification:Lavi;text-align:center;letter-spacing:0px;word-spacing:0px;text-anchor:middle;fill:#000000;fill-opacity:1;stroke:none"
       x="263.90179"
       y="248.97723"
       id="text4246"><tspan
         sodipodi:role="line"
         style="font-size:37.33333206px;line-height:1.20000005"
         x="263.90179"
         y="248.97723"
         id="tspan4252">A dhiamh</tspan><tspan
         sodipodi:role="line"
         style="font-size:37.33333206px;line-height:1.20000005"
         x="263.90179"
         y="293.77722"
         id="tspan1106">mhòir!</tspan></text>
    <text
       xml:space="preserve"
       style="font-style:normal;font-variant:normal;font-weight:normal;font-stretch:normal;line-height:0%;font-family:Lavi;-inkscape-font-specification:Lavi;text-align:center;letter-spacing:0px;word-spacing:0px;text-anchor:middle;fill:#000000;fill-opacity:1;stroke:none"
       x="542.30475"
       y="203.26083"
       id="text4246-3"><tspan
         sodipodi:role="line"
         style="font-size:37.33333206px;line-height:1.20000005"
         x="542.30475"
         y="203.26083"
         id="tspan847">Ceachhh!</tspan><tspan
         sodipodi:role="line"
         style="font-size:37.33333206px;line-height:1.20000005"
         x="548.13806"
         y="248.06084"
         id="tspan886">Bha an rud </tspan><tspan
         sodipodi:role="line"
         style="font-size:37.33333206px;line-height:1.20000005"
         x="548.13806"
         y="292.86084"
         id="tspan77">seo ann </tspan><tspan
         sodipodi:role="line"
         style="font-size:37.33333206px;line-height:1.20000005"
         x="548.13806"
         y="337.66083"
         id="tspan79">am beul </tspan><tspan
         sodipodi:role="line"
         style="font-size:37.33333206px;line-height:1.20000005"
         x="542.30475"
         y="382.46085"
         id="tspan81">cuideigin!</tspan></text>
    <text
       xml:space="preserve"
       style="font-style:normal;font-variant:normal;font-weight:normal;font-stretch:normal;line-height:0%;font-family:Lavi;-inkscape-font-specification:Lavi;text-align:center;letter-spacing:0px;word-spacing:0px;text-anchor:middle;fill:#000000;fill-opacity:1;stroke:none"
       x="896.47461"
       y="202.70126"
       id="text4246-9"><tspan
         sodipodi:role="line"
         style="font-size:45px;line-height:1.20000005"
         x="896.47461"
         y="202.70126"
         id="tspan922">Hà hà!</tspan><tspan
         sodipodi:role="line"
         style="font-size:45px;line-height:1.20000005"
         x="903.50586"
         y="256.70126"
         id="tspan96">Iongantach </tspan><tspan
         sodipodi:role="line"
         style="font-size:45px;line-height:1.20000005"
         x="903.50586"
         y="310.70126"
         id="tspan98">mar as àbhaist, </tspan><tspan
         sodipodi:role="line"
         style="font-size:45px;line-height:1.20000005"
         x="896.47461"
         y="364.70126"
         id="tspan100">a Pheabar!</tspan></text>
    <text
       xml:space="preserve"
       style="font-style:normal;font-variant:normal;font-weight:normal;font-stretch:normal;line-height:0%;font-family:Lavi;-inkscape-font-specification:Lavi;text-align:center;letter-spacing:0px;word-spacing:0px;text-anchor:middle;fill:#000000;fill-opacity:1;stroke:none"
       x="2004.7734"
       y="179.92598"
       id="text4246-9-2"><tspan
         sodipodi:role="line"
         style="font-size:45px;line-height:1.20000005"
         x="2011.8047"
         y="179.92598"
         id="tspan926">Ceart ma-thà, a Pheabar, </tspan><tspan
         sodipodi:role="line"
         style="font-size:45px;line-height:1.20000005"
         x="2011.8047"
         y="233.92598"
         id="tspan104">mòran taing airson a’ </tspan><tspan
         sodipodi:role="line"
         style="font-size:45px;line-height:1.20000005"
         x="2004.7734"
         y="287.92599"
         id="tspan106">“mhìneachaidh” seo.</tspan></text>
    <text
       xml:space="preserve"
       style="font-style:normal;font-variant:normal;font-weight:normal;font-stretch:normal;line-height:0%;font-family:Lavi;-inkscape-font-specification:Lavi;text-align:center;letter-spacing:0px;word-spacing:0px;text-anchor:middle;fill:#000000;fill-opacity:1;stroke:none"
       x="1892.3481"
       y="910.52747"
       id="text4246-9-2-6"><tspan
         sodipodi:role="line"
         style="font-size:45px;line-height:1.20000005"
         x="1899.3794"
         y="910.52747"
         id="tspan913">Saoil an </tspan><tspan
         sodipodi:role="line"
         style="font-size:45px;line-height:1.20000005"
         x="1899.3794"
         y="964.52747"
         id="tspan113">dèid sinn </tspan><tspan
         sodipodi:role="line"
         style="font-size:45px;line-height:1.20000005"
         x="1892.3481"
         y="1018.5275"
         id="tspan115">innte a-nis?</tspan></text>
    <text
       xml:space="preserve"
       style="font-style:normal;font-variant:normal;font-weight:normal;font-stretch:normal;font-size:10.59237862px;line-height:0%;font-family:Lavi;-inkscape-font-specification:Lavi;text-align:center;letter-spacing:0px;word-spacing:0px;text-anchor:middle;fill:#000000;fill-opacity:1;stroke:none;stroke-width:0.99999994"
       x="2200.416"
       y="987.43225"
       id="text4246-3-2"><tspan
         sodipodi:role="line"
         style="font-size:37.33333206px;line-height:1.20000005;stroke-width:0.99999994"
         x="2206.2493"
         y="987.43225"
         id="tspan899">’S gun nigh </tspan><tspan
         sodipodi:role="line"
         style="font-size:37.33333206px;line-height:1.20000005;stroke-width:0.99999994"
         x="2200.416"
         y="1032.2323"
         id="tspan122">cuideigin a làmh.</tspan></text>
    <text
       xml:space="preserve"
       style="font-style:normal;font-variant:normal;font-weight:normal;font-stretch:normal;line-height:0%;font-family:Lavi;-inkscape-font-specification:Lavi;text-align:center;letter-spacing:0px;word-spacing:0px;text-anchor:middle;fill:#000000;fill-opacity:1;stroke:none"
       x="1084.2517"
       y="1249.4321"
       id="text4246-9-2-6-2"><tspan
         sodipodi:role="line"
         style="font-size:45px;line-height:1.20000005"
         x="1084.2517"
         y="1249.4321"
         id="tspan957">Hoigh!</tspan><tspan
         sodipodi:role="line"
         style="font-size:45px;line-height:1.20000005"
         x="1084.2517"
         y="1303.4321"
         id="tspan134">Fuirichibh orm!</tspan></text>
    <text
       xml:space="preserve"
       style="font-style:normal;font-variant:normal;font-weight:normal;font-stretch:normal;font-size:14.62346077px;line-height:0%;font-family:Lavi;-inkscape-font-specification:Lavi;text-align:center;letter-spacing:0px;word-spacing:0px;text-anchor:middle;fill:#ffffff;fill-opacity:0.78431373;stroke:none;stroke-width:0.99999994"
       x="1387.7701"
       y="2189.5938"
       id="text4246-7"
       transform="matrix(0.79017753,-0.5292546,0.38466968,1.0078897,0,0)"><tspan
         sodipodi:role="line"
         style="font-style:normal;font-variant:normal;font-weight:bold;font-stretch:normal;font-size:58.49384308px;line-height:1.20000005;font-family:Lavi;-inkscape-font-specification:'Lavi Bold';fill:#ffffff;fill-opacity:0.78431373;stroke-width:0.82059908"
         x="1387.7701"
         y="2189.5938"
         id="tspan4252-5"> Caith!</tspan></text>
    <text
       xml:space="preserve"
       style="font-style:normal;font-variant:normal;font-weight:normal;font-stretch:normal;font-size:11.79470253px;line-height:0%;font-family:Lavi;-inkscape-font-specification:Lavi;text-align:center;letter-spacing:0px;word-spacing:0px;text-anchor:middle;fill:#ffffff;fill-opacity:0.78431373;stroke:none;stroke-width:0.99999994"
       x="-562.12823"
       y="2433.7947"
       id="text4246-7-9"
       transform="matrix(0.80236382,-0.52121629,0.39060214,0.99258189,0,0)"><tspan
         sodipodi:role="line"
         style="font-style:normal;font-variant:normal;font-weight:bold;font-stretch:normal;font-size:47.17881012px;line-height:1.20000005;font-family:Lavi;-inkscape-font-specification:'Lavi Bold';fill:#ffffff;fill-opacity:0.78431373;stroke-width:0.82059908"
         x="-562.12823"
         y="2433.7947"
         id="tspan4252-5-2">Boc!</tspan></text>
    <text
       xml:space="preserve"
       style="font-style:normal;font-variant:normal;font-weight:normal;font-stretch:normal;font-size:11.79470253px;line-height:0%;font-family:Lavi;-inkscape-font-specification:Lavi;text-align:center;letter-spacing:0px;word-spacing:0px;text-anchor:middle;fill:#ffffff;fill-opacity:0.78431373;stroke:none;stroke-width:0.99999994"
       x="-363.09036"
       y="2526.7615"
       id="text4246-7-9-2"
       transform="matrix(0.80236382,-0.52121629,0.39060214,0.99258189,0,0)"><tspan
         sodipodi:role="line"
         style="font-style:normal;font-variant:normal;font-weight:bold;font-stretch:normal;font-size:47.17881012px;line-height:1.20000005;font-family:Lavi;-inkscape-font-specification:'Lavi Bold';fill:#ffffff;fill-opacity:0.78431373;stroke-width:0.82059908"
         x="-363.09036"
         y="2526.7615"
         id="tspan4252-5-2-8">Boc!</tspan></text>
    <text
       xml:space="preserve"
       style="font-style:normal;font-variant:normal;font-weight:normal;font-stretch:normal;line-height:0%;font-family:Lavi;-inkscape-font-specification:Lavi;letter-spacing:0px;word-spacing:0px;fill:#000000;fill-opacity:1;stroke:none;stroke-width:0;stroke-miterlimit:4;stroke-dasharray:none;stroke-opacity:1;filter:url(#filter4375-4-1-1-1-9)"
       x="787.65729"
       y="1584.5073"
       id="text4580"
       transform="matrix(1.0562812,-1.0457132,0.34852463,1.662996,-176.82337,824.6776)"><tspan
         sodipodi:role="line"
         id="tspan4582"
         x="787.65729"
         y="1584.5073"
         style="font-size:70px;line-height:1.25;fill:#ffffff;stroke:none;stroke-width:0;stroke-miterlimit:4;stroke-dasharray:none">B<tspan
   style="font-size:56.01517868px;stroke:none;stroke-width:0;stroke-miterlimit:4;stroke-dasharray:none"
   id="tspan1119">AS</tspan><tspan
   style="font-size:80.40014648px;stroke:none;stroke-width:0;stroke-miterlimit:4;stroke-dasharray:none"
   id="tspan4617">!</tspan></tspan></text>
    <text
       xml:space="preserve"
       style="font-style:normal;font-variant:normal;font-weight:normal;font-stretch:normal;font-size:15.75232887px;line-height:0%;font-family:Lavi;-inkscape-font-specification:Lavi;text-align:center;letter-spacing:0px;word-spacing:0px;text-anchor:middle;opacity:1;fill:#ffffff;fill-opacity:0.84180789;stroke:none;stroke-width:0.99999994"
       x="1881.7031"
       y="2489.1436"
       id="text4246-7-9-2-3"
       transform="matrix(0.98943475,-0.09116349,0.01957156,1.0088748,0,0)"><tspan
         sodipodi:role="line"
         style="font-style:normal;font-variant:normal;font-weight:bold;font-stretch:normal;font-size:63.00931549px;line-height:1.20000005;font-family:Lavi;-inkscape-font-specification:'Lavi Bold';fill:#ffffff;fill-opacity:0.84180789;stroke-width:0.82059902"
         x="1881.7031"
         y="2489.1436"
         id="tspan4252-5-2-8-6">?</tspan></text>
  </g>
</svg>
