<?xml version="1.0" encoding="UTF-8" standalone="no"?>
<!-- Created with Inkscape (http://www.inkscape.org/) -->

<svg
   id="svg2"
   version="1.1"
   inkscape:version="1.1.1 (3bf5ae0d25, 2021-09-20, custom)"
   width="2481"
   height="3503"
   sodipodi:docname="E32P02.svg"
   xmlns:inkscape="http://www.inkscape.org/namespaces/inkscape"
   xmlns:sodipodi="http://sodipodi.sourceforge.net/DTD/sodipodi-0.dtd"
   xmlns:xlink="http://www.w3.org/1999/xlink"
   xmlns="http://www.w3.org/2000/svg"
   xmlns:svg="http://www.w3.org/2000/svg"
   xmlns:rdf="http://www.w3.org/1999/02/22-rdf-syntax-ns#"
   xmlns:cc="http://creativecommons.org/ns#"
   xmlns:dc="http://purl.org/dc/elements/1.1/">
  <metadata
     id="metadata8">
    <rdf:RDF>
      <cc:Work
         rdf:about="">
        <dc:format>image/svg+xml</dc:format>
        <dc:type
           rdf:resource="http://purl.org/dc/dcmitype/StillImage" />
        <dc:title />
      </cc:Work>
    </rdf:RDF>
  </metadata>
  <defs
     id="defs6" />
  <sodipodi:namedview
     pagecolor="#ffffff"
     bordercolor="#666666"
     borderopacity="1"
     objecttolerance="10"
     gridtolerance="10"
     guidetolerance="10"
     inkscape:pageopacity="0"
     inkscape:pageshadow="2"
     inkscape:window-width="1888"
     inkscape:window-height="1146"
     id="namedview4"
     showgrid="false"
     inkscape:zoom="0.32526913"
     inkscape:cx="968.42883"
     inkscape:cy="1956.8411"
     inkscape:window-x="32"
     inkscape:window-y="0"
     inkscape:window-maximized="1"
     inkscape:current-layer="layer1"
     inkscape:snap-global="false"
     inkscape:pagecheckerboard="0" />
  <g
     inkscape:groupmode="layer"
     id="layer2"
     inkscape:label="artwork"
     sodipodi:insensitive="true">
    <image
       xlink:href="../gfx_Pepper-and-Carrot_by-David-Revoy_E32P02.png"
       y="0"
       x="0"
       id="image10"
       height="3503.4727"
       width="2481" />
  </g>
  <g
     inkscape:groupmode="layer"
     id="layer3"
     inkscape:label="speechbubbles"
     style="display:inline">
    <path
       style="color:#000000;display:inline;overflow:visible;visibility:visible;fill:#ffffff;fill-opacity:1;fill-rule:nonzero;stroke:none;stroke-width:1.18457925px;marker:none;enable-background:accumulate"
       d="m 327.98468,229.40392 c 7.99464,-11.91191 41.70881,-10.35714 53.6405,-6.88777 -22.60003,-15.76338 -20.3091,-24.29557 13.70619,-23.01859 -52.54556,-29.32322 -6.85733,-21.96956 3.32446,-27.58853 -43.07677,-12.03499 -21.39679,-21.19366 -11.71183,-31.23081 -51.08716,-4.31913 -31.52358,-20.09598 -31.42931,-33.85861 -5.39187,6.04503 -29.20586,23.87538 -26.86627,2.15371 -37.24577,18.01788 -80.20029,28.19627 -77.4602,-8.16064 -16.63734,17.11068 -31.4981,23.73765 -26.86636,2.1537 -38.43707,25.56728 -67.10884,13.0793 -96.32102,2.75558 -9.42613,7.88519 -12.5228,20.87834 -37.958132,15.81142 2.242274,8.71095 -7.475882,13.82885 -27.826439,15.74111 25.443112,7.12336 29.418261,12.74994 -20.324177,14.63056 37.048764,3.41721 71.495928,7.21359 24.733316,23.12231 13.592568,1.52313 48.687862,-12.05491 25.775692,33.84865 26.00013,-13.25277 52.45561,-19.63185 78.68245,14.36509 17.49427,-14.61943 44.60224,-20.42829 52.57368,0.13771 5.4266,-8.08563 22.68801,-9.94983 36.96137,-9.23486 4.94295,3.76064 9.86059,8.7291 14.79248,15.12224 11.72919,-11.71675 27.58214,-19.01709 52.5736,0.13773 z"
       id="path3549-3-7-5"
       inkscape:connector-curvature="0"
       sodipodi:nodetypes="cccccccccccccccccccc" />
    <path
       style="color:#000000;display:inline;overflow:visible;visibility:visible;fill:#ffffff;fill-opacity:1;fill-rule:nonzero;stroke:none;stroke-width:0.848235px;marker:none;enable-background:accumulate"
       d="m 497.62863,110.43571 c -45.60468,1.17075 -91.57231,8.03028 -132.91755,23.94666 -28.56832,11.80456 -47.75783,35.88377 -51.6335,61.25842 -4.63064,23.82987 -4.97952,61.1771 8.41288,82.89037 8.33636,13.51584 21.1138,29.54553 36.35499,36.76601 25.12965,12.07568 63.837,10.11988 94.81474,10.19235 34.45655,0.0807 60.83602,-2.27276 94.20831,-3.47601 30.04843,-1.80658 74.89731,-4.70714 100.43295,-17.99705 27.83914,-14.16771 41.4659,-41.93715 49.40633,-67.84173 7.12124,-22.75947 4.35281,-48.01997 -10.77286,-68.38082 -12.18432,-16.16733 -32.62638,-27.22568 -54.21939,-34.0024 -36.7762,-11.99952 -75.41421,-21.46998 -115.27632,-23.17681 -6.26302,-0.26767 -12.54164,-0.36045 -18.81058,-0.17899 z"
       id="path3970-3"
       inkscape:connector-curvature="0"
       sodipodi:nodetypes="cccscsccccccc" />
    <path
       style="color:#000000;display:inline;overflow:visible;visibility:visible;fill:#ffffff;fill-opacity:1;fill-rule:nonzero;stroke:none;stroke-width:1px;marker:none;enable-background:accumulate"
       d="m 569.95974,414.52711 c 24.15675,-46.43871 15.15598,-67.79787 10.19676,-83.83511 -5.04081,0.18752 -14.08073,-1.23448 -14.08073,-1.23448 0,0 -7.00281,-32.37916 -13.50272,-43.8635 -6.49993,-11.48435 -19.9552,-4.33851 -19.9552,-4.33851 0,0 12.13026,63.2638 10.96525,77.57434 13.78917,-1.09946 20.70461,0.20644 25.45323,-2.31613 5.66701,8.19382 8.96155,41.29633 0.92341,58.01339 z"
       id="path4456-8"
       inkscape:connector-curvature="0" />
    <path
       style="color:#000000;display:inline;overflow:visible;visibility:visible;opacity:1;fill:#ffffff;fill-opacity:1;fill-rule:nonzero;stroke:none;stroke-width:0.714424px;marker:none;enable-background:accumulate"
       d="m 832.01168,612.59629 c 26.7525,-29.95782 188.36392,-39.36406 231.88602,8.82366 30.3305,33.58164 22.4918,86.46772 -7.3672,114.74553 -28.9334,27.40116 -151.50978,21.48657 -187.18262,12.94863 -32.07896,-7.67684 -65.75052,-24.20192 -67.52576,-68.18418 -0.72445,-17.95046 3.43707,-38.37583 30.18956,-68.33364 z"
       id="path4040-5"
       inkscape:connector-curvature="0"
       sodipodi:nodetypes="zssssz" />
    <path
       style="color:#000000;display:inline;overflow:visible;visibility:visible;fill:#ffffff;fill-opacity:1;fill-rule:nonzero;stroke:none;stroke-width:1px;marker:none;enable-background:accumulate"
       d="m 1170.0348,612.07829 c -22.426,10.78245 -21.9205,17.27525 -23.5228,31.76828 -1.6032,14.49315 -6.5002,31.6111 -27.1248,48.30404 -30.1996,17.58679 -94.1328,69.98654 -71.7029,5.83439 5.3345,-23.46958 48.5109,-22.99772 64.4153,-32.38817 15.9045,-9.39055 14.6245,-34.55514 25.6984,-44.48017 11.0738,-9.92492 18.2375,-9.80409 32.2368,-9.03837 z"
       id="path4538-0"
       inkscape:connector-curvature="0"
       sodipodi:nodetypes="ccccccc" />
    <path
       style="fill:#ffffff;stroke:none;stroke-width:1"
       d="m 756.05473,530.38172 c -8.49811,-38.80164 14.62297,-88.11058 118.3853,-88.14796 108.97067,-0.0389 129.09427,25.32295 130.34437,89.39769 1.5946,81.72984 -59.84346,84.82282 -124.19822,86.44662 -98.87092,2.49471 -123.99904,-30.03767 -124.53145,-87.69635 z"
       id="path3280-10"
       inkscape:connector-curvature="0"
       sodipodi:nodetypes="csssc" />
    <path
       style="display:inline;fill:#ffffff;fill-rule:evenodd;stroke:none;stroke-width:1.03896308px;stroke-linecap:butt;stroke-linejoin:miter;stroke-opacity:1"
       d="m 1415.7856,2558.7383 c 1.2342,83.556 -39.7167,98.1743 -111.6086,62.2285 22.0128,50.8236 47.6635,105.7613 -8.7536,67.8848 36.5151,46.1464 21.0864,57.7631 -30.6377,45.2558 45.8838,42.4785 20.1158,66.0928 -24.0724,84.8555 29.621,0.6495 53.7048,3.6856 71.9854,9.2207 -30.6865,12.3695 -56.4977,11.9323 -56.4977,11.9323 0,0 29.5279,9.4949 42.9115,21.61 5.097,8.6293 -1.2707,19.5993 -28.2648,2.4279 0,0 7.6366,10.8395 10.8561,16.8816 -8.6339,-1.392 -15.7886,-6.5084 -39.6917,-22.5706 27.329,27.9782 40.8604,49.5137 1.7224,46.461 18.7017,20.7761 5.3541,23.3642 -16.0695,21.3652 35.6454,15.2284 16.4156,17.3687 21.8315,22.7402 40.1197,45.6384 -10.0015,28.0498 -27.2476,37.4766 88.0695,28.4818 57.3368,40.1481 48.0964,54.8574 60.7261,-4.1188 -14.3055,49.8315 -33.9084,87.9182 46.2339,-34.7278 78.4083,-57.5369 59.4609,-10.0041 50.0622,-42.059 41.4556,-22.1564 27.4878,3.4082 28.7518,-22.9597 37.16,-13.5217 12.226,49.0117 37.2711,-50.0042 73.5365,-96.7046 81.5128,-50.3144 41.8191,-23.0015 47.3157,-12.9656 51.1724,-1.4414 70.6021,-24.759 52.3497,-4.4182 56.8605,4.3711 15.2134,-1.1098 33.5053,-15.4504 39.5873,22.6914 23.4461,-28.2308 51.5839,-38.275 93.41,4.7304 16.2836,-46.7456 31.1002,-37.1935 57.3432,21.3223 3.6668,-89.1587 44.2457,-102.7342 111.8954,-60.8731 -18.3959,-55.2759 -31.2102,-62.5172 21.3149,-19.3574 -32.7369,-51.0007 -17.0933,-62.6312 32.3558,-46.7539 -42.0389,-47.5497 -15.6679,-71.4639 28.2913,-89.3008 -22.7557,-1.7028 -42.0432,-4.8342 -57.7399,-9.4472 -0.9459,-2.69 6.6725,-10.5879 29.7807,-13.5832 -32.4163,0 -29.0115,-4.1096 -27.3054,-14.0612 2.5883,-9.9516 15.0054,-7.4757 54.4293,-0.9377 -22.9959,-14.4681 -66.9845,-30.8829 -18.5623,-33.9063 -25.2989,-12.7672 -16.2201,-37.4375 42.2914,-5.5331 -29.6638,-24.8715 -44.7814,-44.3728 -4.3768,-43.3711 -20.391,-18.5446 -6.8163,-21.5953 15.3189,-20.7402 -37.4975,-12.554 -17.8496,-15.4673 -23.7183,-20.2344 -43.8035,-40.7819 8.7069,-26.7052 25.9066,-36.3379 -92.1324,-22.4665 -61.195,-34.8334 -52.5216,-49.0273 -62.1943,6.7273 32.2317,-74.4218 67.8405,-122.5704 -71.1868,65.1359 -115.2883,96.2647 -98.4781,50.9141 -49.1029,41.7047 -41.3733,22.6848 -28.4494,-1.8848 -28.2679,22.8335 -37.4411,14.4049 -15.3187,-45.2578 -35.5078,48.5294 -70.1682,93.9211 -80.971,50.9141 -41.6986,23.4915 -47.9104,14.3665 -52.5218,3.7715 -71.1882,26.498 -53.5664,6.6097 -58.6967,-1.3965 -15.577,1.7582 -33.5771,16.037 -41.9699,-19.3457 -22.5178,27.512 -50.8799,38.2388 -96.2897,0 -14.1161,44.4881 -37.9181,24.2932 -72.2174,-66 z"
       id="path4508-2"
       inkscape:connector-curvature="0"
       sodipodi:nodetypes="ccccccccccccccccccccccccccccccccccccccccccccccccccc" />
    <path
       style="color:#000000;display:inline;overflow:visible;visibility:visible;fill:#ffffff;fill-opacity:1;fill-rule:nonzero;stroke:none;stroke-width:0.99999988px;marker:none;enable-background:accumulate"
       d="m 1159.215,2912.3636 c 24.9289,15.9696 53.0046,32.3355 73.7186,51.7212 l -4.4671,-22.5612 c 12.3017,3.6243 20.5576,9.2984 29.8695,16.4802 l 0.282,-14.4184 c 28.8782,8.8394 47.895,25.3613 71.6781,38.17 l -1.1627,-32.9839 c -26.1704,-10.6456 -58.8089,-18.5611 -82.5747,-33.2158 l 0.2558,18.7223 c -9.1838,-4.1156 -21.518,-9.7867 -29.518,-15.5652 l 2.2339,19.9359 z"
       id="path4032-7"
       inkscape:connector-curvature="0"
       sodipodi:nodetypes="cccccccccccc" />
    <path
       style="fill:#ffffff;fill-rule:evenodd;stroke:none;stroke-width:1px;stroke-linecap:butt;stroke-linejoin:miter;stroke-opacity:1"
       d="m 1753.7087,204.34351 c 1.185,-20.50278 15.4056,-58.09068 36.7365,-64.92493 21.3308,-6.83426 80.5831,-6.83426 92.4336,-3.41661 11.8505,3.41661 30.8112,28.4752 35.5515,38.72712 4.7402,10.25086 17.7757,46.69954 -3.5551,61.50728 -21.3309,14.80774 -42.6617,26.19782 -65.1777,25.0586 -22.5159,-1.13922 -67.5477,-9.1127 -78.2131,-22.78016 -10.6654,-13.66852 -17.7757,-34.1713 -17.7757,-34.1713 z"
       id="path1355"
       inkscape:connector-curvature="0" />
    <path
       style="fill:#ffffff;stroke:none"
       d="m 1847.3696,354.09054 c -13.8328,-28.3217 -7.9502,-36.13851 -0.501,-44.49778 7.4497,-8.36018 15.1632,-15.13458 14.5125,-22.36198 -0.6506,-7.22728 -5.6372,-15.60621 -10.1839,-21.34253 -4.5468,-5.73632 4.0413,-9.66514 7.9076,-16.31667 3.8657,-6.6508 10.7042,-47.80659 10.7042,-47.80659 0,0 -26.0852,17.5715 -32.236,25.43439 -6.1509,7.86277 -8.4405,10.70667 -10.0173,14.51431 -1.5759,3.80696 -4.0646,13.75357 -0.9533,20.82655 3.1118,7.07218 9.494,12.21912 13.0595,17.0376 3.5649,4.81933 -1.3116,12.15392 -5.5827,19.6909 -4.2712,7.53691 -6.1414,13.7099 -2.3508,27.83912 3.2494,12.11102 15.6412,26.98268 15.6412,26.98268 z"
       id="path3023-4"
       inkscape:connector-curvature="0"
       sodipodi:nodetypes="csssscssssssc" />
    <path
       style="color:#000000;display:inline;overflow:visible;visibility:visible;fill:#ffffff;fill-opacity:1;fill-rule:nonzero;stroke:none;stroke-width:1px;marker:none;enable-background:accumulate"
       d="m 1776.3464,1315.529 c 3.2527,-11.321 20.627,-46.387 25.7118,-9.291 37.4381,-49.672 83.6395,-32.169 93.8806,-24.931 -4.7258,-14.705 4.8022,-41.137 32.0153,-34.638 -5.1706,-14.206 2.6362,-24.873 22.022,-32.381 -27.4731,-6.646 -33.2796,-15.291 15.0553,-28.938 -37.6389,2.046 -72.8702,2.901 -32.2408,-33.757 -13.9008,0.297 -43.8343,30.571 -36.8893,-51.608 -21.0909,27.809 -44.9596,44.128 -82.345,-7.637 -7.5628,22.215 -20.6761,37.852 -51.7969,10.837 -3.8196,21.757 -37.5549,26.216 -50.4824,22.884 27.6128,21.802 28.2717,36.657 -5.6527,41.671 61.708,38.345 14.2263,35.6 6.113,47.213 46.5049,11.207 28.2717,31.183 22.1502,50.136 51.7672,-3.483 37.8708,27.229 42.4589,50.44 z"
       id="path3549-3-8"
       inkscape:connector-curvature="0"
       sodipodi:nodetypes="ccccccccccccccc" />
    <path
       style="color:#000000;display:inline;overflow:visible;visibility:visible;fill:#ffffff;fill-opacity:1;fill-rule:nonzero;stroke:none;stroke-width:1px;marker:none;enable-background:accumulate"
       d="m 1862.3291,1246.0499 c 14.3861,24.2296 28.6134,53.9163 31.3484,61.3263 -9.104,1.8541 -16.3446,4.7584 -22.9617,5.3139 6.2417,13.3724 31.8119,68.3466 45.0873,79.3414 -33.7825,-25.8525 -61.563,-70.2493 -70.1237,-92.8544 8.499,-2.3387 14.007,-2.5569 18.4447,-3.9047 -3.7254,-11.4708 -23.6989,-46.1206 -23.6989,-46.1206 z"
       id="path5066-8"
       inkscape:connector-curvature="0"
       sodipodi:nodetypes="cccccccc" />
    <path
       style="fill:#ffffff;stroke:none;stroke-width:0.87212187"
       d="m 621.15833,1483.669 c -1.04459,-27.1718 17.68465,-95.1953 109.04514,-90.0791 91.36053,5.1162 119.95492,35.0056 122.63221,83.3044 4.23525,76.4076 -43.8294,96.826 -112.84595,102.4861 -71.14855,5.8339 -119.93562,-46.6144 -118.8314,-95.7114 z"
       id="path3280-7"
       inkscape:connector-curvature="0"
       sodipodi:nodetypes="csssc" />
    <path
       style="color:#000000;display:inline;overflow:visible;visibility:visible;fill:#ffffff;fill-opacity:1;fill-rule:nonzero;stroke:none;stroke-width:1px;marker:none;enable-background:accumulate"
       d="m 869.08895,1636.9955 c -67.24677,1.2844 -93.00504,-48.0053 -100.0269,-87.4546 -9.92573,-55.7646 -2.09042,-31.0329 -2.09042,-31.0329 l -33.99104,26.0816 c -4.43616,0.2077 36.58553,127.7062 136.10836,92.4059 z"
       id="path3072-12"
       inkscape:connector-curvature="0"
       sodipodi:nodetypes="csccc" />
    <path
       style="fill:#ffffff;fill-rule:evenodd;stroke:none;stroke-width:1.11839px;stroke-linecap:butt;stroke-linejoin:miter;stroke-opacity:1"
       d="m 560.60213,1379.3283 c 1.56106,-16.8476 20.29405,-47.7345 48.39369,-53.3505 28.09948,-5.6158 106.15372,-5.6158 121.76459,-2.8075 15.61088,2.8075 40.58826,23.3989 46.83263,31.8231 6.24438,8.4234 23.41631,38.3742 -4.68318,50.5421 -28.09963,12.1679 -56.19912,21.5274 -85.85982,20.5913 -29.66068,-0.9361 -88.98192,-7.4881 -103.03159,-18.719 -14.04982,-11.2318 -23.41632,-28.0795 -23.41632,-28.0795 z"
       id="path1355-3"
       inkscape:connector-curvature="0" />
  </g>
  <g
     inkscape:groupmode="layer"
     id="layer1"
     inkscape:label="txt">
    <text
       xml:space="preserve"
       style="font-style:normal;font-variant:normal;font-weight:normal;font-stretch:normal;line-height:0%;font-family:Lavi;-inkscape-font-specification:Lavi;text-align:center;letter-spacing:0px;word-spacing:0px;text-anchor:middle;fill:#000000;fill-opacity:1;stroke:none"
       x="218.90935"
       y="178.94955"
       id="text4246-3-3"><tspan
         sodipodi:role="line"
         style="font-style:normal;font-variant:normal;font-weight:bold;font-stretch:normal;font-size:45px;line-height:1.25;font-family:Lavi;-inkscape-font-specification:'Lavi Bold'"
         x="218.90935"
         y="178.94955"
         id="tspan67">	Načelnik!</tspan><tspan
         sodipodi:role="line"
         x="218.90935"
         y="197.86929"
         id="tspan852" /></text>
    <text
       xml:space="preserve"
       style="font-style:normal;font-variant:normal;font-weight:normal;font-stretch:normal;line-height:0%;font-family:Lavi;-inkscape-font-specification:Lavi;text-align:center;letter-spacing:0px;word-spacing:0px;text-anchor:middle;fill:#000000;fill-opacity:1;stroke:none"
       x="502.41983"
       y="163.17314"
       id="text4246-3-5-9"><tspan
         sodipodi:role="line"
         style="font-size:45px;line-height:1.25"
         x="502.41983"
         y="163.17314"
         id="tspan868">Ste kot</tspan><tspan
         sodipodi:role="line"
         style="font-size:45px;line-height:1.25"
         x="502.41983"
         y="219.42314"
         id="tspan2137">je bilo naročeno</tspan><tspan
         sodipodi:role="line"
         style="font-size:45px;line-height:1.25"
         x="502.41983"
         y="275.67313"
         id="tspan72">najeli čarovnico?</tspan></text>
    <text
       xml:space="preserve"
       style="font-style:normal;font-variant:normal;font-weight:normal;font-stretch:normal;line-height:0%;font-family:Lavi;-inkscape-font-specification:Lavi;text-align:center;letter-spacing:0px;word-spacing:0px;text-anchor:middle;fill:#000000;fill-opacity:1;stroke:none"
       x="883.4093"
       y="509.67288"
       id="text4246-1-6"><tspan
         sodipodi:role="line"
         style="font-style:normal;font-variant:normal;font-weight:normal;font-stretch:normal;font-size:45px;line-height:1.25;font-family:Lavi;-inkscape-font-specification:Lavi"
         x="883.4093"
         y="509.67288"
         id="tspan71">Seveda,</tspan><tspan
         sodipodi:role="line"
         style="font-style:normal;font-variant:normal;font-weight:normal;font-stretch:normal;font-size:45px;line-height:1.25;font-family:Lavi;-inkscape-font-specification:Lavi"
         x="883.4093"
         y="565.92285"
         id="tspan915">gospod!</tspan></text>
    <text
       xml:space="preserve"
       style="font-style:normal;font-variant:normal;font-weight:normal;font-stretch:normal;line-height:0%;font-family:Lavi;-inkscape-font-specification:Lavi;text-align:center;letter-spacing:0px;word-spacing:0px;text-anchor:middle;display:inline;fill:#000000;fill-opacity:1;stroke:none"
       x="943.22473"
       y="661.24957"
       id="text4246-7-6-1-7-6-3-5"><tspan
         sodipodi:role="line"
         style="font-size:45px;line-height:1.25"
         x="943.22473"
         y="661.24957"
         id="tspan85">Poleg vas</tspan><tspan
         sodipodi:role="line"
         style="font-size:45px;line-height:1.25"
         x="943.22473"
         y="717.49957"
         id="tspan32860">stoji.</tspan></text>
    <text
       xml:space="preserve"
       style="font-style:normal;font-variant:normal;font-weight:normal;font-stretch:normal;font-size:15.9075px;line-height:0%;font-family:Lavi;-inkscape-font-specification:Lavi;text-align:center;letter-spacing:0px;word-spacing:0px;text-anchor:middle;fill:#000000;fill-opacity:1;stroke:none;stroke-width:1"
       x="1859.6963"
       y="214.15907"
       id="text4246-86-3-3"
       transform="scale(0.98795945,1.0121873)"><tspan
         sodipodi:role="line"
         style="font-size:59.6531px;line-height:1.2;stroke-width:1"
         x="1859.6963"
         y="214.15907"
         id="tspan1044-3"><tspan
           style="font-style:normal;font-variant:normal;font-weight:bold;font-stretch:normal;font-family:Lavi;-inkscape-font-specification:'Lavi Bold';stroke-width:1"
           id="tspan1046-9">...?</tspan></tspan></text>
    <text
       xml:space="preserve"
       style="font-style:normal;font-variant:normal;font-weight:normal;font-stretch:normal;line-height:0%;font-family:Lavi;-inkscape-font-specification:Lavi;text-align:center;letter-spacing:0px;word-spacing:0px;text-anchor:middle;fill:#000000;fill-opacity:1;stroke:none"
       x="678.51379"
       y="1389.9771"
       id="text4246-3-7-7-6-7-2-9-6-1-4"><tspan
         sodipodi:role="line"
         style="font-size:45px;line-height:1.2"
         x="678.51379"
         y="1389.9771"
         id="tspan1183-0">Živjo!</tspan></text>
    <text
       xml:space="preserve"
       style="font-style:normal;font-variant:normal;font-weight:normal;font-stretch:normal;line-height:0%;font-family:Lavi;-inkscape-font-specification:Lavi;text-align:center;letter-spacing:0px;word-spacing:0px;text-anchor:middle;fill:#000000;fill-opacity:1;stroke:none"
       x="739.80792"
       y="1473.9915"
       id="text4246-7-5"><tspan
         sodipodi:role="line"
         style="font-size:45px;line-height:1.25"
         x="739.80792"
         y="1473.9915"
         id="tspan4169-1">Jaz sem </tspan><tspan
         sodipodi:role="line"
         style="font-size:45px;line-height:1.25"
         x="739.80792"
         y="1530.2415"
         id="tspan1089">Pepp...</tspan></text>
    <text
       xml:space="preserve"
       style="font-style:normal;font-variant:normal;font-weight:normal;font-stretch:normal;line-height:0%;font-family:Lavi;-inkscape-font-specification:Lavi;text-align:center;letter-spacing:0px;word-spacing:0px;text-anchor:middle;display:inline;fill:#000000;fill-opacity:1;stroke:none"
       x="2271.7188"
       y="1112.7358"
       id="text4246-2-3-1-3-9-9-7"
       transform="matrix(0.89365154,0,-0.19329856,1.1190044,0,0)"><tspan
         sodipodi:role="line"
         style="font-size:104.296px;line-height:1.25;letter-spacing:-5px"
         x="2269.2188"
         y="1112.7358"
         id="tspan4161-6">?!!</tspan></text>
    <text
       xml:space="preserve"
       style="font-style:normal;font-variant:normal;font-weight:normal;font-stretch:normal;font-size:28.7317px;line-height:0%;font-family:Lavi;-inkscape-font-specification:Lavi;text-align:center;letter-spacing:29.109px;word-spacing:0px;text-anchor:middle;fill:#000000;fill-opacity:1;stroke:none;stroke-width:1"
       x="2299.6943"
       y="2623.665"
       id="text4246-6-6-3-6"
       transform="matrix(0.94427779,0,-0.21829887,1.0590104,0,0)"><tspan
         sodipodi:role="line"
         style="font-style:normal;font-variant:normal;font-weight:bold;font-stretch:normal;font-size:107.744px;line-height:1.2;font-family:Lavi;-inkscape-font-specification:'Lavi Bold';letter-spacing:4px;stroke-width:1"
         x="2301.6943"
         y="2623.665"
         id="tspan4252-00-4-7-3">IDIOT!!!</tspan></text>
    <text
       xml:space="preserve"
       style="font-style:normal;font-variant:normal;font-weight:normal;font-stretch:normal;font-size:14.1147px;line-height:0%;font-family:Lavi;-inkscape-font-specification:Lavi;text-align:center;letter-spacing:14.3px;word-spacing:0px;text-anchor:middle;fill:#000000;fill-opacity:1;stroke:none;stroke-width:1"
       x="1679.411"
       y="2714.5149"
       id="text4246-6-3"
       transform="scale(0.94973823,1.0529217)"><tspan
         sodipodi:role="line"
         style="font-style:normal;font-variant:normal;font-weight:bold;font-stretch:normal;font-size:52.9302px;line-height:1.2;font-family:Lavi;-inkscape-font-specification:'Lavi Bold';letter-spacing:0.9px;stroke-width:1"
         x="1679.411"
         y="2714.5149"
         id="tspan91">Zakaj ste mi pripeljali</tspan><tspan
         sodipodi:role="line"
         style="font-style:normal;font-variant:normal;font-weight:bold;font-stretch:normal;font-size:52.9302px;line-height:1.2;font-family:Lavi;-inkscape-font-specification:'Lavi Bold';letter-spacing:0.9px;stroke-width:1"
         x="1679.861"
         y="2778.0312"
         id="tspan95">to punčaro?!</tspan></text>
    <text
       xml:space="preserve"
       style="font-style:normal;font-variant:normal;font-weight:normal;font-stretch:normal;font-size:14.1147px;line-height:0%;font-family:Lavi;-inkscape-font-specification:Lavi;text-align:center;letter-spacing:14.3px;word-spacing:0px;text-anchor:middle;fill:#000000;fill-opacity:1;stroke:none;stroke-width:1"
       x="1640.3445"
       y="2842.5552"
       id="text4246-6-3-4"
       transform="scale(0.94973823,1.0529217)"><tspan
         sodipodi:role="line"
         style="font-style:normal;font-variant:normal;font-weight:bold;font-stretch:normal;font-size:52.9302px;line-height:1.2;font-family:Lavi;-inkscape-font-specification:'Lavi Bold';letter-spacing:0.9px;stroke-width:1"
         x="1640.3445"
         y="2842.5552"
         id="tspan1142">Potrebujem pravo</tspan><tspan
         sodipodi:role="line"
         style="font-style:normal;font-variant:normal;font-weight:bold;font-stretch:normal;font-size:52.9302px;line-height:1.2;font-family:Lavi;-inkscape-font-specification:'Lavi Bold';letter-spacing:0.9px;stroke-width:1"
         x="1640.7944"
         y="2906.0715"
         id="tspan50074">bojno čarovnico!</tspan></text>
  </g>
</svg>
