<?xml version="1.0" encoding="UTF-8" standalone="no"?>
<svg
   xmlns:dc="http://purl.org/dc/elements/1.1/"
   xmlns:cc="http://creativecommons.org/ns#"
   xmlns:rdf="http://www.w3.org/1999/02/22-rdf-syntax-ns#"
   xmlns:svg="http://www.w3.org/2000/svg"
   xmlns="http://www.w3.org/2000/svg"
   xmlns:xlink="http://www.w3.org/1999/xlink"
   xmlns:sodipodi="http://sodipodi.sourceforge.net/DTD/sodipodi-0.dtd"
   xmlns:inkscape="http://www.inkscape.org/namespaces/inkscape"
   id="svg2"
   version="1.1"
   inkscape:version="1.0.2-2 (e86c870879, 2021-01-15)"
   width="2481"
   height="3503"
   sodipodi:docname="E24P06.svg">
  <metadata
     id="metadata8">
    <rdf:RDF>
      <cc:Work
         rdf:about="">
        <dc:format>image/svg+xml</dc:format>
        <dc:type
           rdf:resource="http://purl.org/dc/dcmitype/StillImage" />
        <dc:title />
      </cc:Work>
    </rdf:RDF>
  </metadata>
  <defs
     id="defs6">
    <filter
       style="color-interpolation-filters:sRGB"
       id="filter4375-4-1-1-1-9"
       inkscape:label="deevad outline effect">
      <feFlood
         id="feFlood4377-7-9-0-8-1"
         flood-opacity="1"
         flood-color="rgb(0,0,0)"
         result="flood" />
      <feComposite
         id="feComposite4379-3-8-8-2-77"
         in2="SourceGraphic"
         in="flood"
         operator="in"
         result="composite1" />
      <feMorphology
         id="feMorphology4393-1-0-49-8-9"
         operator="dilate"
         radius="4"
         result="result3" />
      <feComposite
         id="feComposite4385-9-5-7-0-8"
         in2="result3"
         in="SourceGraphic"
         operator="over"
         result="composite2" />
    </filter>
    <filter
       inkscape:label="deevad trembling effect"
       inkscape:menu="Distort"
       inkscape:menu-tooltip="Paint objects with a transparent turbulence which wraps around color edges"
       height="1.4"
       y="-0.2"
       width="1.4"
       x="-0.2"
       style="color-interpolation-filters:sRGB;"
       id="filter1125">
      <feGaussianBlur
         stdDeviation="0.01"
         result="result10"
         id="feGaussianBlur1107"
         baseFrequency="0.019" />
      <feBlend
         in2="result10"
         mode="normal"
         in="result10"
         result="fbSourceGraphic"
         id="feBlend1109" />
      <feGaussianBlur
         stdDeviation="0.01"
         result="result8"
         in="fbSourceGraphic"
         id="feGaussianBlur1111" />
      <feTurbulence
         seed="0"
         result="result7"
         type="fractalNoise"
         numOctaves="1"
         baseFrequency="0.0040000000000000001"
         id="feTurbulence1113" />
      <feComposite
         in2="result8"
         result="result6"
         operator="in"
         in="result8"
         id="feComposite1115"
         baseFrequency="0.0089999999999999993" />
      <feDisplacementMap
         in2="result6"
         in="result7"
         xChannelSelector="R"
         yChannelSelector="G"
         scale="41.013071895424837"
         result="result4"
         id="feDisplacementMap1117" />
      <feComposite
         in2="result4"
         result="result2"
         operator="arithmetic"
         in="result8"
         k1="1"
         k3="1"
         id="feComposite1119"
         scale="41" />
      <feComposite
         in2="result2"
         result="fbSourceGraphic"
         in="fbSourceGraphic"
         operator="in"
         id="feComposite1121" />
      <feDisplacementMap
         in2="result4"
         yChannelSelector="G"
         scale="49.700000000000003"
         xChannelSelector="R"
         id="feDisplacementMap1123" />
    </filter>
    <filter
       style="color-interpolation-filters:sRGB"
       id="filter4375-4-1-1-1-9-5-8"
       inkscape:label="Drop Shadow">
      <feFlood
         id="feFlood4377-7-9-0-8-1-7-3"
         flood-opacity="1"
         flood-color="rgb(200,55,55)"
         result="flood" />
      <feComposite
         id="feComposite4379-3-8-8-2-77-4-1"
         in2="SourceGraphic"
         in="flood"
         operator="in"
         result="composite1" />
      <feMorphology
         id="feMorphology4393-1-0-49-8-9-3-0"
         operator="dilate"
         radius="6.2000000000000002"
         result="result3" />
      <feComposite
         id="feComposite4385-9-5-7-0-8-8-7"
         in2="result3"
         in="SourceGraphic"
         operator="over"
         result="fbSourceGraphic" />
      <feColorMatrix
         result="fbSourceGraphicAlpha"
         in="fbSourceGraphic"
         values="0 0 0 -1 0 0 0 0 -1 0 0 0 0 -1 0 0 0 0 1 0"
         id="feColorMatrix4544" />
      <feTurbulence
         id="feTurbulence4546"
         type="fractalNoise"
         numOctaves="3"
         seed="37"
         baseFrequency="0.129 0.0050000000000000001"
         result="turbulence" />
      <feDisplacementMap
         id="feDisplacementMap4548"
         in2="turbulence"
         in="fbSourceGraphic"
         scale="6.6"
         yChannelSelector="G"
         xChannelSelector="R"
         result="fbSourceGraphic" />
      <feColorMatrix
         result="fbSourceGraphicAlpha"
         in="fbSourceGraphic"
         values="0 0 0 -1 0 0 0 0 -1 0 0 0 0 -1 0 0 0 0 1 0"
         id="feColorMatrix4670" />
      <feFlood
         id="feFlood4672"
         flood-opacity="1"
         flood-color="rgb(80,22,22)"
         result="flood"
         in="fbSourceGraphic" />
      <feComposite
         id="feComposite4674"
         in2="fbSourceGraphic"
         in="flood"
         operator="in"
         result="composite1" />
      <feGaussianBlur
         id="feGaussianBlur4676"
         in="composite1"
         stdDeviation="0"
         result="blur" />
      <feOffset
         id="feOffset4678"
         dx="6"
         dy="6"
         result="offset" />
      <feComposite
         id="feComposite4680"
         in2="offset"
         in="fbSourceGraphic"
         operator="over"
         result="composite2" />
    </filter>
    <filter
       inkscape:label="deevad trembling effect"
       inkscape:menu="Distort"
       inkscape:menu-tooltip="Paint objects with a transparent turbulence which wraps around color edges"
       height="1.4"
       y="-0.2"
       width="1.4"
       x="-0.2"
       style="color-interpolation-filters:sRGB"
       id="filter1125-2">
      <feGaussianBlur
         stdDeviation="0.01"
         result="result10"
         id="feGaussianBlur1107-0"
         baseFrequency="0.019" />
      <feBlend
         in2="result10"
         mode="normal"
         in="result10"
         result="fbSourceGraphic"
         id="feBlend1109-2" />
      <feGaussianBlur
         stdDeviation="0.01"
         result="result8"
         in="fbSourceGraphic"
         id="feGaussianBlur1111-3" />
      <feTurbulence
         seed="0"
         result="result7"
         type="fractalNoise"
         numOctaves="1"
         baseFrequency="0.0040000000000000001"
         id="feTurbulence1113-7" />
      <feComposite
         in2="result8"
         result="result6"
         operator="in"
         in="result8"
         id="feComposite1115-5"
         baseFrequency="0.0089999999999999993" />
      <feDisplacementMap
         in2="result6"
         in="result7"
         xChannelSelector="R"
         yChannelSelector="G"
         scale="41.013072"
         result="result4"
         id="feDisplacementMap1117-9" />
      <feComposite
         k4="0"
         k2="0"
         in2="result4"
         result="result2"
         operator="arithmetic"
         in="result8"
         k1="1"
         k3="1"
         id="feComposite1119-2"
         scale="41" />
      <feComposite
         in2="result2"
         result="fbSourceGraphic"
         in="fbSourceGraphic"
         operator="in"
         id="feComposite1121-2" />
      <feDisplacementMap
         in2="result4"
         yChannelSelector="G"
         scale="49.7"
         xChannelSelector="R"
         id="feDisplacementMap1123-8" />
    </filter>
    <filter
       inkscape:label="deevad trembling effect"
       inkscape:menu="Distort"
       inkscape:menu-tooltip="Paint objects with a transparent turbulence which wraps around color edges"
       height="1.4"
       y="-0.2"
       width="1.4"
       x="-0.2"
       style="color-interpolation-filters:sRGB"
       id="filter1125-1">
      <feGaussianBlur
         stdDeviation="0.01"
         result="result10"
         id="feGaussianBlur1107-2"
         baseFrequency="0.019" />
      <feBlend
         in2="result10"
         mode="normal"
         in="result10"
         result="fbSourceGraphic"
         id="feBlend1109-9" />
      <feGaussianBlur
         stdDeviation="0.01"
         result="result8"
         in="fbSourceGraphic"
         id="feGaussianBlur1111-31" />
      <feTurbulence
         seed="0"
         result="result7"
         type="fractalNoise"
         numOctaves="1"
         baseFrequency="0.0040000000000000001"
         id="feTurbulence1113-9" />
      <feComposite
         in2="result8"
         result="result6"
         operator="in"
         in="result8"
         id="feComposite1115-4"
         baseFrequency="0.0089999999999999993" />
      <feDisplacementMap
         in2="result6"
         in="result7"
         xChannelSelector="R"
         yChannelSelector="G"
         scale="41.013072"
         result="result4"
         id="feDisplacementMap1117-7" />
      <feComposite
         k4="0"
         k2="0"
         in2="result4"
         result="result2"
         operator="arithmetic"
         in="result8"
         k1="1"
         k3="1"
         id="feComposite1119-8"
         scale="41" />
      <feComposite
         in2="result2"
         result="fbSourceGraphic"
         in="fbSourceGraphic"
         operator="in"
         id="feComposite1121-4" />
      <feDisplacementMap
         in2="result4"
         yChannelSelector="G"
         scale="49.7"
         xChannelSelector="R"
         id="feDisplacementMap1123-5" />
    </filter>
    <filter
       inkscape:label="deevad trembling effect"
       inkscape:menu="Distort"
       inkscape:menu-tooltip="Paint objects with a transparent turbulence which wraps around color edges"
       height="1.4"
       y="-0.2"
       width="1.4"
       x="-0.2"
       style="color-interpolation-filters:sRGB"
       id="filter1125-1-1">
      <feGaussianBlur
         stdDeviation="0.01"
         result="result10"
         id="feGaussianBlur1107-2-0"
         baseFrequency="0.019" />
      <feBlend
         in2="result10"
         mode="normal"
         in="result10"
         result="fbSourceGraphic"
         id="feBlend1109-9-6" />
      <feGaussianBlur
         stdDeviation="0.01"
         result="result8"
         in="fbSourceGraphic"
         id="feGaussianBlur1111-31-3" />
      <feTurbulence
         seed="0"
         result="result7"
         type="fractalNoise"
         numOctaves="1"
         baseFrequency="0.0040000000000000001"
         id="feTurbulence1113-9-2" />
      <feComposite
         in2="result8"
         result="result6"
         operator="in"
         in="result8"
         id="feComposite1115-4-0"
         baseFrequency="0.0089999999999999993" />
      <feDisplacementMap
         in2="result6"
         in="result7"
         xChannelSelector="R"
         yChannelSelector="G"
         scale="41.013072"
         result="result4"
         id="feDisplacementMap1117-7-6" />
      <feComposite
         k4="0"
         k2="0"
         in2="result4"
         result="result2"
         operator="arithmetic"
         in="result8"
         k1="1"
         k3="1"
         id="feComposite1119-8-1"
         scale="41" />
      <feComposite
         in2="result2"
         result="fbSourceGraphic"
         in="fbSourceGraphic"
         operator="in"
         id="feComposite1121-4-5" />
      <feDisplacementMap
         in2="result4"
         yChannelSelector="G"
         scale="49.7"
         xChannelSelector="R"
         id="feDisplacementMap1123-5-5" />
    </filter>
  </defs>
  <sodipodi:namedview
     pagecolor="#ffffff"
     bordercolor="#666666"
     borderopacity="1"
     objecttolerance="10"
     gridtolerance="10"
     guidetolerance="10"
     inkscape:pageopacity="0"
     inkscape:pageshadow="2"
     inkscape:window-width="1366"
     inkscape:window-height="745"
     id="namedview4"
     showgrid="false"
     inkscape:zoom="0.3740595"
     inkscape:cx="1117.2809"
     inkscape:cy="445.26665"
     inkscape:window-x="-8"
     inkscape:window-y="-8"
     inkscape:window-maximized="1"
     inkscape:current-layer="layer3"
     inkscape:document-rotation="0" />
  <g
     inkscape:groupmode="layer"
     id="layer2"
     inkscape:label="artwork"
     sodipodi:insensitive="true">
    <image
       sodipodi:absref="C:\Users\quentinlipeck\Downloads\webcomics-master-ec7d62e6553c2c63bb1cf2e799ee31f9cb9ce5e2\webcomics-master-ec7d62e6553c2c63bb1cf2e799ee31f9cb9ce5e2\ep24_The-Unity-Tree\lang\gfx_Pepper-and-Carrot_by-David-Revoy_E24P06.png"
       xlink:href="../gfx_Pepper-and-Carrot_by-David-Revoy_E24P06.png"
       width="2481"
       height="3503"
       id="image10"
       x="0"
       y="0" />
  </g>
  <g
     inkscape:groupmode="layer"
     id="layer3"
     inkscape:label="speechbubbles"
     style="display:inline">
    <path
       style="color:#000000;display:inline;overflow:visible;visibility:visible;fill:#ffffff;fill-opacity:1;fill-rule:nonzero;stroke:none;stroke-width:0.964964px;marker:none;enable-background:accumulate"
       d="m 1183.6795,513.11257 c -82.7162,0.85282 -205.50017,-14.99685 -233.74099,-70.77103 -28.2407,-55.77421 -30.90282,-147.63755 14.0929,-186.09163 44.99559,-38.45406 126.37549,-58.4133 198.27559,-56.6753 71.8998,1.738 168.1055,29.45857 194.6728,81.81102 26.5674,52.35232 16.1689,172.42837 -73.3258,206.86227 -89.495,34.43405 -99.9745,24.86467 -99.9745,24.86467 z"
       id="path3970"
       inkscape:connector-curvature="0"
       sodipodi:nodetypes="cccscsc" />
    <path
       style="color:#000000;display:inline;overflow:visible;visibility:visible;fill:#ffffff;fill-opacity:1;fill-rule:nonzero;stroke:none;stroke-width:0.932705px;marker:none;enable-background:accumulate"
       d="m 1130.2332,631.46735 c -1.5928,-74.36595 15.0794,-163.97241 178.1125,-173.10608 112.534,-6.30453 217.7626,64.25156 202.1303,150.02691 -13.8862,76.19493 -67.1495,151.29644 -161.125,153.86077 -93.9754,2.56433 -209.561,-17.95051 -219.1178,-130.7816 z"
       id="path3565"
       inkscape:connector-curvature="0"
       sodipodi:nodetypes="csssc" />
    <path
       style="fill:#ffffff;fill-rule:evenodd;stroke:none;stroke-width:1.21478px;stroke-linecap:butt;stroke-linejoin:miter;stroke-opacity:1"
       d="m 1319.5309,224.52905 c -42.637,-1.88303 -104.4668,11.5448 -68.6052,50.296 -78.2989,-25.39403 -188.184,-34.5111 -214.038,7.79105 -4.351,-51.73967 -56.83107,-37.69039 -100.14601,-25.2315 41.22321,-21.24192 -34.59035,-31.70774 -75.17805,-32.16467 84.1094,-45.85796 38.54398,-59.20123 4.12366,-75.339 84.75203,10.92223 63.42969,-13.7893 72.96764,-28.13373 73.50796,30.86852 125.80806,22.34544 166.23546,-8.22912 22.3347,15.86671 30.4092,49.31402 108.579,-3.65542 -27.7896,45.04669 10.6434,39.70893 72.3292,16.67968 -9.2292,15.33945 -66.5896,39.40883 31.3898,35.30341 -60.7175,15.47391 -72.8331,35.23169 2.3425,62.6833 z"
       id="path4584"
       inkscape:connector-curvature="0"
       sodipodi:nodetypes="cccccccccccc" />
    <path
       style="fill:#ffffff;fill-rule:evenodd;stroke:none;stroke-width:1px;stroke-linecap:butt;stroke-linejoin:miter;stroke-opacity:1"
       d="m 1498.9644,721.69787 c 0,0 -18.7783,34.21336 -32.6212,27.91452 -13.843,-6.29892 -20.1572,-51.27318 -20.1572,-51.27318 0,0 -32.4046,35.857 -65.1595,12.26987 -32.7549,-23.58713 -32.8885,-75.08869 -12.3448,-56.25529 20.5438,18.83335 46.1365,71.22989 89.4202,2.96484 3.1607,69.22326 7.7961,64.32775 13.5666,66.07787 5.7706,1.75017 32.6213,-27.91444 40.3036,-37.66207 0.7828,49.71 2.2491,82.99287 66.864,59.24511 -31.5265,23.16855 -74.9291,26.8574 -79.8717,-23.28167 z"
       id="path4394"
       inkscape:connector-curvature="0"
       sodipodi:nodetypes="cscsscsccc" />
    <path
       style="color:#000000;display:inline;overflow:visible;visibility:visible;fill:#ffffff;fill-opacity:1;fill-rule:nonzero;stroke:none;stroke-width:1px;marker:none;enable-background:accumulate"
       d="m 305.70819,2324.3406 c 3.646,-50.9841 54.92648,-89.1272 189.49396,-81.8777 72.08158,3.8832 153.90315,5.8319 149.39762,80.5055 -4.50561,74.6734 -122.07753,74.792 -146.32561,76.9563 -24.24807,2.1645 -150.72738,-3.4677 -173.11298,-28.4549 -14.01287,-15.6412 -19.6739,-31.355 -19.45299,-47.1292 z"
       id="path4546-6"
       inkscape:connector-curvature="0"
       sodipodi:nodetypes="cssssc" />
    <path
       style="color:#000000;display:inline;overflow:visible;visibility:visible;fill:#ffffff;fill-opacity:1;fill-rule:nonzero;stroke:none;stroke-width:1px;marker:none;enable-background:accumulate"
       d="m 534.38829,2463.1918 c -5.60468,-24.2441 -12.05036,-25.1738 -25.83978,-29.9145 -13.78934,-4.7407 -29.4176,-13.271 -41.18387,-37.0527 -10.53976,-33.3197 -47.6517,-107.184 10.02392,-71.238 21.72968,10.3487 11.80541,52.372 17.48145,69.9483 5.67608,17.5761 30.50929,21.843 37.76565,34.8227 7.25638,12.9796 5.56819,19.9435 1.75263,33.4342 z"
       id="path4538"
       inkscape:connector-curvature="0"
       sodipodi:nodetypes="ccccccc" />
    <text
       xml:space="preserve"
       style="font-style:normal;font-variant:normal;font-weight:normal;font-stretch:normal;font-size:7.70021px;line-height:0%;font-family:Lavi;-inkscape-font-specification:Lavi;text-align:center;letter-spacing:0px;word-spacing:0px;text-anchor:middle;fill:#d16044;fill-opacity:1;stroke:none;stroke-width:1;filter:url(#filter1125)"
       x="410.73367"
       y="1900.4603"
       id="text4246-3-7-9-5-1-6-2-1"
       transform="matrix(0.85125208,-0.62031869,0.33985863,0.92708066,7.5614365,3.7807182)"><tspan
         sodipodi:role="line"
         style="font-size:28.8758px;line-height:1.25;fill:#d16044;fill-opacity:1;stroke-width:0.824252"
         x="410.73367"
         y="1900.4603"
         id="tspan1222-5">LLLlinja</tspan></text>
    <text
       xml:space="preserve"
       style="font-style:normal;font-variant:normal;font-weight:normal;font-stretch:normal;font-size:7.70021px;line-height:0%;font-family:Lavi;-inkscape-font-specification:Lavi;text-align:center;letter-spacing:0px;word-spacing:0px;text-anchor:middle;fill:#d16044;fill-opacity:1;stroke:none;stroke-width:1;filter:url(#filter1125)"
       x="1985.7361"
       y="1448.5387"
       id="text4246-3-7-9-5-1-6-2-1-2"
       transform="matrix(1.0442184,0.1379611,-0.3933369,0.90568678,0,0)"><tspan
         sodipodi:role="line"
         style="font-size:28.8758px;line-height:1.25;fill:#d16044;fill-opacity:1;stroke-width:0.824252"
         x="1985.7361"
         y="1448.5387"
         id="tspan1222-5-7">LLLINja</tspan></text>
    <text
       xml:space="preserve"
       style="font-style:normal;font-variant:normal;font-weight:normal;font-stretch:normal;font-size:7.70021px;line-height:0%;font-family:Lavi;-inkscape-font-specification:Lavi;text-align:center;letter-spacing:0px;word-spacing:0px;text-anchor:middle;fill:#d16044;fill-opacity:1;stroke:none;stroke-width:1;filter:url(#filter1125)"
       x="655.12885"
       y="1771.0082"
       id="text4246-3-7-9-5-1-6-2-1-2-0"
       transform="matrix(0.87668998,-0.58381506,0.30040284,0.94060651,1.8903591,-5.6710774)"><tspan
         sodipodi:role="line"
         style="font-size:28.8758px;line-height:1.25;fill:#d16044;fill-opacity:1;stroke-width:0.824252"
         x="655.12885"
         y="1771.0082"
         id="tspan1222-5-7-9">LLLinja</tspan></text>
    <text
       xml:space="preserve"
       style="font-style:normal;font-variant:normal;font-weight:normal;font-stretch:normal;font-size:7.70021px;line-height:0%;font-family:Lavi;-inkscape-font-specification:Lavi;text-align:center;letter-spacing:0px;word-spacing:0px;text-anchor:middle;fill:#d16044;fill-opacity:1;stroke:none;stroke-width:1;filter:url(#filter1125)"
       x="777.14801"
       y="1966.9062"
       id="text4246-3-7-9-5-1-6-2-1-2-0-3"
       transform="matrix(0.98150035,-0.38220729,0.09168173,0.98314644,15.122873,-5.6710774)"><tspan
         sodipodi:role="line"
         style="font-size:28.8758px;line-height:1.25;fill:#d16044;fill-opacity:1;stroke-width:0.824252"
         x="777.14801"
         y="1966.9062"
         id="tspan1222-5-7-9-6">LLinja</tspan></text>
    <text
       xml:space="preserve"
       style="font-style:normal;font-variant:normal;font-weight:normal;font-stretch:normal;font-size:7.70021px;line-height:0%;font-family:Lavi;-inkscape-font-specification:Lavi;text-align:center;letter-spacing:0px;word-spacing:0px;text-anchor:middle;fill:#d16044;fill-opacity:1;stroke:none;stroke-width:1;filter:url(#filter1125)"
       x="1923.7697"
       y="875.89478"
       id="text4246-3-7-9-5-1-6-2-1-2-06"
       transform="matrix(0.99644593,0.34135151,-0.56436057,0.8102343,1.8903591,-1.8903591)"><tspan
         sodipodi:role="line"
         style="font-size:28.8758px;line-height:1.25;fill:#d16044;fill-opacity:1;stroke-width:0.824252"
         x="1923.7697"
         y="875.89478"
         id="tspan1222-5-7-2">LLinja</tspan></text>
    <text
       xml:space="preserve"
       style="font-style:normal;font-variant:normal;font-weight:normal;font-stretch:normal;font-size:7.70021px;line-height:0%;font-family:Lavi;-inkscape-font-specification:Lavi;text-align:center;letter-spacing:0px;word-spacing:0px;text-anchor:middle;fill:#d16044;fill-opacity:1;stroke:none;stroke-width:1;filter:url(#filter1125)"
       x="2065.241"
       y="1539.2544"
       id="text4246-3-7-9-5-1-6-2-1-2-06-6"
       transform="matrix(1.0442184,0.1379611,-0.3933369,0.90568678,0,0)"><tspan
         sodipodi:role="line"
         style="font-size:28.8758px;line-height:1.25;fill:#d16044;fill-opacity:1;stroke-width:0.824252"
         x="2065.241"
         y="1539.2544"
         id="tspan1222-5-7-2-1">Linja</tspan></text>
    <text
       xml:space="preserve"
       style="font-style:normal;font-variant:normal;font-weight:normal;font-stretch:normal;font-size:14.5587px;line-height:0%;font-family:Lavi;-inkscape-font-specification:Lavi;text-align:center;letter-spacing:0px;word-spacing:0px;text-anchor:middle;fill:#ebe9e2;fill-opacity:1;stroke:none;stroke-width:1"
       x="1686.5544"
       y="2585.2935"
       id="text4246-3-7-9-5-1-6-2-1-8"
       transform="matrix(1.0600479,-0.23035956,-0.08957656,0.96281952,0,0)"><tspan
         sodipodi:role="line"
         style="font-size:54.595px;line-height:1.25;fill:#ebe9e2;fill-opacity:1;stroke-width:0.824252"
         x="1686.5544"
         y="2585.2935"
         id="tspan1222-5-79">?</tspan></text>
    <text
       xml:space="preserve"
       style="font-style:normal;font-variant:normal;font-weight:normal;font-stretch:normal;font-size:14.5587px;line-height:0%;font-family:Lavi;-inkscape-font-specification:Lavi;text-align:center;letter-spacing:0px;word-spacing:0px;text-anchor:middle;fill:#ebe9e2;fill-opacity:1;stroke:none;stroke-width:1"
       x="2356.5422"
       y="2734.1533"
       id="text4246-3-7-9-5-1-6-2-1-8-3"
       transform="matrix(1.0600479,-0.23035956,-0.08957656,0.96281952,0,0)"><tspan
         sodipodi:role="line"
         style="font-size:54.595px;line-height:1.25;fill:#ebe9e2;fill-opacity:1;stroke-width:0.824252"
         x="2356.5422"
         y="2734.1533"
         id="tspan1222-5-79-6">!!</tspan></text>
    <text
       xml:space="preserve"
       style="font-style:normal;font-variant:normal;font-weight:normal;font-stretch:normal;font-size:7.70021px;line-height:0%;font-family:Lavi;-inkscape-font-specification:Lavi;text-align:center;letter-spacing:0px;word-spacing:0px;text-anchor:middle;opacity:0.626;fill:#d0be4d;fill-opacity:1;stroke:none;stroke-width:0.611505;filter:url(#filter1125-1)"
       x="1985.7361"
       y="1448.5387"
       id="text4246-3-7-9-5-1-6-2-1-2-03"
       transform="matrix(1.652839,0.44181846,-0.82392782,1.3977215,-1562.5452,-302.4474)"><tspan
         sodipodi:role="line"
         style="font-size:28.8758px;line-height:1.25;fill:#d0be4d;fill-opacity:1;stroke-width:0.504034"
         x="1985.7361"
         y="1448.5387"
         id="tspan1222-5-7-6">LLinja</tspan></text>
    <text
       xml:space="preserve"
       style="font-style:normal;font-variant:normal;font-weight:normal;font-stretch:normal;font-size:7.70021px;line-height:0%;font-family:Lavi;-inkscape-font-specification:Lavi;text-align:center;letter-spacing:0px;word-spacing:0px;text-anchor:middle;opacity:0.752;fill:#d0be4d;fill-opacity:1;stroke:none;stroke-width:0.63965;filter:url(#filter1125-1-1)"
       x="1985.7361"
       y="1448.5387"
       id="text4246-3-7-9-5-1-6-2-1-2-03-4"
       transform="matrix(1.5358218,0.41629511,-0.77005201,1.3826539,-1269.5728,-224.41367)"><tspan
         sodipodi:role="line"
         style="font-size:28.8758px;line-height:1.25;fill:#d0be4d;fill-opacity:1;stroke-width:0.527232"
         x="1985.7361"
         y="1448.5387"
         id="tspan1222-5-7-6-7">LLLinja</tspan></text>
    <text
       xml:space="preserve"
       style="font-style:normal;font-variant:normal;font-weight:normal;font-stretch:normal;font-size:12.0068px;line-height:0%;font-family:Lavi;-inkscape-font-specification:Lavi;text-align:center;letter-spacing:0px;word-spacing:0px;text-anchor:middle;fill:#d5b179;fill-opacity:1;stroke:none;stroke-width:1"
       x="1044.0333"
       y="3546.3018"
       id="text4246-3-7-9-5-1-6-2-1-8-3-6"
       transform="matrix(1.2153283,-0.20092692,-0.10269811,0.83980175,0,0)"><tspan
         sodipodi:role="line"
         style="font-size:45.0256px;line-height:1.25;fill:#d5b179;fill-opacity:1;stroke-width:0.824252"
         x="1044.0333"
         y="3546.3018"
         id="tspan1222-5-79-6-5">!!</tspan></text>
    <path
       style="fill:#ffffff;stroke:none;stroke-width:1"
       d="m 1523.8272,2702.4602 c -2.5067,-51.3252 2.6002,-162.8605 275.6255,-158.8841 274.979,4.005 297.2185,81.8717 312.8791,172.37 27.8163,160.7391 -167.6334,156.6463 -333.5554,156.035 -226.7525,-0.8352 -257.599,-76.7843 -254.9492,-169.5209 z"
       id="path3280-8"
       inkscape:connector-curvature="0"
       sodipodi:nodetypes="csssc" />
    <path
       style="color:#000000;display:inline;overflow:visible;visibility:visible;fill:#ffffff;fill-opacity:1;fill-rule:nonzero;stroke:none;stroke-width:1px;marker:none;enable-background:accumulate"
       d="m 1586.1795,2884.1614 c 5.3427,-70.3052 73.1279,-122.0671 249.842,-109.7438 94.6576,6.6009 202.1324,10.6996 195.4036,113.6861 -6.729,102.9864 -161.1946,101.1253 -193.0747,103.6949 -31.8803,2.5698 -197.9859,-7.3819 -227.1248,-42.2545 -18.2403,-21.8294 -25.5074,-43.615 -25.0461,-65.3827 z"
       id="path4546"
       inkscape:connector-curvature="0"
       sodipodi:nodetypes="cssssc" />
    <path
       style="color:#000000;display:inline;overflow:visible;visibility:visible;fill:#ffffff;fill-opacity:1;fill-rule:nonzero;stroke:none;stroke-width:1px;marker:none;enable-background:accumulate"
       d="m 1405.2078,2785.0833 c 27.2189,10.6931 31.1073,9.721 39.8563,-1.9442 8.7489,-11.6652 17.4978,-31.1073 43.7446,-34.9957 26.2468,-3.8884 38.8841,5.8326 47.633,11.6652 1.9442,-18.4699 21.8114,-47.3326 13.0625,-58.0257 -8.7489,-10.6932 23.8774,9.4206 23.8774,9.4206 0,0 8.749,47.633 -7.7768,65.1309 -16.5257,17.4978 -53.4656,-4.8605 -71.9356,-4.8605 -18.4699,0 -32.0794,26.2467 -46.6609,29.163 -14.5816,2.9163 -30.1352,-7.7768 -41.8005,-15.5536 z"
       id="path4538-7"
       inkscape:connector-curvature="0"
       sodipodi:nodetypes="ccscccsscc" />
    <path
       style="display:inline;fill:#ffffff;fill-rule:evenodd;stroke:none;stroke-width:1.13353px;stroke-linecap:butt;stroke-linejoin:miter;stroke-opacity:1"
       d="m 790.79175,224.52905 c 37.12381,-1.88303 90.95879,11.5448 59.73415,50.296 68.17449,-25.39403 163.8509,-34.5111 186.3618,7.79105 3.7885,-51.73967 49.4826,-37.69039 87.1966,-25.2315 -35.8929,-21.24192 30.1176,-31.70774 65.4571,-32.16467 -73.2336,-45.85796 -33.5601,-59.20123 -3.5905,-75.339 -73.7931,10.92223 -55.2278,-13.7893 -63.5324,-28.13373 -64.0031,30.86852 -109.5404,22.34544 -144.74041,-8.22912 -19.44664,15.86671 -26.47717,49.31402 -94.53909,-3.65542 24.19624,45.04669 -9.2671,39.70893 -62.97671,16.67968 8.03582,15.33945 57.9792,39.40883 -27.33094,35.30341 52.86643,15.47391 63.41551,35.23169 -2.0396,62.6833 z"
       id="path4584-7"
       inkscape:connector-curvature="0"
       sodipodi:nodetypes="cccccccccccc" />
  </g>
  <g
     inkscape:groupmode="layer"
     id="layer1"
     inkscape:label="txt"
     style="display:inline">
    <text
       xml:space="preserve"
       style="font-style:normal;font-variant:normal;font-weight:normal;font-stretch:normal;font-size:13.688px;line-height:0%;font-family:Lavi;-inkscape-font-specification:Lavi;text-align:center;letter-spacing:0px;word-spacing:0px;text-anchor:middle;fill:#000000;fill-opacity:1;stroke:#000000;stroke-width:1.8;stroke-miterlimit:4;stroke-dasharray:none;stroke-opacity:1"
       x="1164.4037"
       y="200.43517"
       id="text4246-3-7-9-5-1-6-2"
       transform="matrix(0.92840736,0,-0.16338778,1.0771134,0,0)"><tspan
         sodipodi:role="line"
         style="font-size:51.33px;line-height:1.25;stroke:#000000;stroke-width:1.8;stroke-miterlimit:4;stroke-dasharray:none;stroke-opacity:1"
         x="1164.4037"
         y="200.43517"
         id="tspan1222">SOWELI KAWA O!</tspan></text>
    <text
       xml:space="preserve"
       style="font-style:normal;font-variant:normal;font-weight:normal;font-stretch:normal;line-height:0%;font-family:Lavi;-inkscape-font-specification:Lavi;text-align:center;letter-spacing:0px;word-spacing:0px;text-anchor:middle;fill:#000000;fill-opacity:1;stroke:none"
       x="1153.1595"
       y="292.54266"
       id="text4246-7-6-1-7-6"><tspan
         sodipodi:role="line"
         style="font-size:45px;line-height:1.25"
         x="1153.1595"
         y="292.54266"
         id="tspan151">mi tawa. mi kama </tspan><tspan
         sodipodi:role="line"
         style="font-size:45px;line-height:1.25"
         x="1153.1595"
         y="348.79266"
         id="tspan157">e jan Tume </tspan><tspan
         sodipodi:role="line"
         style="font-size:45px;line-height:1.25"
         x="1153.1595"
         y="405.04266"
         id="tspan163">e jan Kajen e </tspan><tspan
         sodipodi:role="line"
         style="font-size:45px;line-height:1.25"
         x="1153.1595"
         y="461.29266"
         id="tspan171">jan Kumin.</tspan></text>
    <text
       xml:space="preserve"
       style="font-style:normal;font-variant:normal;font-weight:normal;font-stretch:normal;line-height:0%;font-family:Lavi;-inkscape-font-specification:Lavi;text-align:center;letter-spacing:0px;word-spacing:0px;text-anchor:middle;fill:#000000;fill-opacity:1;stroke:none"
       x="1326.4092"
       y="541.24622"
       id="text4246-7-6-1-7-6-3"><tspan
         sodipodi:role="line"
         style="font-size:45px;line-height:1.25"
         x="1326.4092"
         y="541.24622"
         id="tspan894">o pali e </tspan><tspan
         sodipodi:role="line"
         style="font-size:45px;line-height:1.25"
         x="1326.4092"
         y="597.49622"
         id="tspan138">ala tawa kasi. </tspan><tspan
         sodipodi:role="line"
         style="font-size:45px;line-height:1.25"
         x="1326.4092"
         y="653.74622"
         id="tspan136">sina kute </tspan><tspan
         sodipodi:role="line"
         style="font-size:45px;line-height:1.25"
         x="1326.4092"
         y="709.99622"
         id="tspan140">ala kute?</tspan></text>
    <text
       xml:space="preserve"
       style="font-style:normal;font-variant:normal;font-weight:normal;font-stretch:normal;line-height:0%;font-family:Lavi;-inkscape-font-specification:Lavi;text-align:center;letter-spacing:0px;word-spacing:0px;text-anchor:middle;fill:#000000;fill-opacity:1;stroke:none"
       x="473.20154"
       y="2303.4502"
       id="text4246-7-6-1-7-6-3-5"><tspan
         sodipodi:role="line"
         style="font-size:45px;line-height:1.25"
         x="473.20154"
         y="2303.4502"
         id="tspan980">pona! </tspan><tspan
         sodipodi:role="line"
         style="font-size:45px;line-height:1.25"
         x="473.20154"
         y="2359.7002"
         id="tspan175">mi kama sin.</tspan></text>
    <text
       xml:space="preserve"
       style="font-style:normal;font-variant:normal;font-weight:normal;font-stretch:normal;line-height:0%;font-family:Lavi;-inkscape-font-specification:Lavi;text-align:center;letter-spacing:0px;word-spacing:0px;text-anchor:middle;fill:#000000;fill-opacity:1;stroke:none"
       x="1817.5999"
       y="2620.9868"
       id="text4246-7-6-1-7-6-3-5-6"><tspan
         sodipodi:role="line"
         style="font-size:45px;line-height:1.25"
         x="1817.5999"
         y="2620.9868"
         id="tspan783">jan sona o, kama. </tspan><tspan
         sodipodi:role="line"
         style="font-size:45px;line-height:1.25"
         x="1817.5999"
         y="2677.2368"
         id="tspan179">o lukin, o pilin suli!</tspan><tspan
         sodipodi:role="line"
         style="font-size:45px;line-height:1.25"
         x="1817.5999"
         y="2733.4868"
         id="tspan183">oko sina li kama open </tspan><tspan
         sodipodi:role="line"
         style="font-size:45px;line-height:1.25"
         x="1817.5999"
         y="2789.7368"
         id="tspan187">suli mute tan pali mi.</tspan></text>
    <text
       xml:space="preserve"
       style="font-style:normal;font-variant:normal;font-weight:normal;font-stretch:normal;line-height:0%;font-family:Lavi;-inkscape-font-specification:Lavi;text-align:center;letter-spacing:0px;word-spacing:0px;text-anchor:middle;fill:#000000;fill-opacity:1;stroke:none"
       x="1815.3259"
       y="2844.4448"
       id="text4246-7-6-1-7-6-3-5-6-4"><tspan
         sodipodi:role="line"
         x="1815.3259"
         y="2844.4448"
         id="tspan1456-4"
         style="font-size:45px;line-height:1.25" /><tspan
         sodipodi:role="line"
         style="font-size:45px;line-height:1.25"
         x="1815.3259"
         y="2900.6948"
         id="tspan1458-4">o kama tawa sewi. </tspan><tspan
         sodipodi:role="line"
         style="font-size:45px;line-height:1.25"
         x="1815.3259"
         y="2956.9448"
         id="tspan191">sina ken...</tspan><tspan
         sodipodi:role="line"
         x="1815.3259"
         y="2975.4519"
         id="tspan1454-4"
         style="font-size:45px;line-height:1.25" /></text>
    <text
       xml:space="preserve"
       style="font-style:normal;font-variant:normal;font-weight:normal;font-stretch:normal;font-size:7.70021px;line-height:0%;font-family:Lavi;-inkscape-font-specification:Lavi;text-align:center;letter-spacing:0px;word-spacing:0px;text-anchor:middle;fill:#653b1f;fill-opacity:1;stroke:none;stroke-width:0.328084;stroke-miterlimit:4;stroke-dasharray:none;stroke-opacity:1;filter:url(#filter1125-2)"
       x="1985.7361"
       y="1448.5387"
       id="text4246-3-7-9-5-1-6-2-1-2-9"
       transform="matrix(3.1180716,-0.69723004,-0.16135131,3.0155836,-3916.2401,-1479.3735)"
       inkscape:transform-center-x="-27.787838"
       inkscape:transform-center-y="38.482173"><tspan
         sodipodi:role="line"
         style="font-size:28.8758px;line-height:1.25;fill:#653b1f;fill-opacity:1;stroke:none;stroke-width:0.328084;stroke-miterlimit:4;stroke-dasharray:none;stroke-opacity:1"
         x="1985.7361"
         y="1448.5387"
         id="tspan1222-5-7-7"> Suliiii!!</tspan></text>
  </g>
</svg>
