<?xml version="1.0" encoding="UTF-8" standalone="no"?>
<!-- Created with Inkscape (http://www.inkscape.org/) -->

<svg
   xmlns:dc="http://purl.org/dc/elements/1.1/"
   xmlns:cc="http://creativecommons.org/ns#"
   xmlns:rdf="http://www.w3.org/1999/02/22-rdf-syntax-ns#"
   xmlns:svg="http://www.w3.org/2000/svg"
   xmlns="http://www.w3.org/2000/svg"
   xmlns:xlink="http://www.w3.org/1999/xlink"
   xmlns:sodipodi="http://sodipodi.sourceforge.net/DTD/sodipodi-0.dtd"
   xmlns:inkscape="http://www.inkscape.org/namespaces/inkscape"
   id="svg2"
   version="1.1"
   inkscape:version="0.92.1 r15371"
   width="2481"
   height="3503"
   sodipodi:docname="E29P02.svg"
   enable-background="new"
   inkscape:export-filename="/home/dash/Downloads/pepper carrot EPS/ep29_Destroyer-of-Worlds_lang-pack/lang/ph/E29P02.svg.png"
   inkscape:export-xdpi="90"
   inkscape:export-ydpi="90">
  <metadata
     id="metadata8">
    <rdf:RDF>
      <cc:Work
         rdf:about="">
        <dc:format>image/svg+xml</dc:format>
        <dc:type
           rdf:resource="http://purl.org/dc/dcmitype/StillImage" />
        <dc:title />
      </cc:Work>
    </rdf:RDF>
  </metadata>
  <defs
     id="defs6">
    <inkscape:path-effect
       effect="bspline"
       id="path-effect5805"
       is_visible="true"
       weight="33.333333"
       steps="2"
       helper_size="0"
       apply_no_weight="true"
       apply_with_weight="true"
       only_selected="false" />
    <filter
       style="color-interpolation-filters:sRGB"
       id="filter3018-3-2-2-2"
       inkscape:label="Lapping"
       inkscape:menu="Distort"
       inkscape:menu-tooltip="Something like a water noise"
       height="1.3"
       y="-0.15000001"
       width="1.3"
       x="-0.15000001">
      <feTurbulence
         id="feTurbulence3020-6-9-0-9"
         numOctaves="5"
         seed="0"
         type="fractalNoise"
         baseFrequency="0.1"
         result="result1" />
      <feGaussianBlur
         id="feGaussianBlur3022-7-1-2-3"
         stdDeviation="2"
         result="result2" />
      <feDisplacementMap
         id="feDisplacementMap3024-5-2-3-1"
         in2="result2"
         scale="50"
         yChannelSelector="B"
         xChannelSelector="R"
         in="SourceGraphic" />
    </filter>
    <filter
       style="color-interpolation-filters:sRGB"
       id="filter3018-3-2-2-2-0"
       inkscape:label="Lapping"
       inkscape:menu="Distort"
       inkscape:menu-tooltip="Something like a water noise"
       height="1.3"
       y="-0.15000001"
       width="1.3"
       x="-0.15000001">
      <feTurbulence
         id="feTurbulence3020-6-9-0-9-9"
         numOctaves="5"
         seed="0"
         type="fractalNoise"
         baseFrequency="0.1"
         result="result1" />
      <feGaussianBlur
         id="feGaussianBlur3022-7-1-2-3-3"
         stdDeviation="2"
         result="result2" />
      <feDisplacementMap
         id="feDisplacementMap3024-5-2-3-1-6"
         in2="result2"
         scale="50"
         yChannelSelector="B"
         xChannelSelector="R"
         in="SourceGraphic" />
    </filter>
    <filter
       style="color-interpolation-filters:sRGB"
       id="filter3018-3-2-2-2-0-0"
       inkscape:label="Lapping"
       inkscape:menu="Distort"
       inkscape:menu-tooltip="Something like a water noise"
       height="1.3"
       y="-0.15000001"
       width="1.3"
       x="-0.15000001">
      <feTurbulence
         id="feTurbulence3020-6-9-0-9-9-6"
         numOctaves="5"
         seed="0"
         type="fractalNoise"
         baseFrequency="0.1"
         result="result1" />
      <feGaussianBlur
         id="feGaussianBlur3022-7-1-2-3-3-2"
         stdDeviation="2"
         result="result2" />
      <feDisplacementMap
         id="feDisplacementMap3024-5-2-3-1-6-6"
         in2="result2"
         scale="50"
         yChannelSelector="B"
         xChannelSelector="R"
         in="SourceGraphic" />
    </filter>
    <filter
       style="color-interpolation-filters:sRGB"
       id="filter3018-3-2-2-2-0-0-8"
       inkscape:label="Lapping"
       inkscape:menu="Distort"
       inkscape:menu-tooltip="Something like a water noise"
       height="1.3"
       y="-0.15000001"
       width="1.3"
       x="-0.15000001">
      <feTurbulence
         id="feTurbulence3020-6-9-0-9-9-6-7"
         numOctaves="5"
         seed="0"
         type="fractalNoise"
         baseFrequency="0.1"
         result="result1" />
      <feGaussianBlur
         id="feGaussianBlur3022-7-1-2-3-3-2-9"
         stdDeviation="2"
         result="result2" />
      <feDisplacementMap
         id="feDisplacementMap3024-5-2-3-1-6-6-2"
         in2="result2"
         scale="50"
         yChannelSelector="B"
         xChannelSelector="R"
         in="SourceGraphic" />
    </filter>
    <filter
       style="color-interpolation-filters:sRGB"
       id="filter3018-3-2-2-2-0-0-2"
       inkscape:label="Lapping"
       inkscape:menu="Distort"
       inkscape:menu-tooltip="Something like a water noise"
       height="1.3"
       y="-0.15000001"
       width="1.3"
       x="-0.15000001">
      <feTurbulence
         id="feTurbulence3020-6-9-0-9-9-6-70"
         numOctaves="5"
         seed="0"
         type="fractalNoise"
         baseFrequency="0.1"
         result="result1" />
      <feGaussianBlur
         id="feGaussianBlur3022-7-1-2-3-3-2-93"
         stdDeviation="2"
         result="result2" />
      <feDisplacementMap
         id="feDisplacementMap3024-5-2-3-1-6-6-6"
         in2="result2"
         scale="50"
         yChannelSelector="B"
         xChannelSelector="R"
         in="SourceGraphic" />
    </filter>
    <filter
       inkscape:collect="always"
       style="color-interpolation-filters:sRGB"
       id="filter5061"
       x="-0.21469502"
       width="1.42939"
       y="-0.14125652"
       height="1.282513">
      <feGaussianBlur
         inkscape:collect="always"
         stdDeviation="22.632675"
         id="feGaussianBlur5063" />
    </filter>
    <filter
       style="color-interpolation-filters:sRGB"
       id="filter3018-3-2-2-2-0-1"
       inkscape:label="Lapping"
       inkscape:menu="Distort"
       inkscape:menu-tooltip="Something like a water noise"
       height="1.3"
       y="-0.15000001"
       width="1.3"
       x="-0.15000001">
      <feTurbulence
         id="feTurbulence3020-6-9-0-9-9-8"
         numOctaves="5"
         seed="0"
         type="fractalNoise"
         baseFrequency="0.1"
         result="result1" />
      <feGaussianBlur
         id="feGaussianBlur3022-7-1-2-3-3-7"
         stdDeviation="2"
         result="result2" />
      <feDisplacementMap
         id="feDisplacementMap3024-5-2-3-1-6-9"
         in2="result2"
         scale="50"
         yChannelSelector="B"
         xChannelSelector="R"
         in="SourceGraphic" />
    </filter>
    <filter
       inkscape:collect="always"
       style="color-interpolation-filters:sRGB"
       id="filter5610"
       x="-0.08358002"
       width="1.16716"
       y="-0.064268808"
       height="1.1285376">
      <feGaussianBlur
         inkscape:collect="always"
         stdDeviation="13.928602"
         id="feGaussianBlur5612" />
      <feBlend
         inkscape:collect="always"
         mode="overlay"
         in2="BackgroundImage"
         id="feBlend5614" />
    </filter>
    <filter
       style="color-interpolation-filters:sRGB"
       id="filter3018-3-2-2-2-0-0-8-0"
       inkscape:label="Lapping"
       inkscape:menu="Distort"
       inkscape:menu-tooltip="Something like a water noise"
       height="1.3"
       y="-0.15000001"
       width="1.3"
       x="-0.15000001">
      <feTurbulence
         id="feTurbulence3020-6-9-0-9-9-6-7-2"
         numOctaves="5"
         seed="0"
         type="fractalNoise"
         baseFrequency="0.1"
         result="result1" />
      <feGaussianBlur
         id="feGaussianBlur3022-7-1-2-3-3-2-9-3"
         stdDeviation="2"
         result="result2" />
      <feDisplacementMap
         id="feDisplacementMap3024-5-2-3-1-6-6-2-7"
         in2="result2"
         scale="50"
         yChannelSelector="B"
         xChannelSelector="R"
         in="SourceGraphic" />
    </filter>
    <filter
       inkscape:collect="always"
       style="color-interpolation-filters:sRGB"
       id="filter5767"
       x="-0.059242746"
       width="1.1184855"
       y="-0.053817579"
       height="1.1076352">
      <feGaussianBlur
         inkscape:collect="always"
         stdDeviation="6.7988537"
         id="feGaussianBlur5769" />
    </filter>
    <mask
       maskUnits="userSpaceOnUse"
       id="mask5799">
      <path
         style="opacity:1;fill:#ffffff;fill-opacity:1;stroke:none;stroke-width:1px;stroke-linecap:butt;stroke-linejoin:miter;stroke-opacity:1"
         d="m 671.9131,2381.276 c 3.14411,-18.4315 2.85835,-19.0385 13.01019,-31.3785 -7.28204,-5.4176 -8.89708,-11.8732 -10.37763,-19.5692 -2.00344,2.4584 28.44634,7.2693 21.64476,3.5581 -2.07552,-0.8896 -2.96503,-31.7259 -2.96503,-31.7259 1.04769,1.0477 17.18316,23.4816 15.10678,21.1088 -0.52397,0.4589 5.78178,-20.2125 5.05546,-23.4809 3.86528,8.8518 3.62083,12.9729 3.85455,20.1623 19.80126,-17.5484 22.71756,-16.4746 48.92309,-18.6797 l 53.96365,-55.7427 0.89845,-222.7258 -171.08231,-12.5795 -82.1866,25.1591 -40.25466,311.135 81.34796,29.3524"
         id="path5801"
         inkscape:connector-curvature="0"
         sodipodi:nodetypes="ccccccccccccccc" />
    </mask>
  </defs>
  <sodipodi:namedview
     pagecolor="#ffffff"
     bordercolor="#666666"
     borderopacity="1"
     objecttolerance="10"
     gridtolerance="10"
     guidetolerance="10"
     inkscape:pageopacity="0"
     inkscape:pageshadow="2"
     inkscape:window-width="1920"
     inkscape:window-height="997"
     id="namedview4"
     showgrid="false"
     inkscape:zoom="0.42158006"
     inkscape:cx="1442.5261"
     inkscape:cy="2943.1058"
     inkscape:window-x="0"
     inkscape:window-y="0"
     inkscape:window-maximized="1"
     inkscape:current-layer="layer3" />
  <g
     inkscape:groupmode="layer"
     id="layer2"
     inkscape:label="artwork"
     sodipodi:insensitive="true">
    <image
       sodipodi:absref="/home/dash/Downloads/pepper carrot EPS/ep29_Destroyer-of-Worlds_lang-pack/lang/ph/../gfx_Pepper-and-Carrot_by-David-Revoy_E29P02.png"
       xlink:href="../gfx_Pepper-and-Carrot_by-David-Revoy_E29P02.png"
       width="2481"
       height="3503"
       id="image10"
       x="0"
       y="0" />
    <rect
       style="display:inline;fill:#ffffff;fill-opacity:1;stroke-width:1.43283761"
       id="rect5774"
       width="335.64206"
       height="65.230789"
       x="202.21542"
       y="1228.4456" />
  </g>
  <g
     inkscape:groupmode="layer"
     id="layer3"
     inkscape:label="speechbubbles"
     style="display:inline">
    <path
       style="color:#000000;display:inline;overflow:visible;visibility:visible;opacity:1;fill:#0f0f0f;fill-opacity:1;fill-rule:nonzero;stroke:none;stroke-width:1.03416967px;marker:none;filter:url(#filter3018-3-2-2-2-0);enable-background:accumulate"
       d="m 554.0544,256.72568 c 12.84005,5.76932 45.97315,22.49499 45.97315,22.49499 0,0 45.31867,3.3779 49.27782,12.26168 3.95916,8.88379 10.65342,63.40398 13.92408,72.15116 0,0 -12.13274,63.8555 -11.73931,72.84422 0.39343,8.98873 -1.4198,34.9043 -3.27476,54.24225 -1.85495,19.33795 4.82254,27.09359 9.77811,49.3613 4.15001,18.64795 40.15464,89.41967 -0.42988,68.82184 -15.57614,-7.90535 6.4915,59.30388 1.25608,67.97008 -10.47085,17.3324 -24.58943,60.63557 -41.42778,65.61319 -25.42763,7.51671 -20.02733,19.83405 -48.5075,19.8518 -16.69239,0.0104 -22.56244,-5.71337 -44.82795,1.11195 -22.26551,6.82532 -36.13137,3.43657 -53.24088,3.08257 -34.21904,-0.70801 -13.51696,0.96728 -41.90399,-4.16431 -28.38702,-5.13159 -47.52579,10.39745 -63.26234,0.63479 -10.80008,-6.70016 -59.53115,-76.8328 -66.36437,-90.85013 -6.83321,-14.01734 -13.70404,-70.92683 -17.54609,-88.08567 -1.30943,-24.37621 31.9606,-36.2507 15.67103,-73.53406 -8.17882,-18.71958 -30.9018,-74.8109 -15.40298,-78.20201 26.78278,-5.86002 10.02516,-31.79098 10.02516,-31.79098 -24.63074,28.32373 -2.08882,-35.12064 -2.05481,-46.71178 0.0677,-23.05299 7.1106,-10.17566 10.69594,-23.86091 3.58535,-13.68525 1.26294,-35.45878 9.92459,-42.09736 8.66164,-6.63858 17.5364,-11.33825 32.77847,-13.25136 15.24207,-1.9131 9.01498,-18.18923 32.34158,-17.69805 11.6633,0.24559 24.42641,21.40808 38.39287,21.81951 13.96645,0.41144 18.65642,-31.47864 35.11405,-31.1915 16.45763,0.28713 36.30286,21.21151 55.43968,21.0842 19.13681,-0.12732 27.38602,-11.07549 49.39003,-11.90741 z"
       id="path3986-3-7-9"
       inkscape:connector-curvature="0"
       sodipodi:nodetypes="ccsssssssssssssscsssssssssssc"
       transform="matrix(-1.0376604,0,0,-0.88163258,843.66894,805.92356)" />
    <path
       style="color:#000000;display:inline;overflow:visible;visibility:visible;fill:#ffffff;fill-opacity:1;fill-rule:nonzero;stroke:none;stroke-width:1.17648733px;marker:none;enable-background:accumulate"
       d="m 2124.4055,2851.6766 c 117.057,7.3842 202.187,92.5812 178.7413,313.2007 -12.559,118.1758 -21.1599,252.3875 -192.649,242.9419 -171.4889,-9.4456 -165.8418,-202.3788 -169.598,-242.2283 -3.7563,-39.8493 15.5633,-247.2411 74.1494,-283.2882 36.6736,-22.5644 73.0934,-31.422 109.3563,-30.6261 z"
       id="path4546-6"
       inkscape:connector-curvature="0"
       sodipodi:nodetypes="cssssc" />
    <path
       style="fill:#ffffff;fill-opacity:1;stroke:none;stroke-width:1.08328652"
       d="m 444.69202,2860.6367 c 101.55449,12.4117 190.39837,67.7948 182.64609,289.4485 -7.75215,221.6536 -89.1481,249.37 -149.22781,265.3164 -60.07983,15.9463 -268.13967,25.8603 -275.20431,-130.1814 -28.07482,-154.1515 -8.58491,-347.8616 37.76535,-391.6878 65.26015,-53.2779 159.86571,-38.1265 204.02068,-32.8957 z"
       id="path3238"
       inkscape:connector-curvature="0"
       sodipodi:nodetypes="cssccc" />
    <path
       style="color:#000000;display:inline;overflow:visible;visibility:visible;fill:#ffffff;fill-opacity:1;fill-rule:nonzero;stroke:none;stroke-width:0.95331842px;marker:none;enable-background:accumulate;opacity:1"
       d="m 753.11064,2055.9969 c 37.1794,25.394 28.4407,61.6326 33.3432,100.4455 5.2883,39.9293 -2.3449,79.9623 -15.1698,117.977 -11.1974,31.0865 -28.7898,61.9002 -59.2665,82.7955 -15.6528,10.3992 -35.4777,18.9175 -56.4553,16.716 -21.1392,-4.1282 -37.4397,-17.6345 -51.4686,-30.7778 -11.5671,-11.0359 -20.7264,-24.2812 -22.8981,-38.8213 -15.886,-47.8826 -18.1431,-82.5567 -18.0302,-126.7249 0.601,-33.1706 11.0344,-72.6714 26.5825,-103.5083 9.8255,-18.0096 26.7443,-37.7171 49.5978,-40.7744 51.9046,-6.9436 65.735,-10.1324 113.765,22.6727 z"
       id="path3365"
       inkscape:connector-curvature="0"
       sodipodi:nodetypes="sccccccccss"
       mask="url(#mask5799)" />
    <path
       style="color:#000000;display:inline;overflow:visible;visibility:visible;fill:#ffffff;fill-opacity:1;fill-rule:nonzero;stroke:none;stroke-width:0.99999994px;marker:none;enable-background:accumulate"
       d="m 525.19312,2046.4704 c 30.8389,-0.9006 61.6779,36.0239 63.8047,97.2646 2.1268,61.2406 -22.3317,113.4753 -54.234,118.8789 -31.9024,5.4036 -62.7413,-54.0358 -63.8047,-107.1711 -1.0634,-53.1353 7.444,-103.5688 54.234,-108.9724 z"
       id="path3565"
       inkscape:connector-curvature="0" />
    <path
       style="display:inline;fill:#ffffff;stroke:none;stroke-width:0.67646372"
       d="m 1921.2549,3285.5894 c 27.1366,50.1238 62.7442,85.4806 67.1184,29.2346 2.0227,-26.0105 0.9917,-30.6815 0.9917,-30.6815 l 7.0046,-2.7215 c 0,0 32.356,46.0522 13.8441,81.0366 -18.512,34.9844 -44.4699,20.2889 -88.9588,-76.8682 z"
       id="path3063-1-2"
       inkscape:connector-curvature="0"
       sodipodi:nodetypes="cscczc" />
    <path
       style="display:inline;opacity:1;fill:#0f0f0f;fill-opacity:1;stroke:none"
       d="m 207.08644,496.99065 c 2.8076,36.5266 -11.3531,47.358 -7.5295,55.3048 3.8237,7.9469 15.8815,11.5559 18.3467,1.8286 2.4651,-9.7273 -8.7342,-30.033 -4.1662,-54.2007"
       id="path3060-5-7-4-8-6"
       inkscape:connector-curvature="0" />
    <path
       style="color:#000000;display:inline;overflow:visible;visibility:visible;opacity:1;fill:#0000ff;fill-opacity:1;fill-rule:nonzero;stroke:none;stroke-width:1.03416967px;marker:none;filter:url(#filter5610);enable-background:accumulate"
       d="m 554.0544,256.72568 c 12.84005,5.76932 45.97315,22.49499 45.97315,22.49499 0,0 45.31867,3.3779 49.27782,12.26168 3.95916,8.88379 10.65342,63.40398 13.92408,72.15116 0,0 -12.13274,63.8555 -11.73931,72.84422 0.39343,8.98873 -1.4198,34.9043 -3.27476,54.24225 -1.85495,19.33795 4.82254,27.09359 9.77811,49.3613 4.15001,18.64795 40.15464,89.41967 -0.42988,68.82184 -15.57614,-7.90535 6.4915,59.30388 1.25608,67.97008 -10.47085,17.3324 -24.58943,60.63557 -41.42778,65.61319 -25.42763,7.51671 -20.02733,19.83405 -48.5075,19.8518 -16.69239,0.0104 -22.56244,-5.71337 -44.82795,1.11195 -22.26551,6.82532 -36.13137,3.43657 -53.24088,3.08257 -34.21904,-0.70801 -13.51696,0.96728 -41.90399,-4.16431 -28.38702,-5.13159 -47.52579,10.39745 -63.26234,0.63479 -10.80008,-6.70016 -59.53115,-76.8328 -66.36437,-90.85013 -6.83321,-14.01734 -13.70404,-70.92683 -17.54609,-88.08567 -1.30943,-24.37621 31.9606,-36.2507 15.67103,-73.53406 -8.17882,-18.71958 -30.9018,-74.8109 -15.40298,-78.20201 26.78278,-5.86002 10.02516,-31.79098 10.02516,-31.79098 -24.63074,28.32373 -2.08882,-35.12064 -2.05481,-46.71178 0.0677,-23.05299 7.1106,-10.17566 10.69594,-23.86091 3.58535,-13.68525 1.26294,-35.45878 9.92459,-42.09736 8.66164,-6.63858 17.5364,-11.33825 32.77847,-13.25136 15.24207,-1.9131 9.01498,-18.18923 32.34158,-17.69805 11.6633,0.24559 24.42641,21.40808 38.39287,21.81951 13.96645,0.41144 18.65642,-31.47864 35.11405,-31.1915 16.45763,0.28713 36.30286,21.21151 55.43968,21.0842 19.13681,-0.12732 27.38602,-11.07549 49.39003,-11.90741 z"
       id="path3986-3-7-9-2"
       inkscape:connector-curvature="0"
       sodipodi:nodetypes="ccsssssssssssssscsssssssssssc"
       transform="matrix(-1.0376604,0,0,-0.88163258,843.66894,805.92356)" />
    <g
       id="g4663-0"
       style="display:inline;fill:#0000ff;filter:url(#filter5061)"
       transform="translate(1.0371305,-167.26676)">
      <path
         transform="matrix(0,1.0794576,-0.94190613,0,747.56704,326.43576)"
         sodipodi:nodetypes="ccsccssssssssccsssssssc"
         inkscape:connector-curvature="0"
         id="path3986-3-7-9-1-6"
         d="m 532.59977,286.95358 c 11.67974,4.74935 38.1752,30.55971 38.1752,30.55971 0,0 35.75809,-25.3166 39.35947,-18.00341 3.60137,7.31318 6.04721,52.19454 9.0223,59.39526 6.79873,71.55445 -13.81191,54.28525 -12.4387,117.18582 1.04105,16.39749 9.03234,28.55468 4.27003,35.68874 -9.52464,14.26814 -32.6597,12.32861 -47.97641,16.42621 -23.1298,6.18781 -18.21752,16.32751 -44.12402,16.34213 -15.18394,0.008 -19.0532,-24.27982 -39.30664,-18.66118 -20.25345,5.61865 -34.33662,22.40555 -49.9,22.11413 -31.12676,-0.58283 -21.11746,-17.99719 -46.93924,-22.22156 -25.82177,-4.22435 -34.40902,27.35271 -48.72351,19.31604 -9.82411,-5.51561 -21.68521,-60.80038 -27.90092,-72.33954 -6.21572,-11.53915 5.59164,-33.98763 2.09678,-48.1129 12.04051,-65.46234 -15.43254,8.64896 -15.82765,-57.75378 0.0119,-18.97747 6.46803,-8.37666 9.72938,-19.64244 3.26136,-11.26578 1.14881,-29.18988 9.02773,-34.6548 7.87891,-5.46491 15.95169,-9.33371 29.81637,-10.90859 13.86469,-1.57488 8.20033,-14.97348 29.41897,-14.56915 10.60932,0.20218 22.21907,17.62326 34.92343,17.96195 12.70433,0.3387 16.97049,-25.9134 31.94089,-25.67702 14.9704,0.23637 33.02227,17.46144 50.42975,17.35664 17.40747,-0.10486 24.91123,-9.11741 44.92679,-9.80226 z"
         style="color:#000000;display:inline;overflow:visible;visibility:visible;opacity:1;fill:#0000ff;fill-opacity:1;fill-rule:nonzero;stroke:none;stroke-width:1.03416967px;marker:none;filter:url(#filter3018-3-2-2-2-0-0-2);enable-background:accumulate" />
      <path
         inkscape:connector-curvature="0"
         id="path3060-5-7-4-8-6-3-2"
         d="m 317.30996,963.59217 c 2.8076,36.52653 -11.3531,47.35793 -7.5295,55.30473 3.8237,7.9469 15.8815,11.5559 18.3467,1.8286 2.4651,-9.7273 -8.7342,-30.03293 -4.1662,-54.20063"
         style="display:inline;opacity:1;fill:#0000ff;fill-opacity:1;stroke:none" />
      <path
         inkscape:connector-curvature="0"
         id="path3060-5-7-4-8-6-3-6-6"
         d="m 284.36265,954.8235 c 2.8076,36.52655 -11.3531,47.3579 -7.5295,55.3047 3.8237,7.9469 15.8815,11.5559 18.3467,1.8286 2.4651,-9.7273 -8.7342,-30.03295 -4.1662,-54.2006"
         style="display:inline;opacity:1;fill:#0000ff;fill-opacity:1;stroke:none" />
    </g>
    <g
       id="g4663"
       style="fill:#000000"
       transform="translate(1.0371305,-167.26676)">
      <path
         transform="matrix(0,1.0794576,-0.94190613,0,747.56704,326.43576)"
         sodipodi:nodetypes="ccsccssssssssccsssssssc"
         inkscape:connector-curvature="0"
         id="path3986-3-7-9-1"
         d="m 532.59977,286.95358 c 11.67974,4.74935 38.1752,30.55971 38.1752,30.55971 0,0 35.75809,-25.3166 39.35947,-18.00341 3.60137,7.31318 6.04721,52.19454 9.0223,59.39526 6.79873,71.55445 -13.81191,54.28525 -12.4387,117.18582 1.04105,16.39749 9.03234,28.55468 4.27003,35.68874 -9.52464,14.26814 -32.6597,12.32861 -47.97641,16.42621 -23.1298,6.18781 -18.21752,16.32751 -44.12402,16.34213 -15.18394,0.008 -19.0532,-24.27982 -39.30664,-18.66118 -20.25345,5.61865 -34.33662,22.40555 -49.9,22.11413 -31.12676,-0.58283 -21.11746,-17.99719 -46.93924,-22.22156 -25.82177,-4.22435 -34.40902,27.35271 -48.72351,19.31604 -9.82411,-5.51561 -21.68521,-60.80038 -27.90092,-72.33954 -6.21572,-11.53915 5.59164,-33.98763 2.09678,-48.1129 12.04051,-65.46234 -15.43254,8.64896 -15.82765,-57.75378 0.0119,-18.97747 6.46803,-8.37666 9.72938,-19.64244 3.26136,-11.26578 1.14881,-29.18988 9.02773,-34.6548 7.87891,-5.46491 15.95169,-9.33371 29.81637,-10.90859 13.86469,-1.57488 8.20033,-14.97348 29.41897,-14.56915 10.60932,0.20218 22.21907,17.62326 34.92343,17.96195 12.70433,0.3387 16.97049,-25.9134 31.94089,-25.67702 14.9704,0.23637 33.02227,17.46144 50.42975,17.35664 17.40747,-0.10486 24.91123,-9.11741 44.92679,-9.80226 z"
         style="color:#000000;display:inline;overflow:visible;visibility:visible;opacity:1;fill:#000000;fill-opacity:1;fill-rule:nonzero;stroke:none;stroke-width:1.03416967px;marker:none;filter:url(#filter3018-3-2-2-2-0-0);enable-background:accumulate" />
      <path
         inkscape:connector-curvature="0"
         id="path3060-5-7-4-8-6-3"
         d="m 317.30996,963.59217 c 2.8076,36.52653 -11.3531,47.35793 -7.5295,55.30473 3.8237,7.9469 15.8815,11.5559 18.3467,1.8286 2.4651,-9.7273 -8.7342,-30.03293 -4.1662,-54.20063"
         style="display:inline;opacity:1;fill:#000000;fill-opacity:1;stroke:none" />
      <path
         inkscape:connector-curvature="0"
         id="path3060-5-7-4-8-6-3-6"
         d="m 284.36265,954.8235 c 2.8076,36.52655 -11.3531,47.3579 -7.5295,55.3047 3.8237,7.9469 15.8815,11.5559 18.3467,1.8286 2.4651,-9.7273 -8.7342,-30.03295 -4.1662,-54.2006"
         style="display:inline;opacity:1;fill:#000000;fill-opacity:1;stroke:none" />
    </g>
    <g
       id="g5837"
       transform="matrix(1.331234,0,0,1.331234,-367.69163,-754.9124)">
      <g
         transform="matrix(1.0282543,0,0,1.0282543,183.38247,-60.997481)"
         id="g5624-5"
         style="display:inline;fill:#0000ff;filter:url(#filter5767)">
        <path
           style="color:#000000;display:inline;overflow:visible;visibility:visible;opacity:1;fill:#0000ff;fill-opacity:1;fill-rule:nonzero;stroke:none;stroke-width:1.12275064px;marker:none;filter:url(#filter3018-3-2-2-2-0-0-8-0);enable-background:accumulate"
           d="m 617.92931,477.39305 c -4.84011,11.21122 -27.80905,26.86141 -27.80905,26.86141 0,0 17.82612,34.85033 10.37318,38.30725 -7.45293,3.4569 -44.05091,17.756 -50.76895,20.4002 -25.0013,-1.8909 -95.82722,-1.57521 -122.81277,-1.57933 -16.71083,0.99928 -44.97539,-10.01041 -51.63124,-14.24306 -13.3117,-8.46534 -37.28178,-7.55838 -41.45768,-22.26067 -6.30605,-22.20196 10.89954,-18.05989 10.8859,-41.08514 -0.007,-13.49522 -2.79653,-19.55774 -8.52252,-38.99872 -5.72602,-19.441 5.02915,-44.9656 5.30104,-58.79807 0.54375,-27.66493 -9.49666,-9.37055 -5.19157,-34.15649 4.30507,-24.78595 1.68623,-33.09098 8.86107,-45.95202 4.92413,-8.82661 2.61858,-25.85083 14.37824,-31.8172 11.75966,-5.96638 34.35934,0.13645 47.45615,-3.21786 19.57329,2.93418 46.89088,-5.6162 69.71279,-11.28445 19.31099,-0.90716 40.59109,6.53954 60.94144,9.35328 17.50815,2.42077 47.03971,-1.08657 52.60907,6.47629 5.56933,7.56285 11.36272,15.71619 15.50653,24.59213 4.74151,10.15617 10.87011,11.89955 10.45805,32.267 -0.20604,10.18374 -12.1476,13.67086 -12.17833,24.96555 -0.0308,11.29466 20.28173,24.84667 20.04084,39.21654 -0.24089,14.36986 -14.69301,18.48369 -14.59523,33.95515 0.0979,15.47147 7.74509,27.78557 8.44304,46.99821 z"
           id="path3986-3-7-9-1-0-9"
           inkscape:connector-curvature="0"
           sodipodi:nodetypes="ccsccssssssssccasassssc"
           transform="matrix(0.94438581,0,0,0.87807244,-85.58956,948.3307)" />
        <path
           style="display:inline;opacity:1;fill:#0000ff;fill-opacity:1;stroke:none"
           d="m 278.18765,1416.3798 c 2.8076,36.5266 -11.3531,47.358 -7.5295,55.3048 3.8237,7.9469 15.8815,11.5559 18.3467,1.8286 2.4651,-9.7273 -8.7342,-30.033 -4.1662,-54.2007"
           id="path3060-5-7-4-8-6-3-7-2"
           inkscape:connector-curvature="0" />
      </g>
      <g
         transform="translate(191.82392,-27.483373)"
         id="g5624">
        <path
           style="color:#000000;display:inline;overflow:visible;visibility:visible;opacity:1;fill:#0f0f0f;fill-opacity:1;fill-rule:nonzero;stroke:none;stroke-width:1.12275064px;marker:none;filter:url(#filter3018-3-2-2-2-0-0-8);enable-background:accumulate"
           d="m 617.92931,477.39305 c -4.84011,11.21122 -27.80905,26.86141 -27.80905,26.86141 0,0 17.82612,34.85033 10.37318,38.30725 -7.45293,3.4569 -44.05091,17.756 -50.76895,20.4002 -25.0013,-1.8909 -95.82722,-1.57521 -122.81277,-1.57933 -16.71083,0.99928 -44.97539,-10.01041 -51.63124,-14.24306 -13.3117,-8.46534 -37.28178,-7.55838 -41.45768,-22.26067 -6.30605,-22.20196 10.89954,-18.05989 10.8859,-41.08514 -0.007,-13.49522 -2.79653,-19.55774 -8.52252,-38.99872 -5.72602,-19.441 5.02915,-44.9656 5.30104,-58.79807 0.54375,-27.66493 -9.49666,-9.37055 -5.19157,-34.15649 4.30507,-24.78595 1.68623,-33.09098 8.86107,-45.95202 4.92413,-8.82661 2.61858,-25.85083 14.37824,-31.8172 11.75966,-5.96638 34.35934,0.13645 47.45615,-3.21786 19.57329,2.93418 46.89088,-5.6162 69.71279,-11.28445 19.31099,-0.90716 40.59109,6.53954 60.94144,9.35328 17.50815,2.42077 47.03971,-1.08657 52.60907,6.47629 5.56933,7.56285 11.36272,15.71619 15.50653,24.59213 4.74151,10.15617 10.87011,11.89955 10.45805,32.267 -0.20604,10.18374 -12.1476,13.67086 -12.17833,24.96555 -0.0308,11.29466 20.28173,24.84667 20.04084,39.21654 -0.24089,14.36986 -14.69301,18.48369 -14.59523,33.95515 0.0979,15.47147 7.74509,27.78557 8.44304,46.99821 z"
           id="path3986-3-7-9-1-0"
           inkscape:connector-curvature="0"
           sodipodi:nodetypes="ccsccssssssssccasassssc"
           transform="matrix(0.94438581,0,0,0.87807244,-85.58956,948.3307)" />
        <path
           style="display:inline;opacity:1;fill:#0f0f0f;fill-opacity:1;stroke:none"
           d="m 278.18765,1416.3798 c 2.8076,36.5266 -11.3531,47.358 -7.5295,55.3048 3.8237,7.9469 15.8815,11.5559 18.3467,1.8286 2.4651,-9.7273 -8.7342,-30.033 -4.1662,-54.2007"
           id="path3060-5-7-4-8-6-3-7"
           inkscape:connector-curvature="0" />
      </g>
    </g>
    <path
       style="display:inline;fill:#ffffff;stroke:none;stroke-width:0.67646372"
       d="m 652.206,3284.8672 c -27.1366,50.1238 -62.7442,85.4806 -67.1184,29.2346 -2.0227,-26.0105 -0.9917,-30.6815 -0.9917,-30.6815 l -7.0046,-2.7215 c 0,0 -32.356,46.0522 -13.8441,81.0366 18.512,34.9844 44.4699,20.2889 88.9588,-76.8682 z"
       id="path3063-1-2-8"
       inkscape:connector-curvature="0"
       sodipodi:nodetypes="cscczc" />
  </g>
  <g
     inkscape:groupmode="layer"
     id="layer1"
     inkscape:label="txt"
     style="display:inline">
    <flowRoot
       xml:space="preserve"
       id="flowRoot2987-4-9-3-6-6-2-8"
       style="font-style:normal;font-variant:normal;font-weight:normal;font-stretch:normal;line-height:1;font-family:Lavi;-inkscape-font-specification:Lavi;text-align:center;letter-spacing:0px;word-spacing:0px;text-anchor:middle;opacity:1;fill:#000000;fill-opacity:1;stroke:none"
       transform="matrix(0.93431702,0,0,1.0071365,-64.351795,-59.509478)"><flowRegion
         id="flowRegion2989-5-4-5-0-1-8-4"
         style="line-height:1"><rect
           id="rect2991-7-9-6-6-8-9-5"
           width="615.85046"
           height="407.77811"
           x="120.55251"
           y="265.53046"
           style="font-style:normal;font-variant:normal;font-weight:normal;font-stretch:normal;line-height:1;font-family:Lavi;-inkscape-font-specification:Lavi;text-align:center;text-anchor:middle" /></flowRegion><flowPara
         style="font-style:normal;font-variant:normal;font-weight:normal;font-stretch:normal;font-size:48px;line-height:1;font-family:'Drukaatie burti';-inkscape-font-specification:'Drukaatie burti';text-align:center;text-anchor:middle;fill:#ffffff;fill-opacity:1"
         id="flowPara846">Isang </flowPara><flowPara
         style="font-style:normal;font-variant:normal;font-weight:normal;font-stretch:normal;font-size:48px;line-height:1;font-family:'Drukaatie burti';-inkscape-font-specification:'Drukaatie burti';text-align:center;text-anchor:middle;fill:#ffffff;fill-opacity:1"
         id="flowPara5065">dimension,</flowPara><flowPara
         style="font-style:normal;font-variant:normal;font-weight:normal;font-stretch:normal;font-size:48px;line-height:1;font-family:'Drukaatie burti';-inkscape-font-specification:'Drukaatie burti';text-align:center;text-anchor:middle;fill:#ffffff;fill-opacity:1"
         id="flowPara7220">puno ng  </flowPara><flowPara
         style="font-style:normal;font-variant:normal;font-weight:normal;font-stretch:normal;font-size:48px;line-height:1;font-family:'Drukaatie burti';-inkscape-font-specification:'Drukaatie burti';text-align:center;text-anchor:middle;fill:#ffffff;fill-opacity:1"
         id="flowPara4559">mangmang na </flowPara><flowPara
         style="font-style:normal;font-variant:normal;font-weight:normal;font-stretch:normal;font-size:48px;line-height:1;font-family:'Drukaatie burti';-inkscape-font-specification:'Drukaatie burti';text-align:center;text-anchor:middle;fill:#ffffff;fill-opacity:1"
         id="flowPara4561">mga nilalang!</flowPara></flowRoot>    <flowRoot
       xml:space="preserve"
       id="flowRoot2987-4-9-3-6-6-2-8-3"
       style="font-style:normal;font-variant:normal;font-weight:normal;font-stretch:normal;line-height:0.01%;font-family:Lavi;-inkscape-font-specification:Lavi;text-align:center;letter-spacing:0px;word-spacing:0px;text-anchor:middle;opacity:1;fill:#000000;fill-opacity:1;stroke:none"
       transform="matrix(1.2538011,0,0,1.3515208,-170.89267,199.5978)"><flowRegion
         id="flowRegion2989-5-4-5-0-1-8-4-6"><rect
           id="rect2991-7-9-6-6-8-9-5-7"
           width="615.85046"
           height="407.77811"
           x="120.55251"
           y="265.53046"
           style="font-style:normal;font-variant:normal;font-weight:normal;font-stretch:normal;font-family:Lavi;-inkscape-font-specification:Lavi;text-align:center;text-anchor:middle" /></flowRegion><flowPara
         style="font-style:normal;font-variant:normal;font-weight:normal;font-stretch:normal;font-size:48px;line-height:1;font-family:'Drukaatie burti';-inkscape-font-specification:'Drukaatie burti';text-align:center;text-anchor:middle;fill:#ffffff;fill-opacity:1"
         id="flowPara897">Sige pa!</flowPara><flowPara
         style="font-style:normal;font-variant:normal;font-weight:normal;font-stretch:normal;font-size:48px;line-height:1;font-family:'Drukaatie burti';-inkscape-font-specification:'Drukaatie burti';text-align:center;text-anchor:middle;fill:#ffffff;fill-opacity:1"
         id="flowPara904">Lumaki </flowPara><flowPara
         style="font-style:normal;font-variant:normal;font-weight:normal;font-stretch:normal;font-size:48px;line-height:1;font-family:'Drukaatie burti';-inkscape-font-specification:'Drukaatie burti';text-align:center;text-anchor:middle;fill:#ffffff;fill-opacity:1"
         id="flowPara4658">ka pa!</flowPara><flowPara
         style="font-style:normal;font-variant:normal;font-weight:normal;font-stretch:normal;font-size:48px;line-height:1;font-family:'Drukaatie burti';-inkscape-font-specification:'Drukaatie burti';text-align:center;text-anchor:middle;fill:#ffffff;fill-opacity:1"
         id="flowPara5616" /></flowRoot>    <flowRoot
       xml:space="preserve"
       id="flowRoot2987-4-9-3-6-6-2-8-3-2"
       style="font-style:normal;font-variant:normal;font-weight:normal;font-stretch:normal;line-height:0.01%;font-family:Lavi;-inkscape-font-specification:Lavi;text-align:center;letter-spacing:0px;word-spacing:0px;text-anchor:middle;opacity:1;fill:#000000;fill-opacity:1;stroke:none"
       transform="matrix(1.4644086,0,0,1.5785427,-254.82046,417.08394)"><flowRegion
         id="flowRegion2989-5-4-5-0-1-8-4-6-9"><rect
           id="rect2991-7-9-6-6-8-9-5-7-1"
           width="615.85046"
           height="407.77811"
           x="120.55251"
           y="265.53046"
           style="font-style:normal;font-variant:normal;font-weight:normal;font-stretch:normal;font-family:Lavi;-inkscape-font-specification:Lavi;text-align:center;text-anchor:middle" /></flowRegion><flowPara
         style="font-style:normal;font-variant:normal;font-weight:normal;font-stretch:normal;font-size:48px;line-height:1;font-family:'Drukaatie burti';-inkscape-font-specification:'Drukaatie burti';text-align:center;text-anchor:middle;fill:#ffffff;fill-opacity:1"
         id="flowPara846-6-2">LAKI PA!</flowPara><flowPara
         style="font-style:normal;font-variant:normal;font-weight:normal;font-stretch:normal;font-size:48px;line-height:1;font-family:'Drukaatie burti';-inkscape-font-specification:'Drukaatie burti';text-align:center;text-anchor:middle;fill:#ffffff;fill-opacity:1"
         id="flowPara897-7">Mwahaha</flowPara><flowPara
         style="font-style:normal;font-variant:normal;font-weight:normal;font-stretch:normal;font-size:48px;line-height:1;font-family:'Drukaatie burti';-inkscape-font-specification:'Drukaatie burti';text-align:center;text-anchor:middle;fill:#ffffff;fill-opacity:1"
         id="flowPara926">hahaha!</flowPara></flowRoot>    <text
       xml:space="preserve"
       style="font-style:normal;font-variant:normal;font-weight:normal;font-stretch:normal;font-size:9.23329735px;line-height:0%;font-family:Lavi;-inkscape-font-specification:Lavi;text-align:center;letter-spacing:0px;word-spacing:0px;text-anchor:middle;fill:#000000;fill-opacity:1;stroke:none;stroke-width:0.76944143"
       x="530.81415"
       y="2157.0244"
       id="text4246"><tspan
         sodipodi:role="line"
         style="font-size:34.62486267px;line-height:1.20000005;stroke-width:0.76944143"
         x="530.81415"
         y="2157.0244"
         id="tspan4252">Phew!</tspan></text>
    <path
       style="fill:none;stroke:#ffffff;stroke-width:7.65167475;stroke-linecap:butt;stroke-linejoin:miter;stroke-miterlimit:4;stroke-dasharray:none;stroke-opacity:1"
       d="m 668.86155,2036.7946 c 27.89568,61.1749 55.79018,122.3472 102.28096,159.1255 46.49077,36.7783 111.58349,49.166 139.1174,49.6418 27.53391,0.4758 17.51068,-10.9615 17.59102,-12.4042 0.0803,-1.4426 10.2609,7.1071 16.5579,6.8806 6.29699,-0.2266 8.83855,-9.7072 11.58427,-11.1763 2.74573,-1.4691 5.75563,4.8321 8.76528,11.1328"
       id="path5803"
       inkscape:connector-curvature="0"
       inkscape:path-effect="#path-effect5805"
       inkscape:original-d="m 668.86155,2036.7946 c 27.89479,61.1753 55.78933,122.3476 83.68358,183.5171 65.08761,12.3896 130.18033,24.7772 195.27011,37.1613 -10.02266,-11.4342 -20.04596,-22.8715 -30.06928,-34.3116 10.18531,8.5537 20.36587,17.1034 30.54643,25.6531 2.92023,-8.8669 4.95592,-18.4832 7.43354,-27.7291 3.01183,6.308 6.02179,12.6092 9.03245,18.9094" />
    <text
       xml:space="preserve"
       style="font-style:normal;font-variant:normal;font-weight:normal;font-stretch:normal;font-size:9.64560318px;line-height:1;font-family:Lavi;-inkscape-font-specification:Lavi;text-align:center;letter-spacing:0px;word-spacing:0px;text-anchor:middle;fill:#000000;fill-opacity:1;stroke:none;stroke-width:0.80380028"
       x="673.17065"
       y="2114.7117"
       id="text4246-2"><tspan
         sodipodi:role="line"
         style="font-size:36.17101288px;line-height:1;stroke-width:0.80380028"
         x="679.52887"
         y="2114.7117"
         id="tspan83">Hanep </tspan><tspan
         sodipodi:role="line"
         style="font-size:36.17101288px;line-height:1;stroke-width:0.80380028"
         x="679.52881"
         y="2150.8826"
         id="tspan5791">ang </tspan><tspan
         sodipodi:role="line"
         style="font-size:36.17101288px;line-height:1;stroke-width:0.80380028"
         x="679.52887"
         y="2187.0537"
         id="tspan4577">party </tspan><tspan
         sodipodi:role="line"
         style="font-size:36.17101288px;line-height:1;stroke-width:0.80380028"
         x="679.52887"
         y="2223.2246"
         id="tspan5789">niyo </tspan><tspan
         sodipodi:role="line"
         style="font-size:36.17101288px;line-height:1;stroke-width:0.80380028"
         x="673.17065"
         y="2259.3958"
         id="tspan4579">guys</tspan><tspan
         sodipodi:role="line"
         style="font-size:36.17101288px;line-height:1;stroke-width:0.80380028"
         x="677.86865"
         y="2295.5667"
         id="tspan5786"> <tspan
   style="line-height:1;fill:#ff80e5;stroke-width:0.80380028"
   id="tspan5778">♥ </tspan></tspan></text>
    <text
       xml:space="preserve"
       style="font-style:normal;font-variant:normal;font-weight:normal;font-stretch:normal;line-height:0%;font-family:Lavi;-inkscape-font-specification:Lavi;text-align:center;letter-spacing:0px;word-spacing:0px;text-anchor:middle;fill:#000000;fill-opacity:1;stroke:none"
       x="401.03934"
       y="2976.387"
       id="text4246-2-7"><tspan
         sodipodi:role="line"
         style="font-size:45px;line-height:1.20000005"
         x="401.03934"
         y="2976.387"
         id="tspan933">Ui Pepper,</tspan><tspan
         sodipodi:role="line"
         style="font-size:45px;line-height:1.20000005"
         x="408.94949"
         y="3030.387"
         id="tspan937">Pano ba </tspan><tspan
         sodipodi:role="line"
         style="font-size:45px;line-height:1.20000005"
         x="408.94949"
         y="3084.387"
         id="tspan5861">gumagana </tspan><tspan
         sodipodi:role="line"
         style="font-size:45px;line-height:1.20000005"
         x="401.03934"
         y="3138.387"
         id="tspan945">ang Chaosan</tspan><tspan
         sodipodi:role="line"
         style="font-size:45px;line-height:1.20000005"
         x="408.94949"
         y="3192.387"
         id="tspan5863"> magic? </tspan><tspan
         sodipodi:role="line"
         style="font-size:45px;line-height:1.20000005"
         x="408.94949"
         y="3246.387"
         id="tspan4616">Curious </tspan><tspan
         sodipodi:role="line"
         style="font-size:45px;line-height:1.20000005"
         x="408.94949"
         y="3300.387"
         id="tspan4618">lang kami ni </tspan><tspan
         sodipodi:role="line"
         style="font-size:45px;line-height:1.20000005"
         x="401.03934"
         y="3354.387"
         id="tspan5865">Saffron</tspan></text>
    <text
       xml:space="preserve"
       style="font-style:normal;font-variant:normal;font-weight:normal;font-stretch:normal;line-height:0%;font-family:Lavi;-inkscape-font-specification:Lavi;text-align:center;letter-spacing:0px;word-spacing:0px;text-anchor:middle;fill:#000000;fill-opacity:1;stroke:none"
       x="2127"
       y="3025.2151"
       id="text4246-2-7-2"><tspan
         sodipodi:role="line"
         style="font-size:45px;line-height:1.20000005"
         x="2134.9102"
         y="3025.2151"
         id="tspan1240">Oo nga, </tspan><tspan
         sodipodi:role="line"
         style="font-size:45px;line-height:1.20000005"
         x="2127"
         y="3079.2151"
         id="tspan4652">Napaka-</tspan><tspan
         sodipodi:role="line"
         style="font-size:45px;line-height:1.20000005"
         x="2127"
         y="3133.2151"
         id="tspan5851">mysterious ng</tspan><tspan
         sodipodi:role="line"
         style="font-size:45px;line-height:1.20000005"
         x="2134.9102"
         y="3187.2151"
         id="tspan5857"> powers nyo, </tspan><tspan
         sodipodi:role="line"
         style="font-size:45px;line-height:1.20000005"
         x="2134.9102"
         y="3241.2151"
         id="tspan4656">kwento </tspan><tspan
         sodipodi:role="line"
         style="font-size:45px;line-height:1.20000005"
         x="2127"
         y="3295.2151"
         id="tspan5859">naman!!</tspan></text>
    <text
       xml:space="preserve"
       style="font-style:normal;font-weight:normal;font-size:40px;line-height:1.25;font-family:sans-serif;letter-spacing:0px;word-spacing:0px;fill:#000000;fill-opacity:1;stroke:none"
       x="437.63928"
       y="771.60895"
       id="text5620"><tspan
         sodipodi:role="line"
         id="tspan5618"
         x="437.63928"
         y="808.00372"></tspan></text>
    <circle
       style="opacity:1;fill:#ffffff;fill-opacity:1;stroke:#ffffff;stroke-width:3.70000005;stroke-miterlimit:4;stroke-dasharray:none"
       id="path5811"
       cx="986.2392"
       cy="2232.4624"
       r="4.1931939" />
    <circle
       style="display:inline;opacity:1;fill:#ffffff;fill-opacity:1;stroke:#ffffff;stroke-width:3.70000005;stroke-miterlimit:4;stroke-dasharray:none"
       id="path5811-2"
       cx="1008.8824"
       cy="2229.9463"
       r="4.1931939" />
  </g>
</svg>
