<?xml version="1.0" encoding="UTF-8" standalone="no"?>
<!-- Created with Inkscape (http://www.inkscape.org/) -->

<svg
   xmlns:dc="http://purl.org/dc/elements/1.1/"
   xmlns:cc="http://creativecommons.org/ns#"
   xmlns:rdf="http://www.w3.org/1999/02/22-rdf-syntax-ns#"
   xmlns:svg="http://www.w3.org/2000/svg"
   xmlns="http://www.w3.org/2000/svg"
   xmlns:xlink="http://www.w3.org/1999/xlink"
   xmlns:sodipodi="http://sodipodi.sourceforge.net/DTD/sodipodi-0.dtd"
   xmlns:inkscape="http://www.inkscape.org/namespaces/inkscape"
   id="svg2"
   version="1.1"
   inkscape:version="0.92.4 (5da689c313, 2019-01-14)"
   width="2481"
   height="3503"
   sodipodi:docname="E06P09.svg">
  <sodipodi:namedview
     pagecolor="#ffffff"
     bordercolor="#666666"
     inkscape:pageopacity="0"
     inkscape:pageshadow="2"
     inkscape:window-width="1600"
     inkscape:window-height="900"
     id="namedview70"
     showgrid="false"
     inkscape:zoom="0.4"
     inkscape:cx="1284.4231"
     inkscape:cy="2918.6204"
     inkscape:current-layer="layer1"
     inkscape:window-x="0"
     inkscape:window-y="0"
     inkscape:window-maximized="0" />
  <metadata
     id="metadata8">
    <rdf:RDF>
      <cc:Work
         rdf:about="">
        <dc:format>image/svg+xml</dc:format>
        <dc:type
           rdf:resource="http://purl.org/dc/dcmitype/StillImage" />
        <dc:title />
      </cc:Work>
    </rdf:RDF>
  </metadata>
  <defs
     id="defs6">
    <filter
       inkscape:collect="always"
       id="filter3843">
      <feGaussianBlur
         inkscape:collect="always"
         stdDeviation="0.93774878"
         id="feGaussianBlur3845" />
    </filter>
  </defs>
  <sodipodi:namedview
     pagecolor="#ffffff"
     bordercolor="#666666"
     borderopacity="1"
     objecttolerance="10"
     gridtolerance="10"
     guidetolerance="10"
     inkscape:pageopacity="0"
     inkscape:pageshadow="2"
     inkscape:window-width="1920"
     inkscape:window-height="1025"
     id="namedview4"
     showgrid="false"
     inkscape:zoom="0.60835003"
     inkscape:cx="1080.6188"
     inkscape:cy="645.23785"
     inkscape:window-x="0"
     inkscape:window-y="26"
     inkscape:window-maximized="1"
     inkscape:current-layer="layer1" />
  <g
     inkscape:groupmode="layer"
     id="layer2"
     inkscape:label="artwork"
     sodipodi:insensitive="true">
    <image
       sodipodi:absref="D:\Pepper&amp;Carrot\ep06_The-Potion-Contest_lang-pack\lang\ro\../gfx_Pepper-and-Carrot_by-David-Revoy_E06P09.png"
       xlink:href="../gfx_Pepper-and-Carrot_by-David-Revoy_E06P09.png"
       width="2481"
       height="3503"
       id="image10"
       x="0"
       y="0" />
  </g>
  <g
     inkscape:groupmode="layer"
     id="layer3"
     inkscape:label="speechbubbles" />
  <g
     inkscape:groupmode="layer"
     id="layer1"
     inkscape:label="txt">
    <path
       style="color:#000000;display:inline;overflow:visible;visibility:visible;fill:#ffffff;fill-opacity:1;fill-rule:nonzero;stroke:none;stroke-width:1.12330234px;marker:none;enable-background:accumulate"
       d="m 2001.6862,3304.5369 c 9.733,-45.4874 44.2417,-72.6332 212.3603,-82.9045 168.1187,-10.2714 190.2394,42.5527 195.5485,68.9648 5.3092,26.412 0.8849,65.2964 -46.0114,85.1055 -46.896,19.809 -149.5371,24.2111 -186.7001,19.0753 -37.163,-5.1356 -112.5849,-1.0097 -133.8208,-17.8841 -21.2362,-16.8744 -38.722,-32.739 -41.3765,-72.357 z"
       id="path3573-7-6"
       inkscape:connector-curvature="0"
       sodipodi:nodetypes="csssssc" />
    <path
       style="color:#000000;display:inline;overflow:visible;visibility:visible;fill:#ffffff;fill-opacity:1;fill-rule:nonzero;stroke:none;stroke-width:1.00349569px;marker:none;enable-background:accumulate"
       d="m 1720.7737,3057.2173 c 16.2418,-111.1536 72.5429,-191.678 354.3692,-202.5864 332.4694,-12.8684 317.456,103.9826 326.3154,168.5233 8.8592,64.5406 1.4763,159.5591 -76.78,207.9646 -78.2563,48.4055 -249.5354,59.1626 -311.5496,46.6127 -62.0147,-12.5494 -187.8724,-2.4672 -223.3092,-43.7018 -35.4373,-41.2345 -64.6162,-80.0012 -69.0458,-176.8124 z"
       id="path3573-7-3"
       inkscape:connector-curvature="0"
       sodipodi:nodetypes="csssssc" />
    <path
       style="color:#000000;display:inline;overflow:visible;visibility:visible;fill:#ffffff;fill-opacity:1;fill-rule:nonzero;stroke:none;stroke-width:0.86037236px;marker:none;enable-background:accumulate"
       d="m 1598.1154,2855.2332 c 6.756,-42.2645 30.7092,-67.4869 147.4041,-77.0305 116.695,-9.5436 132.0496,39.5378 135.7348,64.0785 3.6851,24.5407 0.6141,60.67 -31.9376,79.0756 -32.5517,18.4055 -103.7972,22.4957 -129.5928,17.7238 -25.7957,-4.7717 -78.1478,-0.9382 -92.8881,-16.617 -14.7405,-15.6788 -26.8779,-30.4193 -28.7204,-67.2304 z"
       id="path3573-7"
       inkscape:connector-curvature="0"
       sodipodi:nodetypes="csssssc" />
    <path
       style="fill:#ffffff;stroke:none"
       d="m 537.09418,2541.4872 c 33.09859,-32.5986 27.82913,-46.4897 20.47318,-61.9311 -7.35578,-15.4414 -15.80643,-28.8005 -11.63578,-38.5723 4.17067,-9.7716 15.29078,-18.9641 24.58593,-24.686 9.29534,-5.7221 5.82948,-15.5939 3.03764,-26.8393 -2.79187,-11.2454 -2.24445,-72.1608 -2.24445,-72.1608 0,0 30.94507,37.7177 36.59273,51.8094 5.64763,14.0915 7.78669,19.2207 8.43954,25.3368 0.6528,6.1163 -0.0619,21.2717 -7.81836,29.5853 -7.75637,8.3136 -19.51606,12.2846 -26.94693,17.2201 -7.43092,4.9354 -10.37423,18.4428 -7.3735,31.1305 3.00072,12.6876 5.31027,42.1409 -8.76887,54.2024 -14.07925,12.0614 -28.34113,14.905 -28.34113,14.905 z"
       id="path3023-3"
       inkscape:connector-curvature="0"
       sodipodi:nodetypes="csssscssssssc" />
    <path
       style="color:#000000;fill:#ffffff;fill-opacity:1;fill-rule:nonzero;stroke:none;stroke-width:1px;marker:none;visibility:visible;display:inline;overflow:visible;enable-background:accumulate"
       d="m 232.01528,2270.0415 c 15.67286,-72.9995 71.24042,-116.5637 341.95432,-133.0474 270.71393,-16.4836 306.33415,68.2898 314.88303,110.6765 8.54888,42.3866 1.42478,104.7895 -74.09012,136.5795 -75.51492,31.79 -240.79291,38.8545 -300.63483,30.6125 -59.84205,-8.2417 -181.29026,-1.6203 -215.48566,-28.7008 -34.19552,-27.0804 -62.35236,-52.5404 -66.62674,-116.1203 z"
       id="path3573"
       inkscape:connector-curvature="0"
       sodipodi:nodetypes="csssssc" />
    <path
       style="fill:#ffffff;stroke:none"
       d="m 98.132685,2097.1346 c 11.122815,-62.2783 49.547265,-121.8876 281.104975,-129.8948 231.55781,-8.0071 328.52368,44.0904 327.61887,120.998 -0.98548,83.7634 -67.74828,135.2329 -254.81461,137.0123 -187.06633,1.7794 -347.84229,-6.2279 -353.909235,-128.1155 z"
       id="path3270"
       inkscape:connector-curvature="0"
       sodipodi:nodetypes="csssc" />
    <path
       style="fill:#ffffff;stroke:none"
       d="m 1604.3654,543.48013 c 44.8711,-10.8171 54.1774,-0.16815 63.7635,12.84937 9.5861,13.01743 16.8223,25.92299 27.3594,27.20978 10.5371,1.2868 24.0955,-3.17063 33.7373,-7.81443 9.6419,-4.64389 16.3969,2.70419 24.6774,10.16404 8.2806,7.45986 61.0745,35.52734 61.0745,35.52734 0,0 -16.8411,-42.01779 -26.1287,-53.0584 -9.2876,-11.04059 -12.6259,-15.12489 -17.5681,-18.50045 -4.9422,-3.37558 -18.3701,-9.90297 -29.4667,-7.68351 -11.0966,2.21938 -20.4774,9.62342 -28.4968,13.16683 -8.0192,3.54351 -21.1553,-0.45764 -30.5735,-8.75676 -9.4182,-8.2991 -33.6405,-23.89753 -51.1713,-18.45172 -17.5306,5.44581 -27.207,15.34791 -27.207,15.34791 z"
       id="path3023"
       inkscape:connector-curvature="0"
       sodipodi:nodetypes="csssscssssssc" />
    <path
       style="color:#000000;fill:#ffffff;fill-opacity:1;fill-rule:nonzero;stroke:none;stroke-width:1px;marker:none;visibility:visible;display:inline;overflow:visible;enable-background:accumulate"
       d="m 266.00179,138.74796 c 25.32949,-30.82881 239.13929,-64.291607 314.28573,-0.75991 75.14643,63.5317 29.56582,139.76981 -13.55107,164.0273 -43.11677,24.25761 -170.00339,50.8254 -227.90302,30.0332 -57.89975,-20.7922 -102.99997,-51.87249 -105.94419,-115.5122 -1.20164,-25.9739 7.78297,-46.95949 33.11255,-77.78839 z"
       id="path4040"
       inkscape:connector-curvature="0"
       sodipodi:nodetypes="zssssz" />
    <path
       style="color:#000000;fill:#ffffff;fill-opacity:1;fill-rule:nonzero;stroke:none;stroke-width:1px;marker:none;visibility:visible;display:inline;overflow:visible;enable-background:accumulate"
       d="M 823.77301,239.48782 C 785.71479,212.4529 744.2463,189.87236 700.10307,174.50087 c -22.3601,-7.49489 -46.23657,-13.70056 -69.94454,-10.06997 -12.68738,2.12087 -24.93627,10.17173 -29.24104,22.70339 -5.67942,14.54975 -2.49078,30.33049 -1.25519,45.35597 0.79223,13.0707 1.27006,27.36287 -5.78022,38.95292 -4.55152,6.386 -13.44736,7.95888 -20.48127,5.12253 -9.03021,-2.82113 -17.14762,-8.28646 -24.08298,-14.54582 -8.92681,-20.07843 -17.85361,-40.15685 -26.78042,-60.23528 16.79371,-34.08909 50.69881,-59.99635 88.80495,-64.31453 34.39039,-4.30376 68.78667,6.08648 99.41522,21.0759 41.76812,20.6339 78.6781,49.7534 113.01543,80.94184 z"
       id="path4048"
       inkscape:connector-curvature="0" />
    <flowRoot
       xml:space="preserve"
       id="flowRoot2987-4-9-3"
       style="font-style:normal;font-variant:normal;font-weight:normal;font-stretch:normal;line-height:0.01%;font-family:Lavi;-inkscape-font-specification:Lavi;text-align:center;letter-spacing:0px;word-spacing:0px;text-anchor:middle;fill:#000000;fill-opacity:1;stroke:none"
       transform="translate(1.0507628,-141.67359)"><flowRegion
         id="flowRegion2989-5-4-5"><rect
           id="rect2991-7-9-6"
           width="602.40173"
           height="310.73996"
           x="120.55251"
           y="265.53046"
           style="font-style:normal;font-variant:normal;font-weight:normal;font-stretch:normal;font-family:Lavi;-inkscape-font-specification:Lavi;text-align:center;text-anchor:middle" /></flowRegion><flowPara
         style="font-size:48px;line-height:1.25;text-align:center;text-anchor:middle"
         id="flowPara3039">Exact, </flowPara><flowPara
         style="font-size:48px;line-height:1.25;text-align:center;text-anchor:middle"
         id="flowPara4691">citește cu atenție </flowPara><flowPara
         style="font-size:48px;line-height:1.25;text-align:center;text-anchor:middle"
         id="flowPara121">eticheta...</flowPara><flowPara
         style="font-size:48px;line-height:1.25;text-align:center;text-anchor:middle"
         id="flowPara4693" /></flowRoot>    <path
       style="color:#000000;fill:#ffffff;fill-opacity:1;fill-rule:nonzero;stroke:none;stroke-width:1px;marker:none;visibility:visible;display:inline;overflow:visible;enable-background:accumulate"
       d="m 1722.5997,565.17087 c 5.6086,-113.47198 70.3257,-175.99246 348.843,-162.49266 110.1522,5.3391 321.0523,-31.56014 352.0639,143.97171 28.6991,162.44283 -249.6683,171.78902 -299.7405,177.70601 -50.0723,5.91721 -311.2749,-1.67584 -359.1434,-55.33411 -22.0771,-24.74725 -41.882,-68.78446 -42.023,-103.85095 z"
       id="path4546"
       inkscape:connector-curvature="0"
       sodipodi:nodetypes="cssssc" />
    <flowRoot
       xml:space="preserve"
       id="flowRoot2987-4-9-3-9"
       style="font-style:normal;font-variant:normal;font-weight:normal;font-stretch:normal;line-height:0.01%;font-family:Lavi;-inkscape-font-specification:Lavi;text-align:center;letter-spacing:0px;word-spacing:0px;text-anchor:middle;fill:#000000;fill-opacity:1;stroke:none"
       transform="translate(1646.8866,184.86936)"><flowRegion
         id="flowRegion2989-5-4-5-8"><rect
           id="rect2991-7-9-6-2"
           width="602.40173"
           height="310.73996"
           x="120.55251"
           y="265.53046"
           style="font-style:normal;font-variant:normal;font-weight:normal;font-stretch:normal;font-family:Lavi;-inkscape-font-specification:Lavi;text-align:center;text-anchor:middle" /></flowRegion><flowPara
         style="font-size:48px;line-height:1.25;text-align:center;text-anchor:middle"
         id="flowPara3080">...O să o torn toată pe tine fără să mă gândesc de două ori dacă nu dispari din Komona imediat!</flowPara></flowRoot>    <flowRoot
       xml:space="preserve"
       id="flowRoot2987-4-9-3-6"
       style="font-style:normal;font-variant:normal;font-weight:normal;font-stretch:normal;line-height:0.01%;font-family:Lavi;-inkscape-font-specification:Lavi;text-align:center;letter-spacing:0px;word-spacing:0px;text-anchor:middle;fill:#000000;fill-opacity:1;stroke:none"
       transform="translate(16.622623,1768.2494)"><flowRegion
         id="flowRegion2989-5-4-5-5"><rect
           id="rect2991-7-9-6-21"
           width="532.40173"
           height="290.73993"
           x="120.55251"
           y="265.53046"
           style="font-style:normal;font-variant:normal;font-weight:normal;font-stretch:normal;font-family:Lavi;-inkscape-font-specification:Lavi;text-align:center;text-anchor:middle" /></flowRegion><flowPara
         style="font-size:48px;line-height:1.25;text-align:center;text-anchor:middle"
         id="flowPara3030-8-8">Pentru că ne-a salvat orașul de la pericol</flowPara></flowRoot>    <flowRoot
       xml:space="preserve"
       id="flowRoot2987-4-9-3-6-3"
       style="font-style:normal;font-variant:normal;font-weight:normal;font-stretch:normal;line-height:0.01%;font-family:Lavi;-inkscape-font-specification:Lavi;text-align:center;letter-spacing:0px;word-spacing:0px;text-anchor:middle;fill:#000000;fill-opacity:1;stroke:none"
       transform="translate(126.42216,1939.2185)"><flowRegion
         id="flowRegion2989-5-4-5-5-3"><rect
           id="rect2991-7-9-6-21-9"
           width="634.90173"
           height="343.23993"
           x="120.55251"
           y="265.53046"
           style="font-style:normal;font-variant:normal;font-weight:normal;font-stretch:normal;font-family:Lavi;-inkscape-font-specification:Lavi;text-align:center;text-anchor:middle" /></flowRegion><flowPara
         style="font-size:48px;line-height:1.25;text-align:center;text-anchor:middle"
         id="flowPara3131">îi acordăm primul loc lui Pepper pentru Poțiunea ei de... ??!!</flowPara></flowRoot>    <flowRoot
       xml:space="preserve"
       id="flowRoot2987-4-9-3-6-3-8"
       style="font-style:normal;font-variant:normal;font-weight:normal;font-stretch:normal;line-height:0.01%;font-family:Lavi;-inkscape-font-specification:Lavi;text-align:center;letter-spacing:0px;word-spacing:0px;text-anchor:middle;fill:#000000;fill-opacity:1;stroke:none"
       transform="translate(1567.8088,2619.9978)"><flowRegion
         id="flowRegion2989-5-4-5-5-3-0"><rect
           id="rect2991-7-9-6-21-9-8"
           width="774.90173"
           height="513.23993"
           x="120.55251"
           y="265.53046"
           style="font-style:normal;font-variant:normal;font-weight:normal;font-stretch:normal;font-family:Lavi;-inkscape-font-specification:Lavi;text-align:center;text-anchor:middle" /></flowRegion><flowPara
         style="font-size:48px;line-height:1.25;text-align:center;text-anchor:middle"
         id="flowPara3217">...hah... </flowPara><flowPara
         style="font-size:48px;line-height:1.25;text-align:center;text-anchor:middle"
         id="flowPara4711">de fapt, </flowPara><flowPara
         style="font-size:48px;line-height:1.25;text-align:center;text-anchor:middle"
         id="flowPara4719">nu e chiar o poțiune;</flowPara><flowPara
         style="font-size:48px;line-height:1.25;text-align:center;text-anchor:middle"
         id="flowPara4717">este o mostră din urina pisicii </flowPara><flowPara
         style="font-size:48px;line-height:1.25;text-align:center;text-anchor:middle"
         id="flowPara134">mele, de la ultima vizită la veterinar!</flowPara></flowRoot>    <flowRoot
       xml:space="preserve"
       id="flowRoot2987-4-9-3-6-3-8-7"
       style="font-style:normal;font-variant:normal;font-weight:normal;font-stretch:normal;line-height:0.01%;font-family:Lavi;-inkscape-font-specification:Lavi;text-align:center;letter-spacing:0px;word-spacing:0px;text-anchor:middle;fill:#000000;fill-opacity:1;stroke:none"
       transform="translate(1221.4914,2533.2934)"><flowRegion
         id="flowRegion2989-5-4-5-5-3-0-6"><rect
           id="rect2991-7-9-6-21-9-8-0"
           width="774.90173"
           height="513.23993"
           x="120.55251"
           y="265.53046"
           style="font-style:normal;font-variant:normal;font-weight:normal;font-stretch:normal;font-family:Lavi;-inkscape-font-specification:Lavi;text-align:center;text-anchor:middle" /></flowRegion><flowPara
         style="font-size:48px;line-height:1.25;text-align:center;text-anchor:middle"
         id="flowPara3217-6">...Haha!</flowPara><flowPara
         style="font-size:48px;line-height:1.25;text-align:center;text-anchor:middle"
         id="flowPara3272">    dap...</flowPara></flowRoot>    <path
       style="fill:#ffffff;stroke:none"
       d="m 1570.4499,2693.6646 c 11.865,21.9135 20.5535,35.7439 32.3532,38.6567 11.7996,2.9126 25.4122,7.0997 36.6448,0.9554 11.2326,-6.1443 31.3831,-9.7639 37.9644,-4.9033 6.5814,4.8606 30.224,23.3532 33.8418,42.9792 3.6176,19.6261 35.3335,-10.2628 35.3335,-10.2628 0,0 -17.5983,-33.4325 -22.6391,-38.3802 -5.0411,-4.9479 -16.7587,-23.0138 -47.4193,-17.4222 -30.6606,5.5916 -48.5046,17.6188 -63.3115,16.8043 -14.8067,-0.8144 -35.0743,-11.786 -42.7678,-28.4271 z"
       id="path3137"
       inkscape:connector-curvature="0" />
    <flowRoot
       xml:space="preserve"
       id="flowRoot2987-4-9-3-6-3-8-7-4"
       style="font-style:normal;font-variant:normal;font-weight:normal;font-stretch:normal;line-height:0.01%;font-family:Lavi;-inkscape-font-specification:Lavi;text-align:center;letter-spacing:0px;word-spacing:0px;text-anchor:middle;fill:#000000;fill-opacity:1;stroke:none"
       transform="matrix(0.77121069,0,0,0.77121069,1821.7726,3068.6808)"><flowRegion
         id="flowRegion2989-5-4-5-5-3-0-6-7"><rect
           id="rect2991-7-9-6-21-9-8-0-4"
           width="774.90173"
           height="513.23993"
           x="120.55251"
           y="265.53046"
           style="font-style:normal;font-variant:normal;font-weight:normal;font-stretch:normal;font-family:Lavi;-inkscape-font-specification:Lavi;text-align:center;text-anchor:middle" /></flowRegion><flowPara
         style="font-size:48px;line-height:1.25;text-align:center;text-anchor:middle"
         id="flowPara4723">...așadar, </flowPara><flowPara
         style="font-size:48px;line-height:1.25;text-align:center;text-anchor:middle"
         id="flowPara136">fără demonstrație?...</flowPara></flowRoot>    <flowRoot
       xml:space="preserve"
       id="flowRoot2987-4-9-3-6-3-8-7-2"
       style="font-style:normal;font-variant:normal;font-weight:normal;font-stretch:normal;line-height:0.01%;font-family:Lavi;-inkscape-font-specification:Lavi;text-align:center;letter-spacing:0px;word-spacing:0px;text-anchor:middle;fill:#000000;fill-opacity:1;stroke:none"
       transform="matrix(0.98155063,0,0,1.1575578,1168.4338,3089.7403)"><flowRegion
         id="flowRegion2989-5-4-5-5-3-0-6-76"><rect
           id="rect2991-7-9-6-21-9-8-0-3"
           width="1041.0548"
           height="56.977448"
           x="120.55251"
           y="265.53046"
           style="font-style:normal;font-variant:normal;font-weight:normal;font-stretch:normal;font-family:Lavi;-inkscape-font-specification:Lavi;text-align:center;text-anchor:middle" /></flowRegion><flowPara
         style="font-size:48px;line-height:1.25;text-align:center;text-anchor:middle"
         id="flowPara3272-6">Episodul 6: Concursul Poțiunilor</flowPara></flowRoot>    <flowRoot
       transform="matrix(0.70703651,0,-0.1722617,1.1368111,1972.386,3099.3978)"
       style="font-style:normal;font-variant:normal;font-weight:normal;font-stretch:normal;line-height:0.01%;font-family:Lavi;-inkscape-font-specification:Lavi;text-align:center;letter-spacing:0px;word-spacing:0px;text-anchor:middle;fill:#000000;fill-opacity:1;stroke:#000000;stroke-width:4.69999981;stroke-miterlimit:4;stroke-dasharray:none;stroke-opacity:1"
       id="flowRoot4212-3-7-8-6"
       xml:space="preserve"><flowRegion
         id="flowRegion4214-6-7-8-3"><rect
           style="font-style:normal;font-variant:normal;font-weight:normal;font-stretch:normal;font-family:Lavi;-inkscape-font-specification:Lavi;text-align:center;text-anchor:middle;stroke:#000000;stroke-width:4.69999981;stroke-miterlimit:4;stroke-dasharray:none;stroke-opacity:1"
           y="265.53046"
           x="120.55251"
           height="355.03918"
           width="798.1947"
           id="rect4216-4-0-26-5" /></flowRegion><flowPara
         style="font-size:48px;line-height:1.25;text-align:center;letter-spacing:5.20896292px;text-anchor:middle;stroke:#000000;stroke-width:4.69999981;stroke-miterlimit:4;stroke-dasharray:none;stroke-opacity:1"
         id="flowPara4358-7-1">SFÂRȘIT</flowPara></flowRoot>    <flowRoot
       transform="matrix(0.66946674,-0.0365707,0.20636409,1.4040624,586.0213,2760.2475)"
       style="font-style:normal;font-variant:normal;font-weight:normal;font-stretch:normal;line-height:0.01%;font-family:Lavi;-inkscape-font-specification:Lavi;text-align:center;letter-spacing:0px;word-spacing:0px;text-anchor:middle;opacity:0.3534884;fill:#000000;fill-opacity:1;stroke:#000000;stroke-width:4.69999981;stroke-miterlimit:4;stroke-dasharray:none;stroke-opacity:1;filter:url(#filter3843)"
       id="flowRoot4212-3-7-8-6-1"
       xml:space="preserve"><flowRegion
         id="flowRegion4214-6-7-8-3-1"><rect
           style="font-style:normal;font-variant:normal;font-weight:normal;font-stretch:normal;font-family:Lavi;-inkscape-font-specification:Lavi;text-align:center;text-anchor:middle;stroke:#000000;stroke-width:4.69999981;stroke-miterlimit:4;stroke-dasharray:none;stroke-opacity:1"
           y="265.53046"
           x="120.55251"
           height="355.03918"
           width="798.1947"
           id="rect4216-4-0-26-5-9" /></flowRegion><flowPara
         style="font-size:48px;line-height:1.25;text-align:center;letter-spacing:5.20896292px;text-anchor:middle;stroke:#000000;stroke-width:4.69999981;stroke-miterlimit:4;stroke-dasharray:none;stroke-opacity:1"
         id="flowPara4358-7-1-9">50,000 Ko</flowPara></flowRoot>    <flowRoot
       xml:space="preserve"
       id="flowRoot2987-4-9-3-6-3-8-7-2-7"
       style="font-style:normal;font-variant:normal;font-weight:normal;font-stretch:normal;line-height:0.01%;font-family:Lavi;-inkscape-font-specification:Lavi;text-align:center;letter-spacing:0px;word-spacing:0px;text-anchor:middle;opacity:0.75;fill:#000000;fill-opacity:1;stroke:none"
       transform="matrix(0.78567639,0,0,0.78567639,300.04334,3197.9723)"><flowRegion
         id="flowRegion2989-5-4-5-5-3-0-6-76-8"><rect
           id="rect2991-7-9-6-21-9-8-0-3-1"
           width="1041.0548"
           height="56.977448"
           x="120.55251"
           y="265.53046"
           style="font-style:normal;font-variant:normal;font-weight:normal;font-stretch:normal;font-family:Lavi;-inkscape-font-specification:Lavi;text-align:center;text-anchor:middle" /></flowRegion><flowPara
         style="font-size:48px;line-height:1.25;text-align:center;text-anchor:middle"
         id="flowPara3272-6-3"> <flowSpan
   style="fill:#1b1b1b;fill-opacity:1"
   id="flowSpan3856"><flowSpan
     style="fill:#2d2d2d;fill-opacity:1"
     id="flowSpan3858"><flowSpan
       style="fill:#2f2f2f;fill-opacity:1"
       id="flowSpan3860"><flowSpan
         style="fill:#3e3e3e;fill-opacity:1"
         id="flowSpan3862"><flowSpan
           style="fill:#3f3f3f;fill-opacity:1"
           id="flowSpan3864"><flowSpan
             style="fill:#474747;fill-opacity:1"
             id="flowSpan3866"><flowSpan
               style="fill:#4d4d4d;fill-opacity:1"
               id="flowSpan3868"><flowSpan
                 style="fill:#4e4e4e;fill-opacity:1"
                 id="flowSpan3870"><flowSpan
                   style="fill:#585858;fill-opacity:1"
                   id="flowSpan3872"><flowSpan
                     style="fill:#595959;fill-opacity:1"
                     id="flowSpan3874"><flowSpan
                       style="fill:#6b6b6b;fill-opacity:1"
                       id="flowSpan3876"><flowSpan
                         style="fill:#777777;fill-opacity:1"
                         id="flowSpan3878"><flowSpan
                           style="fill:#797979;fill-opacity:1"
                           id="flowSpan3880"><flowSpan
                             style="fill:#a0a0a0;fill-opacity:1"
                             id="flowSpan3882"><flowSpan
                               style="fill:#c7c7c7;fill-opacity:1"
                               id="flowSpan3884"><flowSpan
                                 style="fill:#dddddd;fill-opacity:1"
                                 id="flowSpan3886"><flowSpan
                                   style="fill:#dedede;fill-opacity:1"
                                   id="flowSpan3888"><flowSpan
                                   style="fill:#fafafa;fill-opacity:1"
                                   id="flowSpan3890"><flowSpan
                                   style="fill:#ffffff;fill-opacity:1"
                                   id="flowSpan3892" /></flowSpan></flowSpan></flowSpan></flowSpan></flowSpan></flowSpan></flowSpan></flowSpan></flowSpan></flowSpan></flowSpan></flowSpan></flowSpan></flowSpan></flowSpan></flowSpan></flowSpan></flowSpan></flowPara></flowRoot>    <flowRoot
       xml:space="preserve"
       id="flowRoot2987-4-9-3-6-3-8-7-2-7-2"
       style="font-style:normal;font-variant:normal;font-weight:normal;font-stretch:normal;line-height:0.01%;font-family:Lavi;-inkscape-font-specification:Lavi;text-align:center;letter-spacing:0px;word-spacing:0px;text-anchor:middle;opacity:0.85;fill:#000000;fill-opacity:1;stroke:none"
       transform="matrix(0.66233381,0,0,0.66233381,381.19429,3182.1491)"><flowRegion
         id="flowRegion2989-5-4-5-5-3-0-6-76-8-1"><rect
           id="rect2991-7-9-6-21-9-8-0-3-1-7"
           width="2350.8157"
           height="72.357925"
           x="120.55251"
           y="265.53046"
           style="font-style:normal;font-variant:normal;font-weight:normal;font-stretch:normal;font-family:Lavi;-inkscape-font-specification:Lavi;text-align:center;text-anchor:middle" /></flowRegion><flowPara
         style="font-size:48px;line-height:1.25;text-align:center;text-anchor:middle"
         id="flowPara3272-6-3-1"><flowSpan
           style="fill:#1b1b1b;fill-opacity:1"
           id="flowSpan3856-1"><flowSpan
             style="fill:#2d2d2d;fill-opacity:1"
             id="flowSpan3858-6"><flowSpan
               style="fill:#2f2f2f;fill-opacity:1"
               id="flowSpan3860-9"><flowSpan
                 style="fill:#3e3e3e;fill-opacity:1"
                 id="flowSpan3862-4"><flowSpan
                   style="fill:#3f3f3f;fill-opacity:1"
                   id="flowSpan3864-4"><flowSpan
                     style="fill:#474747;fill-opacity:1"
                     id="flowSpan3866-8"><flowSpan
                       style="fill:#4d4d4d;fill-opacity:1"
                       id="flowSpan3868-5"><flowSpan
                         style="fill:#4e4e4e;fill-opacity:1"
                         id="flowSpan3870-8"><flowSpan
                           style="fill:#585858;fill-opacity:1"
                           id="flowSpan3872-7"><flowSpan
                             style="fill:#595959;fill-opacity:1"
                             id="flowSpan3874-4"><flowSpan
                               style="fill:#6b6b6b;fill-opacity:1"
                               id="flowSpan3876-6"><flowSpan
                                 style="fill:#777777;fill-opacity:1"
                                 id="flowSpan3878-3"><flowSpan
                                   style="fill:#797979;fill-opacity:1"
                                   id="flowSpan3880-9"><flowSpan
                                   style="fill:#a0a0a0;fill-opacity:1"
                                   id="flowSpan3882-9"><flowSpan
                                   style="fill:#c7c7c7;fill-opacity:1"
                                   id="flowSpan3884-8"><flowSpan
                                   style="fill:#dddddd;fill-opacity:1"
                                   id="flowSpan3886-8"><flowSpan
                                   style="fill:#dedede;fill-opacity:1"
                                   id="flowSpan3888-6"><flowSpan
                                   style="fill:#fafafa;fill-opacity:1"
                                   id="flowSpan3890-2"><flowSpan
                                   style="fill:#ffffff;fill-opacity:1"
                                   id="flowSpan3892-9"><flowSpan
   style="font-size:40.7292366px"
   id="flowSpan3980">Martie 2015 - Artă și poveste de</flowSpan> David Revoy </flowSpan></flowSpan></flowSpan></flowSpan></flowSpan></flowSpan></flowSpan></flowSpan></flowSpan></flowSpan></flowSpan></flowSpan></flowSpan></flowSpan></flowSpan></flowSpan></flowSpan></flowSpan></flowSpan></flowPara></flowRoot>  </g>
</svg>
